Name,Country Code,Contact,School,,,,,,
Pick one of the value for Student School Column: ,MoneyTree,REAL,Red Team,Test Saurabh,RLB,Super Test Team,Test School,UMW,Pioneer School
Pick one of the value for Country Code Column,Malaysia : 60,India : 91,United Kingdom : 44,Singapore : 65,United State : 1,,,,
Student1,91,7777770000,MoneyTree,,,,,,
Student2,91,7777770001,MoneyTree,,,,,,
Student3,91,7777770002,MoneyTree,,,,,,
Student4,91,7777770003,MoneyTree,,,,,,
Student5,91,7777770004,MoneyTree,,,,,,
Student6,91,7777770005,MoneyTree,,,,,,
Student7,91,7777770006,MoneyTree,,,,,,
Student8,91,7777770007,MoneyTree,,,,,,
Student9,91,7777770008,MoneyTree,,,,,,
Student10,91,7777770009,MoneyTree,,,,,,
Student11,91,7777770010,MoneyTree,,,,,,
Student12,91,7777770011,MoneyTree,,,,,,
Student13,91,7777770012,MoneyTree,,,,,,
Student14,91,7777770013,MoneyTree,,,,,,
Student15,91,7777770014,MoneyTree,,,,,,
Student16,91,7777770015,MoneyTree,,,,,,
Student17,91,7777770016,MoneyTree,,,,,,
Student18,91,7777770017,MoneyTree,,,,,,
Student19,91,7777770018,MoneyTree,,,,,,
Student20,91,7777770019,MoneyTree,,,,,,
Student21,91,7777770020,MoneyTree,,,,,,
Student22,91,7777770021,MoneyTree,,,,,,
Student23,91,7777770022,MoneyTree,,,,,,
Student24,91,7777770023,MoneyTree,,,,,,
Student25,91,7777770024,MoneyTree,,,,,,
Student26,91,7777770025,MoneyTree,,,,,,
Student27,91,7777770026,MoneyTree,,,,,,
Student28,91,7777770027,MoneyTree,,,,,,
Student29,91,7777770028,MoneyTree,,,,,,
Student30,91,7777770029,MoneyTree,,,,,,
Student31,91,7777770030,MoneyTree,,,,,,
Student32,91,7777770031,MoneyTree,,,,,,
Student33,91,7777770032,MoneyTree,,,,,,
Student34,91,7777770033,MoneyTree,,,,,,
Student35,91,7777770034,MoneyTree,,,,,,
Student36,91,7777770035,MoneyTree,,,,,,
Student37,91,7777770036,MoneyTree,,,,,,
Student38,91,7777770037,MoneyTree,,,,,,
Student39,91,7777770038,MoneyTree,,,,,,
Student40,91,7777770039,MoneyTree,,,,,,
Student41,91,7777770040,MoneyTree,,,,,,
Student42,91,7777770041,MoneyTree,,,,,,
Student43,91,7777770042,MoneyTree,,,,,,
Student44,91,7777770043,MoneyTree,,,,,,
Student45,91,7777770044,MoneyTree,,,,,,
Student46,91,7777770045,MoneyTree,,,,,,
Student47,91,7777770046,MoneyTree,,,,,,
Student48,91,7777770047,MoneyTree,,,,,,
Student49,91,7777770048,MoneyTree,,,,,,
Student50,91,7777770049,MoneyTree,,,,,,
Student51,91,7777770050,MoneyTree,,,,,,
Student52,91,7777770051,MoneyTree,,,,,,
Student53,91,7777770052,MoneyTree,,,,,,
Student54,91,7777770053,MoneyTree,,,,,,
Student55,91,7777770054,MoneyTree,,,,,,
Student56,91,7777770055,MoneyTree,,,,,,
Student57,91,7777770056,MoneyTree,,,,,,
Student58,91,7777770057,MoneyTree,,,,,,
Student59,91,7777770058,MoneyTree,,,,,,
Student60,91,7777770059,MoneyTree,,,,,,
Student61,91,7777770060,MoneyTree,,,,,,
Student62,91,7777770061,MoneyTree,,,,,,
Student63,91,7777770062,MoneyTree,,,,,,
Student64,91,7777770063,MoneyTree,,,,,,
Student65,91,7777770064,MoneyTree,,,,,,
Student66,91,7777770065,MoneyTree,,,,,,
Student67,91,7777770066,MoneyTree,,,,,,
Student68,91,7777770067,MoneyTree,,,,,,
Student69,91,7777770068,MoneyTree,,,,,,
Student70,91,7777770069,MoneyTree,,,,,,
Student71,91,7777770070,MoneyTree,,,,,,
Student72,91,7777770071,MoneyTree,,,,,,
Student73,91,7777770072,MoneyTree,,,,,,
Student74,91,7777770073,MoneyTree,,,,,,
Student75,91,7777770074,MoneyTree,,,,,,
Student76,91,7777770075,MoneyTree,,,,,,
Student77,91,7777770076,MoneyTree,,,,,,
Student78,91,7777770077,MoneyTree,,,,,,
Student79,91,7777770078,MoneyTree,,,,,,
Student80,91,7777770079,MoneyTree,,,,,,
Student81,91,7777770080,MoneyTree,,,,,,
Student82,91,7777770081,MoneyTree,,,,,,
Student83,91,7777770082,MoneyTree,,,,,,
Student84,91,7777770083,MoneyTree,,,,,,
Student85,91,7777770084,MoneyTree,,,,,,
Student86,91,7777770085,MoneyTree,,,,,,
Student87,91,7777770086,MoneyTree,,,,,,
Student88,91,7777770087,MoneyTree,,,,,,
Student89,91,7777770088,MoneyTree,,,,,,
Student90,91,7777770089,MoneyTree,,,,,,
Student91,91,7777770090,MoneyTree,,,,,,
Student92,91,7777770091,MoneyTree,,,,,,
Student93,91,7777770092,MoneyTree,,,,,,
Student94,91,7777770093,MoneyTree,,,,,,
Student95,91,7777770094,MoneyTree,,,,,,
Student96,91,7777770095,MoneyTree,,,,,,
Student97,91,7777770096,MoneyTree,,,,,,
Student98,91,7777770097,MoneyTree,,,,,,
Student99,91,7777770098,MoneyTree,,,,,,
Student100,91,7777770099,MoneyTree,,,,,,
Student101,91,7777770100,MoneyTree,,,,,,
Student102,91,7777770101,MoneyTree,,,,,,
Student103,91,7777770102,MoneyTree,,,,,,
Student104,91,7777770103,MoneyTree,,,,,,
Student105,91,7777770104,MoneyTree,,,,,,
Student106,91,7777770105,MoneyTree,,,,,,
Student107,91,7777770106,MoneyTree,,,,,,
Student108,91,7777770107,MoneyTree,,,,,,
Student109,91,7777770108,MoneyTree,,,,,,
Student110,91,7777770109,MoneyTree,,,,,,
Student111,91,7777770110,MoneyTree,,,,,,
Student112,91,7777770111,MoneyTree,,,,,,
Student113,91,7777770112,MoneyTree,,,,,,
Student114,91,7777770113,MoneyTree,,,,,,
Student115,91,7777770114,MoneyTree,,,,,,
Student116,91,7777770115,MoneyTree,,,,,,
Student117,91,7777770116,MoneyTree,,,,,,
Student118,91,7777770117,MoneyTree,,,,,,
Student119,91,7777770118,MoneyTree,,,,,,
Student120,91,7777770119,MoneyTree,,,,,,
Student121,91,7777770120,MoneyTree,,,,,,
Student122,91,7777770121,MoneyTree,,,,,,
Student123,91,7777770122,MoneyTree,,,,,,
Student124,91,7777770123,MoneyTree,,,,,,
Student125,91,7777770124,MoneyTree,,,,,,
Student126,91,7777770125,MoneyTree,,,,,,
Student127,91,7777770126,MoneyTree,,,,,,
Student128,91,7777770127,MoneyTree,,,,,,
Student129,91,7777770128,MoneyTree,,,,,,
Student130,91,7777770129,MoneyTree,,,,,,
Student131,91,7777770130,MoneyTree,,,,,,
Student132,91,7777770131,MoneyTree,,,,,,
Student133,91,7777770132,MoneyTree,,,,,,
Student134,91,7777770133,MoneyTree,,,,,,
Student135,91,7777770134,MoneyTree,,,,,,
Student136,91,7777770135,MoneyTree,,,,,,
Student137,91,7777770136,MoneyTree,,,,,,
Student138,91,7777770137,MoneyTree,,,,,,
Student139,91,7777770138,MoneyTree,,,,,,
Student140,91,7777770139,MoneyTree,,,,,,
Student141,91,7777770140,MoneyTree,,,,,,
Student142,91,7777770141,MoneyTree,,,,,,
Student143,91,7777770142,MoneyTree,,,,,,
Student144,91,7777770143,MoneyTree,,,,,,
Student145,91,7777770144,MoneyTree,,,,,,
Student146,91,7777770145,MoneyTree,,,,,,
Student147,91,7777770146,MoneyTree,,,,,,
Student148,91,7777770147,MoneyTree,,,,,,
Student149,91,7777770148,MoneyTree,,,,,,
Student150,91,7777770149,MoneyTree,,,,,,
Student151,91,7777770150,MoneyTree,,,,,,
Student152,91,7777770151,MoneyTree,,,,,,
Student153,91,7777770152,MoneyTree,,,,,,
Student154,91,7777770153,MoneyTree,,,,,,
Student155,91,7777770154,MoneyTree,,,,,,
Student156,91,7777770155,MoneyTree,,,,,,
Student157,91,7777770156,MoneyTree,,,,,,
Student158,91,7777770157,MoneyTree,,,,,,
Student159,91,7777770158,MoneyTree,,,,,,
Student160,91,7777770159,MoneyTree,,,,,,
Student161,91,7777770160,MoneyTree,,,,,,
Student162,91,7777770161,MoneyTree,,,,,,
Student163,91,7777770162,MoneyTree,,,,,,
Student164,91,7777770163,MoneyTree,,,,,,
Student165,91,7777770164,MoneyTree,,,,,,
Student166,91,7777770165,MoneyTree,,,,,,
Student167,91,7777770166,MoneyTree,,,,,,
Student168,91,7777770167,MoneyTree,,,,,,
Student169,91,7777770168,MoneyTree,,,,,,
Student170,91,7777770169,MoneyTree,,,,,,
Student171,91,7777770170,MoneyTree,,,,,,
Student172,91,7777770171,MoneyTree,,,,,,
Student173,91,7777770172,MoneyTree,,,,,,
Student174,91,7777770173,MoneyTree,,,,,,
Student175,91,7777770174,MoneyTree,,,,,,
Student176,91,7777770175,MoneyTree,,,,,,
Student177,91,7777770176,MoneyTree,,,,,,
Student178,91,7777770177,MoneyTree,,,,,,
Student179,91,7777770178,MoneyTree,,,,,,
Student180,91,7777770179,MoneyTree,,,,,,
Student181,91,7777770180,MoneyTree,,,,,,
Student182,91,7777770181,MoneyTree,,,,,,
Student183,91,7777770182,MoneyTree,,,,,,
Student184,91,7777770183,MoneyTree,,,,,,
Student185,91,7777770184,MoneyTree,,,,,,
Student186,91,7777770185,MoneyTree,,,,,,
Student187,91,7777770186,MoneyTree,,,,,,
Student188,91,7777770187,MoneyTree,,,,,,
Student189,91,7777770188,MoneyTree,,,,,,
Student190,91,7777770189,MoneyTree,,,,,,
Student191,91,7777770190,MoneyTree,,,,,,
Student192,91,7777770191,MoneyTree,,,,,,
Student193,91,7777770192,MoneyTree,,,,,,
Student194,91,7777770193,MoneyTree,,,,,,
Student195,91,7777770194,MoneyTree,,,,,,
Student196,91,7777770195,MoneyTree,,,,,,
Student197,91,7777770196,MoneyTree,,,,,,
Student198,91,7777770197,MoneyTree,,,,,,
Student199,91,7777770198,MoneyTree,,,,,,
Student200,91,7777770199,MoneyTree,,,,,,
Student201,91,7777770200,MoneyTree,,,,,,
Student202,91,7777770201,MoneyTree,,,,,,
Student203,91,7777770202,MoneyTree,,,,,,
Student204,91,7777770203,MoneyTree,,,,,,
Student205,91,7777770204,MoneyTree,,,,,,
Student206,91,7777770205,MoneyTree,,,,,,
Student207,91,7777770206,MoneyTree,,,,,,
Student208,91,7777770207,MoneyTree,,,,,,
Student209,91,7777770208,MoneyTree,,,,,,
Student210,91,7777770209,MoneyTree,,,,,,
Student211,91,7777770210,MoneyTree,,,,,,
Student212,91,7777770211,MoneyTree,,,,,,
Student213,91,7777770212,MoneyTree,,,,,,
Student214,91,7777770213,MoneyTree,,,,,,
Student215,91,7777770214,MoneyTree,,,,,,
Student216,91,7777770215,MoneyTree,,,,,,
Student217,91,7777770216,MoneyTree,,,,,,
Student218,91,7777770217,MoneyTree,,,,,,
Student219,91,7777770218,MoneyTree,,,,,,
Student220,91,7777770219,MoneyTree,,,,,,
Student221,91,7777770220,MoneyTree,,,,,,
Student222,91,7777770221,MoneyTree,,,,,,
Student223,91,7777770222,MoneyTree,,,,,,
Student224,91,7777770223,MoneyTree,,,,,,
Student225,91,7777770224,MoneyTree,,,,,,
Student226,91,7777770225,MoneyTree,,,,,,
Student227,91,7777770226,MoneyTree,,,,,,
Student228,91,7777770227,MoneyTree,,,,,,
Student229,91,7777770228,MoneyTree,,,,,,
Student230,91,7777770229,MoneyTree,,,,,,
Student231,91,7777770230,MoneyTree,,,,,,
Student232,91,7777770231,MoneyTree,,,,,,
Student233,91,7777770232,MoneyTree,,,,,,
Student234,91,7777770233,MoneyTree,,,,,,
Student235,91,7777770234,MoneyTree,,,,,,
Student236,91,7777770235,MoneyTree,,,,,,
Student237,91,7777770236,MoneyTree,,,,,,
Student238,91,7777770237,MoneyTree,,,,,,
Student239,91,7777770238,MoneyTree,,,,,,
Student240,91,7777770239,MoneyTree,,,,,,
Student241,91,7777770240,MoneyTree,,,,,,
Student242,91,7777770241,MoneyTree,,,,,,
Student243,91,7777770242,MoneyTree,,,,,,
Student244,91,7777770243,MoneyTree,,,,,,
Student245,91,7777770244,MoneyTree,,,,,,
Student246,91,7777770245,MoneyTree,,,,,,
Student247,91,7777770246,MoneyTree,,,,,,
Student248,91,7777770247,MoneyTree,,,,,,
Student249,91,7777770248,MoneyTree,,,,,,
Student250,91,7777770249,MoneyTree,,,,,,
Student251,91,7777770250,MoneyTree,,,,,,
Student252,91,7777770251,MoneyTree,,,,,,
Student253,91,7777770252,MoneyTree,,,,,,
Student254,91,7777770253,MoneyTree,,,,,,
Student255,91,7777770254,MoneyTree,,,,,,
Student256,91,7777770255,MoneyTree,,,,,,
Student257,91,7777770256,MoneyTree,,,,,,
Student258,91,7777770257,MoneyTree,,,,,,
Student259,91,7777770258,MoneyTree,,,,,,
Student260,91,7777770259,MoneyTree,,,,,,
Student261,91,7777770260,MoneyTree,,,,,,
Student262,91,7777770261,MoneyTree,,,,,,
Student263,91,7777770262,MoneyTree,,,,,,
Student264,91,7777770263,MoneyTree,,,,,,
Student265,91,7777770264,MoneyTree,,,,,,
Student266,91,7777770265,MoneyTree,,,,,,
Student267,91,7777770266,MoneyTree,,,,,,
Student268,91,7777770267,MoneyTree,,,,,,
Student269,91,7777770268,MoneyTree,,,,,,
Student270,91,7777770269,MoneyTree,,,,,,
Student271,91,7777770270,MoneyTree,,,,,,
Student272,91,7777770271,MoneyTree,,,,,,
Student273,91,7777770272,MoneyTree,,,,,,
Student274,91,7777770273,MoneyTree,,,,,,
Student275,91,7777770274,MoneyTree,,,,,,
Student276,91,7777770275,MoneyTree,,,,,,
Student277,91,7777770276,MoneyTree,,,,,,
Student278,91,7777770277,MoneyTree,,,,,,
Student279,91,7777770278,MoneyTree,,,,,,
Student280,91,7777770279,MoneyTree,,,,,,
Student281,91,7777770280,MoneyTree,,,,,,
Student282,91,7777770281,MoneyTree,,,,,,
Student283,91,7777770282,MoneyTree,,,,,,
Student284,91,7777770283,MoneyTree,,,,,,
Student285,91,7777770284,MoneyTree,,,,,,
Student286,91,7777770285,MoneyTree,,,,,,
Student287,91,7777770286,MoneyTree,,,,,,
Student288,91,7777770287,MoneyTree,,,,,,
Student289,91,7777770288,MoneyTree,,,,,,
Student290,91,7777770289,MoneyTree,,,,,,
Student291,91,7777770290,MoneyTree,,,,,,
Student292,91,7777770291,MoneyTree,,,,,,
Student293,91,7777770292,MoneyTree,,,,,,
Student294,91,7777770293,MoneyTree,,,,,,
Student295,91,7777770294,MoneyTree,,,,,,
Student296,91,7777770295,MoneyTree,,,,,,
Student297,91,7777770296,MoneyTree,,,,,,
Student298,91,7777770297,MoneyTree,,,,,,
Student299,91,7777770298,MoneyTree,,,,,,
Student300,91,7777770299,MoneyTree,,,,,,
Student301,91,7777770300,MoneyTree,,,,,,
Student302,91,7777770301,MoneyTree,,,,,,
Student303,91,7777770302,MoneyTree,,,,,,
Student304,91,7777770303,MoneyTree,,,,,,
Student305,91,7777770304,MoneyTree,,,,,,
Student306,91,7777770305,MoneyTree,,,,,,
Student307,91,7777770306,MoneyTree,,,,,,
Student308,91,7777770307,MoneyTree,,,,,,
Student309,91,7777770308,MoneyTree,,,,,,
Student310,91,7777770309,MoneyTree,,,,,,
Student311,91,7777770310,MoneyTree,,,,,,
Student312,91,7777770311,MoneyTree,,,,,,
Student313,91,7777770312,MoneyTree,,,,,,
Student314,91,7777770313,MoneyTree,,,,,,
Student315,91,7777770314,MoneyTree,,,,,,
Student316,91,7777770315,MoneyTree,,,,,,
Student317,91,7777770316,MoneyTree,,,,,,
Student318,91,7777770317,MoneyTree,,,,,,
Student319,91,7777770318,MoneyTree,,,,,,
Student320,91,7777770319,MoneyTree,,,,,,
Student321,91,7777770320,MoneyTree,,,,,,
Student322,91,7777770321,MoneyTree,,,,,,
Student323,91,7777770322,MoneyTree,,,,,,
Student324,91,7777770323,MoneyTree,,,,,,
Student325,91,7777770324,MoneyTree,,,,,,
Student326,91,7777770325,MoneyTree,,,,,,
Student327,91,7777770326,MoneyTree,,,,,,
Student328,91,7777770327,MoneyTree,,,,,,
Student329,91,7777770328,MoneyTree,,,,,,
Student330,91,7777770329,MoneyTree,,,,,,
Student331,91,7777770330,MoneyTree,,,,,,
Student332,91,7777770331,MoneyTree,,,,,,
Student333,91,7777770332,MoneyTree,,,,,,
Student334,91,7777770333,MoneyTree,,,,,,
Student335,91,7777770334,MoneyTree,,,,,,
Student336,91,7777770335,MoneyTree,,,,,,
Student337,91,7777770336,MoneyTree,,,,,,
Student338,91,7777770337,MoneyTree,,,,,,
Student339,91,7777770338,MoneyTree,,,,,,
Student340,91,7777770339,MoneyTree,,,,,,
Student341,91,7777770340,MoneyTree,,,,,,
Student342,91,7777770341,MoneyTree,,,,,,
Student343,91,7777770342,MoneyTree,,,,,,
Student344,91,7777770343,MoneyTree,,,,,,
Student345,91,7777770344,MoneyTree,,,,,,
Student346,91,7777770345,MoneyTree,,,,,,
Student347,91,7777770346,MoneyTree,,,,,,
Student348,91,7777770347,MoneyTree,,,,,,
Student349,91,7777770348,MoneyTree,,,,,,
Student350,91,7777770349,MoneyTree,,,,,,
Student351,91,7777770350,MoneyTree,,,,,,
Student352,91,7777770351,MoneyTree,,,,,,
Student353,91,7777770352,MoneyTree,,,,,,
Student354,91,7777770353,MoneyTree,,,,,,
Student355,91,7777770354,MoneyTree,,,,,,
Student356,91,7777770355,MoneyTree,,,,,,
Student357,91,7777770356,MoneyTree,,,,,,
Student358,91,7777770357,MoneyTree,,,,,,
Student359,91,7777770358,MoneyTree,,,,,,
Student360,91,7777770359,MoneyTree,,,,,,
Student361,91,7777770360,MoneyTree,,,,,,
Student362,91,7777770361,MoneyTree,,,,,,
Student363,91,7777770362,MoneyTree,,,,,,
Student364,91,7777770363,MoneyTree,,,,,,
Student365,91,7777770364,MoneyTree,,,,,,
Student366,91,7777770365,MoneyTree,,,,,,
Student367,91,7777770366,MoneyTree,,,,,,
Student368,91,7777770367,MoneyTree,,,,,,
Student369,91,7777770368,MoneyTree,,,,,,
Student370,91,7777770369,MoneyTree,,,,,,
Student371,91,7777770370,MoneyTree,,,,,,
Student372,91,7777770371,MoneyTree,,,,,,
Student373,91,7777770372,MoneyTree,,,,,,
Student374,91,7777770373,MoneyTree,,,,,,
Student375,91,7777770374,MoneyTree,,,,,,
Student376,91,7777770375,MoneyTree,,,,,,
Student377,91,7777770376,MoneyTree,,,,,,
Student378,91,7777770377,MoneyTree,,,,,,
Student379,91,7777770378,MoneyTree,,,,,,
Student380,91,7777770379,MoneyTree,,,,,,
Student381,91,7777770380,MoneyTree,,,,,,
Student382,91,7777770381,MoneyTree,,,,,,
Student383,91,7777770382,MoneyTree,,,,,,
Student384,91,7777770383,MoneyTree,,,,,,
Student385,91,7777770384,MoneyTree,,,,,,
Student386,91,7777770385,MoneyTree,,,,,,
Student387,91,7777770386,MoneyTree,,,,,,
Student388,91,7777770387,MoneyTree,,,,,,
Student389,91,7777770388,MoneyTree,,,,,,
Student390,91,7777770389,MoneyTree,,,,,,
Student391,91,7777770390,MoneyTree,,,,,,
Student392,91,7777770391,MoneyTree,,,,,,
Student393,91,7777770392,MoneyTree,,,,,,
Student394,91,7777770393,MoneyTree,,,,,,
Student395,91,7777770394,MoneyTree,,,,,,
Student396,91,7777770395,MoneyTree,,,,,,
Student397,91,7777770396,MoneyTree,,,,,,
Student398,91,7777770397,MoneyTree,,,,,,
Student399,91,7777770398,MoneyTree,,,,,,
Student400,91,7777770399,MoneyTree,,,,,,
Student401,91,7777770400,MoneyTree,,,,,,
Student402,91,7777770401,MoneyTree,,,,,,
Student403,91,7777770402,MoneyTree,,,,,,
Student404,91,7777770403,MoneyTree,,,,,,
Student405,91,7777770404,MoneyTree,,,,,,
Student406,91,7777770405,MoneyTree,,,,,,
Student407,91,7777770406,MoneyTree,,,,,,
Student408,91,7777770407,MoneyTree,,,,,,
Student409,91,7777770408,MoneyTree,,,,,,
Student410,91,7777770409,MoneyTree,,,,,,
Student411,91,7777770410,MoneyTree,,,,,,
Student412,91,7777770411,MoneyTree,,,,,,
Student413,91,7777770412,MoneyTree,,,,,,
Student414,91,7777770413,MoneyTree,,,,,,
Student415,91,7777770414,MoneyTree,,,,,,
Student416,91,7777770415,MoneyTree,,,,,,
Student417,91,7777770416,MoneyTree,,,,,,
Student418,91,7777770417,MoneyTree,,,,,,
Student419,91,7777770418,MoneyTree,,,,,,
Student420,91,7777770419,MoneyTree,,,,,,
Student421,91,7777770420,MoneyTree,,,,,,
Student422,91,7777770421,MoneyTree,,,,,,
Student423,91,7777770422,MoneyTree,,,,,,
Student424,91,7777770423,MoneyTree,,,,,,
Student425,91,7777770424,MoneyTree,,,,,,
Student426,91,7777770425,MoneyTree,,,,,,
Student427,91,7777770426,MoneyTree,,,,,,
Student428,91,7777770427,MoneyTree,,,,,,
Student429,91,7777770428,MoneyTree,,,,,,
Student430,91,7777770429,MoneyTree,,,,,,
Student431,91,7777770430,MoneyTree,,,,,,
Student432,91,7777770431,MoneyTree,,,,,,
Student433,91,7777770432,MoneyTree,,,,,,
Student434,91,7777770433,MoneyTree,,,,,,
Student435,91,7777770434,MoneyTree,,,,,,
Student436,91,7777770435,MoneyTree,,,,,,
Student437,91,7777770436,MoneyTree,,,,,,
Student438,91,7777770437,MoneyTree,,,,,,
Student439,91,7777770438,MoneyTree,,,,,,
Student440,91,7777770439,MoneyTree,,,,,,
Student441,91,7777770440,MoneyTree,,,,,,
Student442,91,7777770441,MoneyTree,,,,,,
Student443,91,7777770442,MoneyTree,,,,,,
Student444,91,7777770443,MoneyTree,,,,,,
Student445,91,7777770444,MoneyTree,,,,,,
Student446,91,7777770445,MoneyTree,,,,,,
Student447,91,7777770446,MoneyTree,,,,,,
Student448,91,7777770447,MoneyTree,,,,,,
Student449,91,7777770448,MoneyTree,,,,,,
Student450,91,7777770449,MoneyTree,,,,,,
Student451,91,7777770450,MoneyTree,,,,,,
Student452,91,7777770451,MoneyTree,,,,,,
Student453,91,7777770452,MoneyTree,,,,,,
Student454,91,7777770453,MoneyTree,,,,,,
Student455,91,7777770454,MoneyTree,,,,,,
Student456,91,7777770455,MoneyTree,,,,,,
Student457,91,7777770456,MoneyTree,,,,,,
Student458,91,7777770457,MoneyTree,,,,,,
Student459,91,7777770458,MoneyTree,,,,,,
Student460,91,7777770459,MoneyTree,,,,,,
Student461,91,7777770460,MoneyTree,,,,,,
Student462,91,7777770461,MoneyTree,,,,,,
Student463,91,7777770462,MoneyTree,,,,,,
Student464,91,7777770463,MoneyTree,,,,,,
Student465,91,7777770464,MoneyTree,,,,,,
Student466,91,7777770465,MoneyTree,,,,,,
Student467,91,7777770466,MoneyTree,,,,,,
Student468,91,7777770467,MoneyTree,,,,,,
Student469,91,7777770468,MoneyTree,,,,,,
Student470,91,7777770469,MoneyTree,,,,,,
Student471,91,7777770470,MoneyTree,,,,,,
Student472,91,7777770471,MoneyTree,,,,,,
Student473,91,7777770472,MoneyTree,,,,,,
Student474,91,7777770473,MoneyTree,,,,,,
Student475,91,7777770474,MoneyTree,,,,,,
Student476,91,7777770475,MoneyTree,,,,,,
Student477,91,7777770476,MoneyTree,,,,,,
Student478,91,7777770477,MoneyTree,,,,,,
Student479,91,7777770478,MoneyTree,,,,,,
Student480,91,7777770479,MoneyTree,,,,,,
Student481,91,7777770480,MoneyTree,,,,,,
Student482,91,7777770481,MoneyTree,,,,,,
Student483,91,7777770482,MoneyTree,,,,,,
Student484,91,7777770483,MoneyTree,,,,,,
Student485,91,7777770484,MoneyTree,,,,,,
Student486,91,7777770485,MoneyTree,,,,,,
Student487,91,7777770486,MoneyTree,,,,,,
Student488,91,7777770487,MoneyTree,,,,,,
Student489,91,7777770488,MoneyTree,,,,,,
Student490,91,7777770489,MoneyTree,,,,,,
Student491,91,7777770490,MoneyTree,,,,,,
Student492,91,7777770491,MoneyTree,,,,,,
Student493,91,7777770492,MoneyTree,,,,,,
Student494,91,7777770493,MoneyTree,,,,,,
Student495,91,7777770494,MoneyTree,,,,,,
Student496,91,7777770495,MoneyTree,,,,,,
Student497,91,7777770496,MoneyTree,,,,,,
Student498,91,7777770497,MoneyTree,,,,,,
Student499,91,7777770498,MoneyTree,,,,,,
Student500,91,7777770499,MoneyTree,,,,,,
Student501,91,7777770500,MoneyTree,,,,,,
Student502,91,7777770501,MoneyTree,,,,,,
Student503,91,7777770502,MoneyTree,,,,,,
Student504,91,7777770503,MoneyTree,,,,,,
Student505,91,7777770504,MoneyTree,,,,,,
Student506,91,7777770505,MoneyTree,,,,,,
Student507,91,7777770506,MoneyTree,,,,,,
Student508,91,7777770507,MoneyTree,,,,,,
Student509,91,7777770508,MoneyTree,,,,,,
Student510,91,7777770509,MoneyTree,,,,,,
Student511,91,7777770510,MoneyTree,,,,,,
Student512,91,7777770511,MoneyTree,,,,,,
Student513,91,7777770512,MoneyTree,,,,,,
Student514,91,7777770513,MoneyTree,,,,,,
Student515,91,7777770514,MoneyTree,,,,,,
Student516,91,7777770515,MoneyTree,,,,,,
Student517,91,7777770516,MoneyTree,,,,,,
Student518,91,7777770517,MoneyTree,,,,,,
Student519,91,7777770518,MoneyTree,,,,,,
Student520,91,7777770519,MoneyTree,,,,,,
Student521,91,7777770520,MoneyTree,,,,,,
Student522,91,7777770521,MoneyTree,,,,,,
Student523,91,7777770522,MoneyTree,,,,,,
Student524,91,7777770523,MoneyTree,,,,,,
Student525,91,7777770524,MoneyTree,,,,,,
Student526,91,7777770525,MoneyTree,,,,,,
Student527,91,7777770526,MoneyTree,,,,,,
Student528,91,7777770527,MoneyTree,,,,,,
Student529,91,7777770528,MoneyTree,,,,,,
Student530,91,7777770529,MoneyTree,,,,,,
Student531,91,7777770530,MoneyTree,,,,,,
Student532,91,7777770531,MoneyTree,,,,,,
Student533,91,7777770532,MoneyTree,,,,,,
Student534,91,7777770533,MoneyTree,,,,,,
Student535,91,7777770534,MoneyTree,,,,,,
Student536,91,7777770535,MoneyTree,,,,,,
Student537,91,7777770536,MoneyTree,,,,,,
Student538,91,7777770537,MoneyTree,,,,,,
Student539,91,7777770538,MoneyTree,,,,,,
Student540,91,7777770539,MoneyTree,,,,,,
Student541,91,7777770540,MoneyTree,,,,,,
Student542,91,7777770541,MoneyTree,,,,,,
Student543,91,7777770542,MoneyTree,,,,,,
Student544,91,7777770543,MoneyTree,,,,,,
Student545,91,7777770544,MoneyTree,,,,,,
Student546,91,7777770545,MoneyTree,,,,,,
Student547,91,7777770546,MoneyTree,,,,,,
Student548,91,7777770547,MoneyTree,,,,,,
Student549,91,7777770548,MoneyTree,,,,,,
Student550,91,7777770549,MoneyTree,,,,,,
Student551,91,7777770550,MoneyTree,,,,,,
Student552,91,7777770551,MoneyTree,,,,,,
Student553,91,7777770552,MoneyTree,,,,,,
Student554,91,7777770553,MoneyTree,,,,,,
Student555,91,7777770554,MoneyTree,,,,,,
Student556,91,7777770555,MoneyTree,,,,,,
Student557,91,7777770556,MoneyTree,,,,,,
Student558,91,7777770557,MoneyTree,,,,,,
Student559,91,7777770558,MoneyTree,,,,,,
Student560,91,7777770559,MoneyTree,,,,,,
Student561,91,7777770560,MoneyTree,,,,,,
Student562,91,7777770561,MoneyTree,,,,,,
Student563,91,7777770562,MoneyTree,,,,,,
Student564,91,7777770563,MoneyTree,,,,,,
Student565,91,7777770564,MoneyTree,,,,,,
Student566,91,7777770565,MoneyTree,,,,,,
Student567,91,7777770566,MoneyTree,,,,,,
Student568,91,7777770567,MoneyTree,,,,,,
Student569,91,7777770568,MoneyTree,,,,,,
Student570,91,7777770569,MoneyTree,,,,,,
Student571,91,7777770570,MoneyTree,,,,,,
Student572,91,7777770571,MoneyTree,,,,,,
Student573,91,7777770572,MoneyTree,,,,,,
Student574,91,7777770573,MoneyTree,,,,,,
Student575,91,7777770574,MoneyTree,,,,,,
Student576,91,7777770575,MoneyTree,,,,,,
Student577,91,7777770576,MoneyTree,,,,,,
Student578,91,7777770577,MoneyTree,,,,,,
Student579,91,7777770578,MoneyTree,,,,,,
Student580,91,7777770579,MoneyTree,,,,,,
Student581,91,7777770580,MoneyTree,,,,,,
Student582,91,7777770581,MoneyTree,,,,,,
Student583,91,7777770582,MoneyTree,,,,,,
Student584,91,7777770583,MoneyTree,,,,,,
Student585,91,7777770584,MoneyTree,,,,,,
Student586,91,7777770585,MoneyTree,,,,,,
Student587,91,7777770586,MoneyTree,,,,,,
Student588,91,7777770587,MoneyTree,,,,,,
Student589,91,7777770588,MoneyTree,,,,,,
Student590,91,7777770589,MoneyTree,,,,,,
Student591,91,7777770590,MoneyTree,,,,,,
Student592,91,7777770591,MoneyTree,,,,,,
Student593,91,7777770592,MoneyTree,,,,,,
Student594,91,7777770593,MoneyTree,,,,,,
Student595,91,7777770594,MoneyTree,,,,,,
Student596,91,7777770595,MoneyTree,,,,,,
Student597,91,7777770596,MoneyTree,,,,,,
Student598,91,7777770597,MoneyTree,,,,,,
Student599,91,7777770598,MoneyTree,,,,,,
Student600,91,7777770599,MoneyTree,,,,,,
Student601,91,7777770600,MoneyTree,,,,,,
Student602,91,7777770601,MoneyTree,,,,,,
Student603,91,7777770602,MoneyTree,,,,,,
Student604,91,7777770603,MoneyTree,,,,,,
Student605,91,7777770604,MoneyTree,,,,,,
Student606,91,7777770605,MoneyTree,,,,,,
Student607,91,7777770606,MoneyTree,,,,,,
Student608,91,7777770607,MoneyTree,,,,,,
Student609,91,7777770608,MoneyTree,,,,,,
Student610,91,7777770609,MoneyTree,,,,,,
Student611,91,7777770610,MoneyTree,,,,,,
Student612,91,7777770611,MoneyTree,,,,,,
Student613,91,7777770612,MoneyTree,,,,,,
Student614,91,7777770613,MoneyTree,,,,,,
Student615,91,7777770614,MoneyTree,,,,,,
Student616,91,7777770615,MoneyTree,,,,,,
Student617,91,7777770616,MoneyTree,,,,,,
Student618,91,7777770617,MoneyTree,,,,,,
Student619,91,7777770618,MoneyTree,,,,,,
Student620,91,7777770619,MoneyTree,,,,,,
Student621,91,7777770620,MoneyTree,,,,,,
Student622,91,7777770621,MoneyTree,,,,,,
Student623,91,7777770622,MoneyTree,,,,,,
Student624,91,7777770623,MoneyTree,,,,,,
Student625,91,7777770624,MoneyTree,,,,,,
Student626,91,7777770625,MoneyTree,,,,,,
Student627,91,7777770626,MoneyTree,,,,,,
Student628,91,7777770627,MoneyTree,,,,,,
Student629,91,7777770628,MoneyTree,,,,,,
Student630,91,7777770629,MoneyTree,,,,,,
Student631,91,7777770630,MoneyTree,,,,,,
Student632,91,7777770631,MoneyTree,,,,,,
Student633,91,7777770632,MoneyTree,,,,,,
Student634,91,7777770633,MoneyTree,,,,,,
Student635,91,7777770634,MoneyTree,,,,,,
Student636,91,7777770635,MoneyTree,,,,,,
Student637,91,7777770636,MoneyTree,,,,,,
Student638,91,7777770637,MoneyTree,,,,,,
Student639,91,7777770638,MoneyTree,,,,,,
Student640,91,7777770639,MoneyTree,,,,,,
Student641,91,7777770640,MoneyTree,,,,,,
Student642,91,7777770641,MoneyTree,,,,,,
Student643,91,7777770642,MoneyTree,,,,,,
Student644,91,7777770643,MoneyTree,,,,,,
Student645,91,7777770644,MoneyTree,,,,,,
Student646,91,7777770645,MoneyTree,,,,,,
Student647,91,7777770646,MoneyTree,,,,,,
Student648,91,7777770647,MoneyTree,,,,,,
Student649,91,7777770648,MoneyTree,,,,,,
Student650,91,7777770649,MoneyTree,,,,,,
Student651,91,7777770650,MoneyTree,,,,,,
Student652,91,7777770651,MoneyTree,,,,,,
Student653,91,7777770652,MoneyTree,,,,,,
Student654,91,7777770653,MoneyTree,,,,,,
Student655,91,7777770654,MoneyTree,,,,,,
Student656,91,7777770655,MoneyTree,,,,,,
Student657,91,7777770656,MoneyTree,,,,,,
Student658,91,7777770657,MoneyTree,,,,,,
Student659,91,7777770658,MoneyTree,,,,,,
Student660,91,7777770659,MoneyTree,,,,,,
Student661,91,7777770660,MoneyTree,,,,,,
Student662,91,7777770661,MoneyTree,,,,,,
Student663,91,7777770662,MoneyTree,,,,,,
Student664,91,7777770663,MoneyTree,,,,,,
Student665,91,7777770664,MoneyTree,,,,,,
Student666,91,7777770665,MoneyTree,,,,,,
Student667,91,7777770666,MoneyTree,,,,,,
Student668,91,7777770667,MoneyTree,,,,,,
Student669,91,7777770668,MoneyTree,,,,,,
Student670,91,7777770669,MoneyTree,,,,,,
Student671,91,7777770670,MoneyTree,,,,,,
Student672,91,7777770671,MoneyTree,,,,,,
Student673,91,7777770672,MoneyTree,,,,,,
Student674,91,7777770673,MoneyTree,,,,,,
Student675,91,7777770674,MoneyTree,,,,,,
Student676,91,7777770675,MoneyTree,,,,,,
Student677,91,7777770676,MoneyTree,,,,,,
Student678,91,7777770677,MoneyTree,,,,,,
Student679,91,7777770678,MoneyTree,,,,,,
Student680,91,7777770679,MoneyTree,,,,,,
Student681,91,7777770680,MoneyTree,,,,,,
Student682,91,7777770681,MoneyTree,,,,,,
Student683,91,7777770682,MoneyTree,,,,,,
Student684,91,7777770683,MoneyTree,,,,,,
Student685,91,7777770684,MoneyTree,,,,,,
Student686,91,7777770685,MoneyTree,,,,,,
Student687,91,7777770686,MoneyTree,,,,,,
Student688,91,7777770687,MoneyTree,,,,,,
Student689,91,7777770688,MoneyTree,,,,,,
Student690,91,7777770689,MoneyTree,,,,,,
Student691,91,7777770690,MoneyTree,,,,,,
Student692,91,7777770691,MoneyTree,,,,,,
Student693,91,7777770692,MoneyTree,,,,,,
Student694,91,7777770693,MoneyTree,,,,,,
Student695,91,7777770694,MoneyTree,,,,,,
Student696,91,7777770695,MoneyTree,,,,,,
Student697,91,7777770696,MoneyTree,,,,,,
Student698,91,7777770697,MoneyTree,,,,,,
Student699,91,7777770698,MoneyTree,,,,,,
Student700,91,7777770699,MoneyTree,,,,,,
Student701,91,7777770700,MoneyTree,,,,,,
Student702,91,7777770701,MoneyTree,,,,,,
Student703,91,7777770702,MoneyTree,,,,,,
Student704,91,7777770703,MoneyTree,,,,,,
Student705,91,7777770704,MoneyTree,,,,,,
Student706,91,7777770705,MoneyTree,,,,,,
Student707,91,7777770706,MoneyTree,,,,,,
Student708,91,7777770707,MoneyTree,,,,,,
Student709,91,7777770708,MoneyTree,,,,,,
Student710,91,7777770709,MoneyTree,,,,,,
Student711,91,7777770710,MoneyTree,,,,,,
Student712,91,7777770711,MoneyTree,,,,,,
Student713,91,7777770712,MoneyTree,,,,,,
Student714,91,7777770713,MoneyTree,,,,,,
Student715,91,7777770714,MoneyTree,,,,,,
Student716,91,7777770715,MoneyTree,,,,,,
Student717,91,7777770716,MoneyTree,,,,,,
Student718,91,7777770717,MoneyTree,,,,,,
Student719,91,7777770718,MoneyTree,,,,,,
Student720,91,7777770719,MoneyTree,,,,,,
Student721,91,7777770720,MoneyTree,,,,,,
Student722,91,7777770721,MoneyTree,,,,,,
Student723,91,7777770722,MoneyTree,,,,,,
Student724,91,7777770723,MoneyTree,,,,,,
Student725,91,7777770724,MoneyTree,,,,,,
Student726,91,7777770725,MoneyTree,,,,,,
Student727,91,7777770726,MoneyTree,,,,,,
Student728,91,7777770727,MoneyTree,,,,,,
Student729,91,7777770728,MoneyTree,,,,,,
Student730,91,7777770729,MoneyTree,,,,,,
Student731,91,7777770730,MoneyTree,,,,,,
Student732,91,7777770731,MoneyTree,,,,,,
Student733,91,7777770732,MoneyTree,,,,,,
Student734,91,7777770733,MoneyTree,,,,,,
Student735,91,7777770734,MoneyTree,,,,,,
Student736,91,7777770735,MoneyTree,,,,,,
Student737,91,7777770736,MoneyTree,,,,,,
Student738,91,7777770737,MoneyTree,,,,,,
Student739,91,7777770738,MoneyTree,,,,,,
Student740,91,7777770739,MoneyTree,,,,,,
Student741,91,7777770740,MoneyTree,,,,,,
Student742,91,7777770741,MoneyTree,,,,,,
Student743,91,7777770742,MoneyTree,,,,,,
Student744,91,7777770743,MoneyTree,,,,,,
Student745,91,7777770744,MoneyTree,,,,,,
Student746,91,7777770745,MoneyTree,,,,,,
