Name,Email,Password,Country Code,Contact,School,,,,
Pick one of the value for Student School Column: ,MoneyTree,REAL,Red Team,Test Saurabh,RLB,Super Test Team,Test School,UMW,Pioneer School
Pick one of the value for Country Code Column,Malaysia : 60,India : 91,United Kingdom : 44,Singapore : 65,United State : 1,,,,
student1,,secret,91,9999990000,Pioneer School,,,,
student2,,secret,91,9999990001,Pioneer School,,,,
student3,,secret,91,9999990002,Pioneer School,,,,
student4,,secret,91,9999990003,Pioneer School,,,,
student5,,secret,91,9999990004,Pioneer School,,,,
student6,,secret,91,9999990005,Pioneer School,,,,
student7,,secret,91,9999990006,Pioneer School,,,,
student8,,secret,91,9999990007,Pioneer School,,,,
student9,,secret,91,9999990008,Pioneer School,,,,
student10,,secret,91,9999990009,Pioneer School,,,,
student11,,secret,91,9999990010,Pioneer School,,,,
student12,,secret,91,9999990011,Pioneer School,,,,
student13,,secret,91,9999990012,Pioneer School,,,,
student14,,secret,91,9999990013,Pioneer School,,,,
student15,,secret,91,9999990014,Pioneer School,,,,
student16,,secret,91,9999990015,Pioneer School,,,,
student17,,secret,91,9999990016,Pioneer School,,,,
student18,,secret,91,9999990017,Pioneer School,,,,
student19,,secret,91,9999990018,Pioneer School,,,,
student20,,secret,91,9999990019,Pioneer School,,,,
student21,,secret,91,9999990020,Pioneer School,,,,
student22,,secret,91,9999990021,Pioneer School,,,,
student23,,secret,91,9999990022,Pioneer School,,,,
student24,,secret,91,9999990023,Pioneer School,,,,
student25,,secret,91,9999990024,Pioneer School,,,,
student26,,secret,91,9999990025,Pioneer School,,,,
student27,,secret,91,9999990026,Pioneer School,,,,
student28,,secret,91,9999990027,Pioneer School,,,,
student29,,secret,91,9999990028,Pioneer School,,,,
student30,,secret,91,9999990029,Pioneer School,,,,
student31,,secret,91,9999990030,Pioneer School,,,,
student32,,secret,91,9999990031,Pioneer School,,,,
student33,,secret,91,9999990032,Pioneer School,,,,
student34,,secret,91,9999990033,Pioneer School,,,,
student35,,secret,91,9999990034,Pioneer School,,,,
student36,,secret,91,9999990035,Pioneer School,,,,
student37,,secret,91,9999990036,Pioneer School,,,,
student38,,secret,91,9999990037,Pioneer School,,,,
student39,,secret,91,9999990038,Pioneer School,,,,
student40,,secret,91,9999990039,Pioneer School,,,,
student41,,secret,91,9999990040,Pioneer School,,,,
student42,,secret,91,9999990041,Pioneer School,,,,
student43,,secret,91,9999990042,Pioneer School,,,,
student44,,secret,91,9999990043,Pioneer School,,,,
student45,,secret,91,9999990044,Pioneer School,,,,
student46,,secret,91,9999990045,Pioneer School,,,,
student47,,secret,91,9999990046,Pioneer School,,,,
student48,,secret,91,9999990047,Pioneer School,,,,
student49,,secret,91,9999990048,Pioneer School,,,,
student50,,secret,91,9999990049,Pioneer School,,,,
student51,,secret,91,9999990050,Pioneer School,,,,
student52,,secret,91,9999990051,Pioneer School,,,,
student53,,secret,91,9999990052,Pioneer School,,,,
student54,,secret,91,9999990053,Pioneer School,,,,
student55,,secret,91,9999990054,Pioneer School,,,,
student56,,secret,91,9999990055,Pioneer School,,,,
student57,,secret,91,9999990056,Pioneer School,,,,
student58,,secret,91,9999990057,Pioneer School,,,,
student59,,secret,91,9999990058,Pioneer School,,,,
student60,,secret,91,9999990059,Pioneer School,,,,
student61,,secret,91,9999990060,Pioneer School,,,,
student62,,secret,91,9999990061,Pioneer School,,,,
student63,,secret,91,9999990062,Pioneer School,,,,
student64,,secret,91,9999990063,Pioneer School,,,,
student65,,secret,91,9999990064,Pioneer School,,,,
student66,,secret,91,9999990065,Pioneer School,,,,
student67,,secret,91,9999990066,Pioneer School,,,,
student68,,secret,91,9999990067,Pioneer School,,,,
student69,,secret,91,9999990068,Pioneer School,,,,
student70,,secret,91,9999990069,Pioneer School,,,,
student71,,secret,91,9999990070,Pioneer School,,,,
student72,,secret,91,9999990071,Pioneer School,,,,
student73,,secret,91,9999990072,Pioneer School,,,,
student74,,secret,91,9999990073,Pioneer School,,,,
student75,,secret,91,9999990074,Pioneer School,,,,
student76,,secret,91,9999990075,Pioneer School,,,,
student77,,secret,91,9999990076,Pioneer School,,,,
student78,,secret,91,9999990077,Pioneer School,,,,
student79,,secret,91,9999990078,Pioneer School,,,,
student80,,secret,91,9999990079,Pioneer School,,,,
student81,,secret,91,9999990080,Pioneer School,,,,
student82,,secret,91,9999990081,Pioneer School,,,,
student83,,secret,91,9999990082,Pioneer School,,,,
student84,,secret,91,9999990083,Pioneer School,,,,
student85,,secret,91,9999990084,Pioneer School,,,,
student86,,secret,91,9999990085,Pioneer School,,,,
student87,,secret,91,9999990086,Pioneer School,,,,
student88,,secret,91,9999990087,Pioneer School,,,,
student89,,secret,91,9999990088,Pioneer School,,,,
student90,,secret,91,9999990089,Pioneer School,,,,
student91,,secret,91,9999990090,Pioneer School,,,,
student92,,secret,91,9999990091,Pioneer School,,,,
student93,,secret,91,9999990092,Pioneer School,,,,
student94,,secret,91,9999990093,Pioneer School,,,,
student95,,secret,91,9999990094,Pioneer School,,,,
student96,,secret,91,9999990095,Pioneer School,,,,
student97,,secret,91,9999990096,Pioneer School,,,,
student98,,secret,91,9999990097,Pioneer School,,,,
student99,,secret,91,9999990098,Pioneer School,,,,
student100,,secret,91,9999990099,Pioneer School,,,,
student101,,secret,91,9999990100,Pioneer School,,,,
student102,,secret,91,9999990101,Pioneer School,,,,
student103,,secret,91,9999990102,Pioneer School,,,,
student104,,secret,91,9999990103,Pioneer School,,,,
student105,,secret,91,9999990104,Pioneer School,,,,
student106,,secret,91,9999990105,Pioneer School,,,,
student107,,secret,91,9999990106,Pioneer School,,,,
student108,,secret,91,9999990107,Pioneer School,,,,
student109,,secret,91,9999990108,Pioneer School,,,,
student110,,secret,91,9999990109,Pioneer School,,,,
student111,,secret,91,9999990110,Pioneer School,,,,
student112,,secret,91,9999990111,Pioneer School,,,,
student113,,secret,91,9999990112,Pioneer School,,,,
student114,,secret,91,9999990113,Pioneer School,,,,
student115,,secret,91,9999990114,Pioneer School,,,,
student116,,secret,91,9999990115,Pioneer School,,,,
student117,,secret,91,9999990116,Pioneer School,,,,
student118,,secret,91,9999990117,Pioneer School,,,,
student119,,secret,91,9999990118,Pioneer School,,,,
student120,,secret,91,9999990119,Pioneer School,,,,
student121,,secret,91,9999990120,Pioneer School,,,,
student122,,secret,91,9999990121,Pioneer School,,,,
student123,,secret,91,9999990122,Pioneer School,,,,
student124,,secret,91,9999990123,Pioneer School,,,,
student125,,secret,91,9999990124,Pioneer School,,,,
student126,,secret,91,9999990125,Pioneer School,,,,
student127,,secret,91,9999990126,Pioneer School,,,,
student128,,secret,91,9999990127,Pioneer School,,,,
student129,,secret,91,9999990128,Pioneer School,,,,
student130,,secret,91,9999990129,Pioneer School,,,,
student131,,secret,91,9999990130,Pioneer School,,,,
student132,,secret,91,9999990131,Pioneer School,,,,
student133,,secret,91,9999990132,Pioneer School,,,,
student134,,secret,91,9999990133,Pioneer School,,,,
student135,,secret,91,9999990134,Pioneer School,,,,
student136,,secret,91,9999990135,Pioneer School,,,,
student137,,secret,91,9999990136,Pioneer School,,,,
student138,,secret,91,9999990137,Pioneer School,,,,
student139,,secret,91,9999990138,Pioneer School,,,,
student140,,secret,91,9999990139,Pioneer School,,,,
student141,,secret,91,9999990140,Pioneer School,,,,
student142,,secret,91,9999990141,Pioneer School,,,,
student143,,secret,91,9999990142,Pioneer School,,,,
student144,,secret,91,9999990143,Pioneer School,,,,
student145,,secret,91,9999990144,Pioneer School,,,,
student146,,secret,91,9999990145,Pioneer School,,,,
student147,,secret,91,9999990146,Pioneer School,,,,
student148,,secret,91,9999990147,Pioneer School,,,,
student149,,secret,91,9999990148,Pioneer School,,,,
student150,,secret,91,9999990149,Pioneer School,,,,
student151,,secret,91,9999990150,Pioneer School,,,,
student152,,secret,91,9999990151,Pioneer School,,,,
student153,,secret,91,9999990152,Pioneer School,,,,
student154,,secret,91,9999990153,Pioneer School,,,,
student155,,secret,91,9999990154,Pioneer School,,,,
student156,,secret,91,9999990155,Pioneer School,,,,
student157,,secret,91,9999990156,Pioneer School,,,,
student158,,secret,91,9999990157,Pioneer School,,,,
student159,,secret,91,9999990158,Pioneer School,,,,
student160,,secret,91,9999990159,Pioneer School,,,,
student161,,secret,91,9999990160,Pioneer School,,,,
student162,,secret,91,9999990161,Pioneer School,,,,
student163,,secret,91,9999990162,Pioneer School,,,,
student164,,secret,91,9999990163,Pioneer School,,,,
student165,,secret,91,9999990164,Pioneer School,,,,
student166,,secret,91,9999990165,Pioneer School,,,,
student167,,secret,91,9999990166,Pioneer School,,,,
student168,,secret,91,9999990167,Pioneer School,,,,
student169,,secret,91,9999990168,Pioneer School,,,,
student170,,secret,91,9999990169,Pioneer School,,,,
student171,,secret,91,9999990170,Pioneer School,,,,
student172,,secret,91,9999990171,Pioneer School,,,,
student173,,secret,91,9999990172,Pioneer School,,,,
student174,,secret,91,9999990173,Pioneer School,,,,
student175,,secret,91,9999990174,Pioneer School,,,,
student176,,secret,91,9999990175,Pioneer School,,,,
student177,,secret,91,9999990176,Pioneer School,,,,
student178,,secret,91,9999990177,Pioneer School,,,,
student179,,secret,91,9999990178,Pioneer School,,,,
student180,,secret,91,9999990179,Pioneer School,,,,
student181,,secret,91,9999990180,Pioneer School,,,,
student182,,secret,91,9999990181,Pioneer School,,,,
student183,,secret,91,9999990182,Pioneer School,,,,
student184,,secret,91,9999990183,Pioneer School,,,,
student185,,secret,91,9999990184,Pioneer School,,,,
student186,,secret,91,9999990185,Pioneer School,,,,
student187,,secret,91,9999990186,Pioneer School,,,,
student188,,secret,91,9999990187,Pioneer School,,,,
student189,,secret,91,9999990188,Pioneer School,,,,
student190,,secret,91,9999990189,Pioneer School,,,,
student191,,secret,91,9999990190,Pioneer School,,,,
student192,,secret,91,9999990191,Pioneer School,,,,
student193,,secret,91,9999990192,Pioneer School,,,,
student194,,secret,91,9999990193,Pioneer School,,,,
student195,,secret,91,9999990194,Pioneer School,,,,
student196,,secret,91,9999990195,Pioneer School,,,,
student197,,secret,91,9999990196,Pioneer School,,,,
student198,,secret,91,9999990197,Pioneer School,,,,
student199,,secret,91,9999990198,Pioneer School,,,,
student200,,secret,91,9999990199,Pioneer School,,,,
student201,,secret,91,9999990200,Pioneer School,,,,
student202,,secret,91,9999990201,Pioneer School,,,,
student203,,secret,91,9999990202,Pioneer School,,,,
student204,,secret,91,9999990203,Pioneer School,,,,
student205,,secret,91,9999990204,Pioneer School,,,,
student206,,secret,91,9999990205,Pioneer School,,,,
student207,,secret,91,9999990206,Pioneer School,,,,
student208,,secret,91,9999990207,Pioneer School,,,,
student209,,secret,91,9999990208,Pioneer School,,,,
student210,,secret,91,9999990209,Pioneer School,,,,
student211,,secret,91,9999990210,Pioneer School,,,,
student212,,secret,91,9999990211,Pioneer School,,,,
student213,,secret,91,9999990212,Pioneer School,,,,
student214,,secret,91,9999990213,Pioneer School,,,,
student215,,secret,91,9999990214,Pioneer School,,,,
student216,,secret,91,9999990215,Pioneer School,,,,
student217,,secret,91,9999990216,Pioneer School,,,,
student218,,secret,91,9999990217,Pioneer School,,,,
student219,,secret,91,9999990218,Pioneer School,,,,
student220,,secret,91,9999990219,Pioneer School,,,,
student221,,secret,91,9999990220,Pioneer School,,,,
student222,,secret,91,9999990221,Pioneer School,,,,
student223,,secret,91,9999990222,Pioneer School,,,,
student224,,secret,91,9999990223,Pioneer School,,,,
student225,,secret,91,9999990224,Pioneer School,,,,
student226,,secret,91,9999990225,Pioneer School,,,,
student227,,secret,91,9999990226,Pioneer School,,,,
student228,,secret,91,9999990227,Pioneer School,,,,
student229,,secret,91,9999990228,Pioneer School,,,,
student230,,secret,91,9999990229,Pioneer School,,,,
student231,,secret,91,9999990230,Pioneer School,,,,
student232,,secret,91,9999990231,Pioneer School,,,,
student233,,secret,91,9999990232,Pioneer School,,,,
student234,,secret,91,9999990233,Pioneer School,,,,
student235,,secret,91,9999990234,Pioneer School,,,,
student236,,secret,91,9999990235,Pioneer School,,,,
student237,,secret,91,9999990236,Pioneer School,,,,
student238,,secret,91,9999990237,Pioneer School,,,,
student239,,secret,91,9999990238,Pioneer School,,,,
student240,,secret,91,9999990239,Pioneer School,,,,
student241,,secret,91,9999990240,Pioneer School,,,,
student242,,secret,91,9999990241,Pioneer School,,,,
student243,,secret,91,9999990242,Pioneer School,,,,
student244,,secret,91,9999990243,Pioneer School,,,,
student245,,secret,91,9999990244,Pioneer School,,,,
student246,,secret,91,9999990245,Pioneer School,,,,
student247,,secret,91,9999990246,Pioneer School,,,,
student248,,secret,91,9999990247,Pioneer School,,,,
student249,,secret,91,9999990248,Pioneer School,,,,
student250,,secret,91,9999990249,Pioneer School,,,,
student251,,secret,91,9999990250,Pioneer School,,,,
student252,,secret,91,9999990251,Pioneer School,,,,
student253,,secret,91,9999990252,Pioneer School,,,,
student254,,secret,91,9999990253,Pioneer School,,,,
student255,,secret,91,9999990254,Pioneer School,,,,
student256,,secret,91,9999990255,Pioneer School,,,,
student257,,secret,91,9999990256,Pioneer School,,,,
student258,,secret,91,9999990257,Pioneer School,,,,
student259,,secret,91,9999990258,Pioneer School,,,,
student260,,secret,91,9999990259,Pioneer School,,,,
student261,,secret,91,9999990260,Pioneer School,,,,
student262,,secret,91,9999990261,Pioneer School,,,,
student263,,secret,91,9999990262,Pioneer School,,,,
student264,,secret,91,9999990263,Pioneer School,,,,
student265,,secret,91,9999990264,Pioneer School,,,,
student266,,secret,91,9999990265,Pioneer School,,,,
student267,,secret,91,9999990266,Pioneer School,,,,
student268,,secret,91,9999990267,Pioneer School,,,,
student269,,secret,91,9999990268,Pioneer School,,,,
student270,,secret,91,9999990269,Pioneer School,,,,
student271,,secret,91,9999990270,Pioneer School,,,,
student272,,secret,91,9999990271,Pioneer School,,,,
student273,,secret,91,9999990272,Pioneer School,,,,
student274,,secret,91,9999990273,Pioneer School,,,,
student275,,secret,91,9999990274,Pioneer School,,,,
student276,,secret,91,9999990275,Pioneer School,,,,
student277,,secret,91,9999990276,Pioneer School,,,,
student278,,secret,91,9999990277,Pioneer School,,,,
student279,,secret,91,9999990278,Pioneer School,,,,
student280,,secret,91,9999990279,Pioneer School,,,,
student281,,secret,91,9999990280,Pioneer School,,,,
student282,,secret,91,9999990281,Pioneer School,,,,
student283,,secret,91,9999990282,Pioneer School,,,,
student284,,secret,91,9999990283,Pioneer School,,,,
student285,,secret,91,9999990284,Pioneer School,,,,
student286,,secret,91,9999990285,Pioneer School,,,,
student287,,secret,91,9999990286,Pioneer School,,,,
student288,,secret,91,9999990287,Pioneer School,,,,
student289,,secret,91,9999990288,Pioneer School,,,,
student290,,secret,91,9999990289,Pioneer School,,,,
student291,,secret,91,9999990290,Pioneer School,,,,
student292,,secret,91,9999990291,Pioneer School,,,,
student293,,secret,91,9999990292,Pioneer School,,,,
student294,,secret,91,9999990293,Pioneer School,,,,
student295,,secret,91,9999990294,Pioneer School,,,,
student296,,secret,91,9999990295,Pioneer School,,,,
student297,,secret,91,9999990296,Pioneer School,,,,
student298,,secret,91,9999990297,Pioneer School,,,,
student299,,secret,91,9999990298,Pioneer School,,,,
student300,,secret,91,9999990299,Pioneer School,,,,
student301,,secret,91,9999990300,Pioneer School,,,,
student302,,secret,91,9999990301,Pioneer School,,,,
student303,,secret,91,9999990302,Pioneer School,,,,
student304,,secret,91,9999990303,Pioneer School,,,,
student305,,secret,91,9999990304,Pioneer School,,,,
student306,,secret,91,9999990305,Pioneer School,,,,
student307,,secret,91,9999990306,Pioneer School,,,,
student308,,secret,91,9999990307,Pioneer School,,,,
student309,,secret,91,9999990308,Pioneer School,,,,
student310,,secret,91,9999990309,Pioneer School,,,,
student311,,secret,91,9999990310,Pioneer School,,,,
student312,,secret,91,9999990311,Pioneer School,,,,
student313,,secret,91,9999990312,Pioneer School,,,,
student314,,secret,91,9999990313,Pioneer School,,,,
student315,,secret,91,9999990314,Pioneer School,,,,
student316,,secret,91,9999990315,Pioneer School,,,,
student317,,secret,91,9999990316,Pioneer School,,,,
student318,,secret,91,9999990317,Pioneer School,,,,
student319,,secret,91,9999990318,Pioneer School,,,,
student320,,secret,91,9999990319,Pioneer School,,,,
student321,,secret,91,9999990320,Pioneer School,,,,
student322,,secret,91,9999990321,Pioneer School,,,,
student323,,secret,91,9999990322,Pioneer School,,,,
student324,,secret,91,9999990323,Pioneer School,,,,
student325,,secret,91,9999990324,Pioneer School,,,,
student326,,secret,91,9999990325,Pioneer School,,,,
student327,,secret,91,9999990326,Pioneer School,,,,
student328,,secret,91,9999990327,Pioneer School,,,,
student329,,secret,91,9999990328,Pioneer School,,,,
student330,,secret,91,9999990329,Pioneer School,,,,
student331,,secret,91,9999990330,Pioneer School,,,,
student332,,secret,91,9999990331,Pioneer School,,,,
student333,,secret,91,9999990332,Pioneer School,,,,
student334,,secret,91,9999990333,Pioneer School,,,,
student335,,secret,91,9999990334,Pioneer School,,,,
student336,,secret,91,9999990335,Pioneer School,,,,
student337,,secret,91,9999990336,Pioneer School,,,,
student338,,secret,91,9999990337,Pioneer School,,,,
student339,,secret,91,9999990338,Pioneer School,,,,
student340,,secret,91,9999990339,Pioneer School,,,,
student341,,secret,91,9999990340,Pioneer School,,,,
student342,,secret,91,9999990341,Pioneer School,,,,
student343,,secret,91,9999990342,Pioneer School,,,,
student344,,secret,91,9999990343,Pioneer School,,,,
student345,,secret,91,9999990344,Pioneer School,,,,
student346,,secret,91,9999990345,Pioneer School,,,,
student347,,secret,91,9999990346,Pioneer School,,,,
student348,,secret,91,9999990347,Pioneer School,,,,
student349,,secret,91,9999990348,Pioneer School,,,,
student350,,secret,91,9999990349,Pioneer School,,,,
student351,,secret,91,9999990350,Pioneer School,,,,
student352,,secret,91,9999990351,Pioneer School,,,,
student353,,secret,91,9999990352,Pioneer School,,,,
student354,,secret,91,9999990353,Pioneer School,,,,
student355,,secret,91,9999990354,Pioneer School,,,,
student356,,secret,91,9999990355,Pioneer School,,,,
student357,,secret,91,9999990356,Pioneer School,,,,
student358,,secret,91,9999990357,Pioneer School,,,,
student359,,secret,91,9999990358,Pioneer School,,,,
student360,,secret,91,9999990359,Pioneer School,,,,
student361,,secret,91,9999990360,Pioneer School,,,,
student362,,secret,91,9999990361,Pioneer School,,,,
student363,,secret,91,9999990362,Pioneer School,,,,
student364,,secret,91,9999990363,Pioneer School,,,,
student365,,secret,91,9999990364,Pioneer School,,,,
student366,,secret,91,9999990365,Pioneer School,,,,
student367,,secret,91,9999990366,Pioneer School,,,,
student368,,secret,91,9999990367,Pioneer School,,,,
student369,,secret,91,9999990368,Pioneer School,,,,
student370,,secret,91,9999990369,Pioneer School,,,,
student371,,secret,91,9999990370,Pioneer School,,,,
student372,,secret,91,9999990371,Pioneer School,,,,
student373,,secret,91,9999990372,Pioneer School,,,,
student374,,secret,91,9999990373,Pioneer School,,,,
student375,,secret,91,9999990374,Pioneer School,,,,
student376,,secret,91,9999990375,Pioneer School,,,,
student377,,secret,91,9999990376,Pioneer School,,,,
student378,,secret,91,9999990377,Pioneer School,,,,
student379,,secret,91,9999990378,Pioneer School,,,,
student380,,secret,91,9999990379,Pioneer School,,,,
student381,,secret,91,9999990380,Pioneer School,,,,
student382,,secret,91,9999990381,Pioneer School,,,,
student383,,secret,91,9999990382,Pioneer School,,,,
student384,,secret,91,9999990383,Pioneer School,,,,
student385,,secret,91,9999990384,Pioneer School,,,,
student386,,secret,91,9999990385,Pioneer School,,,,
student387,,secret,91,9999990386,Pioneer School,,,,
student388,,secret,91,9999990387,Pioneer School,,,,
student389,,secret,91,9999990388,Pioneer School,,,,
student390,,secret,91,9999990389,Pioneer School,,,,
student391,,secret,91,9999990390,Pioneer School,,,,
student392,,secret,91,9999990391,Pioneer School,,,,
student393,,secret,91,9999990392,Pioneer School,,,,
student394,,secret,91,9999990393,Pioneer School,,,,
student395,,secret,91,9999990394,Pioneer School,,,,
student396,,secret,91,9999990395,Pioneer School,,,,
student397,,secret,91,9999990396,Pioneer School,,,,
student398,,secret,91,9999990397,Pioneer School,,,,
student399,,secret,91,9999990398,Pioneer School,,,,
student400,,secret,91,9999990399,Pioneer School,,,,
student401,,secret,91,9999990400,Pioneer School,,,,
student402,,secret,91,9999990401,Pioneer School,,,,
student403,,secret,91,9999990402,Pioneer School,,,,
student404,,secret,91,9999990403,Pioneer School,,,,
student405,,secret,91,9999990404,Pioneer School,,,,
student406,,secret,91,9999990405,Pioneer School,,,,
student407,,secret,91,9999990406,Pioneer School,,,,
student408,,secret,91,9999990407,Pioneer School,,,,
student409,,secret,91,9999990408,Pioneer School,,,,
student410,,secret,91,9999990409,Pioneer School,,,,
student411,,secret,91,9999990410,Pioneer School,,,,
student412,,secret,91,9999990411,Pioneer School,,,,
student413,,secret,91,9999990412,Pioneer School,,,,
student414,,secret,91,9999990413,Pioneer School,,,,
student415,,secret,91,9999990414,Pioneer School,,,,
student416,,secret,91,9999990415,Pioneer School,,,,
student417,,secret,91,9999990416,Pioneer School,,,,
student418,,secret,91,9999990417,Pioneer School,,,,
student419,,secret,91,9999990418,Pioneer School,,,,
student420,,secret,91,9999990419,Pioneer School,,,,
student421,,secret,91,9999990420,Pioneer School,,,,
student422,,secret,91,9999990421,Pioneer School,,,,
student423,,secret,91,9999990422,Pioneer School,,,,
student424,,secret,91,9999990423,Pioneer School,,,,
student425,,secret,91,9999990424,Pioneer School,,,,
student426,,secret,91,9999990425,Pioneer School,,,,
student427,,secret,91,9999990426,Pioneer School,,,,
student428,,secret,91,9999990427,Pioneer School,,,,
student429,,secret,91,9999990428,Pioneer School,,,,
student430,,secret,91,9999990429,Pioneer School,,,,
student431,,secret,91,9999990430,Pioneer School,,,,
student432,,secret,91,9999990431,Pioneer School,,,,
student433,,secret,91,9999990432,Pioneer School,,,,
student434,,secret,91,9999990433,Pioneer School,,,,
student435,,secret,91,9999990434,Pioneer School,,,,
student436,,secret,91,9999990435,Pioneer School,,,,
student437,,secret,91,9999990436,Pioneer School,,,,
student438,,secret,91,9999990437,Pioneer School,,,,
student439,,secret,91,9999990438,Pioneer School,,,,
student440,,secret,91,9999990439,Pioneer School,,,,
student441,,secret,91,9999990440,Pioneer School,,,,
student442,,secret,91,9999990441,Pioneer School,,,,
student443,,secret,91,9999990442,Pioneer School,,,,
student444,,secret,91,9999990443,Pioneer School,,,,
student445,,secret,91,9999990444,Pioneer School,,,,
student446,,secret,91,9999990445,Pioneer School,,,,
student447,,secret,91,9999990446,Pioneer School,,,,
student448,,secret,91,9999990447,Pioneer School,,,,
student449,,secret,91,9999990448,Pioneer School,,,,
student450,,secret,91,9999990449,Pioneer School,,,,
student451,,secret,91,9999990450,Pioneer School,,,,
student452,,secret,91,9999990451,Pioneer School,,,,
student453,,secret,91,9999990452,Pioneer School,,,,
student454,,secret,91,9999990453,Pioneer School,,,,
student455,,secret,91,9999990454,Pioneer School,,,,
student456,,secret,91,9999990455,Pioneer School,,,,
student457,,secret,91,9999990456,Pioneer School,,,,
student458,,secret,91,9999990457,Pioneer School,,,,
student459,,secret,91,9999990458,Pioneer School,,,,
student460,,secret,91,9999990459,Pioneer School,,,,
student461,,secret,91,9999990460,Pioneer School,,,,
student462,,secret,91,9999990461,Pioneer School,,,,
student463,,secret,91,9999990462,Pioneer School,,,,
student464,,secret,91,9999990463,Pioneer School,,,,
student465,,secret,91,9999990464,Pioneer School,,,,
student466,,secret,91,9999990465,Pioneer School,,,,
student467,,secret,91,9999990466,Pioneer School,,,,
student468,,secret,91,9999990467,Pioneer School,,,,
student469,,secret,91,9999990468,Pioneer School,,,,
student470,,secret,91,9999990469,Pioneer School,,,,
student471,,secret,91,9999990470,Pioneer School,,,,
student472,,secret,91,9999990471,Pioneer School,,,,
student473,,secret,91,9999990472,Pioneer School,,,,
student474,,secret,91,9999990473,Pioneer School,,,,
student475,,secret,91,9999990474,Pioneer School,,,,
student476,,secret,91,9999990475,Pioneer School,,,,
student477,,secret,91,9999990476,Pioneer School,,,,
student478,,secret,91,9999990477,Pioneer School,,,,
student479,,secret,91,9999990478,Pioneer School,,,,
student480,,secret,91,9999990479,Pioneer School,,,,
student481,,secret,91,9999990480,Pioneer School,,,,
student482,,secret,91,9999990481,Pioneer School,,,,
student483,,secret,91,9999990482,Pioneer School,,,,
student484,,secret,91,9999990483,Pioneer School,,,,
student485,,secret,91,9999990484,Pioneer School,,,,
student486,,secret,91,9999990485,Pioneer School,,,,
student487,,secret,91,9999990486,Pioneer School,,,,
student488,,secret,91,9999990487,Pioneer School,,,,
student489,,secret,91,9999990488,Pioneer School,,,,
student490,,secret,91,9999990489,Pioneer School,,,,
student491,,secret,91,9999990490,Pioneer School,,,,
student492,,secret,91,9999990491,Pioneer School,,,,
student493,,secret,91,9999990492,Pioneer School,,,,
student494,,secret,91,9999990493,Pioneer School,,,,
student495,,secret,91,9999990494,Pioneer School,,,,
student496,,secret,91,9999990495,Pioneer School,,,,
student497,,secret,91,9999990496,Pioneer School,,,,
student498,,secret,91,9999990497,Pioneer School,,,,
student499,,secret,91,9999990498,Pioneer School,,,,
student500,,secret,91,9999990499,Pioneer School,,,,
student501,,secret,91,9999990500,Pioneer School,,,,
student502,,secret,91,9999990501,Pioneer School,,,,
student503,,secret,91,9999990502,Pioneer School,,,,
student504,,secret,91,9999990503,Pioneer School,,,,
student505,,secret,91,9999990504,Pioneer School,,,,
student506,,secret,91,9999990505,Pioneer School,,,,
student507,,secret,91,9999990506,Pioneer School,,,,
student508,,secret,91,9999990507,Pioneer School,,,,
student509,,secret,91,9999990508,Pioneer School,,,,
student510,,secret,91,9999990509,Pioneer School,,,,
student511,,secret,91,9999990510,Pioneer School,,,,
student512,,secret,91,9999990511,Pioneer School,,,,
student513,,secret,91,9999990512,Pioneer School,,,,
student514,,secret,91,9999990513,Pioneer School,,,,
student515,,secret,91,9999990514,Pioneer School,,,,
student516,,secret,91,9999990515,Pioneer School,,,,
student517,,secret,91,9999990516,Pioneer School,,,,
student518,,secret,91,9999990517,Pioneer School,,,,
student519,,secret,91,9999990518,Pioneer School,,,,
student520,,secret,91,9999990519,Pioneer School,,,,
student521,,secret,91,9999990520,Pioneer School,,,,
student522,,secret,91,9999990521,Pioneer School,,,,
student523,,secret,91,9999990522,Pioneer School,,,,
student524,,secret,91,9999990523,Pioneer School,,,,
student525,,secret,91,9999990524,Pioneer School,,,,
student526,,secret,91,9999990525,Pioneer School,,,,
student527,,secret,91,9999990526,Pioneer School,,,,
student528,,secret,91,9999990527,Pioneer School,,,,
student529,,secret,91,9999990528,Pioneer School,,,,
student530,,secret,91,9999990529,Pioneer School,,,,
student531,,secret,91,9999990530,Pioneer School,,,,
student532,,secret,91,9999990531,Pioneer School,,,,
student533,,secret,91,9999990532,Pioneer School,,,,
student534,,secret,91,9999990533,Pioneer School,,,,
student535,,secret,91,9999990534,Pioneer School,,,,
student536,,secret,91,9999990535,Pioneer School,,,,
student537,,secret,91,9999990536,Pioneer School,,,,
student538,,secret,91,9999990537,Pioneer School,,,,
student539,,secret,91,9999990538,Pioneer School,,,,
student540,,secret,91,9999990539,Pioneer School,,,,
student541,,secret,91,9999990540,Pioneer School,,,,
student542,,secret,91,9999990541,Pioneer School,,,,
student543,,secret,91,9999990542,Pioneer School,,,,
student544,,secret,91,9999990543,Pioneer School,,,,
student545,,secret,91,9999990544,Pioneer School,,,,
student546,,secret,91,9999990545,Pioneer School,,,,
student547,,secret,91,9999990546,Pioneer School,,,,
student548,,secret,91,9999990547,Pioneer School,,,,
student549,,secret,91,9999990548,Pioneer School,,,,
student550,,secret,91,9999990549,Pioneer School,,,,
student551,,secret,91,9999990550,Pioneer School,,,,
student552,,secret,91,9999990551,Pioneer School,,,,
student553,,secret,91,9999990552,Pioneer School,,,,
student554,,secret,91,9999990553,Pioneer School,,,,
student555,,secret,91,9999990554,Pioneer School,,,,
student556,,secret,91,9999990555,Pioneer School,,,,
student557,,secret,91,9999990556,Pioneer School,,,,
student558,,secret,91,9999990557,Pioneer School,,,,
student559,,secret,91,9999990558,Pioneer School,,,,
student560,,secret,91,9999990559,Pioneer School,,,,
student561,,secret,91,9999990560,Pioneer School,,,,
student562,,secret,91,9999990561,Pioneer School,,,,
student563,,secret,91,9999990562,Pioneer School,,,,
student564,,secret,91,9999990563,Pioneer School,,,,
student565,,secret,91,9999990564,Pioneer School,,,,
student566,,secret,91,9999990565,Pioneer School,,,,
student567,,secret,91,9999990566,Pioneer School,,,,
student568,,secret,91,9999990567,Pioneer School,,,,
student569,,secret,91,9999990568,Pioneer School,,,,
student570,,secret,91,9999990569,Pioneer School,,,,
student571,,secret,91,9999990570,Pioneer School,,,,
student572,,secret,91,9999990571,Pioneer School,,,,
student573,,secret,91,9999990572,Pioneer School,,,,
student574,,secret,91,9999990573,Pioneer School,,,,
student575,,secret,91,9999990574,Pioneer School,,,,
student576,,secret,91,9999990575,Pioneer School,,,,
student577,,secret,91,9999990576,Pioneer School,,,,
student578,,secret,91,9999990577,Pioneer School,,,,
student579,,secret,91,9999990578,Pioneer School,,,,
student580,,secret,91,9999990579,Pioneer School,,,,
student581,,secret,91,9999990580,Pioneer School,,,,
student582,,secret,91,9999990581,Pioneer School,,,,
student583,,secret,91,9999990582,Pioneer School,,,,
student584,,secret,91,9999990583,Pioneer School,,,,
student585,,secret,91,9999990584,Pioneer School,,,,
student586,,secret,91,9999990585,Pioneer School,,,,
student587,,secret,91,9999990586,Pioneer School,,,,
student588,,secret,91,9999990587,Pioneer School,,,,
student589,,secret,91,9999990588,Pioneer School,,,,
student590,,secret,91,9999990589,Pioneer School,,,,
student591,,secret,91,9999990590,Pioneer School,,,,
student592,,secret,91,9999990591,Pioneer School,,,,
student593,,secret,91,9999990592,Pioneer School,,,,
student594,,secret,91,9999990593,Pioneer School,,,,
student595,,secret,91,9999990594,Pioneer School,,,,
student596,,secret,91,9999990595,Pioneer School,,,,
student597,,secret,91,9999990596,Pioneer School,,,,
student598,,secret,91,9999990597,Pioneer School,,,,
student599,,secret,91,9999990598,Pioneer School,,,,
student600,,secret,91,9999990599,Pioneer School,,,,
student601,,secret,91,9999990600,Pioneer School,,,,
student602,,secret,91,9999990601,Pioneer School,,,,
student603,,secret,91,9999990602,Pioneer School,,,,
student604,,secret,91,9999990603,Pioneer School,,,,
student605,,secret,91,9999990604,Pioneer School,,,,
student606,,secret,91,9999990605,Pioneer School,,,,
student607,,secret,91,9999990606,Pioneer School,,,,
student608,,secret,91,9999990607,Pioneer School,,,,
student609,,secret,91,9999990608,Pioneer School,,,,
student610,,secret,91,9999990609,Pioneer School,,,,
student611,,secret,91,9999990610,Pioneer School,,,,
student612,,secret,91,9999990611,Pioneer School,,,,
student613,,secret,91,9999990612,Pioneer School,,,,
student614,,secret,91,9999990613,Pioneer School,,,,
student615,,secret,91,9999990614,Pioneer School,,,,
student616,,secret,91,9999990615,Pioneer School,,,,
student617,,secret,91,9999990616,Pioneer School,,,,
student618,,secret,91,9999990617,Pioneer School,,,,
student619,,secret,91,9999990618,Pioneer School,,,,
student620,,secret,91,9999990619,Pioneer School,,,,
student621,,secret,91,9999990620,Pioneer School,,,,
student622,,secret,91,9999990621,Pioneer School,,,,
student623,,secret,91,9999990622,Pioneer School,,,,
student624,,secret,91,9999990623,Pioneer School,,,,
student625,,secret,91,9999990624,Pioneer School,,,,
student626,,secret,91,9999990625,Pioneer School,,,,
student627,,secret,91,9999990626,Pioneer School,,,,
student628,,secret,91,9999990627,Pioneer School,,,,
student629,,secret,91,9999990628,Pioneer School,,,,
student630,,secret,91,9999990629,Pioneer School,,,,
student631,,secret,91,9999990630,Pioneer School,,,,
student632,,secret,91,9999990631,Pioneer School,,,,
student633,,secret,91,9999990632,Pioneer School,,,,
student634,,secret,91,9999990633,Pioneer School,,,,
student635,,secret,91,9999990634,Pioneer School,,,,
student636,,secret,91,9999990635,Pioneer School,,,,
