Student Name,Contact Number,School Name,Quiz Name,Round Name,Question 1,Question 2,Question 3,Duration (format: 01H 00M 00S 00MS)
,,,Correct Answer: Enter Y,Incorrect Answer : Enter N,Cristiano ronaldo belongs to which international team?,Did Italy qualify into the World Cup 2018? (Answer is Yes or No),Which position does Lionel Messi Play?,
,,,,,,,,
People1,212711100,UMW,TuneTalk Challenge,Fifth Round,Y,Y,Y,00H 00M 00S 10MS
