Student Name,Contact Number,School Name,Quiz Name,Round Name,Question 1,Question 2,Question 3,Question 4,Question 5,Duration (format: 01H 00M 00S 00MS)
,,,Correct Answer: Enter Y,Incorrect Answer : Enter N,Which of the following is true about demand and price of a good or service?,Which of the following statements is true?,"Before you buy something, what is it that you should always match?",Which of the following is a hidden cost that is usually a part of the price of something.,Which of the following is NOT a smart buying habit?,
Student401,891000400,Assunta,TuneTalk Challenge 1,Round 1,Y,Y,Y,Y,N,00H 00M 30S 15MS
Student402,891000401,Assunta,TuneTalk Challenge 1,Round 1,Y,Y,Y,Y,N,00H 00M 30S 15MS
Student403,891000402,Assunta,TuneTalk Challenge 1,Round 1,Y,Y,Y,Y,N,00H 00M 30S 15MS
Student404,891000403,Assunta,TuneTalk Challenge 1,Round 1,Y,Y,Y,Y,N,00H 00M 30S 15MS
Student405,891000404,Assunta,TuneTalk Challenge 1,Round 1,Y,Y,Y,Y,N,00H 00M 30S 15MS
Student406,891000405,Assunta,TuneTalk Challenge 1,Round 1,Y,Y,Y,Y,N,00H 00M 30S 15MS
Student407,891000406,Assunta,TuneTalk Challenge 1,Round 1,Y,Y,Y,Y,N,00H 00M 30S 15MS
Student408,891000407,Assunta,TuneTalk Challenge 1,Round 1,Y,Y,Y,Y,N,00H 00M 30S 15MS
Student409,891000408,Assunta,TuneTalk Challenge 1,Round 1,Y,Y,Y,Y,N,00H 00M 30S 15MS
Student410,891000409,Assunta,TuneTalk Challenge 1,Round 1,Y,Y,Y,Y,N,00H 00M 30S 15MS
Student411,891000410,Assunta,TuneTalk Challenge 1,Round 1,Y,Y,Y,Y,N,00H 00M 30S 15MS
Student412,891000411,Assunta,TuneTalk Challenge 1,Round 1,Y,Y,Y,Y,N,00H 00M 30S 15MS
Student413,891000412,Assunta,TuneTalk Challenge 1,Round 1,Y,Y,Y,Y,N,00H 00M 30S 15MS
Student414,891000413,Assunta,TuneTalk Challenge 1,Round 1,Y,Y,Y,Y,N,00H 00M 30S 15MS
Student415,891000414,Assunta,TuneTalk Challenge 1,Round 1,Y,Y,Y,Y,N,00H 00M 30S 15MS
Student416,891000415,Assunta,TuneTalk Challenge 1,Round 1,Y,Y,Y,Y,N,00H 00M 30S 15MS
Student417,891000416,Assunta,TuneTalk Challenge 1,Round 1,Y,Y,Y,Y,N,00H 00M 30S 15MS
Student418,891000417,Assunta,TuneTalk Challenge 1,Round 1,Y,Y,Y,Y,N,00H 00M 30S 15MS
Student419,891000418,Assunta,TuneTalk Challenge 1,Round 1,Y,Y,Y,Y,N,00H 00M 30S 15MS
Student420,891000419,Assunta,TuneTalk Challenge 1,Round 1,Y,Y,Y,Y,N,00H 00M 30S 15MS
Student421,891000420,Assunta,TuneTalk Challenge 1,Round 1,Y,Y,Y,Y,N,00H 00M 30S 15MS
Student422,891000421,Assunta,TuneTalk Challenge 1,Round 1,Y,Y,Y,Y,N,00H 00M 30S 15MS
Student423,891000422,Assunta,TuneTalk Challenge 1,Round 1,Y,Y,Y,Y,N,00H 00M 30S 15MS
Student424,891000423,Assunta,TuneTalk Challenge 1,Round 1,Y,Y,Y,Y,N,00H 00M 30S 15MS
Student425,891000424,Assunta,TuneTalk Challenge 1,Round 1,Y,Y,Y,Y,N,00H 00M 30S 15MS
Student426,891000425,Assunta,TuneTalk Challenge 1,Round 1,Y,Y,Y,Y,N,00H 00M 30S 15MS
Student427,891000426,Assunta,TuneTalk Challenge 1,Round 1,Y,Y,Y,Y,N,00H 00M 30S 15MS
Student428,891000427,Assunta,TuneTalk Challenge 1,Round 1,Y,Y,Y,Y,N,00H 00M 30S 15MS
Student429,891000428,Assunta,TuneTalk Challenge 1,Round 1,Y,Y,Y,Y,N,00H 00M 30S 15MS
Student430,891000429,Assunta,TuneTalk Challenge 1,Round 1,Y,Y,Y,Y,N,00H 00M 30S 15MS
Student431,891000430,Assunta,TuneTalk Challenge 1,Round 1,Y,Y,Y,Y,N,00H 00M 30S 15MS
Student432,891000431,Assunta,TuneTalk Challenge 1,Round 1,Y,Y,Y,Y,N,00H 00M 30S 15MS
Student433,891000432,Assunta,TuneTalk Challenge 1,Round 1,Y,Y,Y,Y,N,00H 00M 30S 15MS
Student434,891000433,Assunta,TuneTalk Challenge 1,Round 1,Y,Y,Y,Y,N,00H 00M 30S 15MS
Student435,891000434,Assunta,TuneTalk Challenge 1,Round 1,Y,Y,Y,Y,N,00H 00M 30S 15MS
Student436,891000435,Assunta,TuneTalk Challenge 1,Round 1,Y,Y,Y,Y,N,00H 00M 30S 15MS
Student437,891000436,Assunta,TuneTalk Challenge 1,Round 1,Y,Y,Y,Y,N,00H 00M 30S 15MS
Student438,891000437,Assunta,TuneTalk Challenge 1,Round 1,Y,Y,Y,Y,N,00H 00M 30S 15MS
Student439,891000438,Assunta,TuneTalk Challenge 1,Round 1,Y,Y,Y,Y,N,00H 00M 30S 15MS
Student440,891000439,Assunta,TuneTalk Challenge 1,Round 1,Y,Y,Y,Y,N,00H 00M 30S 15MS
Student441,891000440,Assunta,TuneTalk Challenge 1,Round 1,Y,Y,Y,Y,N,00H 00M 30S 15MS
Student442,891000441,Assunta,TuneTalk Challenge 1,Round 1,Y,Y,Y,Y,N,00H 00M 30S 15MS
Student443,891000442,Assunta,TuneTalk Challenge 1,Round 1,Y,Y,Y,Y,N,00H 00M 30S 15MS
Student444,891000443,Assunta,TuneTalk Challenge 1,Round 1,Y,Y,Y,Y,N,00H 00M 30S 15MS
Student445,891000444,Assunta,TuneTalk Challenge 1,Round 1,Y,Y,Y,Y,N,00H 00M 30S 15MS
Student446,891000445,Assunta,TuneTalk Challenge 1,Round 1,Y,Y,Y,Y,N,00H 00M 30S 15MS
Student447,891000446,Assunta,TuneTalk Challenge 1,Round 1,Y,Y,Y,Y,N,00H 00M 30S 15MS
Student448,891000447,Assunta,TuneTalk Challenge 1,Round 1,Y,Y,Y,Y,N,00H 00M 30S 15MS
Student449,891000448,Assunta,TuneTalk Challenge 1,Round 1,Y,Y,Y,Y,N,00H 00M 30S 15MS
Student450,891000449,Assunta,TuneTalk Challenge 1,Round 1,Y,Y,Y,Y,N,00H 00M 30S 15MS
Student451,891000450,Assunta,TuneTalk Challenge 1,Round 1,Y,Y,Y,Y,N,00H 00M 30S 15MS
Student452,891000451,Assunta,TuneTalk Challenge 1,Round 1,Y,Y,Y,Y,N,00H 00M 30S 15MS
Student453,891000452,Assunta,TuneTalk Challenge 1,Round 1,Y,Y,Y,Y,N,00H 00M 30S 15MS
Student454,891000453,Assunta,TuneTalk Challenge 1,Round 1,Y,Y,Y,Y,N,00H 00M 30S 15MS
Student455,891000454,Assunta,TuneTalk Challenge 1,Round 1,Y,Y,Y,Y,N,00H 00M 30S 15MS
Student456,891000455,Assunta,TuneTalk Challenge 1,Round 1,Y,Y,Y,Y,N,00H 00M 30S 15MS
Student457,891000456,Assunta,TuneTalk Challenge 1,Round 1,Y,Y,Y,Y,N,00H 00M 30S 15MS
Student458,891000457,Assunta,TuneTalk Challenge 1,Round 1,Y,Y,Y,Y,N,00H 00M 30S 15MS
Student459,891000458,Assunta,TuneTalk Challenge 1,Round 1,Y,Y,Y,Y,N,00H 00M 30S 15MS
Student460,891000459,Assunta,TuneTalk Challenge 1,Round 1,Y,Y,Y,Y,N,00H 00M 30S 15MS
Student461,891000460,Assunta,TuneTalk Challenge 1,Round 1,Y,Y,Y,Y,N,00H 00M 30S 15MS
Student462,891000461,Assunta,TuneTalk Challenge 1,Round 1,Y,Y,Y,Y,N,00H 00M 30S 15MS
Student463,891000462,Assunta,TuneTalk Challenge 1,Round 1,Y,Y,Y,Y,N,00H 00M 30S 15MS
Student464,891000463,Assunta,TuneTalk Challenge 1,Round 1,Y,Y,Y,Y,N,00H 00M 30S 15MS
Student465,891000464,Assunta,TuneTalk Challenge 1,Round 1,Y,Y,Y,Y,N,00H 00M 30S 15MS
Student466,891000465,Assunta,TuneTalk Challenge 1,Round 1,Y,Y,Y,Y,N,00H 00M 30S 15MS
Student467,891000466,Assunta,TuneTalk Challenge 1,Round 1,Y,Y,Y,Y,N,00H 00M 30S 15MS
Student468,891000467,Assunta,TuneTalk Challenge 1,Round 1,Y,Y,Y,Y,N,00H 00M 30S 15MS
Student469,891000468,Assunta,TuneTalk Challenge 1,Round 1,Y,Y,Y,Y,N,00H 00M 30S 15MS
Student470,891000469,Assunta,TuneTalk Challenge 1,Round 1,Y,Y,Y,Y,N,00H 00M 30S 15MS
Student471,891000470,Assunta,TuneTalk Challenge 1,Round 1,Y,Y,Y,Y,N,00H 00M 30S 15MS
Student472,891000471,Assunta,TuneTalk Challenge 1,Round 1,Y,Y,Y,Y,N,00H 00M 30S 15MS
Student473,891000472,Assunta,TuneTalk Challenge 1,Round 1,Y,Y,Y,Y,N,00H 00M 30S 15MS
Student474,891000473,Assunta,TuneTalk Challenge 1,Round 1,Y,Y,Y,Y,N,00H 00M 30S 15MS
Student475,891000474,Assunta,TuneTalk Challenge 1,Round 1,Y,Y,Y,Y,N,00H 00M 30S 15MS
Student476,891000475,Assunta,TuneTalk Challenge 1,Round 1,Y,Y,Y,Y,N,00H 00M 30S 15MS
Student477,891000476,Assunta,TuneTalk Challenge 1,Round 1,Y,Y,Y,Y,N,00H 00M 30S 15MS
Student478,891000477,Assunta,TuneTalk Challenge 1,Round 1,Y,Y,Y,Y,N,00H 00M 30S 15MS
Student479,891000478,Assunta,TuneTalk Challenge 1,Round 1,Y,Y,Y,Y,N,00H 00M 30S 15MS
Student480,891000479,Assunta,TuneTalk Challenge 1,Round 1,Y,Y,Y,Y,N,00H 00M 30S 15MS
Student481,891000480,Assunta,TuneTalk Challenge 1,Round 1,Y,Y,Y,Y,N,00H 00M 30S 15MS
Student482,891000481,Assunta,TuneTalk Challenge 1,Round 1,Y,Y,Y,Y,N,00H 00M 30S 15MS
Student483,891000482,Assunta,TuneTalk Challenge 1,Round 1,Y,Y,Y,Y,N,00H 00M 30S 15MS
Student484,891000483,Assunta,TuneTalk Challenge 1,Round 1,Y,Y,Y,Y,N,00H 00M 30S 15MS
Student485,891000484,Assunta,TuneTalk Challenge 1,Round 1,Y,Y,Y,Y,N,00H 00M 30S 15MS
Student486,891000485,Assunta,TuneTalk Challenge 1,Round 1,Y,Y,Y,Y,N,00H 00M 30S 15MS
Student487,891000486,Assunta,TuneTalk Challenge 1,Round 1,Y,Y,Y,Y,N,00H 00M 30S 15MS
Student488,891000487,Assunta,TuneTalk Challenge 1,Round 1,Y,Y,Y,Y,N,00H 00M 30S 15MS
Student489,891000488,Assunta,TuneTalk Challenge 1,Round 1,Y,Y,Y,Y,N,00H 00M 30S 15MS
Student490,891000489,Assunta,TuneTalk Challenge 1,Round 1,Y,Y,Y,Y,N,00H 00M 30S 15MS
Student491,891000490,Assunta,TuneTalk Challenge 1,Round 1,Y,Y,Y,Y,N,00H 00M 30S 15MS
Student492,891000491,Assunta,TuneTalk Challenge 1,Round 1,Y,Y,Y,Y,N,00H 00M 30S 15MS
Student493,891000492,Assunta,TuneTalk Challenge 1,Round 1,Y,Y,Y,Y,N,00H 00M 30S 15MS
Student494,891000493,Assunta,TuneTalk Challenge 1,Round 1,Y,Y,Y,Y,N,00H 00M 30S 15MS
Student495,891000494,Assunta,TuneTalk Challenge 1,Round 1,Y,Y,Y,Y,N,00H 00M 30S 15MS
Student496,891000495,Assunta,TuneTalk Challenge 1,Round 1,Y,Y,Y,Y,N,00H 00M 30S 15MS
Student497,891000496,Assunta,TuneTalk Challenge 1,Round 1,Y,Y,Y,Y,N,00H 00M 30S 15MS
Student498,891000497,Assunta,TuneTalk Challenge 1,Round 1,Y,Y,Y,Y,N,00H 00M 30S 15MS
Student499,891000498,Assunta,TuneTalk Challenge 1,Round 1,Y,Y,Y,Y,N,00H 00M 30S 15MS
Student500,891000499,Assunta,TuneTalk Challenge 1,Round 1,Y,Y,Y,Y,N,00H 00M 30S 15MS
Student501,891000500,Assunta,TuneTalk Challenge 1,Round 1,Y,Y,Y,Y,N,00H 00M 30S 15MS
Student502,891000501,Assunta,TuneTalk Challenge 1,Round 1,Y,Y,Y,Y,N,00H 00M 30S 15MS
Student503,891000502,Assunta,TuneTalk Challenge 1,Round 1,Y,Y,Y,Y,N,00H 00M 30S 15MS
Student504,891000503,Assunta,TuneTalk Challenge 1,Round 1,Y,Y,Y,Y,N,00H 00M 30S 15MS
Student505,891000504,Assunta,TuneTalk Challenge 1,Round 1,Y,Y,Y,Y,N,00H 00M 30S 15MS
Student506,891000505,Assunta,TuneTalk Challenge 1,Round 1,Y,Y,Y,Y,N,00H 00M 30S 15MS
Student507,891000506,Assunta,TuneTalk Challenge 1,Round 1,Y,Y,Y,Y,N,00H 00M 30S 15MS
Student508,891000507,Assunta,TuneTalk Challenge 1,Round 1,Y,Y,Y,Y,N,00H 00M 30S 15MS
Student509,891000508,Assunta,TuneTalk Challenge 1,Round 1,Y,Y,Y,Y,N,00H 00M 30S 15MS
Student510,891000509,Assunta,TuneTalk Challenge 1,Round 1,Y,Y,Y,Y,N,00H 00M 30S 15MS
Student511,891000510,Assunta,TuneTalk Challenge 1,Round 1,Y,Y,Y,Y,N,00H 00M 30S 15MS
Student512,891000511,Assunta,TuneTalk Challenge 1,Round 1,Y,Y,Y,Y,N,00H 00M 30S 15MS
Student513,891000512,Assunta,TuneTalk Challenge 1,Round 1,Y,Y,Y,Y,N,00H 00M 30S 15MS
Student514,891000513,Assunta,TuneTalk Challenge 1,Round 1,Y,Y,Y,Y,N,00H 00M 30S 15MS
Student515,891000514,Assunta,TuneTalk Challenge 1,Round 1,Y,Y,Y,Y,N,00H 00M 30S 15MS
Student516,891000515,Assunta,TuneTalk Challenge 1,Round 1,Y,Y,Y,Y,N,00H 00M 30S 15MS
Student517,891000516,Assunta,TuneTalk Challenge 1,Round 1,Y,Y,Y,Y,N,00H 00M 30S 15MS
Student518,891000517,Assunta,TuneTalk Challenge 1,Round 1,Y,Y,Y,Y,N,00H 00M 30S 15MS
Student519,891000518,Assunta,TuneTalk Challenge 1,Round 1,Y,Y,Y,Y,N,00H 00M 30S 15MS
Student520,891000519,Assunta,TuneTalk Challenge 1,Round 1,Y,Y,Y,Y,N,00H 00M 30S 15MS
Student521,891000520,Assunta,TuneTalk Challenge 1,Round 1,Y,Y,Y,Y,N,00H 00M 30S 15MS
Student522,891000521,Assunta,TuneTalk Challenge 1,Round 1,Y,Y,Y,Y,N,00H 00M 30S 15MS
Student523,891000522,Assunta,TuneTalk Challenge 1,Round 1,Y,Y,Y,Y,N,00H 00M 30S 15MS
Student524,891000523,Assunta,TuneTalk Challenge 1,Round 1,Y,Y,Y,Y,N,00H 00M 30S 15MS
Student525,891000524,Assunta,TuneTalk Challenge 1,Round 1,Y,Y,Y,Y,N,00H 00M 30S 15MS
Student526,891000525,Assunta,TuneTalk Challenge 1,Round 1,Y,Y,Y,Y,N,00H 00M 30S 15MS
Student527,891000526,Assunta,TuneTalk Challenge 1,Round 1,Y,Y,Y,Y,N,00H 00M 30S 15MS
Student528,891000527,Assunta,TuneTalk Challenge 1,Round 1,Y,Y,Y,Y,N,00H 00M 30S 15MS
Student529,891000528,Assunta,TuneTalk Challenge 1,Round 1,Y,Y,Y,Y,N,00H 00M 30S 15MS
Student530,891000529,Assunta,TuneTalk Challenge 1,Round 1,Y,Y,Y,Y,N,00H 00M 30S 15MS
Student531,891000530,Assunta,TuneTalk Challenge 1,Round 1,Y,Y,Y,Y,N,00H 00M 30S 15MS
Student532,891000531,Assunta,TuneTalk Challenge 1,Round 1,Y,Y,Y,Y,N,00H 00M 30S 15MS
Student533,891000532,Assunta,TuneTalk Challenge 1,Round 1,Y,Y,Y,Y,N,00H 00M 30S 15MS
Student534,891000533,Assunta,TuneTalk Challenge 1,Round 1,Y,Y,Y,Y,N,00H 00M 30S 15MS
Student535,891000534,Assunta,TuneTalk Challenge 1,Round 1,Y,Y,Y,Y,N,00H 00M 30S 15MS
Student536,891000535,Assunta,TuneTalk Challenge 1,Round 1,Y,Y,Y,Y,N,00H 00M 30S 15MS
Student537,891000536,Assunta,TuneTalk Challenge 1,Round 1,Y,Y,Y,Y,N,00H 00M 30S 15MS
Student538,891000537,Assunta,TuneTalk Challenge 1,Round 1,Y,Y,Y,Y,N,00H 00M 30S 15MS
Student539,891000538,Assunta,TuneTalk Challenge 1,Round 1,Y,Y,Y,Y,N,00H 00M 30S 15MS
Student540,891000539,Assunta,TuneTalk Challenge 1,Round 1,Y,Y,Y,Y,N,00H 00M 30S 15MS
Student541,891000540,Assunta,TuneTalk Challenge 1,Round 1,Y,Y,Y,Y,N,00H 00M 30S 15MS
Student542,891000541,Assunta,TuneTalk Challenge 1,Round 1,Y,Y,Y,Y,N,00H 00M 30S 15MS
Student543,891000542,Assunta,TuneTalk Challenge 1,Round 1,Y,Y,Y,Y,N,00H 00M 30S 15MS
Student544,891000543,Assunta,TuneTalk Challenge 1,Round 1,Y,Y,Y,Y,N,00H 00M 30S 15MS
Student545,891000544,Assunta,TuneTalk Challenge 1,Round 1,Y,Y,Y,Y,N,00H 00M 30S 15MS
Student546,891000545,Assunta,TuneTalk Challenge 1,Round 1,Y,Y,Y,Y,N,00H 00M 30S 15MS
Student547,891000546,Assunta,TuneTalk Challenge 1,Round 1,Y,Y,Y,Y,N,00H 00M 30S 15MS
Student548,891000547,Assunta,TuneTalk Challenge 1,Round 1,Y,Y,Y,Y,N,00H 00M 30S 15MS
Student549,891000548,Assunta,TuneTalk Challenge 1,Round 1,Y,Y,Y,Y,N,00H 00M 30S 15MS
Student550,891000549,Assunta,TuneTalk Challenge 1,Round 1,Y,Y,Y,Y,N,00H 00M 30S 15MS
Student551,891000550,Assunta,TuneTalk Challenge 1,Round 1,Y,Y,Y,Y,N,00H 00M 30S 15MS
Student552,891000551,Assunta,TuneTalk Challenge 1,Round 1,Y,Y,Y,Y,N,00H 00M 30S 15MS
Student553,891000552,Assunta,TuneTalk Challenge 1,Round 1,Y,Y,Y,Y,N,00H 00M 30S 15MS
Student554,891000553,Assunta,TuneTalk Challenge 1,Round 1,Y,Y,Y,Y,N,00H 00M 30S 15MS
Student555,891000554,Assunta,TuneTalk Challenge 1,Round 1,Y,Y,Y,Y,N,00H 00M 30S 15MS
Student556,891000555,Assunta,TuneTalk Challenge 1,Round 1,Y,Y,Y,Y,N,00H 00M 30S 15MS
Student557,891000556,Assunta,TuneTalk Challenge 1,Round 1,Y,Y,Y,Y,N,00H 00M 30S 15MS
Student558,891000557,Assunta,TuneTalk Challenge 1,Round 1,Y,Y,Y,Y,N,00H 00M 30S 15MS
Student559,891000558,Assunta,TuneTalk Challenge 1,Round 1,Y,Y,Y,Y,N,00H 00M 30S 15MS
Student560,891000559,Assunta,TuneTalk Challenge 1,Round 1,Y,Y,Y,Y,N,00H 00M 30S 15MS
Student561,891000560,Assunta,TuneTalk Challenge 1,Round 1,Y,Y,Y,Y,N,00H 00M 30S 15MS
Student562,891000561,Assunta,TuneTalk Challenge 1,Round 1,Y,Y,Y,Y,N,00H 00M 30S 15MS
Student563,891000562,Assunta,TuneTalk Challenge 1,Round 1,Y,Y,Y,Y,N,00H 00M 30S 15MS
Student564,891000563,Assunta,TuneTalk Challenge 1,Round 1,Y,Y,Y,Y,N,00H 00M 30S 15MS
Student565,891000564,Assunta,TuneTalk Challenge 1,Round 1,Y,Y,Y,Y,N,00H 00M 30S 15MS
Student566,891000565,Assunta,TuneTalk Challenge 1,Round 1,Y,Y,Y,Y,N,00H 00M 30S 15MS
Student567,891000566,Assunta,TuneTalk Challenge 1,Round 1,Y,Y,Y,Y,N,00H 00M 30S 15MS
Student568,891000567,Assunta,TuneTalk Challenge 1,Round 1,Y,Y,Y,Y,N,00H 00M 30S 15MS
Student569,891000568,Assunta,TuneTalk Challenge 1,Round 1,Y,Y,Y,Y,N,00H 00M 30S 15MS
Student570,891000569,Assunta,TuneTalk Challenge 1,Round 1,Y,Y,Y,Y,N,00H 00M 30S 15MS
Student571,891000570,Assunta,TuneTalk Challenge 1,Round 1,Y,Y,Y,Y,N,00H 00M 30S 15MS
Student572,891000571,Assunta,TuneTalk Challenge 1,Round 1,Y,Y,Y,Y,N,00H 00M 30S 15MS
Student573,891000572,Assunta,TuneTalk Challenge 1,Round 1,Y,Y,Y,Y,N,00H 00M 30S 15MS
Student574,891000573,Assunta,TuneTalk Challenge 1,Round 1,Y,Y,Y,Y,N,00H 00M 30S 15MS
Student575,891000574,Assunta,TuneTalk Challenge 1,Round 1,Y,Y,Y,Y,N,00H 00M 30S 15MS
Student576,891000575,Assunta,TuneTalk Challenge 1,Round 1,Y,Y,Y,Y,N,00H 00M 30S 15MS
Student577,891000576,Assunta,TuneTalk Challenge 1,Round 1,Y,Y,Y,Y,N,00H 00M 30S 15MS
Student578,891000577,Assunta,TuneTalk Challenge 1,Round 1,Y,Y,Y,Y,N,00H 00M 30S 15MS
Student579,891000578,Assunta,TuneTalk Challenge 1,Round 1,Y,Y,Y,Y,N,00H 00M 30S 15MS
Student580,891000579,Assunta,TuneTalk Challenge 1,Round 1,Y,Y,Y,Y,N,00H 00M 30S 15MS
Student581,891000580,Assunta,TuneTalk Challenge 1,Round 1,Y,Y,Y,Y,N,00H 00M 30S 15MS
Student582,891000581,Assunta,TuneTalk Challenge 1,Round 1,Y,Y,Y,Y,N,00H 00M 30S 15MS
Student583,891000582,Assunta,TuneTalk Challenge 1,Round 1,Y,Y,Y,Y,N,00H 00M 30S 15MS
Student584,891000583,Assunta,TuneTalk Challenge 1,Round 1,Y,Y,Y,Y,N,00H 00M 30S 15MS
Student585,891000584,Assunta,TuneTalk Challenge 1,Round 1,Y,Y,Y,Y,N,00H 00M 30S 15MS
Student586,891000585,Assunta,TuneTalk Challenge 1,Round 1,Y,Y,Y,Y,N,00H 00M 30S 15MS
Student587,891000586,Assunta,TuneTalk Challenge 1,Round 1,Y,Y,Y,Y,N,00H 00M 30S 15MS
Student588,891000587,Assunta,TuneTalk Challenge 1,Round 1,Y,Y,Y,Y,N,00H 00M 30S 15MS
Student589,891000588,Assunta,TuneTalk Challenge 1,Round 1,Y,Y,Y,Y,N,00H 00M 30S 15MS
Student590,891000589,Assunta,TuneTalk Challenge 1,Round 1,Y,Y,Y,Y,N,00H 00M 30S 15MS
Student591,891000590,Assunta,TuneTalk Challenge 1,Round 1,Y,Y,Y,Y,N,00H 00M 30S 15MS
Student592,891000591,Assunta,TuneTalk Challenge 1,Round 1,Y,Y,Y,Y,N,00H 00M 30S 15MS
Student593,891000592,Assunta,TuneTalk Challenge 1,Round 1,Y,Y,Y,Y,N,00H 00M 30S 15MS
Student594,891000593,Assunta,TuneTalk Challenge 1,Round 1,Y,Y,Y,Y,N,00H 00M 30S 15MS
Student595,891000594,Assunta,TuneTalk Challenge 1,Round 1,Y,Y,Y,Y,N,00H 00M 30S 15MS
Student596,891000595,Assunta,TuneTalk Challenge 1,Round 1,Y,Y,Y,Y,N,00H 00M 30S 15MS
Student597,891000596,Assunta,TuneTalk Challenge 1,Round 1,Y,Y,Y,Y,N,00H 00M 30S 15MS
Student598,891000597,Assunta,TuneTalk Challenge 1,Round 1,Y,Y,Y,Y,N,00H 00M 30S 15MS
Student599,891000598,Assunta,TuneTalk Challenge 1,Round 1,Y,Y,Y,Y,N,00H 00M 30S 15MS
Student600,891000599,Assunta,TuneTalk Challenge 1,Round 1,Y,Y,Y,Y,N,00H 00M 30S 15MS
Student601,891000600,Assunta,TuneTalk Challenge 1,Round 1,Y,Y,Y,Y,N,00H 00M 30S 15MS
Student602,891000601,Assunta,TuneTalk Challenge 1,Round 1,Y,Y,Y,Y,N,00H 00M 30S 15MS
Student603,891000602,Assunta,TuneTalk Challenge 1,Round 1,Y,Y,Y,Y,N,00H 00M 30S 15MS
Student604,891000603,Assunta,TuneTalk Challenge 1,Round 1,Y,Y,Y,Y,N,00H 00M 30S 15MS
Student605,891000604,Assunta,TuneTalk Challenge 1,Round 1,Y,Y,Y,Y,N,00H 00M 30S 15MS
Student606,891000605,Assunta,TuneTalk Challenge 1,Round 1,Y,Y,Y,Y,N,00H 00M 30S 15MS
Student607,891000606,Assunta,TuneTalk Challenge 1,Round 1,Y,Y,Y,Y,N,00H 00M 30S 15MS
Student608,891000607,Assunta,TuneTalk Challenge 1,Round 1,Y,Y,Y,Y,N,00H 00M 30S 15MS
Student609,891000608,Assunta,TuneTalk Challenge 1,Round 1,Y,Y,Y,Y,N,00H 00M 30S 15MS
Student610,891000609,Assunta,TuneTalk Challenge 1,Round 1,Y,Y,Y,Y,N,00H 00M 30S 15MS
Student611,891000610,Assunta,TuneTalk Challenge 1,Round 1,Y,Y,Y,Y,N,00H 00M 30S 15MS
Student612,891000611,Assunta,TuneTalk Challenge 1,Round 1,Y,Y,Y,Y,N,00H 00M 30S 15MS
Student613,891000612,Assunta,TuneTalk Challenge 1,Round 1,Y,Y,Y,Y,N,00H 00M 30S 15MS
Student614,891000613,Assunta,TuneTalk Challenge 1,Round 1,Y,Y,Y,Y,N,00H 00M 30S 15MS
Student615,891000614,Assunta,TuneTalk Challenge 1,Round 1,Y,Y,Y,Y,N,00H 00M 30S 15MS
Student616,891000615,Assunta,TuneTalk Challenge 1,Round 1,Y,Y,Y,Y,N,00H 00M 30S 15MS
Student617,891000616,Assunta,TuneTalk Challenge 1,Round 1,Y,Y,Y,Y,N,00H 00M 30S 15MS
Student618,891000617,Assunta,TuneTalk Challenge 1,Round 1,Y,Y,Y,Y,N,00H 00M 30S 15MS
Student619,891000618,Assunta,TuneTalk Challenge 1,Round 1,Y,Y,Y,Y,N,00H 00M 30S 15MS
Student620,891000619,Assunta,TuneTalk Challenge 1,Round 1,Y,Y,Y,Y,N,00H 00M 30S 15MS
Student621,891000620,Assunta,TuneTalk Challenge 1,Round 1,Y,Y,Y,Y,N,00H 00M 30S 15MS
Student622,891000621,Assunta,TuneTalk Challenge 1,Round 1,Y,Y,Y,Y,N,00H 00M 30S 15MS
Student623,891000622,Assunta,TuneTalk Challenge 1,Round 1,Y,Y,Y,Y,N,00H 00M 30S 15MS
Student624,891000623,Assunta,TuneTalk Challenge 1,Round 1,Y,Y,Y,Y,N,00H 00M 30S 15MS
Student625,891000624,Assunta,TuneTalk Challenge 1,Round 1,Y,Y,Y,Y,N,00H 00M 30S 15MS
Student626,891000625,Assunta,TuneTalk Challenge 1,Round 1,Y,Y,Y,Y,N,00H 00M 30S 15MS
Student627,891000626,Assunta,TuneTalk Challenge 1,Round 1,Y,Y,Y,Y,N,00H 00M 30S 15MS
Student628,891000627,Assunta,TuneTalk Challenge 1,Round 1,Y,Y,Y,Y,N,00H 00M 30S 15MS
Student629,891000628,Assunta,TuneTalk Challenge 1,Round 1,Y,Y,Y,Y,N,00H 00M 30S 15MS
Student630,891000629,Assunta,TuneTalk Challenge 1,Round 1,Y,Y,Y,Y,N,00H 00M 30S 15MS
Student631,891000630,Assunta,TuneTalk Challenge 1,Round 1,Y,Y,Y,Y,N,00H 00M 30S 15MS
Student632,891000631,Assunta,TuneTalk Challenge 1,Round 1,Y,Y,Y,Y,N,00H 00M 30S 15MS
Student633,891000632,Assunta,TuneTalk Challenge 1,Round 1,Y,Y,Y,Y,N,00H 00M 30S 15MS
Student634,891000633,Assunta,TuneTalk Challenge 1,Round 1,Y,Y,Y,Y,N,00H 00M 30S 15MS
Student635,891000634,Assunta,TuneTalk Challenge 1,Round 1,Y,Y,Y,Y,N,00H 00M 30S 15MS
Student636,891000635,Assunta,TuneTalk Challenge 1,Round 1,Y,Y,Y,Y,N,00H 00M 30S 15MS
Student637,891000636,Assunta,TuneTalk Challenge 1,Round 1,Y,Y,Y,Y,N,00H 00M 30S 15MS
Student638,891000637,Assunta,TuneTalk Challenge 1,Round 1,Y,Y,Y,Y,N,00H 00M 30S 15MS
Student639,891000638,Assunta,TuneTalk Challenge 1,Round 1,Y,Y,Y,Y,N,00H 00M 30S 15MS
Student640,891000639,Assunta,TuneTalk Challenge 1,Round 1,Y,Y,Y,Y,N,00H 00M 30S 15MS
Student641,891000640,Assunta,TuneTalk Challenge 1,Round 1,Y,Y,Y,Y,N,00H 00M 30S 15MS
Student642,891000641,Assunta,TuneTalk Challenge 1,Round 1,Y,Y,Y,Y,N,00H 00M 30S 15MS
Student643,891000642,Assunta,TuneTalk Challenge 1,Round 1,Y,Y,Y,Y,N,00H 00M 30S 15MS
Student644,891000643,Assunta,TuneTalk Challenge 1,Round 1,Y,Y,Y,Y,N,00H 00M 30S 15MS
Student645,891000644,Assunta,TuneTalk Challenge 1,Round 1,Y,Y,Y,Y,N,00H 00M 30S 15MS
Student646,891000645,Assunta,TuneTalk Challenge 1,Round 1,Y,Y,Y,Y,N,00H 00M 30S 15MS
Student647,891000646,Assunta,TuneTalk Challenge 1,Round 1,Y,Y,Y,Y,N,00H 00M 30S 15MS
Student648,891000647,Assunta,TuneTalk Challenge 1,Round 1,Y,Y,Y,Y,N,00H 00M 30S 15MS
Student649,891000648,Assunta,TuneTalk Challenge 1,Round 1,Y,Y,Y,Y,N,00H 00M 30S 15MS
Student650,891000649,Assunta,TuneTalk Challenge 1,Round 1,Y,Y,Y,Y,N,00H 00M 30S 15MS
Student651,891000650,Assunta,TuneTalk Challenge 1,Round 1,Y,Y,Y,Y,N,00H 00M 30S 15MS
Student652,891000651,Assunta,TuneTalk Challenge 1,Round 1,Y,Y,Y,Y,N,00H 00M 30S 15MS
Student653,891000652,Assunta,TuneTalk Challenge 1,Round 1,Y,Y,Y,Y,N,00H 00M 30S 15MS
Student654,891000653,Assunta,TuneTalk Challenge 1,Round 1,Y,Y,Y,Y,N,00H 00M 30S 15MS
Student655,891000654,Assunta,TuneTalk Challenge 1,Round 1,Y,Y,Y,Y,N,00H 00M 30S 15MS
Student656,891000655,Assunta,TuneTalk Challenge 1,Round 1,Y,Y,Y,Y,N,00H 00M 30S 15MS
Student657,891000656,Assunta,TuneTalk Challenge 1,Round 1,Y,Y,Y,Y,N,00H 00M 30S 15MS
Student658,891000657,Assunta,TuneTalk Challenge 1,Round 1,Y,Y,Y,Y,N,00H 00M 30S 15MS
Student659,891000658,Assunta,TuneTalk Challenge 1,Round 1,Y,Y,Y,Y,N,00H 00M 30S 15MS
Student660,891000659,Assunta,TuneTalk Challenge 1,Round 1,Y,Y,Y,Y,N,00H 00M 30S 15MS
Student661,891000660,Assunta,TuneTalk Challenge 1,Round 1,Y,Y,Y,Y,N,00H 00M 30S 15MS
Student662,891000661,Assunta,TuneTalk Challenge 1,Round 1,Y,Y,Y,Y,N,00H 00M 30S 15MS
Student663,891000662,Assunta,TuneTalk Challenge 1,Round 1,Y,Y,Y,Y,N,00H 00M 30S 15MS
Student664,891000663,Assunta,TuneTalk Challenge 1,Round 1,Y,Y,Y,Y,N,00H 00M 30S 15MS
Student665,891000664,Assunta,TuneTalk Challenge 1,Round 1,Y,Y,Y,Y,N,00H 00M 30S 15MS
Student666,891000665,Assunta,TuneTalk Challenge 1,Round 1,Y,Y,Y,Y,N,00H 00M 30S 15MS
Student667,891000666,Assunta,TuneTalk Challenge 1,Round 1,Y,Y,Y,Y,N,00H 00M 30S 15MS
Student668,891000667,Assunta,TuneTalk Challenge 1,Round 1,Y,Y,Y,Y,N,00H 00M 30S 15MS
Student669,891000668,Assunta,TuneTalk Challenge 1,Round 1,Y,Y,Y,Y,N,00H 00M 30S 15MS
Student670,891000669,Assunta,TuneTalk Challenge 1,Round 1,Y,Y,Y,Y,N,00H 00M 30S 15MS
Student671,891000670,Assunta,TuneTalk Challenge 1,Round 1,Y,Y,Y,Y,N,00H 00M 30S 15MS
Student672,891000671,Assunta,TuneTalk Challenge 1,Round 1,Y,Y,Y,Y,N,00H 00M 30S 15MS
Student673,891000672,Assunta,TuneTalk Challenge 1,Round 1,Y,Y,Y,Y,N,00H 00M 30S 15MS
Student674,891000673,Assunta,TuneTalk Challenge 1,Round 1,Y,Y,Y,Y,N,00H 00M 30S 15MS
Student675,891000674,Assunta,TuneTalk Challenge 1,Round 1,Y,Y,Y,Y,N,00H 00M 30S 15MS
Student676,891000675,Assunta,TuneTalk Challenge 1,Round 1,Y,Y,Y,Y,N,00H 00M 30S 15MS
Student677,891000676,Assunta,TuneTalk Challenge 1,Round 1,Y,Y,Y,Y,N,00H 00M 30S 15MS
Student678,891000677,Assunta,TuneTalk Challenge 1,Round 1,Y,Y,Y,Y,N,00H 00M 30S 15MS
Student679,891000678,Assunta,TuneTalk Challenge 1,Round 1,Y,Y,Y,Y,N,00H 00M 30S 15MS
Student680,891000679,Assunta,TuneTalk Challenge 1,Round 1,Y,Y,Y,Y,N,00H 00M 30S 15MS
Student681,891000680,Assunta,TuneTalk Challenge 1,Round 1,Y,Y,Y,Y,N,00H 00M 30S 15MS
Student682,891000681,Assunta,TuneTalk Challenge 1,Round 1,Y,Y,Y,Y,N,00H 00M 30S 15MS
Student683,891000682,Assunta,TuneTalk Challenge 1,Round 1,Y,Y,Y,Y,N,00H 00M 30S 15MS
Student684,891000683,Assunta,TuneTalk Challenge 1,Round 1,Y,Y,Y,Y,N,00H 00M 30S 15MS
Student685,891000684,Assunta,TuneTalk Challenge 1,Round 1,Y,Y,Y,Y,N,00H 00M 30S 15MS
Student686,891000685,Assunta,TuneTalk Challenge 1,Round 1,Y,Y,Y,Y,N,00H 00M 30S 15MS
Student687,891000686,Assunta,TuneTalk Challenge 1,Round 1,Y,Y,Y,Y,N,00H 00M 30S 15MS
Student688,891000687,Assunta,TuneTalk Challenge 1,Round 1,Y,Y,Y,Y,N,00H 00M 30S 15MS
Student689,891000688,Assunta,TuneTalk Challenge 1,Round 1,Y,Y,Y,Y,N,00H 00M 30S 15MS
Student690,891000689,Assunta,TuneTalk Challenge 1,Round 1,Y,Y,Y,Y,N,00H 00M 30S 15MS
Student691,891000690,Assunta,TuneTalk Challenge 1,Round 1,Y,Y,Y,Y,N,00H 00M 30S 15MS
Student692,891000691,Assunta,TuneTalk Challenge 1,Round 1,Y,Y,Y,Y,N,00H 00M 30S 15MS
Student693,891000692,Assunta,TuneTalk Challenge 1,Round 1,Y,Y,Y,Y,N,00H 00M 30S 15MS
Student694,891000693,Assunta,TuneTalk Challenge 1,Round 1,Y,Y,Y,Y,N,00H 00M 30S 15MS
Student695,891000694,Assunta,TuneTalk Challenge 1,Round 1,Y,Y,Y,Y,N,00H 00M 30S 15MS
Student696,891000695,Assunta,TuneTalk Challenge 1,Round 1,Y,Y,Y,Y,N,00H 00M 30S 15MS
Student697,891000696,Assunta,TuneTalk Challenge 1,Round 1,Y,Y,Y,Y,N,00H 00M 30S 15MS
Student698,891000697,Assunta,TuneTalk Challenge 1,Round 1,Y,Y,Y,Y,N,00H 00M 30S 15MS
Student699,891000698,Assunta,TuneTalk Challenge 1,Round 1,Y,Y,Y,Y,N,00H 00M 30S 15MS
Student700,891000699,Assunta,TuneTalk Challenge 1,Round 1,Y,Y,Y,Y,N,00H 00M 30S 15MS
Student701,891000700,Assunta,TuneTalk Challenge 1,Round 1,Y,Y,Y,Y,N,00H 00M 30S 15MS
Student702,891000701,Assunta,TuneTalk Challenge 1,Round 1,Y,Y,Y,Y,N,00H 00M 30S 15MS
Student703,891000702,Assunta,TuneTalk Challenge 1,Round 1,Y,Y,Y,Y,N,00H 00M 30S 15MS
Student704,891000703,Assunta,TuneTalk Challenge 1,Round 1,Y,Y,Y,Y,N,00H 00M 30S 15MS
Student705,891000704,Assunta,TuneTalk Challenge 1,Round 1,Y,Y,Y,Y,N,00H 00M 30S 15MS
Student706,891000705,Assunta,TuneTalk Challenge 1,Round 1,Y,Y,Y,Y,N,00H 00M 30S 15MS
Student707,891000706,Assunta,TuneTalk Challenge 1,Round 1,Y,Y,Y,Y,N,00H 00M 30S 15MS
Student708,891000707,Assunta,TuneTalk Challenge 1,Round 1,Y,Y,Y,Y,N,00H 00M 30S 15MS
Student709,891000708,Assunta,TuneTalk Challenge 1,Round 1,Y,Y,Y,Y,N,00H 00M 30S 15MS
Student710,891000709,Assunta,TuneTalk Challenge 1,Round 1,Y,Y,Y,Y,N,00H 00M 30S 15MS
Student711,891000710,Assunta,TuneTalk Challenge 1,Round 1,Y,Y,Y,Y,N,00H 00M 30S 15MS
Student712,891000711,Assunta,TuneTalk Challenge 1,Round 1,Y,Y,Y,Y,N,00H 00M 30S 15MS
Student713,891000712,Assunta,TuneTalk Challenge 1,Round 1,Y,Y,Y,Y,N,00H 00M 30S 15MS
Student714,891000713,Assunta,TuneTalk Challenge 1,Round 1,Y,Y,Y,Y,N,00H 00M 30S 15MS
Student715,891000714,Assunta,TuneTalk Challenge 1,Round 1,Y,Y,Y,Y,N,00H 00M 30S 15MS
Student716,891000715,Assunta,TuneTalk Challenge 1,Round 1,Y,Y,Y,Y,N,00H 00M 30S 15MS
Student717,891000716,Assunta,TuneTalk Challenge 1,Round 1,Y,Y,Y,Y,N,00H 00M 30S 15MS
Student718,891000717,Assunta,TuneTalk Challenge 1,Round 1,Y,Y,Y,Y,N,00H 00M 30S 15MS
Student719,891000718,Assunta,TuneTalk Challenge 1,Round 1,Y,Y,Y,Y,N,00H 00M 30S 15MS
Student720,891000719,Assunta,TuneTalk Challenge 1,Round 1,Y,Y,Y,Y,N,00H 00M 30S 15MS
Student721,891000720,Assunta,TuneTalk Challenge 1,Round 1,Y,Y,Y,Y,N,00H 00M 30S 15MS
Student722,891000721,Assunta,TuneTalk Challenge 1,Round 1,Y,Y,Y,Y,N,00H 00M 30S 15MS
Student723,891000722,Assunta,TuneTalk Challenge 1,Round 1,Y,Y,Y,Y,N,00H 00M 30S 15MS
Student724,891000723,Assunta,TuneTalk Challenge 1,Round 1,Y,Y,Y,Y,N,00H 00M 30S 15MS
Student725,891000724,Assunta,TuneTalk Challenge 1,Round 1,Y,Y,Y,Y,N,00H 00M 30S 15MS
Student726,891000725,Assunta,TuneTalk Challenge 1,Round 1,Y,Y,Y,Y,N,00H 00M 30S 15MS
Student727,891000726,Assunta,TuneTalk Challenge 1,Round 1,Y,Y,Y,Y,N,00H 00M 30S 15MS
Student728,891000727,Assunta,TuneTalk Challenge 1,Round 1,Y,Y,Y,Y,N,00H 00M 30S 15MS
Student729,891000728,Assunta,TuneTalk Challenge 1,Round 1,Y,Y,Y,Y,N,00H 00M 30S 15MS
Student730,891000729,Assunta,TuneTalk Challenge 1,Round 1,Y,Y,Y,Y,N,00H 00M 30S 15MS
Student731,891000730,Assunta,TuneTalk Challenge 1,Round 1,Y,Y,Y,Y,N,00H 00M 30S 15MS
Student732,891000731,Assunta,TuneTalk Challenge 1,Round 1,Y,Y,Y,Y,N,00H 00M 30S 15MS
Student733,891000732,Assunta,TuneTalk Challenge 1,Round 1,Y,Y,Y,Y,N,00H 00M 30S 15MS
Student734,891000733,Assunta,TuneTalk Challenge 1,Round 1,Y,Y,Y,Y,N,00H 00M 30S 15MS
Student735,891000734,Assunta,TuneTalk Challenge 1,Round 1,Y,Y,Y,Y,N,00H 00M 30S 15MS
Student736,891000735,Assunta,TuneTalk Challenge 1,Round 1,Y,Y,Y,Y,N,00H 00M 30S 15MS
Student737,891000736,Assunta,TuneTalk Challenge 1,Round 1,Y,Y,Y,Y,N,00H 00M 30S 15MS
Student738,891000737,Assunta,TuneTalk Challenge 1,Round 1,Y,Y,Y,Y,N,00H 00M 30S 15MS
Student739,891000738,Assunta,TuneTalk Challenge 1,Round 1,Y,Y,Y,Y,N,00H 00M 30S 15MS
Student740,891000739,Assunta,TuneTalk Challenge 1,Round 1,Y,Y,Y,Y,N,00H 00M 30S 15MS
Student741,891000740,Assunta,TuneTalk Challenge 1,Round 1,Y,Y,Y,Y,N,00H 00M 30S 15MS
Student742,891000741,Assunta,TuneTalk Challenge 1,Round 1,Y,Y,Y,Y,N,00H 00M 30S 15MS
Student743,891000742,Assunta,TuneTalk Challenge 1,Round 1,Y,Y,Y,Y,N,00H 00M 30S 15MS
Student744,891000743,Assunta,TuneTalk Challenge 1,Round 1,Y,Y,Y,Y,N,00H 00M 30S 15MS
Student745,891000744,Assunta,TuneTalk Challenge 1,Round 1,Y,Y,Y,Y,N,00H 00M 30S 15MS
Student746,891000745,Assunta,TuneTalk Challenge 1,Round 1,Y,Y,Y,Y,N,00H 00M 30S 15MS
Student747,891000746,Assunta,TuneTalk Challenge 1,Round 1,Y,Y,Y,Y,N,00H 00M 30S 15MS
Student748,891000747,Assunta,TuneTalk Challenge 1,Round 1,Y,Y,Y,Y,N,00H 00M 30S 15MS
Student749,891000748,Assunta,TuneTalk Challenge 1,Round 1,Y,Y,Y,Y,N,00H 00M 30S 15MS
Student750,891000749,Assunta,TuneTalk Challenge 1,Round 1,Y,Y,Y,Y,N,00H 00M 30S 15MS
Student751,891000750,Assunta,TuneTalk Challenge 1,Round 1,Y,Y,Y,Y,N,00H 00M 30S 15MS
Student752,891000751,Assunta,TuneTalk Challenge 1,Round 1,Y,Y,Y,Y,N,00H 00M 30S 15MS
Student753,891000752,Assunta,TuneTalk Challenge 1,Round 1,Y,Y,Y,Y,N,00H 00M 30S 15MS
Student754,891000753,Assunta,TuneTalk Challenge 1,Round 1,Y,Y,Y,Y,N,00H 00M 30S 15MS
Student755,891000754,Assunta,TuneTalk Challenge 1,Round 1,Y,Y,Y,Y,N,00H 00M 30S 15MS
Student756,891000755,Assunta,TuneTalk Challenge 1,Round 1,Y,Y,Y,Y,N,00H 00M 30S 15MS
Student757,891000756,Assunta,TuneTalk Challenge 1,Round 1,Y,Y,Y,Y,N,00H 00M 30S 15MS
Student758,891000757,Assunta,TuneTalk Challenge 1,Round 1,Y,Y,Y,Y,N,00H 00M 30S 15MS
Student759,891000758,Assunta,TuneTalk Challenge 1,Round 1,Y,Y,Y,Y,N,00H 00M 30S 15MS
Student760,891000759,Assunta,TuneTalk Challenge 1,Round 1,Y,Y,Y,Y,N,00H 00M 30S 15MS
Student761,891000760,Assunta,TuneTalk Challenge 1,Round 1,Y,Y,Y,Y,N,00H 00M 30S 15MS
Student762,891000761,Assunta,TuneTalk Challenge 1,Round 1,Y,Y,Y,Y,N,00H 00M 30S 15MS
Student763,891000762,Assunta,TuneTalk Challenge 1,Round 1,Y,Y,Y,Y,N,00H 00M 30S 15MS
Student764,891000763,Assunta,TuneTalk Challenge 1,Round 1,Y,Y,Y,Y,N,00H 00M 30S 15MS
Student765,891000764,Assunta,TuneTalk Challenge 1,Round 1,Y,Y,Y,Y,N,00H 00M 30S 15MS
Student766,891000765,Assunta,TuneTalk Challenge 1,Round 1,Y,Y,Y,Y,N,00H 00M 30S 15MS
Student767,891000766,Assunta,TuneTalk Challenge 1,Round 1,Y,Y,Y,Y,N,00H 00M 30S 15MS
Student768,891000767,Assunta,TuneTalk Challenge 1,Round 1,Y,Y,Y,Y,N,00H 00M 30S 15MS
Student769,891000768,Assunta,TuneTalk Challenge 1,Round 1,Y,Y,Y,Y,N,00H 00M 30S 15MS
Student770,891000769,Assunta,TuneTalk Challenge 1,Round 1,Y,Y,Y,Y,N,00H 00M 30S 15MS
Student771,891000770,Assunta,TuneTalk Challenge 1,Round 1,Y,Y,Y,Y,N,00H 00M 30S 15MS
Student772,891000771,Assunta,TuneTalk Challenge 1,Round 1,Y,Y,Y,Y,N,00H 00M 30S 15MS
Student773,891000772,Assunta,TuneTalk Challenge 1,Round 1,Y,Y,Y,Y,N,00H 00M 30S 15MS
Student774,891000773,Assunta,TuneTalk Challenge 1,Round 1,Y,Y,Y,Y,N,00H 00M 30S 15MS
Student775,891000774,Assunta,TuneTalk Challenge 1,Round 1,Y,Y,Y,Y,N,00H 00M 30S 15MS
Student776,891000775,Assunta,TuneTalk Challenge 1,Round 1,Y,Y,Y,Y,N,00H 00M 30S 15MS
Student777,891000776,Assunta,TuneTalk Challenge 1,Round 1,Y,Y,Y,Y,N,00H 00M 30S 15MS
Student778,891000777,Assunta,TuneTalk Challenge 1,Round 1,Y,Y,Y,Y,N,00H 00M 30S 15MS
Student779,891000778,Assunta,TuneTalk Challenge 1,Round 1,Y,Y,Y,Y,N,00H 00M 30S 15MS
Student780,891000779,Assunta,TuneTalk Challenge 1,Round 1,Y,Y,Y,Y,N,00H 00M 30S 15MS
Student781,891000780,Assunta,TuneTalk Challenge 1,Round 1,Y,Y,Y,Y,N,00H 00M 30S 15MS
Student782,891000781,Assunta,TuneTalk Challenge 1,Round 1,Y,Y,Y,Y,N,00H 00M 30S 15MS
Student783,891000782,Assunta,TuneTalk Challenge 1,Round 1,Y,Y,Y,Y,N,00H 00M 30S 15MS
Student784,891000783,Assunta,TuneTalk Challenge 1,Round 1,Y,Y,Y,Y,N,00H 00M 30S 15MS
Student785,891000784,Assunta,TuneTalk Challenge 1,Round 1,Y,Y,Y,Y,N,00H 00M 30S 15MS
Student786,891000785,Assunta,TuneTalk Challenge 1,Round 1,Y,Y,Y,Y,N,00H 00M 30S 15MS
Student787,891000786,Assunta,TuneTalk Challenge 1,Round 1,Y,Y,Y,Y,N,00H 00M 30S 15MS
Student788,891000787,Assunta,TuneTalk Challenge 1,Round 1,Y,Y,Y,Y,N,00H 00M 30S 15MS
Student789,891000788,Assunta,TuneTalk Challenge 1,Round 1,Y,Y,Y,Y,N,00H 00M 30S 15MS
Student790,891000789,Assunta,TuneTalk Challenge 1,Round 1,Y,Y,Y,Y,N,00H 00M 30S 15MS
Student791,891000790,Assunta,TuneTalk Challenge 1,Round 1,Y,Y,Y,Y,N,00H 00M 30S 15MS
Student792,891000791,Assunta,TuneTalk Challenge 1,Round 1,Y,Y,Y,Y,N,00H 00M 30S 15MS
Student793,891000792,Assunta,TuneTalk Challenge 1,Round 1,Y,Y,Y,Y,N,00H 00M 30S 15MS
Student794,891000793,Assunta,TuneTalk Challenge 1,Round 1,Y,Y,Y,Y,N,00H 00M 30S 15MS
Student795,891000794,Assunta,TuneTalk Challenge 1,Round 1,Y,Y,Y,Y,N,00H 00M 30S 15MS
Student796,891000795,Assunta,TuneTalk Challenge 1,Round 1,Y,Y,Y,Y,N,00H 00M 30S 15MS
Student797,891000796,Assunta,TuneTalk Challenge 1,Round 1,Y,Y,Y,Y,N,00H 00M 30S 15MS
Student798,891000797,Assunta,TuneTalk Challenge 1,Round 1,Y,Y,Y,Y,N,00H 00M 30S 15MS
Student799,891000798,Assunta,TuneTalk Challenge 1,Round 1,Y,Y,Y,Y,N,00H 00M 30S 15MS
Student800,891000799,Assunta,TuneTalk Challenge 1,Round 1,Y,Y,Y,Y,N,00H 00M 30S 15MS
Student801,891000800,Assunta,TuneTalk Challenge 1,Round 1,Y,Y,Y,Y,N,00H 00M 30S 15MS
Student802,891000801,Assunta,TuneTalk Challenge 1,Round 1,Y,Y,Y,Y,N,00H 00M 30S 15MS
Student803,891000802,Assunta,TuneTalk Challenge 1,Round 1,Y,Y,Y,Y,N,00H 00M 30S 15MS
Student804,891000803,Assunta,TuneTalk Challenge 1,Round 1,Y,Y,Y,Y,N,00H 00M 30S 15MS
Student805,891000804,Assunta,TuneTalk Challenge 1,Round 1,Y,Y,Y,Y,N,00H 00M 30S 15MS
Student806,891000805,Assunta,TuneTalk Challenge 1,Round 1,Y,Y,Y,Y,N,00H 00M 30S 15MS
Student807,891000806,Assunta,TuneTalk Challenge 1,Round 1,Y,Y,Y,Y,N,00H 00M 30S 15MS
Student808,891000807,Assunta,TuneTalk Challenge 1,Round 1,Y,Y,Y,Y,N,00H 00M 30S 15MS
Student809,891000808,Assunta,TuneTalk Challenge 1,Round 1,Y,Y,Y,Y,N,00H 00M 30S 15MS
Student810,891000809,Assunta,TuneTalk Challenge 1,Round 1,Y,Y,Y,Y,N,00H 00M 30S 15MS
Student811,891000810,Assunta,TuneTalk Challenge 1,Round 1,Y,Y,Y,Y,N,00H 00M 30S 15MS
Student812,891000811,Assunta,TuneTalk Challenge 1,Round 1,Y,Y,Y,Y,N,00H 00M 30S 15MS
Student813,891000812,Assunta,TuneTalk Challenge 1,Round 1,Y,Y,Y,Y,N,00H 00M 30S 15MS
Student814,891000813,Assunta,TuneTalk Challenge 1,Round 1,Y,Y,Y,Y,N,00H 00M 30S 15MS
Student815,891000814,Assunta,TuneTalk Challenge 1,Round 1,Y,Y,Y,Y,N,00H 00M 30S 15MS
Student816,891000815,Assunta,TuneTalk Challenge 1,Round 1,Y,Y,Y,Y,N,00H 00M 30S 15MS
Student817,891000816,Assunta,TuneTalk Challenge 1,Round 1,Y,Y,Y,Y,N,00H 00M 30S 15MS
Student818,891000817,Assunta,TuneTalk Challenge 1,Round 1,Y,Y,Y,Y,N,00H 00M 30S 15MS
Student819,891000818,Assunta,TuneTalk Challenge 1,Round 1,Y,Y,Y,Y,N,00H 00M 30S 15MS
Student820,891000819,Assunta,TuneTalk Challenge 1,Round 1,Y,Y,Y,Y,N,00H 00M 30S 15MS
Student821,891000820,Assunta,TuneTalk Challenge 1,Round 1,Y,Y,Y,Y,N,00H 00M 30S 15MS
Student822,891000821,Assunta,TuneTalk Challenge 1,Round 1,Y,Y,Y,Y,N,00H 00M 30S 15MS
Student823,891000822,Assunta,TuneTalk Challenge 1,Round 1,Y,Y,Y,Y,N,00H 00M 30S 15MS
Student824,891000823,Assunta,TuneTalk Challenge 1,Round 1,Y,Y,Y,Y,N,00H 00M 30S 15MS
Student825,891000824,Assunta,TuneTalk Challenge 1,Round 1,Y,Y,Y,Y,N,00H 00M 30S 15MS
Student826,891000825,Assunta,TuneTalk Challenge 1,Round 1,Y,Y,Y,Y,N,00H 00M 30S 15MS
Student827,891000826,Assunta,TuneTalk Challenge 1,Round 1,Y,Y,Y,Y,N,00H 00M 30S 15MS
Student828,891000827,Assunta,TuneTalk Challenge 1,Round 1,Y,Y,Y,Y,N,00H 00M 30S 15MS
Student829,891000828,Assunta,TuneTalk Challenge 1,Round 1,Y,Y,Y,Y,N,00H 00M 30S 15MS
Student830,891000829,Assunta,TuneTalk Challenge 1,Round 1,Y,Y,Y,Y,N,00H 00M 30S 15MS
Student831,891000830,Assunta,TuneTalk Challenge 1,Round 1,Y,Y,Y,Y,N,00H 00M 30S 15MS
Student832,891000831,Assunta,TuneTalk Challenge 1,Round 1,Y,Y,Y,Y,N,00H 00M 30S 15MS
Student833,891000832,Assunta,TuneTalk Challenge 1,Round 1,Y,Y,Y,Y,N,00H 00M 30S 15MS
Student834,891000833,Assunta,TuneTalk Challenge 1,Round 1,Y,Y,Y,Y,N,00H 00M 30S 15MS
Student835,891000834,Assunta,TuneTalk Challenge 1,Round 1,Y,Y,Y,Y,N,00H 00M 30S 15MS
Student836,891000835,Assunta,TuneTalk Challenge 1,Round 1,Y,Y,Y,Y,N,00H 00M 30S 15MS
Student837,891000836,Assunta,TuneTalk Challenge 1,Round 1,Y,Y,Y,Y,N,00H 00M 30S 15MS
Student838,891000837,Assunta,TuneTalk Challenge 1,Round 1,Y,Y,Y,Y,N,00H 00M 30S 15MS
Student839,891000838,Assunta,TuneTalk Challenge 1,Round 1,Y,Y,Y,Y,N,00H 00M 30S 15MS
Student840,891000839,Assunta,TuneTalk Challenge 1,Round 1,Y,Y,Y,Y,N,00H 00M 30S 15MS
Student841,891000840,Assunta,TuneTalk Challenge 1,Round 1,Y,Y,Y,Y,N,00H 00M 30S 15MS
Student842,891000841,Assunta,TuneTalk Challenge 1,Round 1,Y,Y,Y,Y,N,00H 00M 30S 15MS
Student843,891000842,Assunta,TuneTalk Challenge 1,Round 1,Y,Y,Y,Y,N,00H 00M 30S 15MS
Student844,891000843,Assunta,TuneTalk Challenge 1,Round 1,Y,Y,Y,Y,N,00H 00M 30S 15MS
Student845,891000844,Assunta,TuneTalk Challenge 1,Round 1,Y,Y,Y,Y,N,00H 00M 30S 15MS
Student846,891000845,Assunta,TuneTalk Challenge 1,Round 1,Y,Y,Y,Y,N,00H 00M 30S 15MS
Student847,891000846,Assunta,TuneTalk Challenge 1,Round 1,Y,Y,Y,Y,N,00H 00M 30S 15MS
Student848,891000847,Assunta,TuneTalk Challenge 1,Round 1,Y,Y,Y,Y,N,00H 00M 30S 15MS
Student849,891000848,Assunta,TuneTalk Challenge 1,Round 1,Y,Y,Y,Y,N,00H 00M 30S 15MS
Student850,891000849,Assunta,TuneTalk Challenge 1,Round 1,Y,Y,Y,Y,N,00H 00M 30S 15MS
Student851,891000850,Assunta,TuneTalk Challenge 1,Round 1,Y,Y,Y,Y,N,00H 00M 30S 15MS
Student852,891000851,Assunta,TuneTalk Challenge 1,Round 1,Y,Y,Y,Y,N,00H 00M 30S 15MS
Student853,891000852,Assunta,TuneTalk Challenge 1,Round 1,Y,Y,Y,Y,N,00H 00M 30S 15MS
Student854,891000853,Assunta,TuneTalk Challenge 1,Round 1,Y,Y,Y,Y,N,00H 00M 30S 15MS
Student855,891000854,Assunta,TuneTalk Challenge 1,Round 1,Y,Y,Y,Y,N,00H 00M 30S 15MS
Student856,891000855,Assunta,TuneTalk Challenge 1,Round 1,Y,Y,Y,Y,N,00H 00M 30S 15MS
Student857,891000856,Assunta,TuneTalk Challenge 1,Round 1,Y,Y,Y,Y,N,00H 00M 30S 15MS
Student858,891000857,Assunta,TuneTalk Challenge 1,Round 1,Y,Y,Y,Y,N,00H 00M 30S 15MS
Student859,891000858,Assunta,TuneTalk Challenge 1,Round 1,Y,Y,Y,Y,N,00H 00M 30S 15MS
Student860,891000859,Assunta,TuneTalk Challenge 1,Round 1,Y,Y,Y,Y,N,00H 00M 30S 15MS
Student861,891000860,Assunta,TuneTalk Challenge 1,Round 1,Y,Y,Y,Y,N,00H 00M 30S 15MS
Student862,891000861,Assunta,TuneTalk Challenge 1,Round 1,Y,Y,Y,Y,N,00H 00M 30S 15MS
Student863,891000862,Assunta,TuneTalk Challenge 1,Round 1,Y,Y,Y,Y,N,00H 00M 30S 15MS
Student864,891000863,Assunta,TuneTalk Challenge 1,Round 1,Y,Y,Y,Y,N,00H 00M 30S 15MS
Student865,891000864,Assunta,TuneTalk Challenge 1,Round 1,Y,Y,Y,Y,N,00H 00M 30S 15MS
Student866,891000865,Assunta,TuneTalk Challenge 1,Round 1,Y,Y,Y,Y,N,00H 00M 30S 15MS
Student867,891000866,Assunta,TuneTalk Challenge 1,Round 1,Y,Y,Y,Y,N,00H 00M 30S 15MS
Student868,891000867,Assunta,TuneTalk Challenge 1,Round 1,Y,Y,Y,Y,N,00H 00M 30S 15MS
Student869,891000868,Assunta,TuneTalk Challenge 1,Round 1,Y,Y,Y,Y,N,00H 00M 30S 15MS
Student870,891000869,Assunta,TuneTalk Challenge 1,Round 1,Y,Y,Y,Y,N,00H 00M 30S 15MS
Student871,891000870,Assunta,TuneTalk Challenge 1,Round 1,Y,Y,Y,Y,N,00H 00M 30S 15MS
Student872,891000871,Assunta,TuneTalk Challenge 1,Round 1,Y,Y,Y,Y,N,00H 00M 30S 15MS
Student873,891000872,Assunta,TuneTalk Challenge 1,Round 1,Y,Y,Y,Y,N,00H 00M 30S 15MS
Student874,891000873,Assunta,TuneTalk Challenge 1,Round 1,Y,Y,Y,Y,N,00H 00M 30S 15MS
Student875,891000874,Assunta,TuneTalk Challenge 1,Round 1,Y,Y,Y,Y,N,00H 00M 30S 15MS
Student876,891000875,Assunta,TuneTalk Challenge 1,Round 1,Y,Y,Y,Y,N,00H 00M 30S 15MS
Student877,891000876,Assunta,TuneTalk Challenge 1,Round 1,Y,Y,Y,Y,N,00H 00M 30S 15MS
Student878,891000877,Assunta,TuneTalk Challenge 1,Round 1,Y,Y,Y,Y,N,00H 00M 30S 15MS
Student879,891000878,Assunta,TuneTalk Challenge 1,Round 1,Y,Y,Y,Y,N,00H 00M 30S 15MS
Student880,891000879,Assunta,TuneTalk Challenge 1,Round 1,Y,Y,Y,Y,N,00H 00M 30S 15MS
Student881,891000880,Assunta,TuneTalk Challenge 1,Round 1,Y,Y,Y,Y,N,00H 00M 30S 15MS
Student882,891000881,Assunta,TuneTalk Challenge 1,Round 1,Y,Y,Y,Y,N,00H 00M 30S 15MS
Student883,891000882,Assunta,TuneTalk Challenge 1,Round 1,Y,Y,Y,Y,N,00H 00M 30S 15MS
Student884,891000883,Assunta,TuneTalk Challenge 1,Round 1,Y,Y,Y,Y,N,00H 00M 30S 15MS
Student885,891000884,Assunta,TuneTalk Challenge 1,Round 1,Y,Y,Y,Y,N,00H 00M 30S 15MS
Student886,891000885,Assunta,TuneTalk Challenge 1,Round 1,Y,Y,Y,Y,N,00H 00M 30S 15MS
Student887,891000886,Assunta,TuneTalk Challenge 1,Round 1,Y,Y,Y,Y,N,00H 00M 30S 15MS
Student888,891000887,Assunta,TuneTalk Challenge 1,Round 1,Y,Y,Y,Y,N,00H 00M 30S 15MS
Student889,891000888,Assunta,TuneTalk Challenge 1,Round 1,Y,Y,Y,Y,N,00H 00M 30S 15MS
Student890,891000889,Assunta,TuneTalk Challenge 1,Round 1,Y,Y,Y,Y,N,00H 00M 30S 15MS
Student891,891000890,Assunta,TuneTalk Challenge 1,Round 1,Y,Y,Y,Y,N,00H 00M 30S 15MS
Student892,891000891,Assunta,TuneTalk Challenge 1,Round 1,Y,Y,Y,Y,N,00H 00M 30S 15MS
Student893,891000892,Assunta,TuneTalk Challenge 1,Round 1,Y,Y,Y,Y,N,00H 00M 30S 15MS
Student894,891000893,Assunta,TuneTalk Challenge 1,Round 1,Y,Y,Y,Y,N,00H 00M 30S 15MS
Student895,891000894,Assunta,TuneTalk Challenge 1,Round 1,Y,Y,Y,Y,N,00H 00M 30S 15MS
Student896,891000895,Assunta,TuneTalk Challenge 1,Round 1,Y,Y,Y,Y,N,00H 00M 30S 15MS
Student897,891000896,Assunta,TuneTalk Challenge 1,Round 1,Y,Y,Y,Y,N,00H 00M 30S 15MS
Student898,891000897,Assunta,TuneTalk Challenge 1,Round 1,Y,Y,Y,Y,N,00H 00M 30S 15MS
Student899,891000898,Assunta,TuneTalk Challenge 1,Round 1,Y,Y,Y,Y,N,00H 00M 30S 15MS
Student900,891000899,Assunta,TuneTalk Challenge 1,Round 1,Y,Y,Y,Y,N,00H 00M 30S 15MS
Student901,891000900,Assunta,TuneTalk Challenge 1,Round 1,Y,Y,Y,Y,N,00H 00M 30S 15MS
Student902,891000901,Assunta,TuneTalk Challenge 1,Round 1,Y,Y,Y,Y,N,00H 00M 30S 15MS
Student903,891000902,Assunta,TuneTalk Challenge 1,Round 1,Y,Y,Y,Y,N,00H 00M 30S 15MS
Student904,891000903,Assunta,TuneTalk Challenge 1,Round 1,Y,Y,Y,Y,N,00H 00M 30S 15MS
Student905,891000904,Assunta,TuneTalk Challenge 1,Round 1,Y,Y,Y,Y,N,00H 00M 30S 15MS
Student906,891000905,Assunta,TuneTalk Challenge 1,Round 1,Y,Y,Y,Y,N,00H 00M 30S 15MS
Student907,891000906,Assunta,TuneTalk Challenge 1,Round 1,Y,Y,Y,Y,N,00H 00M 30S 15MS
Student908,891000907,Assunta,TuneTalk Challenge 1,Round 1,Y,Y,Y,Y,N,00H 00M 30S 15MS
Student909,891000908,Assunta,TuneTalk Challenge 1,Round 1,Y,Y,Y,Y,N,00H 00M 30S 15MS
Student910,891000909,Assunta,TuneTalk Challenge 1,Round 1,Y,Y,Y,Y,N,00H 00M 30S 15MS
Student911,891000910,Assunta,TuneTalk Challenge 1,Round 1,Y,Y,Y,Y,N,00H 00M 30S 15MS
Student912,891000911,Assunta,TuneTalk Challenge 1,Round 1,Y,Y,Y,Y,N,00H 00M 30S 15MS
Student913,891000912,Assunta,TuneTalk Challenge 1,Round 1,Y,Y,Y,Y,N,00H 00M 30S 15MS
Student914,891000913,Assunta,TuneTalk Challenge 1,Round 1,Y,Y,Y,Y,N,00H 00M 30S 15MS
Student915,891000914,Assunta,TuneTalk Challenge 1,Round 1,Y,Y,Y,Y,N,00H 00M 30S 15MS
Student916,891000915,Assunta,TuneTalk Challenge 1,Round 1,Y,Y,Y,Y,N,00H 00M 30S 15MS
Student917,891000916,Assunta,TuneTalk Challenge 1,Round 1,Y,Y,Y,Y,N,00H 00M 30S 15MS
Student918,891000917,Assunta,TuneTalk Challenge 1,Round 1,Y,Y,Y,Y,N,00H 00M 30S 15MS
Student919,891000918,Assunta,TuneTalk Challenge 1,Round 1,Y,Y,Y,Y,N,00H 00M 30S 15MS
Student920,891000919,Assunta,TuneTalk Challenge 1,Round 1,Y,Y,Y,Y,N,00H 00M 30S 15MS
Student921,891000920,Assunta,TuneTalk Challenge 1,Round 1,Y,Y,Y,Y,N,00H 00M 30S 15MS
Student922,891000921,Assunta,TuneTalk Challenge 1,Round 1,Y,Y,Y,Y,N,00H 00M 30S 15MS
Student923,891000922,Assunta,TuneTalk Challenge 1,Round 1,Y,Y,Y,Y,N,00H 00M 30S 15MS
Student924,891000923,Assunta,TuneTalk Challenge 1,Round 1,Y,Y,Y,Y,N,00H 00M 30S 15MS
Student925,891000924,Assunta,TuneTalk Challenge 1,Round 1,Y,Y,Y,Y,N,00H 00M 30S 15MS
Student926,891000925,Assunta,TuneTalk Challenge 1,Round 1,Y,Y,Y,Y,N,00H 00M 30S 15MS
Student927,891000926,Assunta,TuneTalk Challenge 1,Round 1,Y,Y,Y,Y,N,00H 00M 30S 15MS
Student928,891000927,Assunta,TuneTalk Challenge 1,Round 1,Y,Y,Y,Y,N,00H 00M 30S 15MS
Student929,891000928,Assunta,TuneTalk Challenge 1,Round 1,Y,Y,Y,Y,N,00H 00M 30S 15MS
Student930,891000929,Assunta,TuneTalk Challenge 1,Round 1,Y,Y,Y,Y,N,00H 00M 30S 15MS
Student931,891000930,Assunta,TuneTalk Challenge 1,Round 1,Y,Y,Y,Y,N,00H 00M 30S 15MS
Student932,891000931,Assunta,TuneTalk Challenge 1,Round 1,Y,Y,Y,Y,N,00H 00M 30S 15MS
Student933,891000932,Assunta,TuneTalk Challenge 1,Round 1,Y,Y,Y,Y,N,00H 00M 30S 15MS
Student934,891000933,Assunta,TuneTalk Challenge 1,Round 1,Y,Y,Y,Y,N,00H 00M 30S 15MS
Student935,891000934,Assunta,TuneTalk Challenge 1,Round 1,Y,Y,Y,Y,N,00H 00M 30S 15MS
Student936,891000935,Assunta,TuneTalk Challenge 1,Round 1,Y,Y,Y,Y,N,00H 00M 30S 15MS
Student937,891000936,Assunta,TuneTalk Challenge 1,Round 1,Y,Y,Y,Y,N,00H 00M 30S 15MS
Student938,891000937,Assunta,TuneTalk Challenge 1,Round 1,Y,Y,Y,Y,N,00H 00M 30S 15MS
Student939,891000938,Assunta,TuneTalk Challenge 1,Round 1,Y,Y,Y,Y,N,00H 00M 30S 15MS
Student940,891000939,Assunta,TuneTalk Challenge 1,Round 1,Y,Y,Y,Y,N,00H 00M 30S 15MS
Student941,891000940,Assunta,TuneTalk Challenge 1,Round 1,Y,Y,Y,Y,N,00H 00M 30S 15MS
Student942,891000941,Assunta,TuneTalk Challenge 1,Round 1,Y,Y,Y,Y,N,00H 00M 30S 15MS
Student943,891000942,Assunta,TuneTalk Challenge 1,Round 1,Y,Y,Y,Y,N,00H 00M 30S 15MS
Student944,891000943,Assunta,TuneTalk Challenge 1,Round 1,Y,Y,Y,Y,N,00H 00M 30S 15MS
Student945,891000944,Assunta,TuneTalk Challenge 1,Round 1,Y,Y,Y,Y,N,00H 00M 30S 15MS
Student946,891000945,Assunta,TuneTalk Challenge 1,Round 1,Y,Y,Y,Y,N,00H 00M 30S 15MS
Student947,891000946,Assunta,TuneTalk Challenge 1,Round 1,Y,Y,Y,Y,N,00H 00M 30S 15MS
Student948,891000947,Assunta,TuneTalk Challenge 1,Round 1,Y,Y,Y,Y,N,00H 00M 30S 15MS
Student949,891000948,Assunta,TuneTalk Challenge 1,Round 1,Y,Y,Y,Y,N,00H 00M 30S 15MS
Student950,891000949,Assunta,TuneTalk Challenge 1,Round 1,Y,Y,Y,Y,N,00H 00M 30S 15MS
Student951,891000950,Assunta,TuneTalk Challenge 1,Round 1,Y,Y,Y,Y,N,00H 00M 30S 15MS
Student952,891000951,Assunta,TuneTalk Challenge 1,Round 1,Y,Y,Y,Y,N,00H 00M 30S 15MS
Student953,891000952,Assunta,TuneTalk Challenge 1,Round 1,Y,Y,Y,Y,N,00H 00M 30S 15MS
Student954,891000953,Assunta,TuneTalk Challenge 1,Round 1,Y,Y,Y,Y,N,00H 00M 30S 15MS
Student955,891000954,Assunta,TuneTalk Challenge 1,Round 1,Y,Y,Y,Y,N,00H 00M 30S 15MS
Student956,891000955,Assunta,TuneTalk Challenge 1,Round 1,Y,Y,Y,Y,N,00H 00M 30S 15MS
Student957,891000956,Assunta,TuneTalk Challenge 1,Round 1,Y,Y,Y,Y,N,00H 00M 30S 15MS
Student958,891000957,Assunta,TuneTalk Challenge 1,Round 1,Y,Y,Y,Y,N,00H 00M 30S 15MS
Student959,891000958,Assunta,TuneTalk Challenge 1,Round 1,Y,Y,Y,Y,N,00H 00M 30S 15MS
Student960,891000959,Assunta,TuneTalk Challenge 1,Round 1,Y,Y,Y,Y,N,00H 00M 30S 15MS
Student961,891000960,Assunta,TuneTalk Challenge 1,Round 1,Y,Y,Y,Y,N,00H 00M 30S 15MS
Student962,891000961,Assunta,TuneTalk Challenge 1,Round 1,Y,Y,Y,Y,N,00H 00M 30S 15MS
Student963,891000962,Assunta,TuneTalk Challenge 1,Round 1,Y,Y,Y,Y,N,00H 00M 30S 15MS
Student964,891000963,Assunta,TuneTalk Challenge 1,Round 1,Y,Y,Y,Y,N,00H 00M 30S 15MS
Student965,891000964,Assunta,TuneTalk Challenge 1,Round 1,Y,Y,Y,Y,N,00H 00M 30S 15MS
Student966,891000965,Assunta,TuneTalk Challenge 1,Round 1,Y,Y,Y,Y,N,00H 00M 30S 15MS
Student967,891000966,Assunta,TuneTalk Challenge 1,Round 1,Y,Y,Y,Y,N,00H 00M 30S 15MS
Student968,891000967,Assunta,TuneTalk Challenge 1,Round 1,Y,Y,Y,Y,N,00H 00M 30S 15MS
Student969,891000968,Assunta,TuneTalk Challenge 1,Round 1,Y,Y,Y,Y,N,00H 00M 30S 15MS
Student970,891000969,Assunta,TuneTalk Challenge 1,Round 1,Y,Y,Y,Y,N,00H 00M 30S 15MS
Student971,891000970,Assunta,TuneTalk Challenge 1,Round 1,Y,Y,Y,Y,N,00H 00M 30S 15MS
Student972,891000971,Assunta,TuneTalk Challenge 1,Round 1,Y,Y,Y,Y,N,00H 00M 30S 15MS
Student973,891000972,Assunta,TuneTalk Challenge 1,Round 1,Y,Y,Y,Y,N,00H 00M 30S 15MS
Student974,891000973,Assunta,TuneTalk Challenge 1,Round 1,Y,Y,Y,Y,N,00H 00M 30S 15MS
Student975,891000974,Assunta,TuneTalk Challenge 1,Round 1,Y,Y,Y,Y,N,00H 00M 30S 15MS
Student976,891000975,Assunta,TuneTalk Challenge 1,Round 1,Y,Y,Y,Y,N,00H 00M 30S 15MS
Student977,891000976,Assunta,TuneTalk Challenge 1,Round 1,Y,Y,Y,Y,N,00H 00M 30S 15MS
Student978,891000977,Assunta,TuneTalk Challenge 1,Round 1,Y,Y,Y,Y,N,00H 00M 30S 15MS
Student979,891000978,Assunta,TuneTalk Challenge 1,Round 1,Y,Y,Y,Y,N,00H 00M 30S 15MS
Student980,891000979,Assunta,TuneTalk Challenge 1,Round 1,Y,Y,Y,Y,N,00H 00M 30S 15MS
Student981,891000980,Assunta,TuneTalk Challenge 1,Round 1,Y,Y,Y,Y,N,00H 00M 30S 15MS
Student982,891000981,Assunta,TuneTalk Challenge 1,Round 1,Y,Y,Y,Y,N,00H 00M 30S 15MS
Student983,891000982,Assunta,TuneTalk Challenge 1,Round 1,Y,Y,Y,Y,N,00H 00M 30S 15MS
Student984,891000983,Assunta,TuneTalk Challenge 1,Round 1,Y,Y,Y,Y,N,00H 00M 30S 15MS
Student985,891000984,Assunta,TuneTalk Challenge 1,Round 1,Y,Y,Y,Y,N,00H 00M 30S 15MS
Student986,891000985,Assunta,TuneTalk Challenge 1,Round 1,Y,Y,Y,Y,N,00H 00M 30S 15MS
Student987,891000986,Assunta,TuneTalk Challenge 1,Round 1,Y,Y,Y,Y,N,00H 00M 30S 15MS
Student988,891000987,Assunta,TuneTalk Challenge 1,Round 1,Y,Y,Y,Y,N,00H 00M 30S 15MS
Student989,891000988,Assunta,TuneTalk Challenge 1,Round 1,Y,Y,Y,Y,N,00H 00M 30S 15MS
Student990,891000989,Assunta,TuneTalk Challenge 1,Round 1,Y,Y,Y,Y,N,00H 00M 30S 15MS
Student991,891000990,Assunta,TuneTalk Challenge 1,Round 1,Y,Y,Y,Y,N,00H 00M 30S 15MS
Student992,891000991,Assunta,TuneTalk Challenge 1,Round 1,Y,Y,Y,Y,N,00H 00M 30S 15MS
Student993,891000992,Assunta,TuneTalk Challenge 1,Round 1,Y,Y,Y,Y,N,00H 00M 30S 15MS
Student994,891000993,Assunta,TuneTalk Challenge 1,Round 1,Y,Y,Y,Y,N,00H 00M 30S 15MS
Student995,891000994,Assunta,TuneTalk Challenge 1,Round 1,Y,Y,Y,Y,N,00H 00M 30S 15MS
Student996,891000995,Assunta,TuneTalk Challenge 1,Round 1,Y,Y,Y,Y,N,00H 00M 30S 15MS
Student997,891000996,Assunta,TuneTalk Challenge 1,Round 1,Y,Y,Y,Y,N,00H 00M 30S 15MS
Student998,891000997,Assunta,TuneTalk Challenge 1,Round 1,Y,Y,Y,Y,N,00H 00M 30S 15MS
Student999,891000998,Assunta,TuneTalk Challenge 1,Round 1,Y,Y,Y,Y,N,00H 00M 30S 15MS
Student1000,891000999,Assunta,TuneTalk Challenge 1,Round 1,Y,Y,Y,Y,N,00H 00M 30S 15MS
Student1001,891001000,Assunta,TuneTalk Challenge 1,Round 1,Y,Y,Y,Y,N,00H 00M 30S 15MS
Student1002,891001001,Assunta,TuneTalk Challenge 1,Round 1,Y,Y,Y,Y,N,00H 00M 30S 15MS
Student1003,891001002,Assunta,TuneTalk Challenge 1,Round 1,Y,Y,Y,Y,N,00H 00M 30S 15MS
Student1004,891001003,Assunta,TuneTalk Challenge 1,Round 1,Y,Y,Y,Y,N,00H 00M 30S 15MS
Student1005,891001004,Assunta,TuneTalk Challenge 1,Round 1,Y,Y,Y,Y,N,00H 00M 30S 15MS
Student1006,891001005,Assunta,TuneTalk Challenge 1,Round 1,Y,Y,Y,Y,N,00H 00M 30S 15MS
Student1007,891001006,Assunta,TuneTalk Challenge 1,Round 1,Y,Y,Y,Y,N,00H 00M 30S 15MS
Student1008,891001007,Assunta,TuneTalk Challenge 1,Round 1,Y,Y,Y,Y,N,00H 00M 30S 15MS
Student1009,891001008,Assunta,TuneTalk Challenge 1,Round 1,Y,Y,Y,Y,N,00H 00M 30S 15MS
Student1010,891001009,Assunta,TuneTalk Challenge 1,Round 1,Y,Y,Y,Y,N,00H 00M 30S 15MS
Student1011,891001010,Assunta,TuneTalk Challenge 1,Round 1,Y,Y,Y,Y,N,00H 00M 30S 15MS
Student1012,891001011,Assunta,TuneTalk Challenge 1,Round 1,Y,Y,Y,Y,N,00H 00M 30S 15MS
Student1013,891001012,Assunta,TuneTalk Challenge 1,Round 1,Y,Y,Y,Y,N,00H 00M 30S 15MS
Student1014,891001013,Assunta,TuneTalk Challenge 1,Round 1,Y,Y,Y,Y,N,00H 00M 30S 15MS
Student1015,891001014,Assunta,TuneTalk Challenge 1,Round 1,Y,Y,Y,Y,N,00H 00M 30S 15MS
Student1016,891001015,Assunta,TuneTalk Challenge 1,Round 1,Y,Y,Y,Y,N,00H 00M 30S 15MS
Student1017,891001016,Assunta,TuneTalk Challenge 1,Round 1,Y,Y,Y,Y,N,00H 00M 30S 15MS
Student1018,891001017,Assunta,TuneTalk Challenge 1,Round 1,Y,Y,Y,Y,N,00H 00M 30S 15MS
Student1019,891001018,Assunta,TuneTalk Challenge 1,Round 1,Y,Y,Y,Y,N,00H 00M 30S 15MS
Student1020,891001019,Assunta,TuneTalk Challenge 1,Round 1,Y,Y,Y,Y,N,00H 00M 30S 15MS
Student1021,891001020,Assunta,TuneTalk Challenge 1,Round 1,Y,Y,Y,Y,N,00H 00M 30S 15MS
Student1022,891001021,Assunta,TuneTalk Challenge 1,Round 1,Y,Y,Y,Y,N,00H 00M 30S 15MS
Student1023,891001022,Assunta,TuneTalk Challenge 1,Round 1,Y,Y,Y,Y,N,00H 00M 30S 15MS
Student1024,891001023,Assunta,TuneTalk Challenge 1,Round 1,Y,Y,Y,Y,N,00H 00M 30S 15MS
Student1025,891001024,Assunta,TuneTalk Challenge 1,Round 1,Y,Y,Y,Y,N,00H 00M 30S 15MS
Student1026,891001025,Assunta,TuneTalk Challenge 1,Round 1,Y,Y,Y,Y,N,00H 00M 30S 15MS
Student1027,891001026,Assunta,TuneTalk Challenge 1,Round 1,Y,Y,Y,Y,N,00H 00M 30S 15MS
Student1028,891001027,Assunta,TuneTalk Challenge 1,Round 1,Y,Y,Y,Y,N,00H 00M 30S 15MS
Student1029,891001028,Assunta,TuneTalk Challenge 1,Round 1,Y,Y,Y,Y,N,00H 00M 30S 15MS
Student1030,891001029,Assunta,TuneTalk Challenge 1,Round 1,Y,Y,Y,Y,N,00H 00M 30S 15MS
Student1031,891001030,Assunta,TuneTalk Challenge 1,Round 1,Y,Y,Y,Y,N,00H 00M 30S 15MS
Student1032,891001031,Assunta,TuneTalk Challenge 1,Round 1,Y,Y,Y,Y,N,00H 00M 30S 15MS
Student1033,891001032,Assunta,TuneTalk Challenge 1,Round 1,Y,Y,Y,Y,N,00H 00M 30S 15MS
Student1034,891001033,Assunta,TuneTalk Challenge 1,Round 1,Y,Y,Y,Y,N,00H 00M 30S 15MS
Student1035,891001034,Assunta,TuneTalk Challenge 1,Round 1,Y,Y,Y,Y,N,00H 00M 30S 15MS
Student1036,891001035,Assunta,TuneTalk Challenge 1,Round 1,Y,Y,Y,Y,N,00H 00M 30S 15MS
Student1037,891001036,Assunta,TuneTalk Challenge 1,Round 1,Y,Y,Y,Y,N,00H 00M 30S 15MS
Student1038,891001037,Assunta,TuneTalk Challenge 1,Round 1,Y,Y,Y,Y,N,00H 00M 30S 15MS
Student1039,891001038,Assunta,TuneTalk Challenge 1,Round 1,Y,Y,Y,Y,N,00H 00M 30S 15MS
Student1040,891001039,Assunta,TuneTalk Challenge 1,Round 1,Y,Y,Y,Y,N,00H 00M 30S 15MS
Student1041,891001040,Assunta,TuneTalk Challenge 1,Round 1,Y,Y,Y,Y,N,00H 00M 30S 15MS
Student1042,891001041,Assunta,TuneTalk Challenge 1,Round 1,Y,Y,Y,Y,N,00H 00M 30S 15MS
Student1043,891001042,Assunta,TuneTalk Challenge 1,Round 1,Y,Y,Y,Y,N,00H 00M 30S 15MS
Student1044,891001043,Assunta,TuneTalk Challenge 1,Round 1,Y,Y,Y,Y,N,00H 00M 30S 15MS
Student1045,891001044,Assunta,TuneTalk Challenge 1,Round 1,Y,Y,Y,Y,N,00H 00M 30S 15MS
Student1046,891001045,Assunta,TuneTalk Challenge 1,Round 1,Y,Y,Y,Y,N,00H 00M 30S 15MS
Student1047,891001046,Assunta,TuneTalk Challenge 1,Round 1,Y,Y,Y,Y,N,00H 00M 30S 15MS
Student1048,891001047,Assunta,TuneTalk Challenge 1,Round 1,Y,Y,Y,Y,N,00H 00M 30S 15MS
Student1049,891001048,Assunta,TuneTalk Challenge 1,Round 1,Y,Y,Y,Y,N,00H 00M 30S 15MS
Student1050,891001049,Assunta,TuneTalk Challenge 1,Round 1,Y,Y,Y,Y,N,00H 00M 30S 15MS
Student1051,891001050,Assunta,TuneTalk Challenge 1,Round 1,Y,Y,Y,Y,N,00H 00M 30S 15MS
Student1052,891001051,Assunta,TuneTalk Challenge 1,Round 1,Y,Y,Y,Y,N,00H 00M 30S 15MS
Student1053,891001052,Assunta,TuneTalk Challenge 1,Round 1,Y,Y,Y,Y,N,00H 00M 30S 15MS
Student1054,891001053,Assunta,TuneTalk Challenge 1,Round 1,Y,Y,Y,Y,N,00H 00M 30S 15MS
Student1055,891001054,Assunta,TuneTalk Challenge 1,Round 1,Y,Y,Y,Y,N,00H 00M 30S 15MS
Student1056,891001055,Assunta,TuneTalk Challenge 1,Round 1,Y,Y,Y,Y,N,00H 00M 30S 15MS
Student1057,891001056,Assunta,TuneTalk Challenge 1,Round 1,Y,Y,Y,Y,N,00H 00M 30S 15MS
Student1058,891001057,Assunta,TuneTalk Challenge 1,Round 1,Y,Y,Y,Y,N,00H 00M 30S 15MS
Student1059,891001058,Assunta,TuneTalk Challenge 1,Round 1,Y,Y,Y,Y,N,00H 00M 30S 15MS
Student1060,891001059,Assunta,TuneTalk Challenge 1,Round 1,Y,Y,Y,Y,N,00H 00M 30S 15MS
Student1061,891001060,Assunta,TuneTalk Challenge 1,Round 1,Y,Y,Y,Y,N,00H 00M 30S 15MS
Student1062,891001061,Assunta,TuneTalk Challenge 1,Round 1,Y,Y,Y,Y,N,00H 00M 30S 15MS
Student1063,891001062,Assunta,TuneTalk Challenge 1,Round 1,Y,Y,Y,Y,N,00H 00M 30S 15MS
Student1064,891001063,Assunta,TuneTalk Challenge 1,Round 1,Y,Y,Y,Y,N,00H 00M 30S 15MS
Student1065,891001064,Assunta,TuneTalk Challenge 1,Round 1,Y,Y,Y,Y,N,00H 00M 30S 15MS
Student1066,891001065,Assunta,TuneTalk Challenge 1,Round 1,Y,Y,Y,Y,N,00H 00M 30S 15MS
Student1067,891001066,Assunta,TuneTalk Challenge 1,Round 1,Y,Y,Y,Y,N,00H 00M 30S 15MS
Student1068,891001067,Assunta,TuneTalk Challenge 1,Round 1,Y,Y,Y,Y,N,00H 00M 30S 15MS
Student1069,891001068,Assunta,TuneTalk Challenge 1,Round 1,Y,Y,Y,Y,N,00H 00M 30S 15MS
Student1070,891001069,Assunta,TuneTalk Challenge 1,Round 1,Y,Y,Y,Y,N,00H 00M 30S 15MS
Student1071,891001070,Assunta,TuneTalk Challenge 1,Round 1,Y,Y,Y,Y,N,00H 00M 30S 15MS
Student1072,891001071,Assunta,TuneTalk Challenge 1,Round 1,Y,Y,Y,Y,N,00H 00M 30S 15MS
Student1073,891001072,Assunta,TuneTalk Challenge 1,Round 1,Y,Y,Y,Y,N,00H 00M 30S 15MS
Student1074,891001073,Assunta,TuneTalk Challenge 1,Round 1,Y,Y,Y,Y,N,00H 00M 30S 15MS
Student1075,891001074,Assunta,TuneTalk Challenge 1,Round 1,Y,Y,Y,Y,N,00H 00M 30S 15MS
Student1076,891001075,Assunta,TuneTalk Challenge 1,Round 1,Y,Y,Y,Y,N,00H 00M 30S 15MS
Student1077,891001076,Assunta,TuneTalk Challenge 1,Round 1,Y,Y,Y,Y,N,00H 00M 30S 15MS
Student1078,891001077,Assunta,TuneTalk Challenge 1,Round 1,Y,Y,Y,Y,N,00H 00M 30S 15MS
Student1079,891001078,Assunta,TuneTalk Challenge 1,Round 1,Y,Y,Y,Y,N,00H 00M 30S 15MS
Student1080,891001079,Assunta,TuneTalk Challenge 1,Round 1,Y,Y,Y,Y,N,00H 00M 30S 15MS
Student1081,891001080,Assunta,TuneTalk Challenge 1,Round 1,Y,Y,Y,Y,N,00H 00M 30S 15MS
Student1082,891001081,Assunta,TuneTalk Challenge 1,Round 1,Y,Y,Y,Y,N,00H 00M 30S 15MS
Student1083,891001082,Assunta,TuneTalk Challenge 1,Round 1,Y,Y,Y,Y,N,00H 00M 30S 15MS
Student1084,891001083,Assunta,TuneTalk Challenge 1,Round 1,Y,Y,Y,Y,N,00H 00M 30S 15MS
Student1085,891001084,Assunta,TuneTalk Challenge 1,Round 1,Y,Y,Y,Y,N,00H 00M 30S 15MS
Student1086,891001085,Assunta,TuneTalk Challenge 1,Round 1,Y,Y,Y,Y,N,00H 00M 30S 15MS
Student1087,891001086,Assunta,TuneTalk Challenge 1,Round 1,Y,Y,Y,Y,N,00H 00M 30S 15MS
Student1088,891001087,Assunta,TuneTalk Challenge 1,Round 1,Y,Y,Y,Y,N,00H 00M 30S 15MS
Student1089,891001088,Assunta,TuneTalk Challenge 1,Round 1,Y,Y,Y,Y,N,00H 00M 30S 15MS
Student1090,891001089,Assunta,TuneTalk Challenge 1,Round 1,Y,Y,Y,Y,N,00H 00M 30S 15MS
Student1091,891001090,Assunta,TuneTalk Challenge 1,Round 1,Y,Y,Y,Y,N,00H 00M 30S 15MS
Student1092,891001091,Assunta,TuneTalk Challenge 1,Round 1,Y,Y,Y,Y,N,00H 00M 30S 15MS
Student1093,891001092,Assunta,TuneTalk Challenge 1,Round 1,Y,Y,Y,Y,N,00H 00M 30S 15MS
Student1094,891001093,Assunta,TuneTalk Challenge 1,Round 1,Y,Y,Y,Y,N,00H 00M 30S 15MS
