Name,Email,Password,Country Code,Contact,School,,
Pick one of the value for Student School Column: ,Assunta,Idrissi,Brainy Bunch,REAL School,GIIS,Tenby School,Convent
Pick one of the value for Country Code Column,Malaysia : 60,India : 91,United Kingdom : 44,Singapore : 65,United State : 1,,
Student898,,secret,60,891000897,Assunta,,
Student899,,secret,60,891000898,Assunta,,
Student900,,secret,60,891000899,Assunta,,
Student901,,secret,60,891000900,Assunta,,
Student902,,secret,60,891000901,Assunta,,
Student903,,secret,60,891000902,Assunta,,
Student904,,secret,60,891000903,Assunta,,
Student905,,secret,60,891000904,Assunta,,
Student906,,secret,60,891000905,Assunta,,
Student907,,secret,60,891000906,Assunta,,
Student908,,secret,60,891000907,Assunta,,
Student909,,secret,60,891000908,Assunta,,
Student910,,secret,60,891000909,Assunta,,
Student911,,secret,60,891000910,Assunta,,
Student912,,secret,60,891000911,Assunta,,
Student913,,secret,60,891000912,Assunta,,
Student914,,secret,60,891000913,Assunta,,
Student915,,secret,60,891000914,Assunta,,
Student916,,secret,60,891000915,Assunta,,
Student917,,secret,60,891000916,Assunta,,
Student918,,secret,60,891000917,Assunta,,
Student919,,secret,60,891000918,Assunta,,
Student920,,secret,60,891000919,Assunta,,
Student921,,secret,60,891000920,Assunta,,
Student922,,secret,60,891000921,Assunta,,
Student923,,secret,60,891000922,Assunta,,
Student924,,secret,60,891000923,Assunta,,
Student925,,secret,60,891000924,Assunta,,
Student926,,secret,60,891000925,Assunta,,
Student927,,secret,60,891000926,Assunta,,
Student928,,secret,60,891000927,Assunta,,
Student929,,secret,60,891000928,Assunta,,
Student930,,secret,60,891000929,Assunta,,
Student931,,secret,60,891000930,Assunta,,
Student932,,secret,60,891000931,Assunta,,
Student933,,secret,60,891000932,Assunta,,
Student934,,secret,60,891000933,Assunta,,
Student935,,secret,60,891000934,Assunta,,
Student936,,secret,60,891000935,Assunta,,
Student937,,secret,60,891000936,Assunta,,
Student938,,secret,60,891000937,Assunta,,
Student939,,secret,60,891000938,Assunta,,
Student940,,secret,60,891000939,Assunta,,
Student941,,secret,60,891000940,Assunta,,
Student942,,secret,60,891000941,Assunta,,
Student943,,secret,60,891000942,Assunta,,
Student944,,secret,60,891000943,Assunta,,
Student945,,secret,60,891000944,Assunta,,
Student946,,secret,60,891000945,Assunta,,
Student947,,secret,60,891000946,Assunta,,
Student948,,secret,60,891000947,Assunta,,
Student949,,secret,60,891000948,Assunta,,
Student950,,secret,60,891000949,Assunta,,
Student951,,secret,60,891000950,Assunta,,
Student952,,secret,60,891000951,Assunta,,
Student953,,secret,60,891000952,Assunta,,
Student954,,secret,60,891000953,Assunta,,
Student955,,secret,60,891000954,Assunta,,
Student956,,secret,60,891000955,Assunta,,
Student957,,secret,60,891000956,Assunta,,
Student958,,secret,60,891000957,Assunta,,
Student959,,secret,60,891000958,Assunta,,
Student960,,secret,60,891000959,Assunta,,
Student961,,secret,60,891000960,Assunta,,
Student962,,secret,60,891000961,Assunta,,
Student963,,secret,60,891000962,Assunta,,
Student964,,secret,60,891000963,Assunta,,
Student965,,secret,60,891000964,Assunta,,
Student966,,secret,60,891000965,Assunta,,
Student967,,secret,60,891000966,Assunta,,
Student968,,secret,60,891000967,Assunta,,
Student969,,secret,60,891000968,Assunta,,
Student970,,secret,60,891000969,Assunta,,
Student971,,secret,60,891000970,Assunta,,
Student972,,secret,60,891000971,Assunta,,
Student973,,secret,60,891000972,Assunta,,
Student974,,secret,60,891000973,Assunta,,
Student975,,secret,60,891000974,Assunta,,
Student976,,secret,60,891000975,Assunta,,
Student977,,secret,60,891000976,Assunta,,
Student978,,secret,60,891000977,Assunta,,
Student979,,secret,60,891000978,Assunta,,
Student980,,secret,60,891000979,Assunta,,
Student981,,secret,60,891000980,Assunta,,
Student982,,secret,60,891000981,Assunta,,
Student983,,secret,60,891000982,Assunta,,
Student984,,secret,60,891000983,Assunta,,
Student985,,secret,60,891000984,Assunta,,
Student986,,secret,60,891000985,Assunta,,
Student987,,secret,60,891000986,Assunta,,
Student988,,secret,60,891000987,Assunta,,
Student989,,secret,60,891000988,Assunta,,
Student990,,secret,60,891000989,Assunta,,
Student991,,secret,60,891000990,Assunta,,
Student992,,secret,60,891000991,Assunta,,
Student993,,secret,60,891000992,Assunta,,
Student994,,secret,60,891000993,Assunta,,
Student995,,secret,60,891000994,Assunta,,
Student996,,secret,60,891000995,Assunta,,
Student997,,secret,60,891000996,Assunta,,
Student998,,secret,60,891000997,Assunta,,
Student999,,secret,60,891000998,Assunta,,
Student1000,,secret,60,891000999,Assunta,,
Student1001,,secret,60,891001000,Assunta,,
Student1002,,secret,60,891001001,Assunta,,
Student1003,,secret,60,891001002,Assunta,,
Student1004,,secret,60,891001003,Assunta,,
Student1005,,secret,60,891001004,Assunta,,
Student1006,,secret,60,891001005,Assunta,,
Student1007,,secret,60,891001006,Assunta,,
Student1008,,secret,60,891001007,Assunta,,
Student1009,,secret,60,891001008,Assunta,,
Student1010,,secret,60,891001009,Assunta,,
Student1011,,secret,60,891001010,Assunta,,
Student1012,,secret,60,891001011,Assunta,,
Student1013,,secret,60,891001012,Assunta,,
Student1014,,secret,60,891001013,Assunta,,
Student1015,,secret,60,891001014,Assunta,,
Student1016,,secret,60,891001015,Assunta,,
Student1017,,secret,60,891001016,Assunta,,
Student1018,,secret,60,891001017,Assunta,,
Student1019,,secret,60,891001018,Assunta,,
Student1020,,secret,60,891001019,Assunta,,
Student1021,,secret,60,891001020,Assunta,,
Student1022,,secret,60,891001021,Assunta,,
Student1023,,secret,60,891001022,Assunta,,
Student1024,,secret,60,891001023,Assunta,,
Student1025,,secret,60,891001024,Assunta,,
Student1026,,secret,60,891001025,Assunta,,
Student1027,,secret,60,891001026,Assunta,,
Student1028,,secret,60,891001027,Assunta,,
Student1029,,secret,60,891001028,Assunta,,
Student1030,,secret,60,891001029,Assunta,,
Student1031,,secret,60,891001030,Assunta,,
Student1032,,secret,60,891001031,Assunta,,
Student1033,,secret,60,891001032,Assunta,,
Student1034,,secret,60,891001033,Assunta,,
Student1035,,secret,60,891001034,Assunta,,
Student1036,,secret,60,891001035,Assunta,,
Student1037,,secret,60,891001036,Assunta,,
Student1038,,secret,60,891001037,Assunta,,
Student1039,,secret,60,891001038,Assunta,,
Student1040,,secret,60,891001039,Assunta,,
Student1041,,secret,60,891001040,Assunta,,
Student1042,,secret,60,891001041,Assunta,,
Student1043,,secret,60,891001042,Assunta,,
Student1044,,secret,60,891001043,Assunta,,
Student1045,,secret,60,891001044,Assunta,,
Student1046,,secret,60,891001045,Assunta,,
Student1047,,secret,60,891001046,Assunta,,
Student1048,,secret,60,891001047,Assunta,,
Student1049,,secret,60,891001048,Assunta,,
Student1050,,secret,60,891001049,Assunta,,
Student1051,,secret,60,891001050,Assunta,,
Student1052,,secret,60,891001051,Assunta,,
Student1053,,secret,60,891001052,Assunta,,
Student1054,,secret,60,891001053,Assunta,,
Student1055,,secret,60,891001054,Assunta,,
Student1056,,secret,60,891001055,Assunta,,
Student1057,,secret,60,891001056,Assunta,,
Student1058,,secret,60,891001057,Assunta,,
Student1059,,secret,60,891001058,Assunta,,
Student1060,,secret,60,891001059,Assunta,,
Student1061,,secret,60,891001060,Assunta,,
Student1062,,secret,60,891001061,Assunta,,
Student1063,,secret,60,891001062,Assunta,,
Student1064,,secret,60,891001063,Assunta,,
Student1065,,secret,60,891001064,Assunta,,
Student1066,,secret,60,891001065,Assunta,,
Student1067,,secret,60,891001066,Assunta,,
Student1068,,secret,60,891001067,Assunta,,
Student1069,,secret,60,891001068,Assunta,,
Student1070,,secret,60,891001069,Assunta,,
Student1071,,secret,60,891001070,Assunta,,
Student1072,,secret,60,891001071,Assunta,,
Student1073,,secret,60,891001072,Assunta,,
Student1074,,secret,60,891001073,Assunta,,
Student1075,,secret,60,891001074,Assunta,,
Student1076,,secret,60,891001075,Assunta,,
Student1077,,secret,60,891001076,Assunta,,
Student1078,,secret,60,891001077,Assunta,,
Student1079,,secret,60,891001078,Assunta,,
Student1080,,secret,60,891001079,Assunta,,
Student1081,,secret,60,891001080,Assunta,,
Student1082,,secret,60,891001081,Assunta,,
Student1083,,secret,60,891001082,Assunta,,
Student1084,,secret,60,891001083,Assunta,,
Student1085,,secret,60,891001084,Assunta,,
Student1086,,secret,60,891001085,Assunta,,
Student1087,,secret,60,891001086,Assunta,,
Student1088,,secret,60,891001087,Assunta,,
Student1089,,secret,60,891001088,Assunta,,
Student1090,,secret,60,891001089,Assunta,,
Student1091,,secret,60,891001090,Assunta,,
Student1092,,secret,60,891001091,Assunta,,
Student1093,,secret,60,891001092,Assunta,,
Student1094,,secret,60,891001093,Assunta,,
