Name,Email,Password,Country Code,Contact,School,,,,
Pick one of the value for Student School Column: ,Assunta,Idrissi,Brainy Bunch,REAL School,GIIS,Tenby School,Convent,MoneyTree,TuneTalk
Pick one of the value for Country Code Column,Malaysia : 60,India : 91,United Kingdom : 44,Singapore : 65,United State : 1,,,,
JohnDoe1,john1@gmail.com1,johndoe123,91,6666888822,Idrissi,,,,
JohnDoe2,john1@gmail.com2,secret,91,6666888823,Idrissi,,,,
JohnDoe3,john1@gmail.com3,secret,91,6666888824,Idrissi,,,,
JohnDoe4,john1@gmail.com4,secret,91,6666888825,Idrissi,,,,
JohnDoe5,john1@gmail.com5,secret,91,6666888826,Idrissi,,,,
JohnDoe6,john1@gmail.com6,secret,91,6666888827,Idrissi,,,,
JohnDoe7,john1@gmail.com7,secret,91,6666888828,Idrissi,,,,
JohnDoe8,john1@gmail.com8,secret,91,6666888829,Idrissi,,,,
JohnDoe9,john1@gmail.com9,secret,91,6666888830,Idrissi,,,,
JohnDoe10,john1@gmail.com10,secret,91,6666888831,Idrissi,,,,
JohnDoe11,john1@gmail.com11,secret,91,6666888832,Idrissi,,,,
JohnDoe12,john1@gmail.com12,secret,91,6666888833,Idrissi,,,,
JohnDoe13,john1@gmail.com13,secret,91,6666888834,Idrissi,,,,
JohnDoe14,john1@gmail.com14,secret,91,6666888835,Idrissi,,,,
JohnDoe15,john1@gmail.com15,secret,91,6666888836,Idrissi,,,,
JohnDoe16,john1@gmail.com16,secret,91,6666888837,Idrissi,,,,
JohnDoe17,john1@gmail.com17,secret,91,6666888838,Idrissi,,,,
JohnDoe18,john1@gmail.com18,secret,91,6666888839,Idrissi,,,,
JohnDoe19,john1@gmail.com19,secret,91,6666888840,Idrissi,,,,
JohnDoe20,john1@gmail.com20,secret,91,6666888841,Idrissi,,,,
JohnDoe21,john1@gmail.com21,secret,91,6666888842,Idrissi,,,,
JohnDoe22,john1@gmail.com22,secret,91,6666888843,Idrissi,,,,
JohnDoe23,john1@gmail.com23,secret,91,6666888844,Idrissi,,,,
JohnDoe24,john1@gmail.com24,secret,91,6666888845,Idrissi,,,,
JohnDoe25,john1@gmail.com25,secret,91,6666888846,Idrissi,,,,
JohnDoe26,john1@gmail.com26,secret,91,6666888847,Idrissi,,,,
JohnDoe27,john1@gmail.com27,secret,91,6666888848,Idrissi,,,,
JohnDoe28,john1@gmail.com28,secret,91,6666888849,Idrissi,,,,
JohnDoe29,john1@gmail.com29,secret,91,6666888850,Idrissi,,,,
JohnDoe30,john1@gmail.com30,secret,91,6666888851,Idrissi,,,,
JohnDoe31,john1@gmail.com31,secret,91,6666888852,Idrissi,,,,
JohnDoe32,john1@gmail.com32,secret,91,6666888853,Idrissi,,,,
JohnDoe33,john1@gmail.com33,secret,91,6666888854,Idrissi,,,,
JohnDoe34,john1@gmail.com34,secret,91,6666888855,Idrissi,,,,
JohnDoe35,john1@gmail.com35,secret,91,6666888856,Idrissi,,,,
JohnDoe36,john1@gmail.com36,secret,91,6666888857,Idrissi,,,,
JohnDoe37,john1@gmail.com37,secret,91,6666888858,Idrissi,,,,
JohnDoe38,john1@gmail.com38,secret,91,6666888859,Idrissi,,,,
JohnDoe39,john1@gmail.com39,secret,91,6666888860,Idrissi,,,,
JohnDoe40,john1@gmail.com40,secret,91,6666888861,Idrissi,,,,
JohnDoe41,john1@gmail.com41,secret,91,6666888862,Idrissi,,,,
JohnDoe42,john1@gmail.com42,secret,91,6666888863,Idrissi,,,,
JohnDoe43,john1@gmail.com43,secret,91,6666888864,Idrissi,,,,
JohnDoe44,john1@gmail.com44,secret,91,6666888865,Idrissi,,,,
JohnDoe45,john1@gmail.com45,secret,91,6666888866,Idrissi,,,,
JohnDoe46,john1@gmail.com46,secret,91,6666888867,Idrissi,,,,
JohnDoe47,john1@gmail.com47,secret,91,6666888868,Idrissi,,,,
JohnDoe48,john1@gmail.com48,secret,91,6666888869,Idrissi,,,,
JohnDoe49,john1@gmail.com49,secret,91,6666888870,Idrissi,,,,
JohnDoe50,john1@gmail.com50,secret,91,6666888871,Idrissi,,,,
JohnDoe51,john1@gmail.com51,secret,91,6666888872,Idrissi,,,,
JohnDoe52,john1@gmail.com52,secret,91,6666888873,Idrissi,,,,
JohnDoe53,john1@gmail.com53,secret,91,6666888874,Idrissi,,,,
JohnDoe54,john1@gmail.com54,secret,91,6666888875,Idrissi,,,,
JohnDoe55,john1@gmail.com55,secret,91,6666888876,Idrissi,,,,
JohnDoe56,john1@gmail.com56,secret,91,6666888877,Idrissi,,,,
JohnDoe57,john1@gmail.com57,secret,91,6666888878,Idrissi,,,,
JohnDoe58,john1@gmail.com58,secret,91,6666888879,Idrissi,,,,
JohnDoe59,john1@gmail.com59,secret,91,6666888880,Idrissi,,,,
JohnDoe60,john1@gmail.com60,secret,91,6666888881,Idrissi,,,,
JohnDoe61,john1@gmail.com61,secret,91,6666888882,Idrissi,,,,
JohnDoe62,john1@gmail.com62,secret,91,6666888883,Idrissi,,,,
JohnDoe63,john1@gmail.com63,secret,91,6666888884,Idrissi,,,,
JohnDoe64,john1@gmail.com64,secret,91,6666888885,Idrissi,,,,
JohnDoe65,john1@gmail.com65,secret,91,6666888886,Idrissi,,,,
JohnDoe66,john1@gmail.com66,secret,91,6666888887,Idrissi,,,,
JohnDoe67,john1@gmail.com67,secret,91,6666888888,Idrissi,,,,
JohnDoe68,john1@gmail.com68,secret,91,6666888889,Idrissi,,,,
JohnDoe69,john1@gmail.com69,secret,91,6666888890,Idrissi,,,,
JohnDoe70,john1@gmail.com70,secret,91,6666888891,Idrissi,,,,
JohnDoe71,john1@gmail.com71,secret,91,6666888892,Idrissi,,,,
JohnDoe72,john1@gmail.com72,secret,91,6666888893,Idrissi,,,,
JohnDoe73,john1@gmail.com73,secret,91,6666888894,Idrissi,,,,
JohnDoe74,john1@gmail.com74,secret,91,6666888895,Idrissi,,,,
JohnDoe75,john1@gmail.com75,secret,91,6666888896,Idrissi,,,,
JohnDoe76,john1@gmail.com76,secret,91,6666888897,Idrissi,,,,
JohnDoe77,john1@gmail.com77,secret,91,6666888898,Idrissi,,,,
JohnDoe78,john1@gmail.com78,secret,91,6666888899,Idrissi,,,,
JohnDoe79,john1@gmail.com79,secret,91,6666888900,Idrissi,,,,
JohnDoe80,john1@gmail.com80,secret,91,6666888901,Idrissi,,,,
JohnDoe81,john1@gmail.com81,secret,91,6666888902,Idrissi,,,,
JohnDoe82,john1@gmail.com82,secret,91,6666888903,Idrissi,,,,
JohnDoe83,john1@gmail.com83,secret,91,6666888904,Idrissi,,,,
JohnDoe84,john1@gmail.com84,secret,91,6666888905,Idrissi,,,,
JohnDoe85,john1@gmail.com85,secret,91,6666888906,Idrissi,,,,
JohnDoe86,john1@gmail.com86,secret,91,6666888907,Idrissi,,,,
JohnDoe87,john1@gmail.com87,secret,91,6666888908,Idrissi,,,,
JohnDoe88,john1@gmail.com88,secret,91,6666888909,Idrissi,,,,
JohnDoe89,john1@gmail.com89,secret,91,6666888910,Idrissi,,,,
JohnDoe90,john1@gmail.com90,secret,91,6666888911,Idrissi,,,,
JohnDoe91,john1@gmail.com91,secret,91,6666888912,Idrissi,,,,
JohnDoe92,john1@gmail.com92,secret,91,6666888913,Idrissi,,,,
JohnDoe93,john1@gmail.com93,secret,91,6666888914,Idrissi,,,,
JohnDoe94,john1@gmail.com94,secret,91,6666888915,Idrissi,,,,
JohnDoe95,john1@gmail.com95,secret,91,6666888916,Idrissi,,,,
JohnDoe96,john1@gmail.com96,secret,91,6666888917,Idrissi,,,,
JohnDoe97,john1@gmail.com97,secret,91,6666888918,Idrissi,,,,
JohnDoe98,john1@gmail.com98,secret,91,6666888919,Idrissi,,,,
JohnDoe99,john1@gmail.com99,secret,91,6666888920,Idrissi,,,,
JohnDoe100,john1@gmail.com100,secret,91,6666888921,Idrissi,,,,
JohnDoe101,john1@gmail.com101,secret,91,6666888922,Idrissi,,,,
JohnDoe102,john1@gmail.com102,secret,91,6666888923,Idrissi,,,,
JohnDoe103,john1@gmail.com103,secret,91,6666888924,Idrissi,,,,
JohnDoe104,john1@gmail.com104,secret,91,6666888925,Idrissi,,,,
JohnDoe105,john1@gmail.com105,secret,91,6666888926,Idrissi,,,,
JohnDoe106,john1@gmail.com106,secret,91,6666888927,Idrissi,,,,
JohnDoe107,john1@gmail.com107,secret,91,6666888928,Idrissi,,,,
JohnDoe108,john1@gmail.com108,secret,91,6666888929,Idrissi,,,,
JohnDoe109,john1@gmail.com109,secret,91,6666888930,Idrissi,,,,
JohnDoe110,john1@gmail.com110,secret,91,6666888931,Idrissi,,,,
JohnDoe111,john1@gmail.com111,secret,91,6666888932,Idrissi,,,,
JohnDoe112,john1@gmail.com112,secret,91,6666888933,Idrissi,,,,
JohnDoe113,john1@gmail.com113,secret,91,6666888934,Idrissi,,,,
JohnDoe114,john1@gmail.com114,secret,91,6666888935,Idrissi,,,,
JohnDoe115,john1@gmail.com115,secret,91,6666888936,Idrissi,,,,
JohnDoe116,john1@gmail.com116,secret,91,6666888937,Idrissi,,,,
JohnDoe117,john1@gmail.com117,secret,91,6666888938,Idrissi,,,,
JohnDoe118,john1@gmail.com118,secret,91,6666888939,Idrissi,,,,
JohnDoe119,john1@gmail.com119,secret,91,6666888940,Idrissi,,,,
JohnDoe120,john1@gmail.com120,secret,91,6666888941,Idrissi,,,,
JohnDoe121,john1@gmail.com121,secret,91,6666888942,Idrissi,,,,
JohnDoe122,john1@gmail.com122,secret,91,6666888943,Idrissi,,,,
JohnDoe123,john1@gmail.com123,secret,91,6666888944,Idrissi,,,,
JohnDoe124,john1@gmail.com124,secret,91,6666888945,Idrissi,,,,
JohnDoe125,john1@gmail.com125,secret,91,6666888946,Idrissi,,,,
JohnDoe126,john1@gmail.com126,secret,91,6666888947,Idrissi,,,,
JohnDoe127,john1@gmail.com127,secret,91,6666888948,Idrissi,,,,
JohnDoe128,john1@gmail.com128,secret,91,6666888949,Idrissi,,,,
JohnDoe129,john1@gmail.com129,secret,91,6666888950,Idrissi,,,,
JohnDoe130,john1@gmail.com130,secret,91,6666888951,Idrissi,,,,
JohnDoe131,john1@gmail.com131,secret,91,6666888952,Idrissi,,,,
JohnDoe132,john1@gmail.com132,secret,91,6666888953,Idrissi,,,,
JohnDoe133,john1@gmail.com133,secret,91,6666888954,Idrissi,,,,
JohnDoe134,john1@gmail.com134,secret,91,6666888955,Idrissi,,,,
JohnDoe135,john1@gmail.com135,secret,91,6666888956,Idrissi,,,,
JohnDoe136,john1@gmail.com136,secret,91,6666888957,Idrissi,,,,
JohnDoe137,john1@gmail.com137,secret,91,6666888958,Idrissi,,,,
JohnDoe138,john1@gmail.com138,secret,91,6666888959,Idrissi,,,,
JohnDoe139,john1@gmail.com139,secret,91,6666888960,Idrissi,,,,
JohnDoe140,john1@gmail.com140,secret,91,6666888961,Idrissi,,,,
JohnDoe141,john1@gmail.com141,secret,91,6666888962,Idrissi,,,,
JohnDoe142,john1@gmail.com142,secret,91,6666888963,Idrissi,,,,
JohnDoe143,john1@gmail.com143,secret,91,6666888964,Idrissi,,,,
JohnDoe144,john1@gmail.com144,secret,91,6666888965,Idrissi,,,,
