Name,Email,Password,Country Code,Contact,School,,
Pick one of the value for Student School Column: ,Assunta,Idrissi,Brainy Bunch,REAL School,GIIS,Tenby School,Convent
Pick one of the value for Country Code Column,Malaysia : 60,India : 91,United Kingdom : 44,Singapore : 65,United State : 1,,
Rakan296,,secret,60,892000395,Idrissi,,
Rakan297,,secret,60,892000396,Idrissi,,
Rakan298,,secret,60,892000397,Idrissi,,
Rakan299,,secret,60,892000398,Idrissi,,
Rakan300,,secret,60,892000399,Idrissi,,
Rakan301,,secret,60,892000400,Idrissi,,
Rakan302,,secret,60,892000401,Idrissi,,
Rakan303,,secret,60,892000402,Idrissi,,
Rakan304,,secret,60,892000403,Idrissi,,
Rakan305,,secret,60,892000404,Idrissi,,
Rakan306,,secret,60,892000405,Idrissi,,
Rakan307,,secret,60,892000406,Idrissi,,
Rakan308,,secret,60,892000407,Idrissi,,
Rakan309,,secret,60,892000408,Idrissi,,
Rakan310,,secret,60,892000409,Idrissi,,
Rakan311,,secret,60,892000410,Idrissi,,
Rakan312,,secret,60,892000411,Idrissi,,
Rakan313,,secret,60,892000412,Idrissi,,
Rakan314,,secret,60,892000413,Idrissi,,
Rakan315,,secret,60,892000414,Idrissi,,
Rakan316,,secret,60,892000415,Idrissi,,
Rakan317,,secret,60,892000416,Idrissi,,
Rakan318,,secret,60,892000417,Idrissi,,
Rakan319,,secret,60,892000418,Idrissi,,
Rakan320,,secret,60,892000419,Idrissi,,
Rakan321,,secret,60,892000420,Idrissi,,
Rakan322,,secret,60,892000421,Idrissi,,
Rakan323,,secret,60,892000422,Idrissi,,
Rakan324,,secret,60,892000423,Idrissi,,
Rakan325,,secret,60,892000424,Idrissi,,
Rakan326,,secret,60,892000425,Idrissi,,
Rakan327,,secret,60,892000426,Idrissi,,
Rakan328,,secret,60,892000427,Idrissi,,
Rakan329,,secret,60,892000428,Idrissi,,
Rakan330,,secret,60,892000429,Idrissi,,
Rakan331,,secret,60,892000430,Idrissi,,
Rakan332,,secret,60,892000431,Idrissi,,
Rakan333,,secret,60,892000432,Idrissi,,
Rakan334,,secret,60,892000433,Idrissi,,
Rakan335,,secret,60,892000434,Idrissi,,
Rakan336,,secret,60,892000435,Idrissi,,
Rakan337,,secret,60,892000436,Idrissi,,
Rakan338,,secret,60,892000437,Idrissi,,
Rakan339,,secret,60,892000438,Idrissi,,
Rakan340,,secret,60,892000439,Idrissi,,
Rakan341,,secret,60,892000440,Idrissi,,
Rakan342,,secret,60,892000441,Idrissi,,
Rakan343,,secret,60,892000442,Idrissi,,
Rakan344,,secret,60,892000443,Idrissi,,
Rakan345,,secret,60,892000444,Idrissi,,
Rakan346,,secret,60,892000445,Idrissi,,
Rakan347,,secret,60,892000446,Idrissi,,
Rakan348,,secret,60,892000447,Idrissi,,
Rakan349,,secret,60,892000448,Idrissi,,
Rakan350,,secret,60,892000449,Idrissi,,
Rakan351,,secret,60,892000450,Idrissi,,
Rakan352,,secret,60,892000451,Idrissi,,
Rakan353,,secret,60,892000452,Idrissi,,
Rakan354,,secret,60,892000453,Idrissi,,
Rakan355,,secret,60,892000454,Idrissi,,
Rakan356,,secret,60,892000455,Idrissi,,
Rakan357,,secret,60,892000456,Idrissi,,
Rakan358,,secret,60,892000457,Idrissi,,
Rakan359,,secret,60,892000458,Idrissi,,
Rakan360,,secret,60,892000459,Idrissi,,
Rakan361,,secret,60,892000460,Idrissi,,
Rakan362,,secret,60,892000461,Idrissi,,
Rakan363,,secret,60,892000462,Idrissi,,
Rakan364,,secret,60,892000463,Idrissi,,
Rakan365,,secret,60,892000464,Idrissi,,
Rakan366,,secret,60,892000465,Idrissi,,
Rakan367,,secret,60,892000466,Idrissi,,
Rakan368,,secret,60,892000467,Idrissi,,
Rakan369,,secret,60,892000468,Idrissi,,
Rakan370,,secret,60,892000469,Idrissi,,
Rakan371,,secret,60,892000470,Idrissi,,
Rakan372,,secret,60,892000471,Idrissi,,
Rakan373,,secret,60,892000472,Idrissi,,
Rakan374,,secret,60,892000473,Idrissi,,
Rakan375,,secret,60,892000474,Idrissi,,
Rakan376,,secret,60,892000475,Idrissi,,
Rakan377,,secret,60,892000476,Idrissi,,
Rakan378,,secret,60,892000477,Idrissi,,
Rakan379,,secret,60,892000478,Idrissi,,
Rakan380,,secret,60,892000479,Idrissi,,
Rakan381,,secret,60,892000480,Idrissi,,
Rakan382,,secret,60,892000481,Idrissi,,
Rakan383,,secret,60,892000482,Idrissi,,
Rakan384,,secret,60,892000483,Idrissi,,
Rakan385,,secret,60,892000484,Idrissi,,
Rakan386,,secret,60,892000485,Idrissi,,
Rakan387,,secret,60,892000486,Idrissi,,
Rakan388,,secret,60,892000487,Idrissi,,
Rakan389,,secret,60,892000488,Idrissi,,
Rakan390,,secret,60,892000489,Idrissi,,
Rakan391,,secret,60,892000490,Idrissi,,
Rakan392,,secret,60,892000491,Idrissi,,
Rakan393,,secret,60,892000492,Idrissi,,
Rakan394,,secret,60,892000493,Idrissi,,
Rakan395,,secret,60,892000494,Idrissi,,
Rakan396,,secret,60,892000495,Idrissi,,
Rakan397,,secret,60,892000496,Idrissi,,
Rakan398,,secret,60,892000497,Idrissi,,
Rakan399,,secret,60,892000498,Idrissi,,
Rakan400,,secret,60,892000499,Idrissi,,
Rakan401,,secret,60,892000500,Idrissi,,
Rakan402,,secret,60,892000501,Idrissi,,
Rakan403,,secret,60,892000502,Idrissi,,
Rakan404,,secret,60,892000503,Idrissi,,
Rakan405,,secret,60,892000504,Idrissi,,
Rakan406,,secret,60,892000505,Idrissi,,
Rakan407,,secret,60,892000506,Idrissi,,
Rakan408,,secret,60,892000507,Idrissi,,
Rakan409,,secret,60,892000508,Idrissi,,
Rakan410,,secret,60,892000509,Idrissi,,
Rakan411,,secret,60,892000510,Idrissi,,
Rakan412,,secret,60,892000511,Idrissi,,
Rakan413,,secret,60,892000512,Idrissi,,
Rakan414,,secret,60,892000513,Idrissi,,
Rakan415,,secret,60,892000514,Idrissi,,
Rakan416,,secret,60,892000515,Idrissi,,
Rakan417,,secret,60,892000516,Idrissi,,
Rakan418,,secret,60,892000517,Idrissi,,
Rakan419,,secret,60,892000518,Idrissi,,
Rakan420,,secret,60,892000519,Idrissi,,
Rakan421,,secret,60,892000520,Idrissi,,
Rakan422,,secret,60,892000521,Idrissi,,
Rakan423,,secret,60,892000522,Idrissi,,
Rakan424,,secret,60,892000523,Idrissi,,
Rakan425,,secret,60,892000524,Idrissi,,
Rakan426,,secret,60,892000525,Idrissi,,
Rakan427,,secret,60,892000526,Idrissi,,
Rakan428,,secret,60,892000527,Idrissi,,
Rakan429,,secret,60,892000528,Idrissi,,
Rakan430,,secret,60,892000529,Idrissi,,
Rakan431,,secret,60,892000530,Idrissi,,
Rakan432,,secret,60,892000531,Idrissi,,
Rakan433,,secret,60,892000532,Idrissi,,
Rakan434,,secret,60,892000533,Idrissi,,
Rakan435,,secret,60,892000534,Idrissi,,
Rakan436,,secret,60,892000535,Idrissi,,
Rakan437,,secret,60,892000536,Idrissi,,
Rakan438,,secret,60,892000537,Idrissi,,
Rakan439,,secret,60,892000538,Idrissi,,
Rakan440,,secret,60,892000539,Idrissi,,
Rakan441,,secret,60,892000540,Idrissi,,
Rakan442,,secret,60,892000541,Idrissi,,
Rakan443,,secret,60,892000542,Idrissi,,
Rakan444,,secret,60,892000543,Idrissi,,
Rakan445,,secret,60,892000544,Idrissi,,
Rakan446,,secret,60,892000545,Idrissi,,
Rakan447,,secret,60,892000546,Idrissi,,
Rakan448,,secret,60,892000547,Idrissi,,
Rakan449,,secret,60,892000548,Idrissi,,
Rakan450,,secret,60,892000549,Idrissi,,
Rakan451,,secret,60,892000550,Idrissi,,
Rakan452,,secret,60,892000551,Idrissi,,
Rakan453,,secret,60,892000552,Idrissi,,
Rakan454,,secret,60,892000553,Idrissi,,
Rakan455,,secret,60,892000554,Idrissi,,
Rakan456,,secret,60,892000555,Idrissi,,
Rakan457,,secret,60,892000556,Idrissi,,
Rakan458,,secret,60,892000557,Idrissi,,
Rakan459,,secret,60,892000558,Idrissi,,
Rakan460,,secret,60,892000559,Idrissi,,
