Name,Email,Password,Country Code,Contact,School,,
Pick one of the value for Student School Column: ,Assunta,Idrissi,Brainy Bunch,REAL School,GIIS,Tenby School,Convent
Pick one of the value for Country Code Column,Malaysia : 60,India : 91,United Kingdom : 44,Singapore : 65,United State : 1,,
Rakan396,,secret,60,892000495,Idrissi,,
Rakan397,,secret,60,892000496,Idrissi,,
Rakan398,,secret,60,892000497,Idrissi,,
Rakan399,,secret,60,892000498,Idrissi,,
Rakan400,,secret,60,892000499,Idrissi,,
Rakan401,,secret,60,892000500,Idrissi,,
Rakan402,,secret,60,892000501,Idrissi,,
Rakan403,,secret,60,892000502,Idrissi,,
Rakan404,,secret,60,892000503,Idrissi,,
Rakan405,,secret,60,892000504,Idrissi,,
Rakan406,,secret,60,892000505,Idrissi,,
Rakan407,,secret,60,892000506,Idrissi,,
Rakan408,,secret,60,892000507,Idrissi,,
Rakan409,,secret,60,892000508,Idrissi,,
Rakan410,,secret,60,892000509,Idrissi,,
Rakan411,,secret,60,892000510,Idrissi,,
Rakan412,,secret,60,892000511,Idrissi,,
Rakan413,,secret,60,892000512,Idrissi,,
Rakan414,,secret,60,892000513,Idrissi,,
Rakan415,,secret,60,892000514,Idrissi,,
Rakan416,,secret,60,892000515,Idrissi,,
Rakan417,,secret,60,892000516,Idrissi,,
Rakan418,,secret,60,892000517,Idrissi,,
Rakan419,,secret,60,892000518,Idrissi,,
Rakan420,,secret,60,892000519,Idrissi,,
Rakan421,,secret,60,892000520,Idrissi,,
Rakan422,,secret,60,892000521,Idrissi,,
Rakan423,,secret,60,892000522,Idrissi,,
Rakan424,,secret,60,892000523,Idrissi,,
Rakan425,,secret,60,892000524,Idrissi,,
Rakan426,,secret,60,892000525,Idrissi,,
Rakan427,,secret,60,892000526,Idrissi,,
Rakan428,,secret,60,892000527,Idrissi,,
Rakan429,,secret,60,892000528,Idrissi,,
Rakan430,,secret,60,892000529,Idrissi,,
Rakan431,,secret,60,892000530,Idrissi,,
Rakan432,,secret,60,892000531,Idrissi,,
Rakan433,,secret,60,892000532,Idrissi,,
Rakan434,,secret,60,892000533,Idrissi,,
Rakan435,,secret,60,892000534,Idrissi,,
Rakan436,,secret,60,892000535,Idrissi,,
Rakan437,,secret,60,892000536,Idrissi,,
Rakan438,,secret,60,892000537,Idrissi,,
Rakan439,,secret,60,892000538,Idrissi,,
Rakan440,,secret,60,892000539,Idrissi,,
Rakan441,,secret,60,892000540,Idrissi,,
Rakan442,,secret,60,892000541,Idrissi,,
Rakan443,,secret,60,892000542,Idrissi,,
Rakan444,,secret,60,892000543,Idrissi,,
Rakan445,,secret,60,892000544,Idrissi,,
Rakan446,,secret,60,892000545,Idrissi,,
Rakan447,,secret,60,892000546,Idrissi,,
Rakan448,,secret,60,892000547,Idrissi,,
Rakan449,,secret,60,892000548,Idrissi,,
Rakan450,,secret,60,892000549,Idrissi,,
Rakan451,,secret,60,892000550,Idrissi,,
Rakan452,,secret,60,892000551,Idrissi,,
Rakan453,,secret,60,892000552,Idrissi,,
Rakan454,,secret,60,892000553,Idrissi,,
Rakan455,,secret,60,892000554,Idrissi,,
Rakan456,,secret,60,892000555,Idrissi,,
Rakan457,,secret,60,892000556,Idrissi,,
Rakan458,,secret,60,892000557,Idrissi,,
Rakan459,,secret,60,892000558,Idrissi,,
Rakan460,,secret,60,892000559,Idrissi,,
