Student Name,Contact Number,School Name,Quiz Name,Round Name,Question 1,Question 2,Question 3,Question 4,Question 5,Question 6,Question 7,Question 8,Duration (format: 01H 00M 00S 00MS)
,,,Correct Answer: Enter Y,Incorrect Answer : Enter N,Which of the following is true about demand and price of a good or service?,Which of the following statements is true?,"Before you buy something, what is it that you should always match?",Which of the following is a hidden cost that is usually a part of the price of something.,Which of the following is NOT a smart buying habit?,What is the corporate colour for Tune Talk?,Which airline is Tune Talk affiliated with?,Tune Talk does not have the following social media account,
Pelajar1,810001000,GIIS,TuneTalk Challenge 1,Round 1,Y,Y,Y,Y,Y,Y,Y,Y,00H 00M 11S 00MS
Pelajar302,810001301,GIIS,TuneTalk Challenge 1,Round 1,N,Y,N,N,N,N,N,N,00H 00M 21S 00MS
Pelajar303,810001302,GIIS,TuneTalk Challenge 1,Round 1,N,Y,N,N,N,N,N,N,00H 00M 21S 00MS
Pelajar304,810001303,GIIS,TuneTalk Challenge 1,Round 1,N,Y,N,N,N,N,N,N,00H 00M 21S 00MS
Pelajar305,810001304,GIIS,TuneTalk Challenge 1,Round 1,N,Y,N,N,N,N,N,N,00H 00M 21S 00MS
Pelajar306,810001305,GIIS,TuneTalk Challenge 1,Round 1,N,Y,N,N,N,N,N,N,00H 00M 21S 00MS
Pelajar307,810001306,GIIS,TuneTalk Challenge 1,Round 1,N,Y,N,N,N,N,N,N,00H 00M 21S 00MS
Pelajar308,810001307,GIIS,TuneTalk Challenge 1,Round 1,N,Y,N,N,N,N,N,N,00H 00M 21S 00MS
Pelajar309,810001308,GIIS,TuneTalk Challenge 1,Round 1,N,Y,N,N,N,N,N,N,00H 00M 21S 00MS
Pelajar310,810001309,GIIS,TuneTalk Challenge 1,Round 1,N,Y,N,N,N,N,N,N,00H 00M 21S 00MS
Pelajar311,810001310,GIIS,TuneTalk Challenge 1,Round 1,N,Y,N,N,N,N,N,N,00H 00M 21S 00MS
Pelajar312,810001311,GIIS,TuneTalk Challenge 1,Round 1,N,Y,N,N,N,N,N,N,00H 00M 21S 00MS
Pelajar313,810001312,GIIS,TuneTalk Challenge 1,Round 1,N,Y,N,N,N,N,N,N,00H 00M 21S 00MS
Pelajar314,810001313,GIIS,TuneTalk Challenge 1,Round 1,N,Y,N,N,N,N,N,N,00H 00M 21S 00MS
Pelajar315,810001314,GIIS,TuneTalk Challenge 1,Round 1,N,Y,N,N,N,N,N,N,00H 00M 21S 00MS
Pelajar316,810001315,GIIS,TuneTalk Challenge 1,Round 1,N,Y,N,N,N,N,N,N,00H 00M 21S 00MS
Pelajar317,810001316,GIIS,TuneTalk Challenge 1,Round 1,N,Y,N,N,N,N,N,N,00H 00M 21S 00MS
Pelajar318,810001317,GIIS,TuneTalk Challenge 1,Round 1,N,Y,N,N,N,N,N,N,00H 00M 21S 00MS
Pelajar319,810001318,GIIS,TuneTalk Challenge 1,Round 1,N,Y,N,N,N,N,N,N,00H 00M 21S 00MS
Pelajar320,810001319,GIIS,TuneTalk Challenge 1,Round 1,N,Y,N,N,N,N,N,N,00H 00M 21S 00MS
Pelajar321,810001320,GIIS,TuneTalk Challenge 1,Round 1,N,Y,N,N,N,N,N,N,00H 00M 21S 00MS
Pelajar322,810001321,GIIS,TuneTalk Challenge 1,Round 1,N,Y,N,N,N,N,N,N,00H 00M 21S 00MS
Pelajar323,810001322,GIIS,TuneTalk Challenge 1,Round 1,N,Y,N,N,N,N,N,N,00H 00M 21S 00MS
Pelajar324,810001323,GIIS,TuneTalk Challenge 1,Round 1,N,Y,N,N,N,N,N,N,00H 00M 21S 00MS
Pelajar325,810001324,GIIS,TuneTalk Challenge 1,Round 1,N,Y,N,N,N,N,N,N,00H 00M 21S 00MS
Pelajar326,810001325,GIIS,TuneTalk Challenge 1,Round 1,N,Y,N,N,N,N,N,N,00H 00M 21S 00MS
Pelajar327,810001326,GIIS,TuneTalk Challenge 1,Round 1,N,Y,N,N,N,N,N,N,00H 00M 21S 00MS
Pelajar328,810001327,GIIS,TuneTalk Challenge 1,Round 1,N,Y,N,N,N,N,N,N,00H 00M 21S 00MS
Pelajar329,810001328,GIIS,TuneTalk Challenge 1,Round 1,N,Y,N,N,N,N,N,N,00H 00M 21S 00MS
Pelajar330,810001329,GIIS,TuneTalk Challenge 1,Round 1,N,Y,N,N,N,N,N,N,00H 00M 21S 00MS
Pelajar331,810001330,GIIS,TuneTalk Challenge 1,Round 1,N,Y,N,N,N,N,N,N,00H 00M 21S 00MS
Pelajar332,810001331,GIIS,TuneTalk Challenge 1,Round 1,N,Y,N,N,N,N,N,N,00H 00M 21S 00MS
Pelajar333,810001332,GIIS,TuneTalk Challenge 1,Round 1,N,Y,N,N,N,N,N,N,00H 00M 21S 00MS
Pelajar334,810001333,GIIS,TuneTalk Challenge 1,Round 1,N,Y,N,N,N,N,N,N,00H 00M 21S 00MS
Pelajar335,810001334,GIIS,TuneTalk Challenge 1,Round 1,N,Y,N,N,N,N,N,N,00H 00M 21S 00MS
Pelajar336,810001335,GIIS,TuneTalk Challenge 1,Round 1,N,Y,N,N,N,N,N,N,00H 00M 21S 00MS
Pelajar337,810001336,GIIS,TuneTalk Challenge 1,Round 1,N,Y,N,N,N,N,N,N,00H 00M 21S 00MS
Pelajar338,810001337,GIIS,TuneTalk Challenge 1,Round 1,N,Y,N,N,N,N,N,N,00H 00M 21S 00MS
Pelajar339,810001338,GIIS,TuneTalk Challenge 1,Round 1,N,Y,N,N,N,N,N,N,00H 00M 21S 00MS
Pelajar340,810001339,GIIS,TuneTalk Challenge 1,Round 1,N,Y,N,N,N,N,N,N,00H 00M 21S 00MS
Pelajar341,810001340,GIIS,TuneTalk Challenge 1,Round 1,N,Y,N,N,N,N,N,N,00H 00M 21S 00MS
Pelajar342,810001341,GIIS,TuneTalk Challenge 1,Round 1,N,Y,N,N,N,N,N,N,00H 00M 21S 00MS
Pelajar343,810001342,GIIS,TuneTalk Challenge 1,Round 1,N,Y,N,N,N,N,N,N,00H 00M 21S 00MS
Pelajar344,810001343,GIIS,TuneTalk Challenge 1,Round 1,N,Y,N,N,N,N,N,N,00H 00M 21S 00MS
Pelajar345,810001344,GIIS,TuneTalk Challenge 1,Round 1,N,Y,N,N,N,N,N,N,00H 00M 21S 00MS
Pelajar346,810001345,GIIS,TuneTalk Challenge 1,Round 1,N,Y,N,N,N,N,N,N,00H 00M 21S 00MS
Pelajar347,810001346,GIIS,TuneTalk Challenge 1,Round 1,N,Y,N,N,N,N,N,N,00H 00M 21S 00MS
Pelajar348,810001347,GIIS,TuneTalk Challenge 1,Round 1,N,Y,N,N,N,N,N,N,00H 00M 21S 00MS
Pelajar349,810001348,GIIS,TuneTalk Challenge 1,Round 1,N,Y,N,N,N,N,N,N,00H 00M 21S 00MS
Pelajar350,810001349,GIIS,TuneTalk Challenge 1,Round 1,N,Y,N,N,N,N,N,N,00H 00M 21S 00MS
Pelajar351,810001350,GIIS,TuneTalk Challenge 1,Round 1,N,Y,N,N,N,N,N,N,00H 00M 21S 00MS
Pelajar352,810001351,GIIS,TuneTalk Challenge 1,Round 1,N,Y,N,N,N,N,N,N,00H 00M 21S 00MS
Pelajar353,810001352,GIIS,TuneTalk Challenge 1,Round 1,N,Y,N,N,N,N,N,N,00H 00M 21S 00MS
Pelajar354,810001353,GIIS,TuneTalk Challenge 1,Round 1,N,Y,N,N,N,N,N,N,00H 00M 21S 00MS
Pelajar355,810001354,GIIS,TuneTalk Challenge 1,Round 1,N,Y,N,N,N,N,N,N,00H 00M 21S 00MS
Pelajar356,810001355,GIIS,TuneTalk Challenge 1,Round 1,N,Y,N,N,N,N,N,N,00H 00M 21S 00MS
Pelajar357,810001356,GIIS,TuneTalk Challenge 1,Round 1,N,Y,N,N,N,N,N,N,00H 00M 21S 00MS
Pelajar358,810001357,GIIS,TuneTalk Challenge 1,Round 1,N,Y,N,N,N,N,N,N,00H 00M 21S 00MS
Pelajar359,810001358,GIIS,TuneTalk Challenge 1,Round 1,N,Y,N,N,N,N,N,N,00H 00M 21S 00MS
Pelajar360,810001359,GIIS,TuneTalk Challenge 1,Round 1,N,Y,N,N,N,N,N,N,00H 00M 21S 00MS
Pelajar361,810001360,GIIS,TuneTalk Challenge 1,Round 1,N,Y,N,N,N,N,N,N,00H 00M 21S 00MS
Pelajar362,810001361,GIIS,TuneTalk Challenge 1,Round 1,N,Y,N,N,N,N,N,N,00H 00M 21S 00MS
Pelajar363,810001362,GIIS,TuneTalk Challenge 1,Round 1,N,Y,N,N,N,N,N,N,00H 00M 21S 00MS
Pelajar364,810001363,GIIS,TuneTalk Challenge 1,Round 1,N,Y,N,N,N,N,N,N,00H 00M 21S 00MS
Pelajar365,810001364,GIIS,TuneTalk Challenge 1,Round 1,N,Y,N,N,N,N,N,N,00H 00M 21S 00MS
Pelajar366,810001365,GIIS,TuneTalk Challenge 1,Round 1,N,Y,N,N,N,N,N,N,00H 00M 21S 00MS
Pelajar367,810001366,GIIS,TuneTalk Challenge 1,Round 1,N,Y,N,N,N,N,N,N,00H 00M 21S 00MS
Pelajar368,810001367,GIIS,TuneTalk Challenge 1,Round 1,N,Y,N,N,N,N,N,N,00H 00M 21S 00MS
Pelajar369,810001368,GIIS,TuneTalk Challenge 1,Round 1,N,Y,N,N,N,N,N,N,00H 00M 21S 00MS
Pelajar370,810001369,GIIS,TuneTalk Challenge 1,Round 1,N,Y,N,N,N,N,N,N,00H 00M 21S 00MS
Pelajar371,810001370,GIIS,TuneTalk Challenge 1,Round 1,N,Y,N,N,N,N,N,N,00H 00M 21S 00MS
Pelajar372,810001371,GIIS,TuneTalk Challenge 1,Round 1,N,Y,N,N,N,N,N,N,00H 00M 21S 00MS
Pelajar373,810001372,GIIS,TuneTalk Challenge 1,Round 1,N,Y,N,N,N,N,N,N,00H 00M 21S 00MS
Pelajar374,810001373,GIIS,TuneTalk Challenge 1,Round 1,N,Y,N,N,N,N,N,N,00H 00M 21S 00MS
Pelajar375,810001374,GIIS,TuneTalk Challenge 1,Round 1,N,Y,N,N,N,N,N,N,00H 00M 21S 00MS
Pelajar376,810001375,GIIS,TuneTalk Challenge 1,Round 1,N,Y,N,N,N,N,N,N,00H 00M 21S 00MS
Pelajar377,810001376,GIIS,TuneTalk Challenge 1,Round 1,N,Y,N,N,N,N,N,N,00H 00M 21S 00MS
Pelajar378,810001377,GIIS,TuneTalk Challenge 1,Round 1,N,Y,N,N,N,N,N,N,00H 00M 21S 00MS
Pelajar379,810001378,GIIS,TuneTalk Challenge 1,Round 1,N,Y,N,N,N,N,N,N,00H 00M 21S 00MS
Pelajar380,810001379,GIIS,TuneTalk Challenge 1,Round 1,N,Y,N,N,N,N,N,N,00H 00M 21S 00MS
Pelajar381,810001380,GIIS,TuneTalk Challenge 1,Round 1,N,Y,N,N,N,N,N,N,00H 00M 21S 00MS
Pelajar382,810001381,GIIS,TuneTalk Challenge 1,Round 1,N,Y,N,N,N,N,N,N,00H 00M 21S 00MS
Pelajar383,810001382,GIIS,TuneTalk Challenge 1,Round 1,N,Y,N,N,N,N,N,N,00H 00M 21S 00MS
Pelajar384,810001383,GIIS,TuneTalk Challenge 1,Round 1,N,Y,N,N,N,N,N,N,00H 00M 21S 00MS
Pelajar385,810001384,GIIS,TuneTalk Challenge 1,Round 1,N,Y,N,N,N,N,N,N,00H 00M 21S 00MS
Pelajar386,810001385,GIIS,TuneTalk Challenge 1,Round 1,N,Y,N,N,N,N,N,N,00H 00M 21S 00MS
Pelajar387,810001386,GIIS,TuneTalk Challenge 1,Round 1,N,Y,N,N,N,N,N,N,00H 00M 21S 00MS
Pelajar388,810001387,GIIS,TuneTalk Challenge 1,Round 1,N,Y,N,N,N,N,N,N,00H 00M 21S 00MS
Pelajar389,810001388,GIIS,TuneTalk Challenge 1,Round 1,N,Y,N,N,N,N,N,N,00H 00M 21S 00MS
Pelajar390,810001389,GIIS,TuneTalk Challenge 1,Round 1,N,Y,N,N,N,N,N,N,00H 00M 21S 00MS
Pelajar391,810001390,GIIS,TuneTalk Challenge 1,Round 1,N,Y,N,N,N,N,N,N,00H 00M 21S 00MS
Pelajar392,810001391,GIIS,TuneTalk Challenge 1,Round 1,N,Y,N,N,N,N,N,N,00H 00M 21S 00MS
Pelajar393,810001392,GIIS,TuneTalk Challenge 1,Round 1,N,Y,N,N,N,N,N,N,00H 00M 21S 00MS
Pelajar394,810001393,GIIS,TuneTalk Challenge 1,Round 1,N,Y,N,N,N,N,N,N,00H 00M 21S 00MS
Pelajar395,810001394,GIIS,TuneTalk Challenge 1,Round 1,N,Y,N,N,N,N,N,N,00H 00M 21S 00MS
Pelajar396,810001395,GIIS,TuneTalk Challenge 1,Round 1,N,Y,N,N,N,N,N,N,00H 00M 21S 00MS
Pelajar397,810001396,GIIS,TuneTalk Challenge 1,Round 1,N,Y,N,N,N,N,N,N,00H 00M 21S 00MS
Pelajar398,810001397,GIIS,TuneTalk Challenge 1,Round 1,N,Y,N,N,N,N,N,N,00H 00M 21S 00MS
Pelajar399,810001398,GIIS,TuneTalk Challenge 1,Round 1,N,Y,N,N,N,N,N,N,00H 00M 21S 00MS
Pelajar400,810001399,GIIS,TuneTalk Challenge 1,Round 1,N,Y,N,N,N,N,N,N,00H 00M 21S 00MS
Pelajar401,810001400,GIIS,TuneTalk Challenge 1,Round 1,N,Y,N,N,N,N,N,N,00H 00M 21S 00MS
Pelajar402,810001401,GIIS,TuneTalk Challenge 1,Round 1,N,Y,N,N,N,N,N,N,00H 00M 21S 00MS
Pelajar403,810001402,GIIS,TuneTalk Challenge 1,Round 1,N,Y,N,N,N,N,N,N,00H 00M 21S 00MS
Pelajar404,810001403,GIIS,TuneTalk Challenge 1,Round 1,N,Y,N,N,N,N,N,N,00H 00M 21S 00MS
Pelajar405,810001404,GIIS,TuneTalk Challenge 1,Round 1,N,Y,N,N,N,N,N,N,00H 00M 21S 00MS
Pelajar406,810001405,GIIS,TuneTalk Challenge 1,Round 1,N,Y,N,N,N,N,N,N,00H 00M 21S 00MS
Pelajar407,810001406,GIIS,TuneTalk Challenge 1,Round 1,N,Y,N,N,N,N,N,N,00H 00M 21S 00MS
Pelajar408,810001407,GIIS,TuneTalk Challenge 1,Round 1,N,Y,N,N,N,N,N,N,00H 00M 21S 00MS
Pelajar409,810001408,GIIS,TuneTalk Challenge 1,Round 1,N,Y,N,N,N,N,N,N,00H 00M 21S 00MS
Pelajar410,810001409,GIIS,TuneTalk Challenge 1,Round 1,N,Y,N,N,N,N,N,N,00H 00M 21S 00MS
Pelajar411,810001410,GIIS,TuneTalk Challenge 1,Round 1,N,Y,N,N,N,N,N,N,00H 00M 21S 00MS
Pelajar412,810001411,GIIS,TuneTalk Challenge 1,Round 1,N,Y,N,N,N,N,N,N,00H 00M 21S 00MS
Pelajar413,810001412,GIIS,TuneTalk Challenge 1,Round 1,N,Y,N,N,N,N,N,N,00H 00M 21S 00MS
Pelajar414,810001413,GIIS,TuneTalk Challenge 1,Round 1,N,Y,N,N,N,N,N,N,00H 00M 21S 00MS
Pelajar415,810001414,GIIS,TuneTalk Challenge 1,Round 1,N,Y,N,N,N,N,N,N,00H 00M 21S 00MS
Pelajar416,810001415,GIIS,TuneTalk Challenge 1,Round 1,N,Y,N,N,N,N,N,N,00H 00M 21S 00MS
Pelajar417,810001416,GIIS,TuneTalk Challenge 1,Round 1,N,Y,N,N,N,N,N,N,00H 00M 21S 00MS
Pelajar418,810001417,GIIS,TuneTalk Challenge 1,Round 1,N,Y,N,N,N,N,N,N,00H 00M 21S 00MS
Pelajar419,810001418,GIIS,TuneTalk Challenge 1,Round 1,N,Y,N,N,N,N,N,N,00H 00M 21S 00MS
Pelajar420,810001419,GIIS,TuneTalk Challenge 1,Round 1,N,Y,N,N,N,N,N,N,00H 00M 21S 00MS
Pelajar421,810001420,GIIS,TuneTalk Challenge 1,Round 1,N,Y,N,N,N,N,N,N,00H 00M 21S 00MS
Pelajar422,810001421,GIIS,TuneTalk Challenge 1,Round 1,N,Y,N,N,N,N,N,N,00H 00M 21S 00MS
Pelajar423,810001422,GIIS,TuneTalk Challenge 1,Round 1,N,Y,N,N,N,N,N,N,00H 00M 21S 00MS
Pelajar424,810001423,GIIS,TuneTalk Challenge 1,Round 1,N,Y,N,N,N,N,N,N,00H 00M 21S 00MS
Pelajar425,810001424,GIIS,TuneTalk Challenge 1,Round 1,N,Y,N,N,N,N,N,N,00H 00M 21S 00MS
Pelajar426,810001425,GIIS,TuneTalk Challenge 1,Round 1,N,Y,N,N,N,N,N,N,00H 00M 21S 00MS
Pelajar427,810001426,GIIS,TuneTalk Challenge 1,Round 1,N,Y,N,N,N,N,N,N,00H 00M 21S 00MS
Pelajar428,810001427,GIIS,TuneTalk Challenge 1,Round 1,N,Y,N,N,N,N,N,N,00H 00M 21S 00MS
Pelajar429,810001428,GIIS,TuneTalk Challenge 1,Round 1,N,Y,N,N,N,N,N,N,00H 00M 21S 00MS
Pelajar430,810001429,GIIS,TuneTalk Challenge 1,Round 1,N,Y,N,N,N,N,N,N,00H 00M 21S 00MS
Pelajar431,810001430,GIIS,TuneTalk Challenge 1,Round 1,N,Y,N,N,N,N,N,N,00H 00M 21S 00MS
Pelajar432,810001431,GIIS,TuneTalk Challenge 1,Round 1,N,Y,N,N,N,N,N,N,00H 00M 21S 00MS
Pelajar433,810001432,GIIS,TuneTalk Challenge 1,Round 1,N,Y,N,N,N,N,N,N,00H 00M 21S 00MS
Pelajar434,810001433,GIIS,TuneTalk Challenge 1,Round 1,N,Y,N,N,N,N,N,N,00H 00M 21S 00MS
Pelajar435,810001434,GIIS,TuneTalk Challenge 1,Round 1,N,Y,N,N,N,N,N,N,00H 00M 21S 00MS
Pelajar436,810001435,GIIS,TuneTalk Challenge 1,Round 1,N,Y,N,N,N,N,N,N,00H 00M 21S 00MS
Pelajar437,810001436,GIIS,TuneTalk Challenge 1,Round 1,N,Y,N,N,N,N,N,N,00H 00M 21S 00MS
Pelajar438,810001437,GIIS,TuneTalk Challenge 1,Round 1,N,Y,N,N,N,N,N,N,00H 00M 21S 00MS
Pelajar439,810001438,GIIS,TuneTalk Challenge 1,Round 1,N,Y,N,N,N,N,N,N,00H 00M 21S 00MS
Pelajar440,810001439,GIIS,TuneTalk Challenge 1,Round 1,N,Y,N,N,N,N,N,N,00H 00M 21S 00MS
Pelajar441,810001440,GIIS,TuneTalk Challenge 1,Round 1,N,Y,N,N,N,N,N,N,00H 00M 21S 00MS
Pelajar442,810001441,GIIS,TuneTalk Challenge 1,Round 1,N,Y,N,N,N,N,N,N,00H 00M 21S 00MS
Pelajar443,810001442,GIIS,TuneTalk Challenge 1,Round 1,N,Y,N,N,N,N,N,N,00H 00M 21S 00MS
Pelajar444,810001443,GIIS,TuneTalk Challenge 1,Round 1,N,Y,N,N,N,N,N,N,00H 00M 21S 00MS
Pelajar445,810001444,GIIS,TuneTalk Challenge 1,Round 1,N,Y,N,N,N,N,N,N,00H 00M 21S 00MS
Pelajar446,810001445,GIIS,TuneTalk Challenge 1,Round 1,N,Y,N,N,N,N,N,N,00H 00M 21S 00MS
Pelajar447,810001446,GIIS,TuneTalk Challenge 1,Round 1,N,Y,N,N,N,N,N,N,00H 00M 21S 00MS
Pelajar448,810001447,GIIS,TuneTalk Challenge 1,Round 1,N,Y,N,N,N,N,N,N,00H 00M 21S 00MS
Pelajar449,810001448,GIIS,TuneTalk Challenge 1,Round 1,N,Y,N,N,N,N,N,N,00H 00M 21S 00MS
Pelajar450,810001449,GIIS,TuneTalk Challenge 1,Round 1,N,Y,N,N,N,N,N,N,00H 00M 21S 00MS
Pelajar451,810001450,GIIS,TuneTalk Challenge 1,Round 1,N,Y,N,N,N,N,N,N,00H 00M 21S 00MS
Pelajar452,810001451,GIIS,TuneTalk Challenge 1,Round 1,N,Y,N,N,N,N,N,N,00H 00M 21S 00MS
Pelajar453,810001452,GIIS,TuneTalk Challenge 1,Round 1,N,Y,N,N,N,N,N,N,00H 00M 21S 00MS
Pelajar454,810001453,GIIS,TuneTalk Challenge 1,Round 1,N,Y,N,N,N,N,N,N,00H 00M 21S 00MS
Pelajar455,810001454,GIIS,TuneTalk Challenge 1,Round 1,N,Y,N,N,N,N,N,N,00H 00M 21S 00MS
Pelajar456,810001455,GIIS,TuneTalk Challenge 1,Round 1,N,Y,N,N,N,N,N,N,00H 00M 21S 00MS
Pelajar457,810001456,GIIS,TuneTalk Challenge 1,Round 1,N,Y,N,N,N,N,N,N,00H 00M 21S 00MS
Pelajar458,810001457,GIIS,TuneTalk Challenge 1,Round 1,N,Y,N,N,N,N,N,N,00H 00M 21S 00MS
Pelajar459,810001458,GIIS,TuneTalk Challenge 1,Round 1,N,Y,N,N,N,N,N,N,00H 00M 21S 00MS
Pelajar460,810001459,GIIS,TuneTalk Challenge 1,Round 1,N,Y,N,N,N,N,N,N,00H 00M 21S 00MS
Pelajar461,810001460,GIIS,TuneTalk Challenge 1,Round 1,N,Y,N,N,N,N,N,N,00H 00M 21S 00MS
Pelajar462,810001461,GIIS,TuneTalk Challenge 1,Round 1,N,Y,N,N,N,N,N,N,00H 00M 21S 00MS
Pelajar463,810001462,GIIS,TuneTalk Challenge 1,Round 1,N,Y,N,N,N,N,N,N,00H 00M 21S 00MS
Pelajar464,810001463,GIIS,TuneTalk Challenge 1,Round 1,N,Y,N,N,N,N,N,N,00H 00M 21S 00MS
Pelajar465,810001464,GIIS,TuneTalk Challenge 1,Round 1,N,Y,N,N,N,N,N,N,00H 00M 21S 00MS
Pelajar466,810001465,GIIS,TuneTalk Challenge 1,Round 1,N,Y,N,N,N,N,N,N,00H 00M 21S 00MS
Pelajar467,810001466,GIIS,TuneTalk Challenge 1,Round 1,N,Y,N,N,N,N,N,N,00H 00M 21S 00MS
Pelajar468,810001467,GIIS,TuneTalk Challenge 1,Round 1,N,Y,N,N,N,N,N,N,00H 00M 21S 00MS
Pelajar469,810001468,GIIS,TuneTalk Challenge 1,Round 1,N,Y,N,N,N,N,N,N,00H 00M 21S 00MS
Pelajar470,810001469,GIIS,TuneTalk Challenge 1,Round 1,N,Y,N,N,N,N,N,N,00H 00M 21S 00MS
Pelajar471,810001470,GIIS,TuneTalk Challenge 1,Round 1,N,Y,N,N,N,N,N,N,00H 00M 21S 00MS
Pelajar472,810001471,GIIS,TuneTalk Challenge 1,Round 1,N,Y,N,N,N,N,N,N,00H 00M 21S 00MS
Pelajar473,810001472,GIIS,TuneTalk Challenge 1,Round 1,N,Y,N,N,N,N,N,N,00H 00M 21S 00MS
Pelajar474,810001473,GIIS,TuneTalk Challenge 1,Round 1,N,Y,N,N,N,N,N,N,00H 00M 21S 00MS
Pelajar475,810001474,GIIS,TuneTalk Challenge 1,Round 1,N,Y,N,N,N,N,N,N,00H 00M 21S 00MS
Pelajar476,810001475,GIIS,TuneTalk Challenge 1,Round 1,N,Y,N,N,N,N,N,N,00H 00M 21S 00MS
Pelajar477,810001476,GIIS,TuneTalk Challenge 1,Round 1,N,Y,N,N,N,N,N,N,00H 00M 21S 00MS
Pelajar478,810001477,GIIS,TuneTalk Challenge 1,Round 1,N,Y,N,N,N,N,N,N,00H 00M 21S 00MS
Pelajar479,810001478,GIIS,TuneTalk Challenge 1,Round 1,N,Y,N,N,N,N,N,N,00H 00M 21S 00MS
Pelajar480,810001479,GIIS,TuneTalk Challenge 1,Round 1,N,Y,N,N,N,N,N,N,00H 00M 21S 00MS
Pelajar481,810001480,GIIS,TuneTalk Challenge 1,Round 1,N,Y,N,N,N,N,N,N,00H 00M 21S 00MS
Pelajar482,810001481,GIIS,TuneTalk Challenge 1,Round 1,N,Y,N,N,N,N,N,N,00H 00M 21S 00MS
Pelajar483,810001482,GIIS,TuneTalk Challenge 1,Round 1,N,Y,N,N,N,N,N,N,00H 00M 21S 00MS
Pelajar484,810001483,GIIS,TuneTalk Challenge 1,Round 1,N,Y,N,N,N,N,N,N,00H 00M 21S 00MS
Pelajar485,810001484,GIIS,TuneTalk Challenge 1,Round 1,N,Y,N,N,N,N,N,N,00H 00M 21S 00MS
Pelajar486,810001485,GIIS,TuneTalk Challenge 1,Round 1,N,Y,N,N,N,N,N,N,00H 00M 21S 00MS
Pelajar487,810001486,GIIS,TuneTalk Challenge 1,Round 1,N,Y,N,N,N,N,N,N,00H 00M 21S 00MS
Pelajar488,810001487,GIIS,TuneTalk Challenge 1,Round 1,N,Y,N,N,N,N,N,N,00H 00M 21S 00MS
Pelajar489,810001488,GIIS,TuneTalk Challenge 1,Round 1,N,Y,N,N,N,N,N,N,00H 00M 21S 00MS
Pelajar490,810001489,GIIS,TuneTalk Challenge 1,Round 1,N,Y,N,N,N,N,N,N,00H 00M 21S 00MS
Pelajar491,810001490,GIIS,TuneTalk Challenge 1,Round 1,N,Y,N,N,N,N,N,N,00H 00M 21S 00MS
Pelajar492,810001491,GIIS,TuneTalk Challenge 1,Round 1,N,Y,N,N,N,N,N,N,00H 00M 21S 00MS
Pelajar493,810001492,GIIS,TuneTalk Challenge 1,Round 1,N,Y,N,N,N,N,N,N,00H 00M 21S 00MS
Pelajar494,810001493,GIIS,TuneTalk Challenge 1,Round 1,N,Y,N,N,N,N,N,N,00H 00M 21S 00MS
Pelajar495,810001494,GIIS,TuneTalk Challenge 1,Round 1,N,Y,N,N,N,N,N,N,00H 00M 21S 00MS
Pelajar496,810001495,GIIS,TuneTalk Challenge 1,Round 1,N,Y,N,N,N,N,N,N,00H 00M 21S 00MS
Pelajar497,810001496,GIIS,TuneTalk Challenge 1,Round 1,N,Y,N,N,N,N,N,N,00H 00M 21S 00MS
Pelajar498,810001497,GIIS,TuneTalk Challenge 1,Round 1,N,Y,N,N,N,N,N,N,00H 00M 21S 00MS
Pelajar499,810001498,GIIS,TuneTalk Challenge 1,Round 1,N,Y,N,N,N,N,N,N,00H 00M 21S 00MS
Pelajar500,810001499,GIIS,TuneTalk Challenge 1,Round 1,N,Y,N,N,N,N,N,N,00H 00M 21S 00MS
Pelajar501,810001500,GIIS,TuneTalk Challenge 1,Round 1,N,Y,N,N,N,N,N,N,00H 00M 21S 00MS
Pelajar502,810001501,GIIS,TuneTalk Challenge 1,Round 1,N,Y,N,N,N,N,N,N,00H 00M 21S 00MS
Pelajar503,810001502,GIIS,TuneTalk Challenge 1,Round 1,N,Y,N,N,N,N,N,N,00H 00M 21S 00MS
Pelajar504,810001503,GIIS,TuneTalk Challenge 1,Round 1,N,Y,N,N,N,N,N,N,00H 00M 21S 00MS
Pelajar505,810001504,GIIS,TuneTalk Challenge 1,Round 1,N,Y,N,N,N,N,N,N,00H 00M 21S 00MS
Pelajar506,810001505,GIIS,TuneTalk Challenge 1,Round 1,N,Y,N,N,N,N,N,N,00H 00M 21S 00MS
Pelajar507,810001506,GIIS,TuneTalk Challenge 1,Round 1,N,Y,N,N,N,N,N,N,00H 00M 21S 00MS
Pelajar508,810001507,GIIS,TuneTalk Challenge 1,Round 1,N,Y,N,N,N,N,N,N,00H 00M 21S 00MS
Pelajar509,810001508,GIIS,TuneTalk Challenge 1,Round 1,N,Y,N,N,N,N,N,N,00H 00M 21S 00MS
Pelajar510,810001509,GIIS,TuneTalk Challenge 1,Round 1,N,Y,N,N,N,N,N,N,00H 00M 21S 00MS
Pelajar511,810001510,GIIS,TuneTalk Challenge 1,Round 1,N,Y,N,N,N,N,N,N,00H 00M 21S 00MS
Pelajar512,810001511,GIIS,TuneTalk Challenge 1,Round 1,N,Y,N,N,N,N,N,N,00H 00M 21S 00MS
Pelajar513,810001512,GIIS,TuneTalk Challenge 1,Round 1,N,Y,N,N,N,N,N,N,00H 00M 21S 00MS
Pelajar514,810001513,GIIS,TuneTalk Challenge 1,Round 1,N,Y,N,N,N,N,N,N,00H 00M 21S 00MS
Pelajar515,810001514,GIIS,TuneTalk Challenge 1,Round 1,N,Y,N,N,N,N,N,N,00H 00M 21S 00MS
Pelajar516,810001515,GIIS,TuneTalk Challenge 1,Round 1,N,Y,N,N,N,N,N,N,00H 00M 21S 00MS
Pelajar517,810001516,GIIS,TuneTalk Challenge 1,Round 1,N,Y,N,N,N,N,N,N,00H 00M 21S 00MS
Pelajar518,810001517,GIIS,TuneTalk Challenge 1,Round 1,N,Y,N,N,N,N,N,N,00H 00M 21S 00MS
Pelajar519,810001518,GIIS,TuneTalk Challenge 1,Round 1,N,Y,N,N,N,N,N,N,00H 00M 21S 00MS
Pelajar520,810001519,GIIS,TuneTalk Challenge 1,Round 1,N,Y,N,N,N,N,N,N,00H 00M 21S 00MS
Pelajar521,810001520,GIIS,TuneTalk Challenge 1,Round 1,N,Y,N,N,N,N,N,N,00H 00M 21S 00MS
Pelajar522,810001521,GIIS,TuneTalk Challenge 1,Round 1,N,Y,N,N,N,N,N,N,00H 00M 21S 00MS
Pelajar523,810001522,GIIS,TuneTalk Challenge 1,Round 1,N,Y,N,N,N,N,N,N,00H 00M 21S 00MS
Pelajar524,810001523,GIIS,TuneTalk Challenge 1,Round 1,N,Y,N,N,N,N,N,N,00H 00M 21S 00MS
Pelajar525,810001524,GIIS,TuneTalk Challenge 1,Round 1,N,Y,N,N,N,N,N,N,00H 00M 21S 00MS
Pelajar526,810001525,GIIS,TuneTalk Challenge 1,Round 1,N,Y,N,N,N,N,N,N,00H 00M 21S 00MS
Pelajar527,810001526,GIIS,TuneTalk Challenge 1,Round 1,N,Y,N,N,N,N,N,N,00H 00M 21S 00MS
Pelajar528,810001527,GIIS,TuneTalk Challenge 1,Round 1,N,Y,N,N,N,N,N,N,00H 00M 21S 00MS
Pelajar529,810001528,GIIS,TuneTalk Challenge 1,Round 1,N,Y,N,N,N,N,N,N,00H 00M 21S 00MS
Pelajar530,810001529,GIIS,TuneTalk Challenge 1,Round 1,N,Y,N,N,N,N,N,N,00H 00M 21S 00MS
Pelajar531,810001530,GIIS,TuneTalk Challenge 1,Round 1,N,Y,N,N,N,N,N,N,00H 00M 21S 00MS
Pelajar532,810001531,GIIS,TuneTalk Challenge 1,Round 1,N,Y,N,N,N,N,N,N,00H 00M 21S 00MS
Pelajar533,810001532,GIIS,TuneTalk Challenge 1,Round 1,N,Y,N,N,N,N,N,N,00H 00M 21S 00MS
Pelajar534,810001533,GIIS,TuneTalk Challenge 1,Round 1,N,Y,N,N,N,N,N,N,00H 00M 21S 00MS
Pelajar535,810001534,GIIS,TuneTalk Challenge 1,Round 1,N,Y,N,N,N,N,N,N,00H 00M 21S 00MS
Pelajar536,810001535,GIIS,TuneTalk Challenge 1,Round 1,N,Y,N,N,N,N,N,N,00H 00M 21S 00MS
Pelajar537,810001536,GIIS,TuneTalk Challenge 1,Round 1,N,Y,N,N,N,N,N,N,00H 00M 21S 00MS
Pelajar538,810001537,GIIS,TuneTalk Challenge 1,Round 1,N,Y,N,N,N,N,N,N,00H 00M 21S 00MS
Pelajar539,810001538,GIIS,TuneTalk Challenge 1,Round 1,N,Y,N,N,N,N,N,N,00H 00M 21S 00MS
Pelajar540,810001539,GIIS,TuneTalk Challenge 1,Round 1,N,Y,N,N,N,N,N,N,00H 00M 21S 00MS
Pelajar541,810001540,GIIS,TuneTalk Challenge 1,Round 1,N,Y,N,N,N,N,N,N,00H 00M 21S 00MS
Pelajar542,810001541,GIIS,TuneTalk Challenge 1,Round 1,N,Y,N,N,N,N,N,N,00H 00M 21S 00MS
Pelajar543,810001542,GIIS,TuneTalk Challenge 1,Round 1,N,Y,N,N,N,N,N,N,00H 00M 21S 00MS
Pelajar544,810001543,GIIS,TuneTalk Challenge 1,Round 1,N,Y,N,N,N,N,N,N,00H 00M 21S 00MS
Pelajar545,810001544,GIIS,TuneTalk Challenge 1,Round 1,N,Y,N,N,N,N,N,N,00H 00M 21S 00MS
Pelajar546,810001545,GIIS,TuneTalk Challenge 1,Round 1,N,Y,N,N,N,N,N,N,00H 00M 21S 00MS
Pelajar547,810001546,GIIS,TuneTalk Challenge 1,Round 1,N,Y,N,N,N,N,N,N,00H 00M 21S 00MS
Pelajar548,810001547,GIIS,TuneTalk Challenge 1,Round 1,N,Y,N,N,N,N,N,N,00H 00M 21S 00MS
Pelajar549,810001548,GIIS,TuneTalk Challenge 1,Round 1,N,Y,N,N,N,N,N,N,00H 00M 21S 00MS
Pelajar550,810001549,GIIS,TuneTalk Challenge 1,Round 1,N,Y,N,N,N,N,N,N,00H 00M 21S 00MS
Pelajar551,810001550,GIIS,TuneTalk Challenge 1,Round 1,N,Y,N,N,N,N,N,N,00H 00M 21S 00MS
Pelajar552,810001551,GIIS,TuneTalk Challenge 1,Round 1,N,Y,N,N,N,N,N,N,00H 00M 21S 00MS
Pelajar553,810001552,GIIS,TuneTalk Challenge 1,Round 1,N,Y,N,N,N,N,N,N,00H 00M 21S 00MS
Pelajar554,810001553,GIIS,TuneTalk Challenge 1,Round 1,N,Y,N,N,N,N,N,N,00H 00M 21S 00MS
Pelajar555,810001554,GIIS,TuneTalk Challenge 1,Round 1,N,Y,N,N,N,N,N,N,00H 00M 21S 00MS
Pelajar556,810001555,GIIS,TuneTalk Challenge 1,Round 1,N,Y,N,N,N,N,N,N,00H 00M 21S 00MS
Pelajar557,810001556,GIIS,TuneTalk Challenge 1,Round 1,N,Y,N,N,N,N,N,N,00H 00M 21S 00MS
Pelajar558,810001557,GIIS,TuneTalk Challenge 1,Round 1,N,Y,N,N,N,N,N,N,00H 00M 21S 00MS
Pelajar559,810001558,GIIS,TuneTalk Challenge 1,Round 1,N,Y,N,N,N,N,N,N,00H 00M 21S 00MS
Pelajar560,810001559,GIIS,TuneTalk Challenge 1,Round 1,N,Y,N,N,N,N,N,N,00H 00M 21S 00MS
Pelajar561,810001560,GIIS,TuneTalk Challenge 1,Round 1,N,Y,N,N,N,N,N,N,00H 00M 21S 00MS
Pelajar562,810001561,GIIS,TuneTalk Challenge 1,Round 1,N,Y,N,N,N,N,N,N,00H 00M 21S 00MS
Pelajar563,810001562,GIIS,TuneTalk Challenge 1,Round 1,N,Y,N,N,N,N,N,N,00H 00M 21S 00MS
Pelajar564,810001563,GIIS,TuneTalk Challenge 1,Round 1,N,Y,N,N,N,N,N,N,00H 00M 21S 00MS
Pelajar565,810001564,GIIS,TuneTalk Challenge 1,Round 1,N,Y,N,N,N,N,N,N,00H 00M 21S 00MS
Pelajar566,810001565,GIIS,TuneTalk Challenge 1,Round 1,N,Y,N,N,N,N,N,N,00H 00M 21S 00MS
Pelajar567,810001566,GIIS,TuneTalk Challenge 1,Round 1,N,Y,N,N,N,N,N,N,00H 00M 21S 00MS
Pelajar568,810001567,GIIS,TuneTalk Challenge 1,Round 1,N,Y,N,N,N,N,N,N,00H 00M 21S 00MS
Pelajar569,810001568,GIIS,TuneTalk Challenge 1,Round 1,N,Y,N,N,N,N,N,N,00H 00M 21S 00MS
Pelajar570,810001569,GIIS,TuneTalk Challenge 1,Round 1,N,Y,N,N,N,N,N,N,00H 00M 21S 00MS
Pelajar571,810001570,GIIS,TuneTalk Challenge 1,Round 1,N,Y,N,N,N,N,N,N,00H 00M 21S 00MS
Pelajar572,810001571,GIIS,TuneTalk Challenge 1,Round 1,N,Y,N,N,N,N,N,N,00H 00M 21S 00MS
Pelajar573,810001572,GIIS,TuneTalk Challenge 1,Round 1,N,Y,N,N,N,N,N,N,00H 00M 21S 00MS
Pelajar574,810001573,GIIS,TuneTalk Challenge 1,Round 1,N,Y,N,N,N,N,N,N,00H 00M 21S 00MS
Pelajar575,810001574,GIIS,TuneTalk Challenge 1,Round 1,N,Y,N,N,N,N,N,N,00H 00M 21S 00MS
Pelajar576,810001575,GIIS,TuneTalk Challenge 1,Round 1,N,Y,N,N,N,N,N,N,00H 00M 21S 00MS
Pelajar577,810001576,GIIS,TuneTalk Challenge 1,Round 1,N,Y,N,N,N,N,N,N,00H 00M 21S 00MS
Pelajar578,810001577,GIIS,TuneTalk Challenge 1,Round 1,N,Y,N,N,N,N,N,N,00H 00M 21S 00MS
Pelajar579,810001578,GIIS,TuneTalk Challenge 1,Round 1,N,Y,N,N,N,N,N,N,00H 00M 21S 00MS
Pelajar580,810001579,GIIS,TuneTalk Challenge 1,Round 1,N,Y,N,N,N,N,N,N,00H 00M 21S 00MS
Pelajar581,810001580,GIIS,TuneTalk Challenge 1,Round 1,N,Y,N,N,N,N,N,N,00H 00M 21S 00MS
Pelajar582,810001581,GIIS,TuneTalk Challenge 1,Round 1,N,Y,N,N,N,N,N,N,00H 00M 21S 00MS
Pelajar583,810001582,GIIS,TuneTalk Challenge 1,Round 1,N,Y,N,N,N,N,N,N,00H 00M 21S 00MS
Pelajar584,810001583,GIIS,TuneTalk Challenge 1,Round 1,N,Y,N,N,N,N,N,N,00H 00M 21S 00MS
Pelajar585,810001584,GIIS,TuneTalk Challenge 1,Round 1,N,Y,N,N,N,N,N,N,00H 00M 21S 00MS
Pelajar586,810001585,GIIS,TuneTalk Challenge 1,Round 1,N,Y,N,N,N,N,N,N,00H 00M 21S 00MS
Pelajar587,810001586,GIIS,TuneTalk Challenge 1,Round 1,N,Y,N,N,N,N,N,N,00H 00M 21S 00MS
Pelajar588,810001587,GIIS,TuneTalk Challenge 1,Round 1,N,Y,N,N,N,N,N,N,00H 00M 21S 00MS
Pelajar589,810001588,GIIS,TuneTalk Challenge 1,Round 1,N,Y,N,N,N,N,N,N,00H 00M 21S 00MS
Pelajar590,810001589,GIIS,TuneTalk Challenge 1,Round 1,N,Y,N,N,N,N,N,N,00H 00M 21S 00MS
Pelajar591,810001590,GIIS,TuneTalk Challenge 1,Round 1,N,Y,N,N,N,N,N,N,00H 00M 21S 00MS
Pelajar592,810001591,GIIS,TuneTalk Challenge 1,Round 1,N,Y,N,N,N,N,N,N,00H 00M 21S 00MS
Pelajar593,810001592,GIIS,TuneTalk Challenge 1,Round 1,N,Y,N,N,N,N,N,N,00H 00M 21S 00MS
Pelajar594,810001593,GIIS,TuneTalk Challenge 1,Round 1,N,Y,N,N,N,N,N,N,00H 00M 21S 00MS
Pelajar595,810001594,GIIS,TuneTalk Challenge 1,Round 1,N,Y,N,N,N,N,N,N,00H 00M 21S 00MS
Pelajar596,810001595,GIIS,TuneTalk Challenge 1,Round 1,N,Y,N,N,N,N,N,N,00H 00M 21S 00MS
Pelajar597,810001596,GIIS,TuneTalk Challenge 1,Round 1,N,Y,N,N,N,N,N,N,00H 00M 21S 00MS
Pelajar598,810001597,GIIS,TuneTalk Challenge 1,Round 1,N,Y,N,N,N,N,N,N,00H 00M 21S 00MS
Pelajar599,810001598,GIIS,TuneTalk Challenge 1,Round 1,N,Y,N,N,N,N,N,N,00H 00M 21S 00MS
Pelajar600,810001599,GIIS,TuneTalk Challenge 1,Round 1,N,Y,N,N,N,N,N,N,00H 00M 21S 00MS
Pelajar601,810001600,GIIS,TuneTalk Challenge 1,Round 1,N,Y,N,N,N,N,N,N,00H 00M 21S 00MS
Pelajar602,810001601,GIIS,TuneTalk Challenge 1,Round 1,N,Y,N,N,N,N,N,N,00H 00M 21S 00MS
Pelajar603,810001602,GIIS,TuneTalk Challenge 1,Round 1,N,Y,N,N,N,N,N,N,00H 00M 21S 00MS
Pelajar604,810001603,GIIS,TuneTalk Challenge 1,Round 1,N,Y,N,N,N,N,N,N,00H 00M 21S 00MS
Pelajar605,810001604,GIIS,TuneTalk Challenge 1,Round 1,N,Y,N,N,N,N,N,N,00H 00M 21S 00MS
Pelajar606,810001605,GIIS,TuneTalk Challenge 1,Round 1,N,Y,N,N,N,N,N,N,00H 00M 21S 00MS
Pelajar607,810001606,GIIS,TuneTalk Challenge 1,Round 1,N,Y,N,N,N,N,N,N,00H 00M 21S 00MS
Pelajar608,810001607,GIIS,TuneTalk Challenge 1,Round 1,N,Y,N,N,N,N,N,N,00H 00M 21S 00MS
Pelajar609,810001608,GIIS,TuneTalk Challenge 1,Round 1,N,Y,N,N,N,N,N,N,00H 00M 21S 00MS
Pelajar610,810001609,GIIS,TuneTalk Challenge 1,Round 1,N,Y,N,N,N,N,N,N,00H 00M 21S 00MS
Pelajar611,810001610,GIIS,TuneTalk Challenge 1,Round 1,N,Y,N,N,N,N,N,N,00H 00M 21S 00MS
Pelajar612,810001611,GIIS,TuneTalk Challenge 1,Round 1,N,Y,N,N,N,N,N,N,00H 00M 21S 00MS
Pelajar613,810001612,GIIS,TuneTalk Challenge 1,Round 1,N,Y,N,N,N,N,N,N,00H 00M 21S 00MS
Pelajar614,810001613,GIIS,TuneTalk Challenge 1,Round 1,N,Y,N,N,N,N,N,N,00H 00M 21S 00MS
Pelajar615,810001614,GIIS,TuneTalk Challenge 1,Round 1,N,Y,N,N,N,N,N,N,00H 00M 21S 00MS
Pelajar616,810001615,GIIS,TuneTalk Challenge 1,Round 1,N,Y,N,N,N,N,N,N,00H 00M 21S 00MS
Pelajar617,810001616,GIIS,TuneTalk Challenge 1,Round 1,N,Y,N,N,N,N,N,N,00H 00M 21S 00MS
Pelajar618,810001617,GIIS,TuneTalk Challenge 1,Round 1,N,Y,N,N,N,N,N,N,00H 00M 21S 00MS
Pelajar619,810001618,GIIS,TuneTalk Challenge 1,Round 1,N,Y,N,N,N,N,N,N,00H 00M 21S 00MS
Pelajar620,810001619,GIIS,TuneTalk Challenge 1,Round 1,N,Y,N,N,N,N,N,N,00H 00M 21S 00MS
Pelajar621,810001620,GIIS,TuneTalk Challenge 1,Round 1,N,Y,N,N,N,N,N,N,00H 00M 21S 00MS
Pelajar622,810001621,GIIS,TuneTalk Challenge 1,Round 1,N,Y,N,N,N,N,N,N,00H 00M 21S 00MS
Pelajar623,810001622,GIIS,TuneTalk Challenge 1,Round 1,N,Y,N,N,N,N,N,N,00H 00M 21S 00MS
Pelajar624,810001623,GIIS,TuneTalk Challenge 1,Round 1,N,Y,N,N,N,N,N,N,00H 00M 21S 00MS
Pelajar625,810001624,GIIS,TuneTalk Challenge 1,Round 1,N,N,N,N,N,N,N,N,00H 00M 11S 00MS
Pelajar626,810001625,GIIS,TuneTalk Challenge 1,Round 1,N,N,N,N,N,N,N,N,00H 00M 11S 00MS
Pelajar627,810001626,GIIS,TuneTalk Challenge 1,Round 1,N,N,N,N,N,N,N,N,00H 00M 11S 00MS
Pelajar628,810001627,GIIS,TuneTalk Challenge 1,Round 1,N,N,N,N,N,N,N,N,00H 00M 11S 00MS
Pelajar629,810001628,GIIS,TuneTalk Challenge 1,Round 1,N,N,N,N,N,N,N,N,00H 00M 11S 00MS
Pelajar630,810001629,GIIS,TuneTalk Challenge 1,Round 1,N,N,N,N,Y,N,N,N,00H 00M 11S 24MS
Pelajar631,810001630,GIIS,TuneTalk Challenge 1,Round 1,N,N,N,N,N,N,N,N,00H 00M 11S 00MS
Pelajar632,810001631,GIIS,TuneTalk Challenge 1,Round 1,N,N,N,N,N,N,N,N,00H 00M 00S 10MS
Pelajar633,810001632,GIIS,TuneTalk Challenge 1,Round 1,N,N,N,N,N,N,N,N,00H 00M 00S 10MS
Pelajar634,810001633,GIIS,TuneTalk Challenge 1,Round 1,N,N,N,N,N,N,N,N,00H 00M 00S 10MS
Pelajar635,810001634,GIIS,TuneTalk Challenge 1,Round 1,N,N,N,N,N,N,N,N,00H 00M 00S 10MS
Pelajar636,810001635,GIIS,TuneTalk Challenge 1,Round 1,N,N,N,N,N,N,N,N,00H 00M 00S 10MS
Pelajar637,810001636,GIIS,TuneTalk Challenge 1,Round 1,N,N,N,N,N,N,N,N,00H 00M 00S 10MS
Pelajar638,810001637,GIIS,TuneTalk Challenge 1,Round 1,N,N,N,N,N,N,N,N,00H 00M 00S 10MS
Pelajar639,810001638,GIIS,TuneTalk Challenge 1,Round 1,N,N,N,N,N,N,N,N,00H 00M 00S 10MS
Pelajar640,810001639,GIIS,TuneTalk Challenge 1,Round 1,N,N,N,N,N,N,N,N,00H 00M 00S 10MS
Pelajar641,810001640,GIIS,TuneTalk Challenge 1,Round 1,N,N,N,N,N,N,N,N,00H 00M 00S 10MS
Pelajar642,810001641,GIIS,TuneTalk Challenge 1,Round 1,N,N,N,N,N,N,N,N,00H 00M 00S 10MS
Pelajar643,810001642,GIIS,TuneTalk Challenge 1,Round 1,N,N,N,N,N,N,N,N,00H 00M 00S 10MS
Pelajar644,810001643,GIIS,TuneTalk Challenge 1,Round 1,N,N,N,N,N,N,N,N,00H 00M 00S 10MS
Pelajar645,810001644,GIIS,TuneTalk Challenge 1,Round 1,N,N,N,N,N,N,N,N,00H 00M 00S 10MS
Pelajar646,810001645,GIIS,TuneTalk Challenge 1,Round 1,N,N,N,N,N,N,N,N,00H 00M 00S 10MS
Pelajar647,810001646,GIIS,TuneTalk Challenge 1,Round 1,N,N,N,N,N,N,N,N,00H 00M 00S 10MS
Pelajar648,810001647,GIIS,TuneTalk Challenge 1,Round 1,N,N,N,N,N,N,N,N,00H 00M 00S 10MS
Pelajar649,810001648,GIIS,TuneTalk Challenge 1,Round 1,N,N,N,N,N,N,N,N,00H 00M 00S 10MS
Pelajar650,810001649,GIIS,TuneTalk Challenge 1,Round 1,N,N,N,N,N,N,N,N,00H 00M 00S 10MS
Pelajar651,810001650,GIIS,TuneTalk Challenge 1,Round 1,N,N,N,N,N,N,N,N,00H 00M 00S 10MS
Pelajar652,810001651,GIIS,TuneTalk Challenge 1,Round 1,N,N,N,N,N,N,N,N,00H 00M 00S 10MS
Pelajar653,810001652,GIIS,TuneTalk Challenge 1,Round 1,N,N,N,N,N,N,N,N,00H 00M 00S 10MS
Pelajar654,810001653,GIIS,TuneTalk Challenge 1,Round 1,N,N,N,N,N,N,N,N,00H 00M 00S 10MS
Pelajar655,810001654,GIIS,TuneTalk Challenge 1,Round 1,N,N,N,N,N,N,N,N,00H 00M 00S 10MS
Pelajar656,810001655,GIIS,TuneTalk Challenge 1,Round 1,N,N,N,N,N,N,N,N,00H 00M 00S 10MS
Pelajar657,810001656,GIIS,TuneTalk Challenge 1,Round 1,N,N,N,N,N,N,N,N,00H 00M 00S 10MS
Pelajar658,810001657,GIIS,TuneTalk Challenge 1,Round 1,N,N,N,N,N,N,N,N,00H 00M 00S 10MS
Pelajar659,810001658,GIIS,TuneTalk Challenge 1,Round 1,N,N,N,N,N,N,N,N,00H 00M 00S 10MS
Pelajar660,810001659,GIIS,TuneTalk Challenge 1,Round 1,N,N,N,N,N,N,N,N,00H 00M 00S 10MS
Pelajar661,810001660,GIIS,TuneTalk Challenge 1,Round 1,N,N,N,N,N,N,N,N,00H 00M 00S 10MS
Pelajar662,810001661,GIIS,TuneTalk Challenge 1,Round 1,N,N,N,N,N,N,N,N,00H 00M 00S 10MS
Pelajar663,810001662,GIIS,TuneTalk Challenge 1,Round 1,N,N,N,N,N,N,N,N,00H 00M 00S 10MS
Pelajar664,810001663,GIIS,TuneTalk Challenge 1,Round 1,N,N,N,N,N,N,N,N,00H 00M 00S 10MS
Pelajar665,810001664,GIIS,TuneTalk Challenge 1,Round 1,N,N,N,N,N,N,N,N,00H 00M 00S 10MS
Pelajar666,810001665,GIIS,TuneTalk Challenge 1,Round 1,N,N,N,N,N,N,N,N,00H 00M 00S 10MS
Pelajar667,810001666,GIIS,TuneTalk Challenge 1,Round 1,N,N,N,N,N,N,N,N,00H 00M 00S 10MS
Pelajar668,810001667,GIIS,TuneTalk Challenge 1,Round 1,N,N,N,N,N,N,N,N,00H 00M 00S 10MS
Pelajar669,810001668,GIIS,TuneTalk Challenge 1,Round 1,N,N,N,N,N,N,N,N,00H 00M 00S 10MS
Pelajar670,810001669,GIIS,TuneTalk Challenge 1,Round 1,N,N,N,N,N,N,N,N,00H 00M 00S 10MS
Pelajar671,810001670,GIIS,TuneTalk Challenge 1,Round 1,N,N,N,N,N,N,N,N,00H 00M 00S 10MS
Pelajar672,810001671,GIIS,TuneTalk Challenge 1,Round 1,N,N,N,N,N,N,N,N,00H 00M 00S 10MS
Pelajar673,810001672,GIIS,TuneTalk Challenge 1,Round 1,N,N,N,N,N,N,N,N,00H 00M 00S 10MS
Pelajar674,810001673,GIIS,TuneTalk Challenge 1,Round 1,N,N,N,N,N,N,N,N,00H 00M 00S 10MS
Pelajar675,810001674,GIIS,TuneTalk Challenge 1,Round 1,N,N,N,N,N,N,N,N,00H 00M 00S 10MS
Pelajar676,810001675,GIIS,TuneTalk Challenge 1,Round 1,N,N,N,N,N,N,N,N,00H 00M 00S 10MS
Pelajar677,810001676,GIIS,TuneTalk Challenge 1,Round 1,N,N,N,N,N,N,N,N,00H 00M 00S 10MS
Pelajar678,810001677,GIIS,TuneTalk Challenge 1,Round 1,N,N,N,N,N,N,N,N,00H 00M 00S 10MS
Pelajar679,810001678,GIIS,TuneTalk Challenge 1,Round 1,N,N,N,N,N,N,N,N,00H 00M 00S 10MS
Pelajar680,810001679,GIIS,TuneTalk Challenge 1,Round 1,N,N,N,N,N,N,N,N,00H 00M 00S 10MS
Pelajar681,810001680,GIIS,TuneTalk Challenge 1,Round 1,N,N,N,N,N,N,N,N,00H 00M 00S 10MS
Pelajar682,810001681,GIIS,TuneTalk Challenge 1,Round 1,N,N,N,N,N,N,N,N,00H 00M 00S 10MS
Pelajar683,810001682,GIIS,TuneTalk Challenge 1,Round 1,N,N,N,N,N,N,N,N,00H 00M 00S 10MS
Pelajar684,810001683,GIIS,TuneTalk Challenge 1,Round 1,N,N,N,N,N,N,N,N,00H 00M 00S 10MS
Pelajar685,810001684,GIIS,TuneTalk Challenge 1,Round 1,N,N,N,N,N,N,N,N,00H 00M 00S 10MS
Pelajar686,810001685,GIIS,TuneTalk Challenge 1,Round 1,N,N,N,N,N,N,N,N,00H 00M 00S 10MS
Pelajar687,810001686,GIIS,TuneTalk Challenge 1,Round 1,N,N,N,N,N,N,N,N,00H 00M 00S 10MS
Pelajar688,810001687,GIIS,TuneTalk Challenge 1,Round 1,N,N,N,N,N,N,N,N,00H 00M 00S 10MS
Pelajar689,810001688,GIIS,TuneTalk Challenge 1,Round 1,N,N,N,N,N,N,N,N,00H 00M 00S 10MS
Pelajar690,810001689,GIIS,TuneTalk Challenge 1,Round 1,N,N,N,N,N,N,N,N,00H 00M 00S 10MS
Pelajar691,810001690,GIIS,TuneTalk Challenge 1,Round 1,N,N,N,N,N,N,N,N,00H 00M 00S 10MS
Pelajar692,810001691,GIIS,TuneTalk Challenge 1,Round 1,N,N,N,N,N,N,N,N,00H 00M 00S 10MS
Pelajar693,810001692,GIIS,TuneTalk Challenge 1,Round 1,N,N,N,N,N,N,N,N,00H 00M 00S 10MS
Pelajar694,810001693,GIIS,TuneTalk Challenge 1,Round 1,N,N,N,N,N,N,N,N,00H 00M 00S 10MS
Pelajar695,810001694,GIIS,TuneTalk Challenge 1,Round 1,N,N,N,N,N,N,N,N,00H 00M 00S 10MS
Pelajar696,810001695,GIIS,TuneTalk Challenge 1,Round 1,N,N,N,N,N,N,N,N,00H 00M 00S 10MS
Pelajar697,810001696,GIIS,TuneTalk Challenge 1,Round 1,N,N,N,N,N,N,N,N,00H 00M 00S 10MS
Pelajar698,810001697,GIIS,TuneTalk Challenge 1,Round 1,N,N,N,N,N,N,N,N,00H 00M 00S 10MS
Pelajar699,810001698,GIIS,TuneTalk Challenge 1,Round 1,N,N,N,N,N,N,N,N,00H 00M 00S 10MS
Pelajar700,810001699,GIIS,TuneTalk Challenge 1,Round 1,N,N,N,N,N,N,N,N,00H 00M 00S 10MS
Pelajar701,810001700,GIIS,TuneTalk Challenge 1,Round 1,N,N,N,N,N,N,N,N,00H 00M 00S 10MS
Pelajar702,810001701,GIIS,TuneTalk Challenge 1,Round 1,N,N,N,N,N,N,N,N,00H 00M 00S 10MS
Pelajar703,810001702,GIIS,TuneTalk Challenge 1,Round 1,N,N,N,N,N,N,N,N,00H 00M 00S 10MS
Pelajar704,810001703,GIIS,TuneTalk Challenge 1,Round 1,N,N,N,N,N,N,N,N,00H 00M 00S 10MS
Pelajar705,810001704,GIIS,TuneTalk Challenge 1,Round 1,N,N,N,N,N,N,N,N,00H 00M 00S 10MS
Pelajar706,810001705,GIIS,TuneTalk Challenge 1,Round 1,N,N,N,N,N,N,N,N,00H 00M 00S 10MS
Pelajar707,810001706,GIIS,TuneTalk Challenge 1,Round 1,N,N,N,N,N,N,N,N,00H 00M 00S 10MS
Pelajar708,810001707,GIIS,TuneTalk Challenge 1,Round 1,N,N,N,N,N,N,N,N,00H 00M 00S 10MS
Pelajar709,810001708,GIIS,TuneTalk Challenge 1,Round 1,N,N,N,N,N,N,N,N,00H 00M 00S 10MS
Pelajar710,810001709,GIIS,TuneTalk Challenge 1,Round 1,N,N,N,N,N,N,N,N,00H 00M 00S 10MS
Pelajar711,810001710,GIIS,TuneTalk Challenge 1,Round 1,N,N,N,N,N,N,N,N,00H 00M 00S 10MS
Pelajar712,810001711,GIIS,TuneTalk Challenge 1,Round 1,N,N,N,N,N,N,N,N,00H 00M 00S 10MS
Pelajar713,810001712,GIIS,TuneTalk Challenge 1,Round 1,N,N,N,N,N,N,N,N,00H 00M 00S 10MS
Pelajar714,810001713,GIIS,TuneTalk Challenge 1,Round 1,N,N,N,N,N,N,N,N,00H 00M 00S 10MS
Pelajar715,810001714,GIIS,TuneTalk Challenge 1,Round 1,N,N,N,N,N,N,N,N,00H 00M 00S 10MS
Pelajar716,810001715,GIIS,TuneTalk Challenge 1,Round 1,N,N,N,N,N,N,N,N,00H 00M 00S 10MS
Pelajar717,810001716,GIIS,TuneTalk Challenge 1,Round 1,N,N,N,N,N,N,N,N,00H 00M 00S 10MS
Pelajar718,810001717,GIIS,TuneTalk Challenge 1,Round 1,N,N,N,N,N,N,N,N,00H 00M 00S 10MS
Pelajar719,810001718,GIIS,TuneTalk Challenge 1,Round 1,N,N,N,N,N,N,N,N,00H 00M 00S 10MS
Pelajar720,810001719,GIIS,TuneTalk Challenge 1,Round 1,N,N,N,N,N,N,N,N,00H 00M 00S 10MS
Pelajar721,810001720,GIIS,TuneTalk Challenge 1,Round 1,N,N,N,N,N,N,N,N,00H 00M 00S 10MS
Pelajar722,810001721,GIIS,TuneTalk Challenge 1,Round 1,N,N,N,N,N,N,N,N,00H 00M 00S 10MS
Pelajar723,810001722,GIIS,TuneTalk Challenge 1,Round 1,N,N,N,N,N,N,N,N,00H 00M 00S 10MS
Pelajar724,810001723,GIIS,TuneTalk Challenge 1,Round 1,N,N,N,N,N,N,N,N,00H 00M 00S 10MS
Pelajar725,810001724,GIIS,TuneTalk Challenge 1,Round 1,N,N,N,N,N,N,N,N,00H 00M 00S 10MS
Pelajar726,810001725,GIIS,TuneTalk Challenge 1,Round 1,N,N,N,N,N,N,N,N,00H 00M 00S 10MS
Pelajar727,810001726,GIIS,TuneTalk Challenge 1,Round 1,N,N,N,N,N,N,N,N,00H 00M 00S 10MS
Pelajar728,810001727,GIIS,TuneTalk Challenge 1,Round 1,N,N,N,N,N,N,N,N,00H 00M 00S 10MS
Pelajar729,810001728,GIIS,TuneTalk Challenge 1,Round 1,N,N,N,N,N,N,N,N,00H 00M 00S 10MS
Pelajar730,810001729,GIIS,TuneTalk Challenge 1,Round 1,N,N,N,N,N,N,N,N,00H 00M 00S 10MS
Pelajar731,810001730,GIIS,TuneTalk Challenge 1,Round 1,N,N,N,N,N,N,N,N,00H 00M 00S 10MS
Pelajar732,810001731,GIIS,TuneTalk Challenge 1,Round 1,N,N,N,N,N,N,N,N,00H 00M 00S 10MS
Pelajar733,810001732,GIIS,TuneTalk Challenge 1,Round 1,N,N,N,N,N,N,N,N,00H 00M 00S 10MS
Pelajar734,810001733,GIIS,TuneTalk Challenge 1,Round 1,N,N,N,N,N,N,N,N,00H 00M 00S 10MS
Pelajar735,810001734,GIIS,TuneTalk Challenge 1,Round 1,N,N,N,N,N,N,N,N,00H 00M 00S 10MS
Pelajar736,810001735,GIIS,TuneTalk Challenge 1,Round 1,N,N,N,N,N,N,N,N,00H 00M 00S 10MS
Pelajar737,810001736,GIIS,TuneTalk Challenge 1,Round 1,N,N,N,N,N,N,N,N,00H 00M 00S 10MS
Pelajar738,810001737,GIIS,TuneTalk Challenge 1,Round 1,N,N,N,N,N,N,N,N,00H 00M 00S 10MS
Pelajar739,810001738,GIIS,TuneTalk Challenge 1,Round 1,N,N,N,N,N,N,N,N,00H 00M 00S 10MS
Pelajar740,810001739,GIIS,TuneTalk Challenge 1,Round 1,N,N,N,N,N,N,N,N,00H 00M 00S 10MS
Pelajar741,810001740,GIIS,TuneTalk Challenge 1,Round 1,N,N,N,N,N,N,N,N,00H 00M 00S 10MS
Pelajar742,810001741,GIIS,TuneTalk Challenge 1,Round 1,N,N,N,N,N,N,N,N,00H 00M 00S 10MS
Pelajar743,810001742,GIIS,TuneTalk Challenge 1,Round 1,N,N,N,N,N,N,N,N,00H 00M 00S 10MS
Pelajar744,810001743,GIIS,TuneTalk Challenge 1,Round 1,N,N,N,N,N,N,N,N,00H 00M 00S 10MS
Pelajar745,810001744,GIIS,TuneTalk Challenge 1,Round 1,N,N,N,N,N,N,N,N,00H 00M 00S 10MS
Pelajar746,810001745,GIIS,TuneTalk Challenge 1,Round 1,N,N,N,N,N,N,N,N,00H 00M 00S 10MS
Pelajar747,810001746,GIIS,TuneTalk Challenge 1,Round 1,N,N,N,N,N,N,N,N,00H 00M 00S 10MS
Pelajar748,810001747,GIIS,TuneTalk Challenge 1,Round 1,N,N,N,N,N,N,N,N,00H 00M 00S 10MS
Pelajar749,810001748,GIIS,TuneTalk Challenge 1,Round 1,N,N,N,N,N,N,N,N,00H 00M 00S 10MS
Pelajar750,810001749,GIIS,TuneTalk Challenge 1,Round 1,N,N,N,N,N,N,N,N,00H 00M 00S 10MS
Pelajar751,810001750,GIIS,TuneTalk Challenge 1,Round 1,N,N,N,N,N,N,N,N,00H 00M 00S 10MS
Pelajar752,810001751,GIIS,TuneTalk Challenge 1,Round 1,N,N,N,N,N,N,N,N,00H 00M 00S 10MS
Pelajar753,810001752,GIIS,TuneTalk Challenge 1,Round 1,N,N,N,N,N,N,N,N,00H 00M 00S 10MS
Pelajar754,810001753,GIIS,TuneTalk Challenge 1,Round 1,N,N,N,N,N,N,N,N,00H 00M 00S 10MS
Pelajar755,810001754,GIIS,TuneTalk Challenge 1,Round 1,N,N,N,N,N,N,N,N,00H 00M 00S 10MS
Pelajar756,810001755,GIIS,TuneTalk Challenge 1,Round 1,N,N,N,N,N,N,N,N,00H 00M 00S 10MS
Pelajar757,810001756,GIIS,TuneTalk Challenge 1,Round 1,N,N,N,N,N,N,N,N,00H 00M 00S 10MS
Pelajar758,810001757,GIIS,TuneTalk Challenge 1,Round 1,N,N,N,N,N,N,N,N,00H 00M 00S 10MS
Pelajar759,810001758,GIIS,TuneTalk Challenge 1,Round 1,N,N,N,N,N,N,N,N,00H 00M 00S 10MS
Pelajar760,810001759,GIIS,TuneTalk Challenge 1,Round 1,N,N,N,N,N,N,N,N,00H 00M 00S 10MS
Pelajar761,810001760,GIIS,TuneTalk Challenge 1,Round 1,N,N,N,N,N,N,N,N,00H 00M 00S 10MS
Pelajar762,810001761,GIIS,TuneTalk Challenge 1,Round 1,N,N,N,N,N,N,N,N,00H 00M 00S 10MS
Pelajar763,810001762,GIIS,TuneTalk Challenge 1,Round 1,N,N,N,N,N,N,N,N,00H 00M 00S 10MS
Pelajar764,810001763,GIIS,TuneTalk Challenge 1,Round 1,N,N,N,N,N,N,N,N,00H 00M 00S 10MS
Pelajar765,810001764,GIIS,TuneTalk Challenge 1,Round 1,N,N,N,N,N,N,N,N,00H 00M 00S 10MS
Pelajar766,810001765,GIIS,TuneTalk Challenge 1,Round 1,N,N,N,N,N,N,N,N,00H 00M 00S 10MS
Pelajar767,810001766,GIIS,TuneTalk Challenge 1,Round 1,N,N,N,N,N,N,N,N,00H 00M 00S 10MS
Pelajar768,810001767,GIIS,TuneTalk Challenge 1,Round 1,N,N,N,N,N,N,N,N,00H 00M 00S 10MS
Pelajar769,810001768,GIIS,TuneTalk Challenge 1,Round 1,N,N,N,N,N,N,N,N,00H 00M 00S 10MS
Pelajar770,810001769,GIIS,TuneTalk Challenge 1,Round 1,N,N,N,N,N,N,N,N,00H 00M 00S 10MS
Pelajar771,810001770,GIIS,TuneTalk Challenge 1,Round 1,N,N,N,N,N,N,N,N,00H 00M 00S 10MS
Pelajar772,810001771,GIIS,TuneTalk Challenge 1,Round 1,N,N,N,N,N,N,N,N,00H 00M 00S 10MS
Pelajar773,810001772,GIIS,TuneTalk Challenge 1,Round 1,N,N,N,N,N,N,N,N,00H 00M 00S 10MS
Pelajar774,810001773,GIIS,TuneTalk Challenge 1,Round 1,N,N,N,N,N,N,N,N,00H 00M 00S 10MS
Pelajar775,810001774,GIIS,TuneTalk Challenge 1,Round 1,N,N,N,N,N,N,N,N,00H 00M 00S 10MS
Pelajar776,810001775,GIIS,TuneTalk Challenge 1,Round 1,N,N,N,N,N,N,N,N,00H 00M 00S 10MS
Pelajar777,810001776,GIIS,TuneTalk Challenge 1,Round 1,N,N,N,N,N,N,N,N,00H 00M 00S 10MS
Pelajar778,810001777,GIIS,TuneTalk Challenge 1,Round 1,N,N,N,N,N,N,N,N,00H 00M 00S 10MS
Pelajar779,810001778,GIIS,TuneTalk Challenge 1,Round 1,N,N,N,N,N,N,N,N,00H 00M 00S 10MS
Pelajar780,810001779,GIIS,TuneTalk Challenge 1,Round 1,N,N,N,N,N,N,N,N,00H 00M 00S 10MS
Pelajar781,810001780,GIIS,TuneTalk Challenge 1,Round 1,N,N,N,N,N,N,N,N,00H 00M 00S 10MS
Pelajar782,810001781,GIIS,TuneTalk Challenge 1,Round 1,N,N,N,N,N,N,N,N,00H 00M 00S 10MS
Pelajar783,810001782,GIIS,TuneTalk Challenge 1,Round 1,N,N,N,N,N,N,N,N,00H 00M 00S 10MS
Pelajar784,810001783,GIIS,TuneTalk Challenge 1,Round 1,N,N,N,N,N,N,N,N,00H 00M 00S 10MS
Pelajar785,810001784,GIIS,TuneTalk Challenge 1,Round 1,N,N,N,N,N,N,N,N,00H 00M 00S 10MS
Pelajar786,810001785,GIIS,TuneTalk Challenge 1,Round 1,N,N,N,N,N,N,N,N,00H 00M 00S 10MS
Pelajar787,810001786,GIIS,TuneTalk Challenge 1,Round 1,N,N,N,N,N,N,N,N,00H 00M 00S 10MS
Pelajar788,810001787,GIIS,TuneTalk Challenge 1,Round 1,N,N,N,N,N,N,N,N,00H 00M 00S 10MS
Pelajar789,810001788,GIIS,TuneTalk Challenge 1,Round 1,N,N,N,N,N,N,N,N,00H 00M 00S 10MS
Pelajar790,810001789,GIIS,TuneTalk Challenge 1,Round 1,N,N,N,N,N,N,N,N,00H 00M 00S 10MS
Pelajar791,810001790,GIIS,TuneTalk Challenge 1,Round 1,N,N,N,N,N,N,N,N,00H 00M 00S 10MS
Pelajar792,810001791,GIIS,TuneTalk Challenge 1,Round 1,N,N,N,N,N,N,N,N,00H 00M 00S 10MS
Pelajar793,810001792,GIIS,TuneTalk Challenge 1,Round 1,N,N,N,N,N,N,N,N,00H 00M 00S 10MS
Pelajar794,810001793,GIIS,TuneTalk Challenge 1,Round 1,N,N,N,N,N,N,N,N,00H 00M 00S 10MS
Pelajar795,810001794,GIIS,TuneTalk Challenge 1,Round 1,N,N,N,N,N,N,N,N,00H 00M 00S 10MS
Pelajar796,810001795,GIIS,TuneTalk Challenge 1,Round 1,N,N,N,N,N,N,N,N,00H 00M 00S 10MS
Pelajar797,810001796,GIIS,TuneTalk Challenge 1,Round 1,N,N,N,N,N,N,N,N,00H 00M 00S 10MS
Pelajar798,810001797,GIIS,TuneTalk Challenge 1,Round 1,N,N,N,N,N,N,N,N,00H 00M 00S 10MS
Pelajar799,810001798,GIIS,TuneTalk Challenge 1,Round 1,N,N,N,N,N,N,N,N,00H 00M 00S 10MS
Pelajar800,810001799,GIIS,TuneTalk Challenge 1,Round 1,N,N,N,N,N,N,N,N,00H 00M 00S 10MS
Pelajar801,810001800,GIIS,TuneTalk Challenge 1,Round 1,N,N,N,N,N,N,N,N,00H 00M 00S 10MS
Pelajar802,810001801,GIIS,TuneTalk Challenge 1,Round 1,N,N,N,N,N,N,N,N,00H 00M 00S 10MS
Pelajar803,810001802,GIIS,TuneTalk Challenge 1,Round 1,N,N,N,N,N,N,N,N,00H 00M 00S 10MS
Pelajar804,810001803,GIIS,TuneTalk Challenge 1,Round 1,N,N,N,N,N,N,N,N,00H 00M 00S 10MS
Pelajar805,810001804,GIIS,TuneTalk Challenge 1,Round 1,N,N,N,N,N,N,N,N,00H 00M 00S 10MS
Pelajar806,810001805,GIIS,TuneTalk Challenge 1,Round 1,N,N,N,N,N,N,N,N,00H 00M 00S 10MS
Pelajar807,810001806,GIIS,TuneTalk Challenge 1,Round 1,N,N,N,N,N,N,N,N,00H 00M 00S 10MS
Pelajar808,810001807,GIIS,TuneTalk Challenge 1,Round 1,N,N,N,N,N,N,N,N,00H 00M 00S 10MS
Pelajar809,810001808,GIIS,TuneTalk Challenge 1,Round 1,N,N,N,N,N,N,N,N,00H 00M 00S 10MS
Pelajar810,810001809,GIIS,TuneTalk Challenge 1,Round 1,N,N,N,N,N,N,N,N,00H 00M 00S 10MS
Pelajar811,810001810,GIIS,TuneTalk Challenge 1,Round 1,N,N,N,N,N,N,N,N,00H 00M 00S 10MS
Pelajar812,810001811,GIIS,TuneTalk Challenge 1,Round 1,N,N,N,N,N,N,N,N,00H 00M 00S 10MS
Pelajar813,810001812,GIIS,TuneTalk Challenge 1,Round 1,N,N,N,N,N,N,N,N,00H 00M 00S 10MS
Pelajar814,810001813,GIIS,TuneTalk Challenge 1,Round 1,N,N,N,N,N,N,N,N,00H 00M 00S 10MS
Pelajar815,810001814,GIIS,TuneTalk Challenge 1,Round 1,N,N,N,N,N,N,N,N,00H 00M 00S 10MS
Pelajar816,810001815,GIIS,TuneTalk Challenge 1,Round 1,N,N,N,N,N,N,N,N,00H 00M 00S 10MS
Pelajar817,810001816,GIIS,TuneTalk Challenge 1,Round 1,N,N,N,N,N,N,N,N,00H 00M 00S 10MS
Pelajar818,810001817,GIIS,TuneTalk Challenge 1,Round 1,N,N,N,N,N,N,N,N,00H 00M 00S 10MS
Pelajar819,810001818,GIIS,TuneTalk Challenge 1,Round 1,N,N,N,N,N,N,N,N,00H 00M 00S 10MS
Pelajar820,810001819,GIIS,TuneTalk Challenge 1,Round 1,N,N,N,N,N,N,N,N,00H 00M 00S 10MS
Pelajar821,810001820,GIIS,TuneTalk Challenge 1,Round 1,N,N,N,N,N,N,N,N,00H 00M 00S 10MS
Pelajar822,810001821,GIIS,TuneTalk Challenge 1,Round 1,N,N,N,N,N,N,N,N,00H 00M 00S 10MS
Pelajar823,810001822,GIIS,TuneTalk Challenge 1,Round 1,N,N,N,N,N,N,N,N,00H 00M 00S 10MS
Pelajar824,810001823,GIIS,TuneTalk Challenge 1,Round 1,N,N,N,N,N,N,N,N,00H 00M 00S 10MS
Pelajar825,810001824,GIIS,TuneTalk Challenge 1,Round 1,N,N,N,N,N,N,N,N,00H 00M 00S 10MS
Pelajar826,810001825,GIIS,TuneTalk Challenge 1,Round 1,N,N,N,N,N,N,N,N,00H 00M 00S 10MS
Pelajar827,810001826,GIIS,TuneTalk Challenge 1,Round 1,N,N,N,N,N,N,N,N,00H 00M 00S 10MS
Pelajar828,810001827,GIIS,TuneTalk Challenge 1,Round 1,N,N,N,N,N,N,N,N,00H 00M 00S 10MS
Pelajar829,810001828,GIIS,TuneTalk Challenge 1,Round 1,N,N,N,N,N,N,N,N,00H 00M 00S 10MS
Pelajar830,810001829,GIIS,TuneTalk Challenge 1,Round 1,N,N,N,N,N,N,N,N,00H 00M 00S 10MS
Pelajar831,810001830,GIIS,TuneTalk Challenge 1,Round 1,N,N,N,N,N,N,N,N,00H 00M 00S 10MS
Pelajar832,810001831,GIIS,TuneTalk Challenge 1,Round 1,N,N,N,N,N,N,N,N,00H 00M 00S 10MS
Pelajar833,810001832,GIIS,TuneTalk Challenge 1,Round 1,N,N,N,N,N,N,N,N,00H 00M 00S 10MS
Pelajar834,810001833,GIIS,TuneTalk Challenge 1,Round 1,N,N,N,N,N,N,N,N,00H 00M 00S 10MS
Pelajar835,810001834,GIIS,TuneTalk Challenge 1,Round 1,N,N,N,N,N,N,N,N,00H 00M 00S 10MS
Pelajar836,810001835,GIIS,TuneTalk Challenge 1,Round 1,N,N,N,N,N,N,N,N,00H 00M 00S 10MS
Pelajar837,810001836,GIIS,TuneTalk Challenge 1,Round 1,N,N,N,N,N,N,N,N,00H 00M 00S 10MS
Pelajar838,810001837,GIIS,TuneTalk Challenge 1,Round 1,N,N,N,N,N,N,N,N,00H 00M 00S 10MS
Pelajar839,810001838,GIIS,TuneTalk Challenge 1,Round 1,N,N,N,N,N,N,N,N,00H 00M 00S 10MS
Pelajar840,810001839,GIIS,TuneTalk Challenge 1,Round 1,N,N,N,N,N,N,N,N,00H 00M 00S 10MS
Pelajar841,810001840,GIIS,TuneTalk Challenge 1,Round 1,N,N,N,N,N,N,N,N,00H 00M 00S 10MS
Pelajar842,810001841,GIIS,TuneTalk Challenge 1,Round 1,N,N,N,N,N,N,N,N,00H 00M 00S 10MS
Pelajar843,810001842,GIIS,TuneTalk Challenge 1,Round 1,N,N,N,N,N,N,N,N,00H 00M 00S 10MS
Pelajar844,810001843,GIIS,TuneTalk Challenge 1,Round 1,N,N,N,N,N,N,N,N,00H 00M 00S 10MS
Pelajar845,810001844,GIIS,TuneTalk Challenge 1,Round 1,N,N,N,N,N,N,N,N,00H 00M 00S 10MS
Pelajar846,810001845,GIIS,TuneTalk Challenge 1,Round 1,N,N,N,N,N,N,N,N,00H 00M 00S 10MS
Pelajar847,810001846,GIIS,TuneTalk Challenge 1,Round 1,N,N,N,N,N,N,N,N,00H 00M 00S 10MS
Pelajar848,810001847,GIIS,TuneTalk Challenge 1,Round 1,N,N,N,N,N,N,N,N,00H 00M 00S 10MS
Pelajar849,810001848,GIIS,TuneTalk Challenge 1,Round 1,N,N,N,N,N,N,N,N,00H 00M 00S 10MS
Pelajar850,810001849,GIIS,TuneTalk Challenge 1,Round 1,N,N,N,N,N,N,N,N,00H 00M 00S 10MS
Pelajar851,810001850,GIIS,TuneTalk Challenge 1,Round 1,N,N,N,N,N,N,N,N,00H 00M 00S 10MS
Pelajar852,810001851,GIIS,TuneTalk Challenge 1,Round 1,N,N,N,N,N,N,N,N,00H 00M 00S 10MS
Pelajar853,810001852,GIIS,TuneTalk Challenge 1,Round 1,N,N,N,N,N,N,N,N,00H 00M 00S 10MS
Pelajar854,810001853,GIIS,TuneTalk Challenge 1,Round 1,N,N,N,N,N,N,N,N,00H 00M 00S 10MS
Pelajar855,810001854,GIIS,TuneTalk Challenge 1,Round 1,N,N,N,N,N,N,N,N,00H 00M 00S 10MS
Pelajar856,810001855,GIIS,TuneTalk Challenge 1,Round 1,N,N,N,N,N,N,N,N,00H 00M 00S 10MS
Pelajar857,810001856,GIIS,TuneTalk Challenge 1,Round 1,N,N,N,N,N,N,N,N,00H 00M 00S 10MS
Pelajar858,810001857,GIIS,TuneTalk Challenge 1,Round 1,N,N,N,N,N,N,N,N,00H 00M 00S 10MS
Pelajar859,810001858,GIIS,TuneTalk Challenge 1,Round 1,N,N,N,N,N,N,N,N,00H 00M 00S 10MS
Pelajar860,810001859,GIIS,TuneTalk Challenge 1,Round 1,N,N,N,N,N,N,N,N,00H 00M 00S 10MS
Pelajar861,810001860,GIIS,TuneTalk Challenge 1,Round 1,N,N,N,N,N,N,N,N,00H 00M 00S 10MS
Pelajar862,810001861,GIIS,TuneTalk Challenge 1,Round 1,N,N,N,N,N,N,N,N,00H 00M 00S 10MS
Pelajar863,810001862,GIIS,TuneTalk Challenge 1,Round 1,N,N,N,N,N,N,N,N,00H 00M 00S 10MS
Pelajar864,810001863,GIIS,TuneTalk Challenge 1,Round 1,N,N,N,N,N,N,N,N,00H 00M 00S 10MS
Pelajar865,810001864,GIIS,TuneTalk Challenge 1,Round 1,N,N,N,N,N,N,N,N,00H 00M 00S 10MS
Pelajar866,810001865,GIIS,TuneTalk Challenge 1,Round 1,N,N,N,N,N,N,N,N,00H 00M 00S 10MS
Pelajar867,810001866,GIIS,TuneTalk Challenge 1,Round 1,N,N,N,N,N,N,N,N,00H 00M 00S 10MS
Pelajar868,810001867,GIIS,TuneTalk Challenge 1,Round 1,N,N,N,N,N,N,N,N,00H 00M 00S 10MS
Pelajar869,810001868,GIIS,TuneTalk Challenge 1,Round 1,N,N,N,N,N,N,N,N,00H 00M 00S 10MS
Pelajar870,810001869,GIIS,TuneTalk Challenge 1,Round 1,N,N,N,N,N,N,N,N,00H 00M 00S 10MS
Pelajar871,810001870,GIIS,TuneTalk Challenge 1,Round 1,N,N,N,N,N,N,N,N,00H 00M 00S 10MS
Pelajar872,810001871,GIIS,TuneTalk Challenge 1,Round 1,N,N,N,N,N,N,N,N,00H 00M 00S 10MS
Pelajar873,810001872,GIIS,TuneTalk Challenge 1,Round 1,N,N,N,N,N,N,N,N,00H 00M 00S 10MS
Pelajar874,810001873,GIIS,TuneTalk Challenge 1,Round 1,N,N,N,N,N,N,N,N,00H 00M 00S 10MS
Pelajar875,810001874,GIIS,TuneTalk Challenge 1,Round 1,N,N,N,N,N,N,N,N,00H 00M 00S 10MS
Pelajar876,810001875,GIIS,TuneTalk Challenge 1,Round 1,N,N,N,N,N,N,N,N,00H 00M 00S 10MS
Pelajar877,810001876,GIIS,TuneTalk Challenge 1,Round 1,N,N,N,N,N,N,N,N,00H 00M 00S 10MS
Pelajar878,810001877,GIIS,TuneTalk Challenge 1,Round 1,N,N,N,N,N,N,N,N,00H 00M 00S 10MS
Pelajar879,810001878,GIIS,TuneTalk Challenge 1,Round 1,N,N,N,N,N,N,N,N,00H 00M 00S 10MS
Pelajar880,810001879,GIIS,TuneTalk Challenge 1,Round 1,N,N,N,N,N,N,N,N,00H 00M 00S 10MS
Pelajar881,810001880,GIIS,TuneTalk Challenge 1,Round 1,N,N,N,N,N,N,N,N,00H 00M 00S 10MS
Pelajar882,810001881,GIIS,TuneTalk Challenge 1,Round 1,N,N,N,N,N,N,N,N,00H 00M 00S 10MS
Pelajar883,810001882,GIIS,TuneTalk Challenge 1,Round 1,N,N,N,N,N,N,N,N,00H 00M 00S 10MS
Pelajar884,810001883,GIIS,TuneTalk Challenge 1,Round 1,N,N,N,N,N,N,N,N,00H 00M 00S 10MS
Pelajar885,810001884,GIIS,TuneTalk Challenge 1,Round 1,N,N,N,N,N,N,N,N,00H 00M 00S 10MS
Pelajar886,810001885,GIIS,TuneTalk Challenge 1,Round 1,N,N,N,N,N,N,N,N,00H 00M 00S 10MS
Pelajar887,810001886,GIIS,TuneTalk Challenge 1,Round 1,N,N,N,N,N,N,N,N,00H 00M 00S 10MS
Pelajar888,810001887,GIIS,TuneTalk Challenge 1,Round 1,N,N,N,N,N,N,N,N,00H 00M 00S 10MS
Pelajar889,810001888,GIIS,TuneTalk Challenge 1,Round 1,N,N,N,N,N,N,N,N,00H 00M 00S 10MS
Pelajar890,810001889,GIIS,TuneTalk Challenge 1,Round 1,N,N,N,N,N,N,N,N,00H 00M 00S 10MS
Pelajar891,810001890,GIIS,TuneTalk Challenge 1,Round 1,N,N,N,N,N,N,N,N,00H 00M 00S 10MS
Pelajar892,810001891,GIIS,TuneTalk Challenge 1,Round 1,N,N,N,N,N,N,N,N,00H 00M 00S 10MS
Pelajar893,810001892,GIIS,TuneTalk Challenge 1,Round 1,N,N,N,N,N,N,N,N,00H 00M 00S 10MS
Pelajar894,810001893,GIIS,TuneTalk Challenge 1,Round 1,N,N,N,N,N,N,N,N,00H 00M 00S 10MS
Pelajar895,810001894,GIIS,TuneTalk Challenge 1,Round 1,N,N,N,N,N,N,N,N,00H 00M 00S 10MS
Pelajar896,810001895,GIIS,TuneTalk Challenge 1,Round 1,N,N,N,N,N,N,N,N,00H 00M 00S 10MS
Pelajar897,810001896,GIIS,TuneTalk Challenge 1,Round 1,N,N,N,N,N,N,N,N,00H 00M 00S 10MS
Pelajar898,810001897,GIIS,TuneTalk Challenge 1,Round 1,N,N,N,N,N,N,N,N,00H 00M 00S 10MS
Pelajar899,810001898,GIIS,TuneTalk Challenge 1,Round 1,N,N,N,N,N,N,N,N,00H 00M 00S 10MS
Pelajar900,810001899,GIIS,TuneTalk Challenge 1,Round 1,N,N,N,N,N,N,N,N,00H 00M 00S 10MS
Pelajar901,810001900,GIIS,TuneTalk Challenge 1,Round 1,N,N,N,N,N,N,N,N,00H 00M 00S 10MS
Pelajar902,810001901,GIIS,TuneTalk Challenge 1,Round 1,N,N,N,N,N,N,N,N,00H 00M 00S 10MS
Pelajar903,810001902,GIIS,TuneTalk Challenge 1,Round 1,N,N,N,N,N,N,N,N,00H 00M 00S 10MS
Pelajar904,810001903,GIIS,TuneTalk Challenge 1,Round 1,N,N,N,N,N,N,N,N,00H 00M 00S 10MS
Pelajar905,810001904,GIIS,TuneTalk Challenge 1,Round 1,N,N,N,N,N,N,N,N,00H 00M 00S 10MS
Pelajar906,810001905,GIIS,TuneTalk Challenge 1,Round 1,N,N,N,N,N,N,N,N,00H 00M 00S 10MS
Pelajar907,810001906,GIIS,TuneTalk Challenge 1,Round 1,N,N,N,N,N,N,N,N,00H 00M 00S 10MS
Pelajar908,810001907,GIIS,TuneTalk Challenge 1,Round 1,N,N,N,N,N,N,N,N,00H 00M 00S 10MS
Pelajar909,810001908,GIIS,TuneTalk Challenge 1,Round 1,N,N,N,N,N,N,N,N,00H 00M 00S 10MS
Pelajar910,810001909,GIIS,TuneTalk Challenge 1,Round 1,N,N,N,N,N,N,N,N,00H 00M 00S 10MS
Pelajar911,810001910,GIIS,TuneTalk Challenge 1,Round 1,N,N,N,N,N,N,N,N,00H 00M 00S 10MS
Pelajar912,810001911,GIIS,TuneTalk Challenge 1,Round 1,N,N,N,N,N,N,N,N,00H 00M 00S 10MS
Pelajar913,810001912,GIIS,TuneTalk Challenge 1,Round 1,N,N,N,N,N,N,N,N,00H 00M 00S 10MS
Pelajar914,810001913,GIIS,TuneTalk Challenge 1,Round 1,N,N,N,N,N,N,N,N,00H 00M 00S 10MS
Pelajar915,810001914,GIIS,TuneTalk Challenge 1,Round 1,N,N,N,N,N,N,N,N,00H 00M 00S 10MS
Pelajar916,810001915,GIIS,TuneTalk Challenge 1,Round 1,N,N,N,N,N,N,N,N,00H 00M 00S 10MS
Pelajar917,810001916,GIIS,TuneTalk Challenge 1,Round 1,N,N,N,N,N,N,N,N,00H 00M 00S 10MS
Pelajar918,810001917,GIIS,TuneTalk Challenge 1,Round 1,N,N,N,N,N,N,N,N,00H 00M 00S 10MS
Pelajar919,810001918,GIIS,TuneTalk Challenge 1,Round 1,N,N,N,N,N,N,N,N,00H 00M 00S 10MS
Pelajar920,810001919,GIIS,TuneTalk Challenge 1,Round 1,N,N,N,N,N,N,N,N,00H 00M 00S 10MS
Pelajar921,810001920,GIIS,TuneTalk Challenge 1,Round 1,N,N,N,N,N,N,N,N,00H 00M 00S 10MS
Pelajar922,810001921,GIIS,TuneTalk Challenge 1,Round 1,N,N,N,N,N,N,N,N,00H 00M 00S 10MS
Pelajar923,810001922,GIIS,TuneTalk Challenge 1,Round 1,N,N,N,N,N,N,N,N,00H 00M 00S 10MS
Pelajar924,810001923,GIIS,TuneTalk Challenge 1,Round 1,N,N,N,N,N,N,N,N,00H 00M 00S 10MS
Pelajar925,810001924,GIIS,TuneTalk Challenge 1,Round 1,N,N,N,N,N,N,N,N,00H 00M 00S 10MS
Pelajar926,810001925,GIIS,TuneTalk Challenge 1,Round 1,N,N,N,N,N,N,N,N,00H 00M 00S 10MS
Pelajar927,810001926,GIIS,TuneTalk Challenge 1,Round 1,N,N,N,N,N,N,N,N,00H 00M 00S 10MS
Pelajar928,810001927,GIIS,TuneTalk Challenge 1,Round 1,N,N,N,N,N,N,N,N,00H 00M 00S 10MS
Pelajar929,810001928,GIIS,TuneTalk Challenge 1,Round 1,N,N,N,N,N,N,N,N,00H 00M 00S 10MS
Pelajar930,810001929,GIIS,TuneTalk Challenge 1,Round 1,N,N,N,N,N,N,N,N,00H 00M 00S 10MS
Pelajar931,810001930,GIIS,TuneTalk Challenge 1,Round 1,N,N,N,N,N,N,N,N,00H 00M 00S 10MS
Pelajar932,810001931,GIIS,TuneTalk Challenge 1,Round 1,N,N,N,N,N,N,N,N,00H 00M 00S 10MS
Pelajar933,810001932,GIIS,TuneTalk Challenge 1,Round 1,N,N,N,N,N,N,N,N,00H 00M 00S 10MS
Pelajar934,810001933,GIIS,TuneTalk Challenge 1,Round 1,N,N,N,N,N,N,N,N,00H 00M 00S 10MS
Pelajar935,810001934,GIIS,TuneTalk Challenge 1,Round 1,N,N,N,N,N,N,N,N,00H 00M 00S 10MS
Pelajar936,810001935,GIIS,TuneTalk Challenge 1,Round 1,N,N,N,N,N,N,N,N,00H 00M 00S 10MS
Pelajar937,810001936,GIIS,TuneTalk Challenge 1,Round 1,N,N,N,N,N,N,N,N,00H 00M 00S 10MS
Pelajar938,810001937,GIIS,TuneTalk Challenge 1,Round 1,N,N,N,N,N,N,N,N,00H 00M 00S 10MS
Pelajar939,810001938,GIIS,TuneTalk Challenge 1,Round 1,N,N,N,N,N,N,N,N,00H 00M 00S 10MS
Pelajar940,810001939,GIIS,TuneTalk Challenge 1,Round 1,N,N,N,N,N,N,N,N,00H 00M 00S 10MS
Pelajar941,810001940,GIIS,TuneTalk Challenge 1,Round 1,N,N,N,N,N,N,N,N,00H 00M 00S 10MS
Pelajar942,810001941,GIIS,TuneTalk Challenge 1,Round 1,N,N,N,N,N,N,N,N,00H 00M 00S 10MS
Pelajar943,810001942,GIIS,TuneTalk Challenge 1,Round 1,N,N,N,N,N,N,N,N,00H 00M 00S 10MS
Pelajar944,810001943,GIIS,TuneTalk Challenge 1,Round 1,N,N,N,N,N,N,N,N,00H 00M 00S 10MS
Pelajar945,810001944,GIIS,TuneTalk Challenge 1,Round 1,N,N,N,N,N,N,N,N,00H 00M 00S 10MS
Pelajar946,810001945,GIIS,TuneTalk Challenge 1,Round 1,N,N,N,N,N,N,N,N,00H 00M 00S 10MS
Pelajar947,810001946,GIIS,TuneTalk Challenge 1,Round 1,N,N,N,N,N,N,N,N,00H 00M 00S 10MS
Pelajar948,810001947,GIIS,TuneTalk Challenge 1,Round 1,N,N,N,N,N,N,N,N,00H 00M 00S 10MS
Pelajar949,810001948,GIIS,TuneTalk Challenge 1,Round 1,N,N,N,N,N,N,N,N,00H 00M 00S 10MS
Pelajar950,810001949,GIIS,TuneTalk Challenge 1,Round 1,N,N,N,N,N,N,N,N,00H 00M 00S 10MS
Pelajar951,810001950,GIIS,TuneTalk Challenge 1,Round 1,N,N,N,N,N,N,N,N,00H 00M 00S 10MS
Pelajar952,810001951,GIIS,TuneTalk Challenge 1,Round 1,N,N,N,N,N,N,N,N,00H 00M 00S 10MS
Pelajar953,810001952,GIIS,TuneTalk Challenge 1,Round 1,N,N,N,N,N,N,N,N,00H 00M 00S 10MS
Pelajar954,810001953,GIIS,TuneTalk Challenge 1,Round 1,N,N,N,N,N,N,N,N,00H 00M 00S 10MS
Pelajar955,810001954,GIIS,TuneTalk Challenge 1,Round 1,N,N,N,N,N,N,N,N,00H 00M 00S 10MS
Pelajar956,810001955,GIIS,TuneTalk Challenge 1,Round 1,N,N,N,N,N,N,N,N,00H 00M 00S 10MS
Pelajar957,810001956,GIIS,TuneTalk Challenge 1,Round 1,N,N,N,N,N,N,N,N,00H 00M 00S 10MS
Pelajar958,810001957,GIIS,TuneTalk Challenge 1,Round 1,N,N,N,N,N,N,N,N,00H 00M 00S 10MS
Pelajar959,810001958,GIIS,TuneTalk Challenge 1,Round 1,N,N,N,N,N,N,N,N,00H 00M 00S 10MS
Pelajar960,810001959,GIIS,TuneTalk Challenge 1,Round 1,N,N,N,N,N,N,N,N,00H 00M 00S 10MS
Pelajar961,810001960,GIIS,TuneTalk Challenge 1,Round 1,N,N,N,N,N,N,N,N,00H 00M 00S 10MS
Pelajar962,810001961,GIIS,TuneTalk Challenge 1,Round 1,N,N,N,N,N,N,N,N,00H 00M 00S 10MS
Pelajar963,810001962,GIIS,TuneTalk Challenge 1,Round 1,N,N,N,N,N,N,N,N,00H 00M 00S 10MS
Pelajar964,810001963,GIIS,TuneTalk Challenge 1,Round 1,N,N,N,N,N,N,N,N,00H 00M 00S 10MS
Pelajar965,810001964,GIIS,TuneTalk Challenge 1,Round 1,N,N,N,N,N,N,N,N,00H 00M 00S 10MS
Pelajar966,810001965,GIIS,TuneTalk Challenge 1,Round 1,N,N,N,N,N,N,N,N,00H 00M 00S 10MS
Pelajar967,810001966,GIIS,TuneTalk Challenge 1,Round 1,N,N,N,N,N,N,N,N,00H 00M 00S 10MS
Pelajar968,810001967,GIIS,TuneTalk Challenge 1,Round 1,N,N,N,N,N,N,N,N,00H 00M 00S 10MS
Pelajar969,810001968,GIIS,TuneTalk Challenge 1,Round 1,N,N,N,N,N,N,N,N,00H 00M 00S 10MS
Pelajar970,810001969,GIIS,TuneTalk Challenge 1,Round 1,N,N,N,N,N,N,N,N,00H 00M 00S 10MS
Pelajar971,810001970,GIIS,TuneTalk Challenge 1,Round 1,N,N,N,N,N,N,N,N,00H 00M 00S 10MS
Pelajar972,810001971,GIIS,TuneTalk Challenge 1,Round 1,N,N,N,N,N,N,N,N,00H 00M 00S 10MS
Pelajar973,810001972,GIIS,TuneTalk Challenge 1,Round 1,N,N,N,N,N,N,N,N,00H 00M 00S 10MS
Pelajar974,810001973,GIIS,TuneTalk Challenge 1,Round 1,N,N,N,N,N,N,N,N,00H 00M 00S 10MS
Pelajar975,810001974,GIIS,TuneTalk Challenge 1,Round 1,N,N,N,N,N,N,N,N,00H 00M 00S 10MS
Pelajar976,810001975,GIIS,TuneTalk Challenge 1,Round 1,N,N,N,N,N,N,N,N,00H 00M 00S 10MS
Pelajar977,810001976,GIIS,TuneTalk Challenge 1,Round 1,N,N,N,N,N,N,N,N,00H 00M 00S 10MS
Pelajar978,810001977,GIIS,TuneTalk Challenge 1,Round 1,N,N,N,N,N,N,N,N,00H 00M 00S 10MS
Pelajar979,810001978,GIIS,TuneTalk Challenge 1,Round 1,N,N,N,N,N,N,N,N,00H 00M 00S 10MS
Pelajar980,810001979,GIIS,TuneTalk Challenge 1,Round 1,N,N,N,N,N,N,N,N,00H 00M 00S 10MS
Pelajar981,810001980,GIIS,TuneTalk Challenge 1,Round 1,N,N,N,N,N,N,N,N,00H 00M 00S 10MS
Pelajar982,810001981,GIIS,TuneTalk Challenge 1,Round 1,N,N,N,N,N,N,N,N,00H 00M 00S 10MS
Pelajar983,810001982,GIIS,TuneTalk Challenge 1,Round 1,N,N,N,N,N,N,N,N,00H 00M 00S 10MS
Pelajar984,810001983,GIIS,TuneTalk Challenge 1,Round 1,N,N,N,N,N,N,N,N,00H 00M 00S 10MS
Pelajar985,810001984,GIIS,TuneTalk Challenge 1,Round 1,N,N,N,N,N,N,N,N,00H 00M 00S 10MS
Pelajar986,810001985,GIIS,TuneTalk Challenge 1,Round 1,N,N,N,N,N,N,N,N,00H 00M 00S 10MS
Pelajar987,810001986,GIIS,TuneTalk Challenge 1,Round 1,N,N,N,N,N,N,N,N,00H 00M 00S 10MS
Pelajar988,810001987,GIIS,TuneTalk Challenge 1,Round 1,N,N,N,N,N,N,N,N,00H 00M 00S 10MS
Pelajar989,810001988,GIIS,TuneTalk Challenge 1,Round 1,N,N,N,N,N,N,N,N,00H 00M 00S 10MS
Pelajar990,810001989,GIIS,TuneTalk Challenge 1,Round 1,N,N,N,N,N,N,N,N,00H 00M 00S 10MS
Pelajar991,810001990,GIIS,TuneTalk Challenge 1,Round 1,N,N,N,N,N,N,N,N,00H 00M 00S 10MS
Pelajar992,810001991,GIIS,TuneTalk Challenge 1,Round 1,N,N,N,N,N,N,N,N,00H 00M 00S 10MS
Pelajar993,810001992,GIIS,TuneTalk Challenge 1,Round 1,N,N,N,N,N,N,N,N,00H 00M 00S 10MS
Pelajar994,810001993,GIIS,TuneTalk Challenge 1,Round 1,N,N,N,N,N,N,N,N,00H 00M 00S 10MS
Pelajar995,810001994,GIIS,TuneTalk Challenge 1,Round 1,N,N,N,N,N,N,N,N,00H 00M 00S 10MS
Pelajar996,810001995,GIIS,TuneTalk Challenge 1,Round 1,N,N,N,N,N,N,N,N,00H 00M 00S 10MS
