Name,Email,Password,Country Code,Contact,School,,,,
Pick one of the value for Student School Column: ,Assunta,Idrissi,Brainy Bunch,REAL School,GIIS,Tenby School,Convent,MoneyTree,TuneTalk
Pick one of the value for Country Code Column,Malaysia : 60,India : 91,United Kingdom : 44,Singapore : 65,United State : 1,,,,
JohnDoe,john@gmail.com,johndoe123,91,8989898989,City Montessory School,,,,
Pelajar1,,1000,60,810001000,GIIS,,,,
Pelajar2,,1001,60,810001001,GIIS,,,,
Pelajar3,,1002,60,810001002,GIIS,,,,
Pelajar4,,1003,60,810001003,GIIS,,,,
Pelajar5,,1004,60,810001004,GIIS,,,,
Pelajar6,,1005,60,810001005,GIIS,,,,
Pelajar7,,1006,60,810001006,GIIS,,,,
Pelajar8,,1007,60,810001007,GIIS,,,,
Pelajar9,,1008,60,810001008,GIIS,,,,
Pelajar10,,1009,60,810001009,GIIS,,,,
Pelajar11,,1010,60,810001010,GIIS,,,,
Pelajar12,,1011,60,810001011,GIIS,,,,
Pelajar13,,1012,60,810001012,GIIS,,,,
Pelajar14,,1013,60,810001013,GIIS,,,,
Pelajar15,,1014,60,810001014,GIIS,,,,
Pelajar16,,1015,60,810001015,GIIS,,,,
Pelajar17,,1016,60,810001016,GIIS,,,,
Pelajar18,,1017,60,810001017,GIIS,,,,
Pelajar19,,1018,60,810001018,GIIS,,,,
Pelajar20,,1019,60,810001019,GIIS,,,,
Pelajar21,,1020,60,810001020,GIIS,,,,
Pelajar22,,1021,60,810001021,GIIS,,,,
Pelajar23,,1022,60,810001022,GIIS,,,,
Pelajar24,,1023,60,810001023,GIIS,,,,
Pelajar25,,1024,60,810001024,GIIS,,,,
Pelajar26,,1025,60,810001025,GIIS,,,,
Pelajar27,,1026,60,810001026,GIIS,,,,
Pelajar28,,1027,60,810001027,GIIS,,,,
Pelajar29,,1028,60,810001028,GIIS,,,,
Pelajar30,,1029,60,810001029,GIIS,,,,
Pelajar31,,1030,60,810001030,GIIS,,,,
Pelajar32,,1031,60,810001031,GIIS,,,,
Pelajar33,,1032,60,810001032,GIIS,,,,
Pelajar34,,1033,60,810001033,GIIS,,,,
Pelajar35,,1034,60,810001034,GIIS,,,,
Pelajar36,,1035,60,810001035,GIIS,,,,
Pelajar37,,1036,60,810001036,GIIS,,,,
Pelajar38,,1037,60,810001037,GIIS,,,,
Pelajar39,,1038,60,810001038,GIIS,,,,
Pelajar40,,1039,60,810001039,GIIS,,,,
Pelajar41,,1040,60,810001040,GIIS,,,,
Pelajar42,,1041,60,810001041,GIIS,,,,
Pelajar43,,1042,60,810001042,GIIS,,,,
Pelajar44,,1043,60,810001043,GIIS,,,,
Pelajar45,,1044,60,810001044,GIIS,,,,
Pelajar46,,1045,60,810001045,GIIS,,,,
Pelajar47,,1046,60,810001046,GIIS,,,,
Pelajar48,,1047,60,810001047,GIIS,,,,
Pelajar49,,1048,60,810001048,GIIS,,,,
Pelajar50,,1049,60,810001049,GIIS,,,,
Pelajar51,,1050,60,810001050,GIIS,,,,
Pelajar52,,1051,60,810001051,GIIS,,,,
Pelajar53,,1052,60,810001052,GIIS,,,,
Pelajar54,,1053,60,810001053,GIIS,,,,
Pelajar55,,1054,60,810001054,GIIS,,,,
Pelajar56,,1055,60,810001055,GIIS,,,,
Pelajar57,,1056,60,810001056,GIIS,,,,
Pelajar58,,1057,60,810001057,GIIS,,,,
Pelajar59,,1058,60,810001058,GIIS,,,,
Pelajar60,,1059,60,810001059,GIIS,,,,
Pelajar61,,1060,60,810001060,GIIS,,,,
Pelajar62,,1061,60,810001061,GIIS,,,,
Pelajar63,,1062,60,810001062,GIIS,,,,
Pelajar64,,1063,60,810001063,GIIS,,,,
Pelajar65,,1064,60,810001064,GIIS,,,,
Pelajar66,,1065,60,810001065,GIIS,,,,
Pelajar67,,1066,60,810001066,GIIS,,,,
Pelajar68,,1067,60,810001067,GIIS,,,,
Pelajar69,,1068,60,810001068,GIIS,,,,
Pelajar70,,1069,60,810001069,GIIS,,,,
Pelajar71,,1070,60,810001070,GIIS,,,,
Pelajar72,,1071,60,810001071,GIIS,,,,
Pelajar73,,1072,60,810001072,GIIS,,,,
Pelajar74,,1073,60,810001073,GIIS,,,,
Pelajar75,,1074,60,810001074,GIIS,,,,
Pelajar76,,1075,60,810001075,GIIS,,,,
Pelajar77,,1076,60,810001076,GIIS,,,,
Pelajar78,,1077,60,810001077,GIIS,,,,
Pelajar79,,1078,60,810001078,GIIS,,,,
Pelajar80,,1079,60,810001079,GIIS,,,,
Pelajar81,,1080,60,810001080,GIIS,,,,
Pelajar82,,1081,60,810001081,GIIS,,,,
Pelajar83,,1082,60,810001082,GIIS,,,,
Pelajar84,,1083,60,810001083,GIIS,,,,
Pelajar85,,1084,60,810001084,GIIS,,,,
Pelajar86,,1085,60,810001085,GIIS,,,,
Pelajar87,,1086,60,810001086,GIIS,,,,
Pelajar88,,1087,60,810001087,GIIS,,,,
Pelajar89,,1088,60,810001088,GIIS,,,,
Pelajar90,,1089,60,810001089,GIIS,,,,
Pelajar91,,1090,60,810001090,GIIS,,,,
Pelajar92,,1091,60,810001091,GIIS,,,,
Pelajar93,,1092,60,810001092,GIIS,,,,
Pelajar94,,1093,60,810001093,GIIS,,,,
Pelajar95,,1094,60,810001094,GIIS,,,,
Pelajar96,,1095,60,810001095,GIIS,,,,
Pelajar97,,1096,60,810001096,GIIS,,,,
Pelajar98,,1097,60,810001097,GIIS,,,,
Pelajar99,,1098,60,810001098,GIIS,,,,
Pelajar100,,1099,60,810001099,GIIS,,,,
Pelajar101,,1100,60,810001100,GIIS,,,,
Pelajar102,,1101,60,810001101,GIIS,,,,
Pelajar103,,1102,60,810001102,GIIS,,,,
Pelajar104,,1103,60,810001103,GIIS,,,,
Pelajar105,,1104,60,810001104,GIIS,,,,
Pelajar106,,1105,60,810001105,GIIS,,,,
Pelajar107,,1106,60,810001106,GIIS,,,,
Pelajar108,,1107,60,810001107,GIIS,,,,
Pelajar109,,1108,60,810001108,GIIS,,,,
Pelajar110,,1109,60,810001109,GIIS,,,,
Pelajar111,,1110,60,810001110,GIIS,,,,
Pelajar112,,1111,60,810001111,GIIS,,,,
Pelajar113,,1112,60,810001112,GIIS,,,,
Pelajar114,,1113,60,810001113,GIIS,,,,
Pelajar115,,1114,60,810001114,GIIS,,,,
Pelajar116,,1115,60,810001115,GIIS,,,,
Pelajar117,,1116,60,810001116,GIIS,,,,
Pelajar118,,1117,60,810001117,GIIS,,,,
Pelajar119,,1118,60,810001118,GIIS,,,,
Pelajar120,,1119,60,810001119,GIIS,,,,
Pelajar121,,1120,60,810001120,GIIS,,,,
Pelajar122,,1121,60,810001121,GIIS,,,,
Pelajar123,,1122,60,810001122,GIIS,,,,
Pelajar124,,1123,60,810001123,GIIS,,,,
Pelajar125,,1124,60,810001124,GIIS,,,,
Pelajar126,,1125,60,810001125,GIIS,,,,
Pelajar127,,1126,60,810001126,GIIS,,,,
Pelajar128,,1127,60,810001127,GIIS,,,,
Pelajar129,,1128,60,810001128,GIIS,,,,
Pelajar130,,1129,60,810001129,GIIS,,,,
Pelajar131,,1130,60,810001130,GIIS,,,,
Pelajar132,,1131,60,810001131,GIIS,,,,
Pelajar133,,1132,60,810001132,GIIS,,,,
Pelajar134,,1133,60,810001133,GIIS,,,,
Pelajar135,,1134,60,810001134,GIIS,,,,
Pelajar136,,1135,60,810001135,GIIS,,,,
Pelajar137,,1136,60,810001136,GIIS,,,,
Pelajar138,,1137,60,810001137,GIIS,,,,
Pelajar139,,1138,60,810001138,GIIS,,,,
Pelajar140,,1139,60,810001139,GIIS,,,,
Pelajar141,,1140,60,810001140,GIIS,,,,
Pelajar142,,1141,60,810001141,GIIS,,,,
Pelajar143,,1142,60,810001142,GIIS,,,,
Pelajar144,,1143,60,810001143,GIIS,,,,
Pelajar145,,1144,60,810001144,GIIS,,,,
Pelajar146,,1145,60,810001145,GIIS,,,,
Pelajar147,,1146,60,810001146,GIIS,,,,
Pelajar148,,1147,60,810001147,GIIS,,,,
Pelajar149,,1148,60,810001148,GIIS,,,,
Pelajar150,,1149,60,810001149,GIIS,,,,
Pelajar151,,1150,60,810001150,GIIS,,,,
Pelajar152,,1151,60,810001151,GIIS,,,,
Pelajar153,,1152,60,810001152,GIIS,,,,
Pelajar154,,1153,60,810001153,GIIS,,,,
Pelajar155,,1154,60,810001154,GIIS,,,,
Pelajar156,,1155,60,810001155,GIIS,,,,
Pelajar157,,1156,60,810001156,GIIS,,,,
Pelajar158,,1157,60,810001157,GIIS,,,,
Pelajar159,,1158,60,810001158,GIIS,,,,
Pelajar160,,1159,60,810001159,GIIS,,,,
Pelajar161,,1160,60,810001160,GIIS,,,,
Pelajar162,,1161,60,810001161,GIIS,,,,
Pelajar163,,1162,60,810001162,GIIS,,,,
Pelajar164,,1163,60,810001163,GIIS,,,,
Pelajar165,,1164,60,810001164,GIIS,,,,
Pelajar166,,1165,60,810001165,GIIS,,,,
Pelajar167,,1166,60,810001166,GIIS,,,,
Pelajar168,,1167,60,810001167,GIIS,,,,
Pelajar169,,1168,60,810001168,GIIS,,,,
Pelajar170,,1169,60,810001169,GIIS,,,,
Pelajar171,,1170,60,810001170,GIIS,,,,
Pelajar172,,1171,60,810001171,GIIS,,,,
Pelajar173,,1172,60,810001172,GIIS,,,,
Pelajar174,,1173,60,810001173,GIIS,,,,
Pelajar175,,1174,60,810001174,GIIS,,,,
Pelajar176,,1175,60,810001175,GIIS,,,,
Pelajar177,,1176,60,810001176,GIIS,,,,
Pelajar178,,1177,60,810001177,GIIS,,,,
Pelajar179,,1178,60,810001178,GIIS,,,,
Pelajar180,,1179,60,810001179,GIIS,,,,
Pelajar181,,1180,60,810001180,GIIS,,,,
Pelajar182,,1181,60,810001181,GIIS,,,,
Pelajar183,,1182,60,810001182,GIIS,,,,
Pelajar184,,1183,60,810001183,GIIS,,,,
Pelajar185,,1184,60,810001184,GIIS,,,,
Pelajar186,,1185,60,810001185,GIIS,,,,
Pelajar187,,1186,60,810001186,GIIS,,,,
Pelajar188,,1187,60,810001187,GIIS,,,,
Pelajar189,,1188,60,810001188,GIIS,,,,
Pelajar190,,1189,60,810001189,GIIS,,,,
Pelajar191,,1190,60,810001190,GIIS,,,,
Pelajar192,,1191,60,810001191,GIIS,,,,
Pelajar193,,1192,60,810001192,GIIS,,,,
Pelajar194,,1193,60,810001193,GIIS,,,,
Pelajar195,,1194,60,810001194,GIIS,,,,
Pelajar196,,1195,60,810001195,GIIS,,,,
Pelajar197,,1196,60,810001196,GIIS,,,,
Pelajar198,,1197,60,810001197,GIIS,,,,
Pelajar199,,1198,60,810001198,GIIS,,,,
Pelajar200,,1199,60,810001199,GIIS,,,,
Pelajar201,,1200,60,810001200,GIIS,,,,
Pelajar202,,1201,60,810001201,GIIS,,,,
Pelajar203,,1202,60,810001202,GIIS,,,,
Pelajar204,,1203,60,810001203,GIIS,,,,
Pelajar205,,1204,60,810001204,GIIS,,,,
Pelajar206,,1205,60,810001205,GIIS,,,,
Pelajar207,,1206,60,810001206,GIIS,,,,
Pelajar208,,1207,60,810001207,GIIS,,,,
Pelajar209,,1208,60,810001208,GIIS,,,,
Pelajar210,,1209,60,810001209,GIIS,,,,
Pelajar211,,1210,60,810001210,GIIS,,,,
Pelajar212,,1211,60,810001211,GIIS,,,,
Pelajar213,,1212,60,810001212,GIIS,,,,
Pelajar214,,1213,60,810001213,GIIS,,,,
Pelajar215,,1214,60,810001214,GIIS,,,,
Pelajar216,,1215,60,810001215,GIIS,,,,
Pelajar217,,1216,60,810001216,GIIS,,,,
Pelajar218,,1217,60,810001217,GIIS,,,,
Pelajar219,,1218,60,810001218,GIIS,,,,
Pelajar220,,1219,60,810001219,GIIS,,,,
Pelajar221,,1220,60,810001220,GIIS,,,,
Pelajar222,,1221,60,810001221,GIIS,,,,
Pelajar223,,1222,60,810001222,GIIS,,,,
Pelajar224,,1223,60,810001223,GIIS,,,,
Pelajar225,,1224,60,810001224,GIIS,,,,
Pelajar226,,1225,60,810001225,GIIS,,,,
Pelajar227,,1226,60,810001226,GIIS,,,,
Pelajar228,,1227,60,810001227,GIIS,,,,
Pelajar229,,1228,60,810001228,GIIS,,,,
Pelajar230,,1229,60,810001229,GIIS,,,,
Pelajar231,,1230,60,810001230,GIIS,,,,
Pelajar232,,1231,60,810001231,GIIS,,,,
Pelajar233,,1232,60,810001232,GIIS,,,,
Pelajar234,,1233,60,810001233,GIIS,,,,
Pelajar235,,1234,60,810001234,GIIS,,,,
Pelajar236,,1235,60,810001235,GIIS,,,,
Pelajar237,,1236,60,810001236,GIIS,,,,
Pelajar238,,1237,60,810001237,GIIS,,,,
Pelajar239,,1238,60,810001238,GIIS,,,,
Pelajar240,,1239,60,810001239,GIIS,,,,
Pelajar241,,1240,60,810001240,GIIS,,,,
Pelajar242,,1241,60,810001241,GIIS,,,,
Pelajar243,,1242,60,810001242,GIIS,,,,
Pelajar244,,1243,60,810001243,GIIS,,,,
Pelajar245,,1244,60,810001244,GIIS,,,,
Pelajar246,,1245,60,810001245,GIIS,,,,
Pelajar247,,1246,60,810001246,GIIS,,,,
Pelajar248,,1247,60,810001247,GIIS,,,,
Pelajar249,,1248,60,810001248,GIIS,,,,
Pelajar250,,1249,60,810001249,GIIS,,,,
Pelajar251,,1250,60,810001250,GIIS,,,,
Pelajar252,,1251,60,810001251,GIIS,,,,
Pelajar253,,1252,60,810001252,GIIS,,,,
Pelajar254,,1253,60,810001253,GIIS,,,,
Pelajar255,,1254,60,810001254,GIIS,,,,
Pelajar256,,1255,60,810001255,GIIS,,,,
Pelajar257,,1256,60,810001256,GIIS,,,,
Pelajar258,,1257,60,810001257,GIIS,,,,
Pelajar259,,1258,60,810001258,GIIS,,,,
Pelajar260,,1259,60,810001259,GIIS,,,,
Pelajar261,,1260,60,810001260,GIIS,,,,
Pelajar262,,1261,60,810001261,GIIS,,,,
Pelajar263,,1262,60,810001262,GIIS,,,,
Pelajar264,,1263,60,810001263,GIIS,,,,
Pelajar265,,1264,60,810001264,GIIS,,,,
Pelajar266,,1265,60,810001265,GIIS,,,,
Pelajar267,,1266,60,810001266,GIIS,,,,
Pelajar268,,1267,60,810001267,GIIS,,,,
Pelajar269,,1268,60,810001268,GIIS,,,,
Pelajar270,,1269,60,810001269,GIIS,,,,
Pelajar271,,1270,60,810001270,GIIS,,,,
Pelajar272,,1271,60,810001271,GIIS,,,,
Pelajar273,,1272,60,810001272,GIIS,,,,
Pelajar274,,1273,60,810001273,GIIS,,,,
Pelajar275,,1274,60,810001274,GIIS,,,,
Pelajar276,,1275,60,810001275,GIIS,,,,
Pelajar277,,1276,60,810001276,GIIS,,,,
Pelajar278,,1277,60,810001277,GIIS,,,,
Pelajar279,,1278,60,810001278,GIIS,,,,
Pelajar280,,1279,60,810001279,GIIS,,,,
Pelajar281,,1280,60,810001280,GIIS,,,,
Pelajar282,,1281,60,810001281,GIIS,,,,
Pelajar283,,1282,60,810001282,GIIS,,,,
Pelajar284,,1283,60,810001283,GIIS,,,,
Pelajar285,,1284,60,810001284,GIIS,,,,
Pelajar286,,1285,60,810001285,GIIS,,,,
Pelajar287,,1286,60,810001286,GIIS,,,,
Pelajar288,,1287,60,810001287,GIIS,,,,
Pelajar289,,1288,60,810001288,GIIS,,,,
Pelajar290,,1289,60,810001289,GIIS,,,,
Pelajar291,,1290,60,810001290,GIIS,,,,
Pelajar292,,1291,60,810001291,GIIS,,,,
Pelajar293,,1292,60,810001292,GIIS,,,,
Pelajar294,,1293,60,810001293,GIIS,,,,
Pelajar295,,1294,60,810001294,GIIS,,,,
Pelajar296,,1295,60,810001295,GIIS,,,,
Pelajar297,,1296,60,810001296,GIIS,,,,
Pelajar298,,1297,60,810001297,GIIS,,,,
Pelajar299,,1298,60,810001298,GIIS,,,,
Pelajar300,,1299,60,810001299,GIIS,,,,
Pelajar301,,1300,60,810001300,GIIS,,,,
Pelajar302,,1301,60,810001301,GIIS,,,,
Pelajar303,,1302,60,810001302,GIIS,,,,
Pelajar304,,1303,60,810001303,GIIS,,,,
Pelajar305,,1304,60,810001304,GIIS,,,,
Pelajar306,,1305,60,810001305,GIIS,,,,
Pelajar307,,1306,60,810001306,GIIS,,,,
Pelajar308,,1307,60,810001307,GIIS,,,,
Pelajar309,,1308,60,810001308,GIIS,,,,
Pelajar310,,1309,60,810001309,GIIS,,,,
Pelajar311,,1310,60,810001310,GIIS,,,,
Pelajar312,,1311,60,810001311,GIIS,,,,
Pelajar313,,1312,60,810001312,GIIS,,,,
Pelajar314,,1313,60,810001313,GIIS,,,,
Pelajar315,,1314,60,810001314,GIIS,,,,
Pelajar316,,1315,60,810001315,GIIS,,,,
Pelajar317,,1316,60,810001316,GIIS,,,,
Pelajar318,,1317,60,810001317,GIIS,,,,
Pelajar319,,1318,60,810001318,GIIS,,,,
Pelajar320,,1319,60,810001319,GIIS,,,,
Pelajar321,,1320,60,810001320,GIIS,,,,
Pelajar322,,1321,60,810001321,GIIS,,,,
Pelajar323,,1322,60,810001322,GIIS,,,,
Pelajar324,,1323,60,810001323,GIIS,,,,
Pelajar325,,1324,60,810001324,GIIS,,,,
Pelajar326,,1325,60,810001325,GIIS,,,,
Pelajar327,,1326,60,810001326,GIIS,,,,
Pelajar328,,1327,60,810001327,GIIS,,,,
Pelajar329,,1328,60,810001328,GIIS,,,,
Pelajar330,,1329,60,810001329,GIIS,,,,
Pelajar331,,1330,60,810001330,GIIS,,,,
Pelajar332,,1331,60,810001331,GIIS,,,,
Pelajar333,,1332,60,810001332,GIIS,,,,
Pelajar334,,1333,60,810001333,GIIS,,,,
Pelajar335,,1334,60,810001334,GIIS,,,,
Pelajar336,,1335,60,810001335,GIIS,,,,
Pelajar337,,1336,60,810001336,GIIS,,,,
Pelajar338,,1337,60,810001337,GIIS,,,,
Pelajar339,,1338,60,810001338,GIIS,,,,
Pelajar340,,1339,60,810001339,GIIS,,,,
Pelajar341,,1340,60,810001340,GIIS,,,,
Pelajar342,,1341,60,810001341,GIIS,,,,
Pelajar343,,1342,60,810001342,GIIS,,,,
Pelajar344,,1343,60,810001343,GIIS,,,,
Pelajar345,,1344,60,810001344,GIIS,,,,
Pelajar346,,1345,60,810001345,GIIS,,,,
Pelajar347,,1346,60,810001346,GIIS,,,,
Pelajar348,,1347,60,810001347,GIIS,,,,
Pelajar349,,1348,60,810001348,GIIS,,,,
Pelajar350,,1349,60,810001349,GIIS,,,,
Pelajar351,,1350,60,810001350,GIIS,,,,
Pelajar352,,1351,60,810001351,GIIS,,,,
Pelajar353,,1352,60,810001352,GIIS,,,,
Pelajar354,,1353,60,810001353,GIIS,,,,
Pelajar355,,1354,60,810001354,GIIS,,,,
Pelajar356,,1355,60,810001355,GIIS,,,,
Pelajar357,,1356,60,810001356,GIIS,,,,
Pelajar358,,1357,60,810001357,GIIS,,,,
Pelajar359,,1358,60,810001358,GIIS,,,,
Pelajar360,,1359,60,810001359,GIIS,,,,
Pelajar361,,1360,60,810001360,GIIS,,,,
Pelajar362,,1361,60,810001361,GIIS,,,,
Pelajar363,,1362,60,810001362,GIIS,,,,
Pelajar364,,1363,60,810001363,GIIS,,,,
Pelajar365,,1364,60,810001364,GIIS,,,,
Pelajar366,,1365,60,810001365,GIIS,,,,
Pelajar367,,1366,60,810001366,GIIS,,,,
Pelajar368,,1367,60,810001367,GIIS,,,,
Pelajar369,,1368,60,810001368,GIIS,,,,
Pelajar370,,1369,60,810001369,GIIS,,,,
Pelajar371,,1370,60,810001370,GIIS,,,,
Pelajar372,,1371,60,810001371,GIIS,,,,
Pelajar373,,1372,60,810001372,GIIS,,,,
Pelajar374,,1373,60,810001373,GIIS,,,,
Pelajar375,,1374,60,810001374,GIIS,,,,
Pelajar376,,1375,60,810001375,GIIS,,,,
Pelajar377,,1376,60,810001376,GIIS,,,,
Pelajar378,,1377,60,810001377,GIIS,,,,
Pelajar379,,1378,60,810001378,GIIS,,,,
Pelajar380,,1379,60,810001379,GIIS,,,,
Pelajar381,,1380,60,810001380,GIIS,,,,
Pelajar382,,1381,60,810001381,GIIS,,,,
Pelajar383,,1382,60,810001382,GIIS,,,,
Pelajar384,,1383,60,810001383,GIIS,,,,
Pelajar385,,1384,60,810001384,GIIS,,,,
Pelajar386,,1385,60,810001385,GIIS,,,,
Pelajar387,,1386,60,810001386,GIIS,,,,
Pelajar388,,1387,60,810001387,GIIS,,,,
Pelajar389,,1388,60,810001388,GIIS,,,,
Pelajar390,,1389,60,810001389,GIIS,,,,
Pelajar391,,1390,60,810001390,GIIS,,,,
Pelajar392,,1391,60,810001391,GIIS,,,,
Pelajar393,,1392,60,810001392,GIIS,,,,
Pelajar394,,1393,60,810001393,GIIS,,,,
Pelajar395,,1394,60,810001394,GIIS,,,,
Pelajar396,,1395,60,810001395,GIIS,,,,
Pelajar397,,1396,60,810001396,GIIS,,,,
Pelajar398,,1397,60,810001397,GIIS,,,,
Pelajar399,,1398,60,810001398,GIIS,,,,
Pelajar400,,1399,60,810001399,GIIS,,,,
Pelajar401,,1400,60,810001400,GIIS,,,,
Pelajar402,,1401,60,810001401,GIIS,,,,
Pelajar403,,1402,60,810001402,GIIS,,,,
Pelajar404,,1403,60,810001403,GIIS,,,,
Pelajar405,,1404,60,810001404,GIIS,,,,
Pelajar406,,1405,60,810001405,GIIS,,,,
Pelajar407,,1406,60,810001406,GIIS,,,,
Pelajar408,,1407,60,810001407,GIIS,,,,
Pelajar409,,1408,60,810001408,GIIS,,,,
Pelajar410,,1409,60,810001409,GIIS,,,,
Pelajar411,,1410,60,810001410,GIIS,,,,
Pelajar412,,1411,60,810001411,GIIS,,,,
Pelajar413,,1412,60,810001412,GIIS,,,,
Pelajar414,,1413,60,810001413,GIIS,,,,
Pelajar415,,1414,60,810001414,GIIS,,,,
Pelajar416,,1415,60,810001415,GIIS,,,,
Pelajar417,,1416,60,810001416,GIIS,,,,
Pelajar418,,1417,60,810001417,GIIS,,,,
Pelajar419,,1418,60,810001418,GIIS,,,,
Pelajar420,,1419,60,810001419,GIIS,,,,
Pelajar421,,1420,60,810001420,GIIS,,,,
Pelajar422,,1421,60,810001421,GIIS,,,,
Pelajar423,,1422,60,810001422,GIIS,,,,
Pelajar424,,1423,60,810001423,GIIS,,,,
Pelajar425,,1424,60,810001424,GIIS,,,,
Pelajar426,,1425,60,810001425,GIIS,,,,
Pelajar427,,1426,60,810001426,GIIS,,,,
Pelajar428,,1427,60,810001427,GIIS,,,,
Pelajar429,,1428,60,810001428,GIIS,,,,
Pelajar430,,1429,60,810001429,GIIS,,,,
Pelajar431,,1430,60,810001430,GIIS,,,,
Pelajar432,,1431,60,810001431,GIIS,,,,
Pelajar433,,1432,60,810001432,GIIS,,,,
Pelajar434,,1433,60,810001433,GIIS,,,,
Pelajar435,,1434,60,810001434,GIIS,,,,
Pelajar436,,1435,60,810001435,GIIS,,,,
Pelajar437,,1436,60,810001436,GIIS,,,,
Pelajar438,,1437,60,810001437,GIIS,,,,
Pelajar439,,1438,60,810001438,GIIS,,,,
Pelajar440,,1439,60,810001439,GIIS,,,,
Pelajar441,,1440,60,810001440,GIIS,,,,
Pelajar442,,1441,60,810001441,GIIS,,,,
Pelajar443,,1442,60,810001442,GIIS,,,,
Pelajar444,,1443,60,810001443,GIIS,,,,
Pelajar445,,1444,60,810001444,GIIS,,,,
Pelajar446,,1445,60,810001445,GIIS,,,,
Pelajar447,,1446,60,810001446,GIIS,,,,
Pelajar448,,1447,60,810001447,GIIS,,,,
Pelajar449,,1448,60,810001448,GIIS,,,,
Pelajar450,,1449,60,810001449,GIIS,,,,
Pelajar451,,1450,60,810001450,GIIS,,,,
Pelajar452,,1451,60,810001451,GIIS,,,,
Pelajar453,,1452,60,810001452,GIIS,,,,
Pelajar454,,1453,60,810001453,GIIS,,,,
Pelajar455,,1454,60,810001454,GIIS,,,,
Pelajar456,,1455,60,810001455,GIIS,,,,
Pelajar457,,1456,60,810001456,GIIS,,,,
Pelajar458,,1457,60,810001457,GIIS,,,,
Pelajar459,,1458,60,810001458,GIIS,,,,
Pelajar460,,1459,60,810001459,GIIS,,,,
Pelajar461,,1460,60,810001460,GIIS,,,,
Pelajar462,,1461,60,810001461,GIIS,,,,
Pelajar463,,1462,60,810001462,GIIS,,,,
Pelajar464,,1463,60,810001463,GIIS,,,,
Pelajar465,,1464,60,810001464,GIIS,,,,
Pelajar466,,1465,60,810001465,GIIS,,,,
Pelajar467,,1466,60,810001466,GIIS,,,,
Pelajar468,,1467,60,810001467,GIIS,,,,
Pelajar469,,1468,60,810001468,GIIS,,,,
Pelajar470,,1469,60,810001469,GIIS,,,,
Pelajar471,,1470,60,810001470,GIIS,,,,
Pelajar472,,1471,60,810001471,GIIS,,,,
Pelajar473,,1472,60,810001472,GIIS,,,,
Pelajar474,,1473,60,810001473,GIIS,,,,
Pelajar475,,1474,60,810001474,GIIS,,,,
Pelajar476,,1475,60,810001475,GIIS,,,,
Pelajar477,,1476,60,810001476,GIIS,,,,
Pelajar478,,1477,60,810001477,GIIS,,,,
Pelajar479,,1478,60,810001478,GIIS,,,,
Pelajar480,,1479,60,810001479,GIIS,,,,
Pelajar481,,1480,60,810001480,GIIS,,,,
Pelajar482,,1481,60,810001481,GIIS,,,,
Pelajar483,,1482,60,810001482,GIIS,,,,
Pelajar484,,1483,60,810001483,GIIS,,,,
Pelajar485,,1484,60,810001484,GIIS,,,,
Pelajar486,,1485,60,810001485,GIIS,,,,
Pelajar487,,1486,60,810001486,GIIS,,,,
Pelajar488,,1487,60,810001487,GIIS,,,,
Pelajar489,,1488,60,810001488,GIIS,,,,
Pelajar490,,1489,60,810001489,GIIS,,,,
Pelajar491,,1490,60,810001490,GIIS,,,,
Pelajar492,,1491,60,810001491,GIIS,,,,
Pelajar493,,1492,60,810001492,GIIS,,,,
Pelajar494,,1493,60,810001493,GIIS,,,,
Pelajar495,,1494,60,810001494,GIIS,,,,
Pelajar496,,1495,60,810001495,GIIS,,,,
Pelajar497,,1496,60,810001496,GIIS,,,,
Pelajar498,,1497,60,810001497,GIIS,,,,
Pelajar499,,1498,60,810001498,GIIS,,,,
Pelajar500,,1499,60,810001499,GIIS,,,,
Pelajar501,,1500,60,810001500,GIIS,,,,
Pelajar502,,1501,60,810001501,GIIS,,,,
Pelajar503,,1502,60,810001502,GIIS,,,,
Pelajar504,,1503,60,810001503,GIIS,,,,
Pelajar505,,1504,60,810001504,GIIS,,,,
Pelajar506,,1505,60,810001505,GIIS,,,,
Pelajar507,,1506,60,810001506,GIIS,,,,
Pelajar508,,1507,60,810001507,GIIS,,,,
Pelajar509,,1508,60,810001508,GIIS,,,,
Pelajar510,,1509,60,810001509,GIIS,,,,
Pelajar511,,1510,60,810001510,GIIS,,,,
Pelajar512,,1511,60,810001511,GIIS,,,,
Pelajar513,,1512,60,810001512,GIIS,,,,
Pelajar514,,1513,60,810001513,GIIS,,,,
Pelajar515,,1514,60,810001514,GIIS,,,,
Pelajar516,,1515,60,810001515,GIIS,,,,
Pelajar517,,1516,60,810001516,GIIS,,,,
Pelajar518,,1517,60,810001517,GIIS,,,,
Pelajar519,,1518,60,810001518,GIIS,,,,
Pelajar520,,1519,60,810001519,GIIS,,,,
Pelajar521,,1520,60,810001520,GIIS,,,,
Pelajar522,,1521,60,810001521,GIIS,,,,
Pelajar523,,1522,60,810001522,GIIS,,,,
Pelajar524,,1523,60,810001523,GIIS,,,,
Pelajar525,,1524,60,810001524,GIIS,,,,
Pelajar526,,1525,60,810001525,GIIS,,,,
Pelajar527,,1526,60,810001526,GIIS,,,,
Pelajar528,,1527,60,810001527,GIIS,,,,
Pelajar529,,1528,60,810001528,GIIS,,,,
Pelajar530,,1529,60,810001529,GIIS,,,,
Pelajar531,,1530,60,810001530,GIIS,,,,
Pelajar532,,1531,60,810001531,GIIS,,,,
Pelajar533,,1532,60,810001532,GIIS,,,,
Pelajar534,,1533,60,810001533,GIIS,,,,
Pelajar535,,1534,60,810001534,GIIS,,,,
Pelajar536,,1535,60,810001535,GIIS,,,,
Pelajar537,,1536,60,810001536,GIIS,,,,
Pelajar538,,1537,60,810001537,GIIS,,,,
Pelajar539,,1538,60,810001538,GIIS,,,,
Pelajar540,,1539,60,810001539,GIIS,,,,
Pelajar541,,1540,60,810001540,GIIS,,,,
Pelajar542,,1541,60,810001541,GIIS,,,,
Pelajar543,,1542,60,810001542,GIIS,,,,
Pelajar544,,1543,60,810001543,GIIS,,,,
Pelajar545,,1544,60,810001544,GIIS,,,,
Pelajar546,,1545,60,810001545,GIIS,,,,
Pelajar547,,1546,60,810001546,GIIS,,,,
Pelajar548,,1547,60,810001547,GIIS,,,,
Pelajar549,,1548,60,810001548,GIIS,,,,
Pelajar550,,1549,60,810001549,GIIS,,,,
Pelajar551,,1550,60,810001550,GIIS,,,,
Pelajar552,,1551,60,810001551,GIIS,,,,
Pelajar553,,1552,60,810001552,GIIS,,,,
Pelajar554,,1553,60,810001553,GIIS,,,,
Pelajar555,,1554,60,810001554,GIIS,,,,
Pelajar556,,1555,60,810001555,GIIS,,,,
Pelajar557,,1556,60,810001556,GIIS,,,,
Pelajar558,,1557,60,810001557,GIIS,,,,
Pelajar559,,1558,60,810001558,GIIS,,,,
Pelajar560,,1559,60,810001559,GIIS,,,,
Pelajar561,,1560,60,810001560,GIIS,,,,
Pelajar562,,1561,60,810001561,GIIS,,,,
Pelajar563,,1562,60,810001562,GIIS,,,,
Pelajar564,,1563,60,810001563,GIIS,,,,
Pelajar565,,1564,60,810001564,GIIS,,,,
Pelajar566,,1565,60,810001565,GIIS,,,,
Pelajar567,,1566,60,810001566,GIIS,,,,
Pelajar568,,1567,60,810001567,GIIS,,,,
Pelajar569,,1568,60,810001568,GIIS,,,,
Pelajar570,,1569,60,810001569,GIIS,,,,
Pelajar571,,1570,60,810001570,GIIS,,,,
Pelajar572,,1571,60,810001571,GIIS,,,,
Pelajar573,,1572,60,810001572,GIIS,,,,
Pelajar574,,1573,60,810001573,GIIS,,,,
Pelajar575,,1574,60,810001574,GIIS,,,,
Pelajar576,,1575,60,810001575,GIIS,,,,
Pelajar577,,1576,60,810001576,GIIS,,,,
Pelajar578,,1577,60,810001577,GIIS,,,,
Pelajar579,,1578,60,810001578,GIIS,,,,
Pelajar580,,1579,60,810001579,GIIS,,,,
Pelajar581,,1580,60,810001580,GIIS,,,,
Pelajar582,,1581,60,810001581,GIIS,,,,
Pelajar583,,1582,60,810001582,GIIS,,,,
Pelajar584,,1583,60,810001583,GIIS,,,,
Pelajar585,,1584,60,810001584,GIIS,,,,
Pelajar586,,1585,60,810001585,GIIS,,,,
Pelajar587,,1586,60,810001586,GIIS,,,,
Pelajar588,,1587,60,810001587,GIIS,,,,
Pelajar589,,1588,60,810001588,GIIS,,,,
Pelajar590,,1589,60,810001589,GIIS,,,,
Pelajar591,,1590,60,810001590,GIIS,,,,
Pelajar592,,1591,60,810001591,GIIS,,,,
Pelajar593,,1592,60,810001592,GIIS,,,,
Pelajar594,,1593,60,810001593,GIIS,,,,
Pelajar595,,1594,60,810001594,GIIS,,,,
Pelajar596,,1595,60,810001595,GIIS,,,,
Pelajar597,,1596,60,810001596,GIIS,,,,
Pelajar598,,1597,60,810001597,GIIS,,,,
Pelajar599,,1598,60,810001598,GIIS,,,,
Pelajar600,,1599,60,810001599,GIIS,,,,
Pelajar601,,1600,60,810001600,GIIS,,,,
Pelajar602,,1601,60,810001601,GIIS,,,,
Pelajar603,,1602,60,810001602,GIIS,,,,
Pelajar604,,1603,60,810001603,GIIS,,,,
Pelajar605,,1604,60,810001604,GIIS,,,,
Pelajar606,,1605,60,810001605,GIIS,,,,
Pelajar607,,1606,60,810001606,GIIS,,,,
Pelajar608,,1607,60,810001607,GIIS,,,,
Pelajar609,,1608,60,810001608,GIIS,,,,
Pelajar610,,1609,60,810001609,GIIS,,,,
Pelajar611,,1610,60,810001610,GIIS,,,,
Pelajar612,,1611,60,810001611,GIIS,,,,
Pelajar613,,1612,60,810001612,GIIS,,,,
Pelajar614,,1613,60,810001613,GIIS,,,,
Pelajar615,,1614,60,810001614,GIIS,,,,
Pelajar616,,1615,60,810001615,GIIS,,,,
Pelajar617,,1616,60,810001616,GIIS,,,,
Pelajar618,,1617,60,810001617,GIIS,,,,
Pelajar619,,1618,60,810001618,GIIS,,,,
Pelajar620,,1619,60,810001619,GIIS,,,,
Pelajar621,,1620,60,810001620,GIIS,,,,
Pelajar622,,1621,60,810001621,GIIS,,,,
Pelajar623,,1622,60,810001622,GIIS,,,,
Pelajar624,,1623,60,810001623,GIIS,,,,
Pelajar625,,1624,60,810001624,GIIS,,,,
Pelajar626,,1625,60,810001625,GIIS,,,,
Pelajar627,,1626,60,810001626,GIIS,,,,
Pelajar628,,1627,60,810001627,GIIS,,,,
Pelajar629,,1628,60,810001628,GIIS,,,,
Pelajar630,,1629,60,810001629,GIIS,,,,
Pelajar631,,1630,60,810001630,GIIS,,,,
Pelajar632,,1631,60,810001631,GIIS,,,,
Pelajar633,,1632,60,810001632,GIIS,,,,
Pelajar634,,1633,60,810001633,GIIS,,,,
Pelajar635,,1634,60,810001634,GIIS,,,,
Pelajar636,,1635,60,810001635,GIIS,,,,
Pelajar637,,1636,60,810001636,GIIS,,,,
Pelajar638,,1637,60,810001637,GIIS,,,,
Pelajar639,,1638,60,810001638,GIIS,,,,
Pelajar640,,1639,60,810001639,GIIS,,,,
Pelajar641,,1640,60,810001640,GIIS,,,,
Pelajar642,,1641,60,810001641,GIIS,,,,
Pelajar643,,1642,60,810001642,GIIS,,,,
Pelajar644,,1643,60,810001643,GIIS,,,,
Pelajar645,,1644,60,810001644,GIIS,,,,
Pelajar646,,1645,60,810001645,GIIS,,,,
Pelajar647,,1646,60,810001646,GIIS,,,,
Pelajar648,,1647,60,810001647,GIIS,,,,
Pelajar649,,1648,60,810001648,GIIS,,,,
Pelajar650,,1649,60,810001649,GIIS,,,,
Pelajar651,,1650,60,810001650,GIIS,,,,
Pelajar652,,1651,60,810001651,GIIS,,,,
Pelajar653,,1652,60,810001652,GIIS,,,,
Pelajar654,,1653,60,810001653,GIIS,,,,
Pelajar655,,1654,60,810001654,GIIS,,,,
Pelajar656,,1655,60,810001655,GIIS,,,,
Pelajar657,,1656,60,810001656,GIIS,,,,
Pelajar658,,1657,60,810001657,GIIS,,,,
Pelajar659,,1658,60,810001658,GIIS,,,,
Pelajar660,,1659,60,810001659,GIIS,,,,
Pelajar661,,1660,60,810001660,GIIS,,,,
Pelajar662,,1661,60,810001661,GIIS,,,,
Pelajar663,,1662,60,810001662,GIIS,,,,
Pelajar664,,1663,60,810001663,GIIS,,,,
Pelajar665,,1664,60,810001664,GIIS,,,,
Pelajar666,,1665,60,810001665,GIIS,,,,
Pelajar667,,1666,60,810001666,GIIS,,,,
Pelajar668,,1667,60,810001667,GIIS,,,,
Pelajar669,,1668,60,810001668,GIIS,,,,
Pelajar670,,1669,60,810001669,GIIS,,,,
Pelajar671,,1670,60,810001670,GIIS,,,,
Pelajar672,,1671,60,810001671,GIIS,,,,
Pelajar673,,1672,60,810001672,GIIS,,,,
Pelajar674,,1673,60,810001673,GIIS,,,,
Pelajar675,,1674,60,810001674,GIIS,,,,
Pelajar676,,1675,60,810001675,GIIS,,,,
Pelajar677,,1676,60,810001676,GIIS,,,,
Pelajar678,,1677,60,810001677,GIIS,,,,
Pelajar679,,1678,60,810001678,GIIS,,,,
Pelajar680,,1679,60,810001679,GIIS,,,,
Pelajar681,,1680,60,810001680,GIIS,,,,
Pelajar682,,1681,60,810001681,GIIS,,,,
Pelajar683,,1682,60,810001682,GIIS,,,,
Pelajar684,,1683,60,810001683,GIIS,,,,
Pelajar685,,1684,60,810001684,GIIS,,,,
Pelajar686,,1685,60,810001685,GIIS,,,,
Pelajar687,,1686,60,810001686,GIIS,,,,
Pelajar688,,1687,60,810001687,GIIS,,,,
Pelajar689,,1688,60,810001688,GIIS,,,,
Pelajar690,,1689,60,810001689,GIIS,,,,
Pelajar691,,1690,60,810001690,GIIS,,,,
Pelajar692,,1691,60,810001691,GIIS,,,,
Pelajar693,,1692,60,810001692,GIIS,,,,
Pelajar694,,1693,60,810001693,GIIS,,,,
Pelajar695,,1694,60,810001694,GIIS,,,,
Pelajar696,,1695,60,810001695,GIIS,,,,
Pelajar697,,1696,60,810001696,GIIS,,,,
Pelajar698,,1697,60,810001697,GIIS,,,,
Pelajar699,,1698,60,810001698,GIIS,,,,
Pelajar700,,1699,60,810001699,GIIS,,,,
Pelajar701,,1700,60,810001700,GIIS,,,,
Pelajar702,,1701,60,810001701,GIIS,,,,
Pelajar703,,1702,60,810001702,GIIS,,,,
Pelajar704,,1703,60,810001703,GIIS,,,,
Pelajar705,,1704,60,810001704,GIIS,,,,
Pelajar706,,1705,60,810001705,GIIS,,,,
Pelajar707,,1706,60,810001706,GIIS,,,,
Pelajar708,,1707,60,810001707,GIIS,,,,
Pelajar709,,1708,60,810001708,GIIS,,,,
Pelajar710,,1709,60,810001709,GIIS,,,,
Pelajar711,,1710,60,810001710,GIIS,,,,
Pelajar712,,1711,60,810001711,GIIS,,,,
Pelajar713,,1712,60,810001712,GIIS,,,,
Pelajar714,,1713,60,810001713,GIIS,,,,
Pelajar715,,1714,60,810001714,GIIS,,,,
Pelajar716,,1715,60,810001715,GIIS,,,,
Pelajar717,,1716,60,810001716,GIIS,,,,
Pelajar718,,1717,60,810001717,GIIS,,,,
Pelajar719,,1718,60,810001718,GIIS,,,,
Pelajar720,,1719,60,810001719,GIIS,,,,
Pelajar721,,1720,60,810001720,GIIS,,,,
Pelajar722,,1721,60,810001721,GIIS,,,,
Pelajar723,,1722,60,810001722,GIIS,,,,
Pelajar724,,1723,60,810001723,GIIS,,,,
Pelajar725,,1724,60,810001724,GIIS,,,,
Pelajar726,,1725,60,810001725,GIIS,,,,
Pelajar727,,1726,60,810001726,GIIS,,,,
Pelajar728,,1727,60,810001727,GIIS,,,,
Pelajar729,,1728,60,810001728,GIIS,,,,
Pelajar730,,1729,60,810001729,GIIS,,,,
Pelajar731,,1730,60,810001730,GIIS,,,,
Pelajar732,,1731,60,810001731,GIIS,,,,
Pelajar733,,1732,60,810001732,GIIS,,,,
Pelajar734,,1733,60,810001733,GIIS,,,,
Pelajar735,,1734,60,810001734,GIIS,,,,
Pelajar736,,1735,60,810001735,GIIS,,,,
Pelajar737,,1736,60,810001736,GIIS,,,,
Pelajar738,,1737,60,810001737,GIIS,,,,
Pelajar739,,1738,60,810001738,GIIS,,,,
Pelajar740,,1739,60,810001739,GIIS,,,,
Pelajar741,,1740,60,810001740,GIIS,,,,
Pelajar742,,1741,60,810001741,GIIS,,,,
Pelajar743,,1742,60,810001742,GIIS,,,,
Pelajar744,,1743,60,810001743,GIIS,,,,
Pelajar745,,1744,60,810001744,GIIS,,,,
Pelajar746,,1745,60,810001745,GIIS,,,,
Pelajar747,,1746,60,810001746,GIIS,,,,
Pelajar748,,1747,60,810001747,GIIS,,,,
Pelajar749,,1748,60,810001748,GIIS,,,,
Pelajar750,,1749,60,810001749,GIIS,,,,
Pelajar751,,1750,60,810001750,GIIS,,,,
Pelajar752,,1751,60,810001751,GIIS,,,,
Pelajar753,,1752,60,810001752,GIIS,,,,
Pelajar754,,1753,60,810001753,GIIS,,,,
Pelajar755,,1754,60,810001754,GIIS,,,,
Pelajar756,,1755,60,810001755,GIIS,,,,
Pelajar757,,1756,60,810001756,GIIS,,,,
Pelajar758,,1757,60,810001757,GIIS,,,,
Pelajar759,,1758,60,810001758,GIIS,,,,
Pelajar760,,1759,60,810001759,GIIS,,,,
Pelajar761,,1760,60,810001760,GIIS,,,,
Pelajar762,,1761,60,810001761,GIIS,,,,
Pelajar763,,1762,60,810001762,GIIS,,,,
Pelajar764,,1763,60,810001763,GIIS,,,,
Pelajar765,,1764,60,810001764,GIIS,,,,
Pelajar766,,1765,60,810001765,GIIS,,,,
Pelajar767,,1766,60,810001766,GIIS,,,,
Pelajar768,,1767,60,810001767,GIIS,,,,
Pelajar769,,1768,60,810001768,GIIS,,,,
Pelajar770,,1769,60,810001769,GIIS,,,,
Pelajar771,,1770,60,810001770,GIIS,,,,
Pelajar772,,1771,60,810001771,GIIS,,,,
Pelajar773,,1772,60,810001772,GIIS,,,,
Pelajar774,,1773,60,810001773,GIIS,,,,
Pelajar775,,1774,60,810001774,GIIS,,,,
Pelajar776,,1775,60,810001775,GIIS,,,,
Pelajar777,,1776,60,810001776,GIIS,,,,
Pelajar778,,1777,60,810001777,GIIS,,,,
Pelajar779,,1778,60,810001778,GIIS,,,,
Pelajar780,,1779,60,810001779,GIIS,,,,
Pelajar781,,1780,60,810001780,GIIS,,,,
Pelajar782,,1781,60,810001781,GIIS,,,,
Pelajar783,,1782,60,810001782,GIIS,,,,
Pelajar784,,1783,60,810001783,GIIS,,,,
Pelajar785,,1784,60,810001784,GIIS,,,,
Pelajar786,,1785,60,810001785,GIIS,,,,
Pelajar787,,1786,60,810001786,GIIS,,,,
Pelajar788,,1787,60,810001787,GIIS,,,,
Pelajar789,,1788,60,810001788,GIIS,,,,
Pelajar790,,1789,60,810001789,GIIS,,,,
Pelajar791,,1790,60,810001790,GIIS,,,,
Pelajar792,,1791,60,810001791,GIIS,,,,
Pelajar793,,1792,60,810001792,GIIS,,,,
Pelajar794,,1793,60,810001793,GIIS,,,,
Pelajar795,,1794,60,810001794,GIIS,,,,
Pelajar796,,1795,60,810001795,GIIS,,,,
Pelajar797,,1796,60,810001796,GIIS,,,,
Pelajar798,,1797,60,810001797,GIIS,,,,
Pelajar799,,1798,60,810001798,GIIS,,,,
Pelajar800,,1799,60,810001799,GIIS,,,,
Pelajar801,,1800,60,810001800,GIIS,,,,
Pelajar802,,1801,60,810001801,GIIS,,,,
Pelajar803,,1802,60,810001802,GIIS,,,,
Pelajar804,,1803,60,810001803,GIIS,,,,
Pelajar805,,1804,60,810001804,GIIS,,,,
Pelajar806,,1805,60,810001805,GIIS,,,,
Pelajar807,,1806,60,810001806,GIIS,,,,
Pelajar808,,1807,60,810001807,GIIS,,,,
Pelajar809,,1808,60,810001808,GIIS,,,,
Pelajar810,,1809,60,810001809,GIIS,,,,
Pelajar811,,1810,60,810001810,GIIS,,,,
Pelajar812,,1811,60,810001811,GIIS,,,,
Pelajar813,,1812,60,810001812,GIIS,,,,
Pelajar814,,1813,60,810001813,GIIS,,,,
Pelajar815,,1814,60,810001814,GIIS,,,,
Pelajar816,,1815,60,810001815,GIIS,,,,
Pelajar817,,1816,60,810001816,GIIS,,,,
Pelajar818,,1817,60,810001817,GIIS,,,,
Pelajar819,,1818,60,810001818,GIIS,,,,
Pelajar820,,1819,60,810001819,GIIS,,,,
Pelajar821,,1820,60,810001820,GIIS,,,,
Pelajar822,,1821,60,810001821,GIIS,,,,
Pelajar823,,1822,60,810001822,GIIS,,,,
Pelajar824,,1823,60,810001823,GIIS,,,,
Pelajar825,,1824,60,810001824,GIIS,,,,
Pelajar826,,1825,60,810001825,GIIS,,,,
Pelajar827,,1826,60,810001826,GIIS,,,,
Pelajar828,,1827,60,810001827,GIIS,,,,
Pelajar829,,1828,60,810001828,GIIS,,,,
Pelajar830,,1829,60,810001829,GIIS,,,,
Pelajar831,,1830,60,810001830,GIIS,,,,
Pelajar832,,1831,60,810001831,GIIS,,,,
Pelajar833,,1832,60,810001832,GIIS,,,,
Pelajar834,,1833,60,810001833,GIIS,,,,
Pelajar835,,1834,60,810001834,GIIS,,,,
Pelajar836,,1835,60,810001835,GIIS,,,,
Pelajar837,,1836,60,810001836,GIIS,,,,
Pelajar838,,1837,60,810001837,GIIS,,,,
Pelajar839,,1838,60,810001838,GIIS,,,,
Pelajar840,,1839,60,810001839,GIIS,,,,
Pelajar841,,1840,60,810001840,GIIS,,,,
Pelajar842,,1841,60,810001841,GIIS,,,,
Pelajar843,,1842,60,810001842,GIIS,,,,
Pelajar844,,1843,60,810001843,GIIS,,,,
Pelajar845,,1844,60,810001844,GIIS,,,,
Pelajar846,,1845,60,810001845,GIIS,,,,
Pelajar847,,1846,60,810001846,GIIS,,,,
Pelajar848,,1847,60,810001847,GIIS,,,,
Pelajar849,,1848,60,810001848,GIIS,,,,
Pelajar850,,1849,60,810001849,GIIS,,,,
Pelajar851,,1850,60,810001850,GIIS,,,,
Pelajar852,,1851,60,810001851,GIIS,,,,
Pelajar853,,1852,60,810001852,GIIS,,,,
Pelajar854,,1853,60,810001853,GIIS,,,,
Pelajar855,,1854,60,810001854,GIIS,,,,
Pelajar856,,1855,60,810001855,GIIS,,,,
Pelajar857,,1856,60,810001856,GIIS,,,,
Pelajar858,,1857,60,810001857,GIIS,,,,
Pelajar859,,1858,60,810001858,GIIS,,,,
Pelajar860,,1859,60,810001859,GIIS,,,,
Pelajar861,,1860,60,810001860,GIIS,,,,
Pelajar862,,1861,60,810001861,GIIS,,,,
Pelajar863,,1862,60,810001862,GIIS,,,,
Pelajar864,,1863,60,810001863,GIIS,,,,
Pelajar865,,1864,60,810001864,GIIS,,,,
Pelajar866,,1865,60,810001865,GIIS,,,,
Pelajar867,,1866,60,810001866,GIIS,,,,
Pelajar868,,1867,60,810001867,GIIS,,,,
Pelajar869,,1868,60,810001868,GIIS,,,,
Pelajar870,,1869,60,810001869,GIIS,,,,
Pelajar871,,1870,60,810001870,GIIS,,,,
Pelajar872,,1871,60,810001871,GIIS,,,,
Pelajar873,,1872,60,810001872,GIIS,,,,
Pelajar874,,1873,60,810001873,GIIS,,,,
Pelajar875,,1874,60,810001874,GIIS,,,,
Pelajar876,,1875,60,810001875,GIIS,,,,
Pelajar877,,1876,60,810001876,GIIS,,,,
Pelajar878,,1877,60,810001877,GIIS,,,,
Pelajar879,,1878,60,810001878,GIIS,,,,
Pelajar880,,1879,60,810001879,GIIS,,,,
Pelajar881,,1880,60,810001880,GIIS,,,,
Pelajar882,,1881,60,810001881,GIIS,,,,
Pelajar883,,1882,60,810001882,GIIS,,,,
Pelajar884,,1883,60,810001883,GIIS,,,,
Pelajar885,,1884,60,810001884,GIIS,,,,
Pelajar886,,1885,60,810001885,GIIS,,,,
Pelajar887,,1886,60,810001886,GIIS,,,,
Pelajar888,,1887,60,810001887,GIIS,,,,
Pelajar889,,1888,60,810001888,GIIS,,,,
Pelajar890,,1889,60,810001889,GIIS,,,,
Pelajar891,,1890,60,810001890,GIIS,,,,
Pelajar892,,1891,60,810001891,GIIS,,,,
Pelajar893,,1892,60,810001892,GIIS,,,,
Pelajar894,,1893,60,810001893,GIIS,,,,
Pelajar895,,1894,60,810001894,GIIS,,,,
Pelajar896,,1895,60,810001895,GIIS,,,,
Pelajar897,,1896,60,810001896,GIIS,,,,
Pelajar898,,1897,60,810001897,GIIS,,,,
Pelajar899,,1898,60,810001898,GIIS,,,,
Pelajar900,,1899,60,810001899,GIIS,,,,
Pelajar901,,1900,60,810001900,GIIS,,,,
Pelajar902,,1901,60,810001901,GIIS,,,,
Pelajar903,,1902,60,810001902,GIIS,,,,
Pelajar904,,1903,60,810001903,GIIS,,,,
Pelajar905,,1904,60,810001904,GIIS,,,,
Pelajar906,,1905,60,810001905,GIIS,,,,
Pelajar907,,1906,60,810001906,GIIS,,,,
Pelajar908,,1907,60,810001907,GIIS,,,,
Pelajar909,,1908,60,810001908,GIIS,,,,
Pelajar910,,1909,60,810001909,GIIS,,,,
Pelajar911,,1910,60,810001910,GIIS,,,,
Pelajar912,,1911,60,810001911,GIIS,,,,
Pelajar913,,1912,60,810001912,GIIS,,,,
Pelajar914,,1913,60,810001913,GIIS,,,,
Pelajar915,,1914,60,810001914,GIIS,,,,
Pelajar916,,1915,60,810001915,GIIS,,,,
Pelajar917,,1916,60,810001916,GIIS,,,,
Pelajar918,,1917,60,810001917,GIIS,,,,
Pelajar919,,1918,60,810001918,GIIS,,,,
Pelajar920,,1919,60,810001919,GIIS,,,,
Pelajar921,,1920,60,810001920,GIIS,,,,
Pelajar922,,1921,60,810001921,GIIS,,,,
Pelajar923,,1922,60,810001922,GIIS,,,,
Pelajar924,,1923,60,810001923,GIIS,,,,
Pelajar925,,1924,60,810001924,GIIS,,,,
Pelajar926,,1925,60,810001925,GIIS,,,,
Pelajar927,,1926,60,810001926,GIIS,,,,
Pelajar928,,1927,60,810001927,GIIS,,,,
Pelajar929,,1928,60,810001928,GIIS,,,,
Pelajar930,,1929,60,810001929,GIIS,,,,
Pelajar931,,1930,60,810001930,GIIS,,,,
Pelajar932,,1931,60,810001931,GIIS,,,,
Pelajar933,,1932,60,810001932,GIIS,,,,
Pelajar934,,1933,60,810001933,GIIS,,,,
Pelajar935,,1934,60,810001934,GIIS,,,,
Pelajar936,,1935,60,810001935,GIIS,,,,
Pelajar937,,1936,60,810001936,GIIS,,,,
Pelajar938,,1937,60,810001937,GIIS,,,,
Pelajar939,,1938,60,810001938,GIIS,,,,
Pelajar940,,1939,60,810001939,GIIS,,,,
Pelajar941,,1940,60,810001940,GIIS,,,,
Pelajar942,,1941,60,810001941,GIIS,,,,
Pelajar943,,1942,60,810001942,GIIS,,,,
Pelajar944,,1943,60,810001943,GIIS,,,,
Pelajar945,,1944,60,810001944,GIIS,,,,
Pelajar946,,1945,60,810001945,GIIS,,,,
Pelajar947,,1946,60,810001946,GIIS,,,,
Pelajar948,,1947,60,810001947,GIIS,,,,
Pelajar949,,1948,60,810001948,GIIS,,,,
Pelajar950,,1949,60,810001949,GIIS,,,,
Pelajar951,,1950,60,810001950,GIIS,,,,
Pelajar952,,1951,60,810001951,GIIS,,,,
Pelajar953,,1952,60,810001952,GIIS,,,,
Pelajar954,,1953,60,810001953,GIIS,,,,
Pelajar955,,1954,60,810001954,GIIS,,,,
Pelajar956,,1955,60,810001955,GIIS,,,,
Pelajar957,,1956,60,810001956,GIIS,,,,
Pelajar958,,1957,60,810001957,GIIS,,,,
Pelajar959,,1958,60,810001958,GIIS,,,,
Pelajar960,,1959,60,810001959,GIIS,,,,
Pelajar961,,1960,60,810001960,GIIS,,,,
Pelajar962,,1961,60,810001961,GIIS,,,,
Pelajar963,,1962,60,810001962,GIIS,,,,
Pelajar964,,1963,60,810001963,GIIS,,,,
Pelajar965,,1964,60,810001964,GIIS,,,,
Pelajar966,,1965,60,810001965,GIIS,,,,
Pelajar967,,1966,60,810001966,GIIS,,,,
Pelajar968,,1967,60,810001967,GIIS,,,,
Pelajar969,,1968,60,810001968,GIIS,,,,
Pelajar970,,1969,60,810001969,GIIS,,,,
Pelajar971,,1970,60,810001970,GIIS,,,,
Pelajar972,,1971,60,810001971,GIIS,,,,
Pelajar973,,1972,60,810001972,GIIS,,,,
Pelajar974,,1973,60,810001973,GIIS,,,,
Pelajar975,,1974,60,810001974,GIIS,,,,
Pelajar976,,1975,60,810001975,GIIS,,,,
Pelajar977,,1976,60,810001976,GIIS,,,,
Pelajar978,,1977,60,810001977,GIIS,,,,
Pelajar979,,1978,60,810001978,GIIS,,,,
Pelajar980,,1979,60,810001979,GIIS,,,,
Pelajar981,,1980,60,810001980,GIIS,,,,
Pelajar982,,1981,60,810001981,GIIS,,,,
Pelajar983,,1982,60,810001982,GIIS,,,,
Pelajar984,,1983,60,810001983,GIIS,,,,
Pelajar985,,1984,60,810001984,GIIS,,,,
Pelajar986,,1985,60,810001985,GIIS,,,,
Pelajar987,,1986,60,810001986,GIIS,,,,
Pelajar988,,1987,60,810001987,GIIS,,,,
Pelajar989,,1988,60,810001988,GIIS,,,,
Pelajar990,,1989,60,810001989,GIIS,,,,
Pelajar991,,1990,60,810001990,GIIS,,,,
Pelajar992,,1991,60,810001991,GIIS,,,,
Pelajar993,,1992,60,810001992,GIIS,,,,
Pelajar994,,1993,60,810001993,GIIS,,,,
Pelajar995,,1994,60,810001994,GIIS,,,,
Pelajar996,,1995,60,810001995,GIIS,,,,
