Student Name,Contact Number,School Name,Quiz Name,Round Name,Question 1,Question 2,Question 3,Question 4,Question 5,Question 6,Question 7,Question 8,Duration (format: 01H 00M 00S 00MS)
,,,Correct Answer: Enter Y,Incorrect Answer : Enter N,Which of the following is true about demand and price of a good or service?,Which of the following statements is true?,"Before you buy something, what is it that you should always match?",Which of the following is a hidden cost that is usually a part of the price of something.,Which of the following is NOT a smart buying habit?,What is the corporate colour for Tune Talk?,Which airline is Tune Talk affiliated with?,Tune Talk does not have the following social media account,
Pelajar1,810001000,GIIS,TuneTalk Challenge 1,Round 1,Y,Y,Y,Y,Y,Y,Y,Y,00H 00M 11S 00MS
Pelajar702,810001701,GIIS,TuneTalk Challenge 1,Round 1,N,N,N,N,N,N,N,N,00H 00M 00S 10MS
Pelajar703,810001702,GIIS,TuneTalk Challenge 1,Round 1,N,N,N,N,N,N,N,N,00H 00M 00S 10MS
Pelajar704,810001703,GIIS,TuneTalk Challenge 1,Round 1,N,N,N,N,N,N,N,N,00H 00M 00S 10MS
Pelajar705,810001704,GIIS,TuneTalk Challenge 1,Round 1,N,N,N,N,N,N,N,N,00H 00M 00S 10MS
Pelajar706,810001705,GIIS,TuneTalk Challenge 1,Round 1,N,N,N,N,N,N,N,N,00H 00M 00S 10MS
Pelajar707,810001706,GIIS,TuneTalk Challenge 1,Round 1,N,N,N,N,N,N,N,N,00H 00M 00S 10MS
Pelajar708,810001707,GIIS,TuneTalk Challenge 1,Round 1,N,N,N,N,N,N,N,N,00H 00M 00S 10MS
Pelajar709,810001708,GIIS,TuneTalk Challenge 1,Round 1,N,N,N,N,N,N,N,N,00H 00M 00S 10MS
Pelajar710,810001709,GIIS,TuneTalk Challenge 1,Round 1,N,N,N,N,N,N,N,N,00H 00M 00S 10MS
Pelajar711,810001710,GIIS,TuneTalk Challenge 1,Round 1,N,N,N,N,N,N,N,N,00H 00M 00S 10MS
Pelajar712,810001711,GIIS,TuneTalk Challenge 1,Round 1,N,N,N,N,N,N,N,N,00H 00M 00S 10MS
Pelajar713,810001712,GIIS,TuneTalk Challenge 1,Round 1,N,N,N,N,N,N,N,N,00H 00M 00S 10MS
Pelajar714,810001713,GIIS,TuneTalk Challenge 1,Round 1,N,N,N,N,N,N,N,N,00H 00M 00S 10MS
Pelajar715,810001714,GIIS,TuneTalk Challenge 1,Round 1,N,N,N,N,N,N,N,N,00H 00M 00S 10MS
Pelajar716,810001715,GIIS,TuneTalk Challenge 1,Round 1,N,N,N,N,N,N,N,N,00H 00M 00S 10MS
Pelajar717,810001716,GIIS,TuneTalk Challenge 1,Round 1,N,N,N,N,N,N,N,N,00H 00M 00S 10MS
Pelajar718,810001717,GIIS,TuneTalk Challenge 1,Round 1,N,N,N,N,N,N,N,N,00H 00M 00S 10MS
Pelajar719,810001718,GIIS,TuneTalk Challenge 1,Round 1,N,N,N,N,N,N,N,N,00H 00M 00S 10MS
Pelajar720,810001719,GIIS,TuneTalk Challenge 1,Round 1,N,N,N,N,N,N,N,N,00H 00M 00S 10MS
Pelajar721,810001720,GIIS,TuneTalk Challenge 1,Round 1,N,N,N,N,N,N,N,N,00H 00M 00S 10MS
Pelajar722,810001721,GIIS,TuneTalk Challenge 1,Round 1,N,N,N,N,N,N,N,N,00H 00M 00S 10MS
Pelajar723,810001722,GIIS,TuneTalk Challenge 1,Round 1,N,N,N,N,N,N,N,N,00H 00M 00S 10MS
Pelajar724,810001723,GIIS,TuneTalk Challenge 1,Round 1,N,N,N,N,N,N,N,N,00H 00M 00S 10MS
Pelajar725,810001724,GIIS,TuneTalk Challenge 1,Round 1,N,N,N,N,N,N,N,N,00H 00M 00S 10MS
Pelajar726,810001725,GIIS,TuneTalk Challenge 1,Round 1,N,N,N,N,N,N,N,N,00H 00M 00S 10MS
Pelajar727,810001726,GIIS,TuneTalk Challenge 1,Round 1,N,N,N,N,N,N,N,N,00H 00M 00S 10MS
Pelajar728,810001727,GIIS,TuneTalk Challenge 1,Round 1,N,N,N,N,N,N,N,N,00H 00M 00S 10MS
Pelajar729,810001728,GIIS,TuneTalk Challenge 1,Round 1,N,N,N,N,N,N,N,N,00H 00M 00S 10MS
Pelajar730,810001729,GIIS,TuneTalk Challenge 1,Round 1,N,N,N,N,N,N,N,N,00H 00M 00S 10MS
Pelajar731,810001730,GIIS,TuneTalk Challenge 1,Round 1,N,N,N,N,N,N,N,N,00H 00M 00S 10MS
Pelajar732,810001731,GIIS,TuneTalk Challenge 1,Round 1,N,N,N,N,N,N,N,N,00H 00M 00S 10MS
Pelajar733,810001732,GIIS,TuneTalk Challenge 1,Round 1,N,N,N,N,N,N,N,N,00H 00M 00S 10MS
Pelajar734,810001733,GIIS,TuneTalk Challenge 1,Round 1,N,N,N,N,N,N,N,N,00H 00M 00S 10MS
Pelajar735,810001734,GIIS,TuneTalk Challenge 1,Round 1,N,N,N,N,N,N,N,N,00H 00M 00S 10MS
Pelajar736,810001735,GIIS,TuneTalk Challenge 1,Round 1,N,N,N,N,N,N,N,N,00H 00M 00S 10MS
Pelajar737,810001736,GIIS,TuneTalk Challenge 1,Round 1,N,N,N,N,N,N,N,N,00H 00M 00S 10MS
Pelajar738,810001737,GIIS,TuneTalk Challenge 1,Round 1,N,N,N,N,N,N,N,N,00H 00M 00S 10MS
Pelajar739,810001738,GIIS,TuneTalk Challenge 1,Round 1,N,N,N,N,N,N,N,N,00H 00M 00S 10MS
Pelajar740,810001739,GIIS,TuneTalk Challenge 1,Round 1,N,N,N,N,N,N,N,N,00H 00M 00S 10MS
Pelajar741,810001740,GIIS,TuneTalk Challenge 1,Round 1,N,N,N,N,N,N,N,N,00H 00M 00S 10MS
Pelajar742,810001741,GIIS,TuneTalk Challenge 1,Round 1,N,N,N,N,N,N,N,N,00H 00M 00S 10MS
Pelajar743,810001742,GIIS,TuneTalk Challenge 1,Round 1,N,N,N,N,N,N,N,N,00H 00M 00S 10MS
Pelajar744,810001743,GIIS,TuneTalk Challenge 1,Round 1,N,N,N,N,N,N,N,N,00H 00M 00S 10MS
Pelajar745,810001744,GIIS,TuneTalk Challenge 1,Round 1,N,N,N,N,N,N,N,N,00H 00M 00S 10MS
Pelajar746,810001745,GIIS,TuneTalk Challenge 1,Round 1,N,N,N,N,N,N,N,N,00H 00M 00S 10MS
Pelajar747,810001746,GIIS,TuneTalk Challenge 1,Round 1,N,N,N,N,N,N,N,N,00H 00M 00S 10MS
Pelajar748,810001747,GIIS,TuneTalk Challenge 1,Round 1,N,N,N,N,N,N,N,N,00H 00M 00S 10MS
Pelajar749,810001748,GIIS,TuneTalk Challenge 1,Round 1,N,N,N,N,N,N,N,N,00H 00M 00S 10MS
Pelajar750,810001749,GIIS,TuneTalk Challenge 1,Round 1,N,N,N,N,N,N,N,N,00H 00M 00S 10MS
Pelajar751,810001750,GIIS,TuneTalk Challenge 1,Round 1,N,N,N,N,N,N,N,N,00H 00M 00S 10MS
Pelajar752,810001751,GIIS,TuneTalk Challenge 1,Round 1,N,N,N,N,N,N,N,N,00H 00M 00S 10MS
Pelajar753,810001752,GIIS,TuneTalk Challenge 1,Round 1,N,N,N,N,N,N,N,N,00H 00M 00S 10MS
Pelajar754,810001753,GIIS,TuneTalk Challenge 1,Round 1,N,N,N,N,N,N,N,N,00H 00M 00S 10MS
Pelajar755,810001754,GIIS,TuneTalk Challenge 1,Round 1,N,N,N,N,N,N,N,N,00H 00M 00S 10MS
Pelajar756,810001755,GIIS,TuneTalk Challenge 1,Round 1,N,N,N,N,N,N,N,N,00H 00M 00S 10MS
Pelajar757,810001756,GIIS,TuneTalk Challenge 1,Round 1,N,N,N,N,N,N,N,N,00H 00M 00S 10MS
Pelajar758,810001757,GIIS,TuneTalk Challenge 1,Round 1,N,N,N,N,N,N,N,N,00H 00M 00S 10MS
Pelajar759,810001758,GIIS,TuneTalk Challenge 1,Round 1,N,N,N,N,N,N,N,N,00H 00M 00S 10MS
Pelajar760,810001759,GIIS,TuneTalk Challenge 1,Round 1,N,N,N,N,N,N,N,N,00H 00M 00S 10MS
Pelajar761,810001760,GIIS,TuneTalk Challenge 1,Round 1,N,N,N,N,N,N,N,N,00H 00M 00S 10MS
Pelajar762,810001761,GIIS,TuneTalk Challenge 1,Round 1,N,N,N,N,N,N,N,N,00H 00M 00S 10MS
Pelajar763,810001762,GIIS,TuneTalk Challenge 1,Round 1,N,N,N,N,N,N,N,N,00H 00M 00S 10MS
Pelajar764,810001763,GIIS,TuneTalk Challenge 1,Round 1,N,N,N,N,N,N,N,N,00H 00M 00S 10MS
Pelajar765,810001764,GIIS,TuneTalk Challenge 1,Round 1,N,N,N,N,N,N,N,N,00H 00M 00S 10MS
Pelajar766,810001765,GIIS,TuneTalk Challenge 1,Round 1,N,N,N,N,N,N,N,N,00H 00M 00S 10MS
Pelajar767,810001766,GIIS,TuneTalk Challenge 1,Round 1,N,N,N,N,N,N,N,N,00H 00M 00S 10MS
Pelajar768,810001767,GIIS,TuneTalk Challenge 1,Round 1,N,N,N,N,N,N,N,N,00H 00M 00S 10MS
Pelajar769,810001768,GIIS,TuneTalk Challenge 1,Round 1,N,N,N,N,N,N,N,N,00H 00M 00S 10MS
Pelajar770,810001769,GIIS,TuneTalk Challenge 1,Round 1,N,N,N,N,N,N,N,N,00H 00M 00S 10MS
Pelajar771,810001770,GIIS,TuneTalk Challenge 1,Round 1,N,N,N,N,N,N,N,N,00H 00M 00S 10MS
Pelajar772,810001771,GIIS,TuneTalk Challenge 1,Round 1,N,N,N,N,N,N,N,N,00H 00M 00S 10MS
Pelajar773,810001772,GIIS,TuneTalk Challenge 1,Round 1,N,N,N,N,N,N,N,N,00H 00M 00S 10MS
Pelajar774,810001773,GIIS,TuneTalk Challenge 1,Round 1,N,N,N,N,N,N,N,N,00H 00M 00S 10MS
Pelajar775,810001774,GIIS,TuneTalk Challenge 1,Round 1,N,N,N,N,N,N,N,N,00H 00M 00S 10MS
Pelajar776,810001775,GIIS,TuneTalk Challenge 1,Round 1,N,N,N,N,N,N,N,N,00H 00M 00S 10MS
Pelajar777,810001776,GIIS,TuneTalk Challenge 1,Round 1,N,N,N,N,N,N,N,N,00H 00M 00S 10MS
Pelajar778,810001777,GIIS,TuneTalk Challenge 1,Round 1,N,N,N,N,N,N,N,N,00H 00M 00S 10MS
Pelajar779,810001778,GIIS,TuneTalk Challenge 1,Round 1,N,N,N,N,N,N,N,N,00H 00M 00S 10MS
Pelajar780,810001779,GIIS,TuneTalk Challenge 1,Round 1,N,N,N,N,N,N,N,N,00H 00M 00S 10MS
Pelajar781,810001780,GIIS,TuneTalk Challenge 1,Round 1,N,N,N,N,N,N,N,N,00H 00M 00S 10MS
Pelajar782,810001781,GIIS,TuneTalk Challenge 1,Round 1,N,N,N,N,N,N,N,N,00H 00M 00S 10MS
Pelajar783,810001782,GIIS,TuneTalk Challenge 1,Round 1,N,N,N,N,N,N,N,N,00H 00M 00S 10MS
Pelajar784,810001783,GIIS,TuneTalk Challenge 1,Round 1,N,N,N,N,N,N,N,N,00H 00M 00S 10MS
Pelajar785,810001784,GIIS,TuneTalk Challenge 1,Round 1,N,N,N,N,N,N,N,N,00H 00M 00S 10MS
Pelajar786,810001785,GIIS,TuneTalk Challenge 1,Round 1,N,N,N,N,N,N,N,N,00H 00M 00S 10MS
Pelajar787,810001786,GIIS,TuneTalk Challenge 1,Round 1,N,N,N,N,N,N,N,N,00H 00M 00S 10MS
Pelajar788,810001787,GIIS,TuneTalk Challenge 1,Round 1,N,N,N,N,N,N,N,N,00H 00M 00S 10MS
Pelajar789,810001788,GIIS,TuneTalk Challenge 1,Round 1,N,N,N,N,N,N,N,N,00H 00M 00S 10MS
Pelajar790,810001789,GIIS,TuneTalk Challenge 1,Round 1,N,N,N,N,N,N,N,N,00H 00M 00S 10MS
Pelajar791,810001790,GIIS,TuneTalk Challenge 1,Round 1,N,N,N,N,N,N,N,N,00H 00M 00S 10MS
Pelajar792,810001791,GIIS,TuneTalk Challenge 1,Round 1,N,N,N,N,N,N,N,N,00H 00M 00S 10MS
Pelajar793,810001792,GIIS,TuneTalk Challenge 1,Round 1,N,N,N,N,N,N,N,N,00H 00M 00S 10MS
Pelajar794,810001793,GIIS,TuneTalk Challenge 1,Round 1,N,N,N,N,N,N,N,N,00H 00M 00S 10MS
Pelajar795,810001794,GIIS,TuneTalk Challenge 1,Round 1,N,N,N,N,N,N,N,N,00H 00M 00S 10MS
Pelajar796,810001795,GIIS,TuneTalk Challenge 1,Round 1,N,N,N,N,N,N,N,N,00H 00M 00S 10MS
Pelajar797,810001796,GIIS,TuneTalk Challenge 1,Round 1,N,N,N,N,N,N,N,N,00H 00M 00S 10MS
Pelajar798,810001797,GIIS,TuneTalk Challenge 1,Round 1,N,N,N,N,N,N,N,N,00H 00M 00S 10MS
Pelajar799,810001798,GIIS,TuneTalk Challenge 1,Round 1,N,N,N,N,N,N,N,N,00H 00M 00S 10MS
Pelajar800,810001799,GIIS,TuneTalk Challenge 1,Round 1,N,N,N,N,N,N,N,N,00H 00M 00S 10MS
Pelajar801,810001800,GIIS,TuneTalk Challenge 1,Round 1,N,N,N,N,N,N,N,N,00H 00M 00S 10MS
Pelajar802,810001801,GIIS,TuneTalk Challenge 1,Round 1,N,N,N,N,N,N,N,N,00H 00M 00S 10MS
Pelajar803,810001802,GIIS,TuneTalk Challenge 1,Round 1,N,N,N,N,N,N,N,N,00H 00M 00S 10MS
Pelajar804,810001803,GIIS,TuneTalk Challenge 1,Round 1,N,N,N,N,N,N,N,N,00H 00M 00S 10MS
Pelajar805,810001804,GIIS,TuneTalk Challenge 1,Round 1,N,N,N,N,N,N,N,N,00H 00M 00S 10MS
Pelajar806,810001805,GIIS,TuneTalk Challenge 1,Round 1,N,N,N,N,N,N,N,N,00H 00M 00S 10MS
Pelajar807,810001806,GIIS,TuneTalk Challenge 1,Round 1,N,N,N,N,N,N,N,N,00H 00M 00S 10MS
Pelajar808,810001807,GIIS,TuneTalk Challenge 1,Round 1,N,N,N,N,N,N,N,N,00H 00M 00S 10MS
Pelajar809,810001808,GIIS,TuneTalk Challenge 1,Round 1,N,N,N,N,N,N,N,N,00H 00M 00S 10MS
Pelajar810,810001809,GIIS,TuneTalk Challenge 1,Round 1,N,N,N,N,N,N,N,N,00H 00M 00S 10MS
Pelajar811,810001810,GIIS,TuneTalk Challenge 1,Round 1,N,N,N,N,N,N,N,N,00H 00M 00S 10MS
Pelajar812,810001811,GIIS,TuneTalk Challenge 1,Round 1,N,N,N,N,N,N,N,N,00H 00M 00S 10MS
Pelajar813,810001812,GIIS,TuneTalk Challenge 1,Round 1,N,N,N,N,N,N,N,N,00H 00M 00S 10MS
Pelajar814,810001813,GIIS,TuneTalk Challenge 1,Round 1,N,N,N,N,N,N,N,N,00H 00M 00S 10MS
Pelajar815,810001814,GIIS,TuneTalk Challenge 1,Round 1,N,N,N,N,N,N,N,N,00H 00M 00S 10MS
Pelajar816,810001815,GIIS,TuneTalk Challenge 1,Round 1,N,N,N,N,N,N,N,N,00H 00M 00S 10MS
Pelajar817,810001816,GIIS,TuneTalk Challenge 1,Round 1,N,N,N,N,N,N,N,N,00H 00M 00S 10MS
Pelajar818,810001817,GIIS,TuneTalk Challenge 1,Round 1,N,N,N,N,N,N,N,N,00H 00M 00S 10MS
Pelajar819,810001818,GIIS,TuneTalk Challenge 1,Round 1,N,N,N,N,N,N,N,N,00H 00M 00S 10MS
Pelajar820,810001819,GIIS,TuneTalk Challenge 1,Round 1,N,N,N,N,N,N,N,N,00H 00M 00S 10MS
Pelajar821,810001820,GIIS,TuneTalk Challenge 1,Round 1,N,N,N,N,N,N,N,N,00H 00M 00S 10MS
Pelajar822,810001821,GIIS,TuneTalk Challenge 1,Round 1,N,N,N,N,N,N,N,N,00H 00M 00S 10MS
Pelajar823,810001822,GIIS,TuneTalk Challenge 1,Round 1,N,N,N,N,N,N,N,N,00H 00M 00S 10MS
Pelajar824,810001823,GIIS,TuneTalk Challenge 1,Round 1,N,N,N,N,N,N,N,N,00H 00M 00S 10MS
Pelajar825,810001824,GIIS,TuneTalk Challenge 1,Round 1,N,N,N,N,N,N,N,N,00H 00M 00S 10MS
Pelajar826,810001825,GIIS,TuneTalk Challenge 1,Round 1,N,N,N,N,N,N,N,N,00H 00M 00S 10MS
Pelajar827,810001826,GIIS,TuneTalk Challenge 1,Round 1,N,N,N,N,N,N,N,N,00H 00M 00S 10MS
Pelajar828,810001827,GIIS,TuneTalk Challenge 1,Round 1,N,N,N,N,N,N,N,N,00H 00M 00S 10MS
Pelajar829,810001828,GIIS,TuneTalk Challenge 1,Round 1,N,N,N,N,N,N,N,N,00H 00M 00S 10MS
Pelajar830,810001829,GIIS,TuneTalk Challenge 1,Round 1,N,N,N,N,N,N,N,N,00H 00M 00S 10MS
Pelajar831,810001830,GIIS,TuneTalk Challenge 1,Round 1,N,N,N,N,N,N,N,N,00H 00M 00S 10MS
Pelajar832,810001831,GIIS,TuneTalk Challenge 1,Round 1,N,N,N,N,N,N,N,N,00H 00M 00S 10MS
Pelajar833,810001832,GIIS,TuneTalk Challenge 1,Round 1,N,N,N,N,N,N,N,N,00H 00M 00S 10MS
Pelajar834,810001833,GIIS,TuneTalk Challenge 1,Round 1,N,N,N,N,N,N,N,N,00H 00M 00S 10MS
Pelajar835,810001834,GIIS,TuneTalk Challenge 1,Round 1,N,N,N,N,N,N,N,N,00H 00M 00S 10MS
Pelajar836,810001835,GIIS,TuneTalk Challenge 1,Round 1,N,N,N,N,N,N,N,N,00H 00M 00S 10MS
Pelajar837,810001836,GIIS,TuneTalk Challenge 1,Round 1,N,N,N,N,N,N,N,N,00H 00M 00S 10MS
Pelajar838,810001837,GIIS,TuneTalk Challenge 1,Round 1,N,N,N,N,N,N,N,N,00H 00M 00S 10MS
Pelajar839,810001838,GIIS,TuneTalk Challenge 1,Round 1,N,N,N,N,N,N,N,N,00H 00M 00S 10MS
Pelajar840,810001839,GIIS,TuneTalk Challenge 1,Round 1,N,N,N,N,N,N,N,N,00H 00M 00S 10MS
Pelajar841,810001840,GIIS,TuneTalk Challenge 1,Round 1,N,N,N,N,N,N,N,N,00H 00M 00S 10MS
Pelajar842,810001841,GIIS,TuneTalk Challenge 1,Round 1,N,N,N,N,N,N,N,N,00H 00M 00S 10MS
Pelajar843,810001842,GIIS,TuneTalk Challenge 1,Round 1,N,N,N,N,N,N,N,N,00H 00M 00S 10MS
Pelajar844,810001843,GIIS,TuneTalk Challenge 1,Round 1,N,N,N,N,N,N,N,N,00H 00M 00S 10MS
Pelajar845,810001844,GIIS,TuneTalk Challenge 1,Round 1,N,N,N,N,N,N,N,N,00H 00M 00S 10MS
Pelajar846,810001845,GIIS,TuneTalk Challenge 1,Round 1,N,N,N,N,N,N,N,N,00H 00M 00S 10MS
Pelajar847,810001846,GIIS,TuneTalk Challenge 1,Round 1,N,N,N,N,N,N,N,N,00H 00M 00S 10MS
Pelajar848,810001847,GIIS,TuneTalk Challenge 1,Round 1,N,N,N,N,N,N,N,N,00H 00M 00S 10MS
Pelajar849,810001848,GIIS,TuneTalk Challenge 1,Round 1,N,N,N,N,N,N,N,N,00H 00M 00S 10MS
Pelajar850,810001849,GIIS,TuneTalk Challenge 1,Round 1,N,N,N,N,N,N,N,N,00H 00M 00S 10MS
Pelajar851,810001850,GIIS,TuneTalk Challenge 1,Round 1,N,N,N,N,N,N,N,N,00H 00M 00S 10MS
Pelajar852,810001851,GIIS,TuneTalk Challenge 1,Round 1,N,N,N,N,N,N,N,N,00H 00M 00S 10MS
Pelajar853,810001852,GIIS,TuneTalk Challenge 1,Round 1,N,N,N,N,N,N,N,N,00H 00M 00S 10MS
Pelajar854,810001853,GIIS,TuneTalk Challenge 1,Round 1,N,N,N,N,N,N,N,N,00H 00M 00S 10MS
Pelajar855,810001854,GIIS,TuneTalk Challenge 1,Round 1,N,N,N,N,N,N,N,N,00H 00M 00S 10MS
Pelajar856,810001855,GIIS,TuneTalk Challenge 1,Round 1,N,N,N,N,N,N,N,N,00H 00M 00S 10MS
Pelajar857,810001856,GIIS,TuneTalk Challenge 1,Round 1,N,N,N,N,N,N,N,N,00H 00M 00S 10MS
Pelajar858,810001857,GIIS,TuneTalk Challenge 1,Round 1,N,N,N,N,N,N,N,N,00H 00M 00S 10MS
Pelajar859,810001858,GIIS,TuneTalk Challenge 1,Round 1,N,N,N,N,N,N,N,N,00H 00M 00S 10MS
Pelajar860,810001859,GIIS,TuneTalk Challenge 1,Round 1,N,N,N,N,N,N,N,N,00H 00M 00S 10MS
Pelajar861,810001860,GIIS,TuneTalk Challenge 1,Round 1,N,N,N,N,N,N,N,N,00H 00M 00S 10MS
Pelajar862,810001861,GIIS,TuneTalk Challenge 1,Round 1,N,N,N,N,N,N,N,N,00H 00M 00S 10MS
Pelajar863,810001862,GIIS,TuneTalk Challenge 1,Round 1,N,N,N,N,N,N,N,N,00H 00M 00S 10MS
Pelajar864,810001863,GIIS,TuneTalk Challenge 1,Round 1,N,N,N,N,N,N,N,N,00H 00M 00S 10MS
Pelajar865,810001864,GIIS,TuneTalk Challenge 1,Round 1,N,N,N,N,N,N,N,N,00H 00M 00S 10MS
Pelajar866,810001865,GIIS,TuneTalk Challenge 1,Round 1,N,N,N,N,N,N,N,N,00H 00M 00S 10MS
Pelajar867,810001866,GIIS,TuneTalk Challenge 1,Round 1,N,N,N,N,N,N,N,N,00H 00M 00S 10MS
Pelajar868,810001867,GIIS,TuneTalk Challenge 1,Round 1,N,N,N,N,N,N,N,N,00H 00M 00S 10MS
Pelajar869,810001868,GIIS,TuneTalk Challenge 1,Round 1,N,N,N,N,N,N,N,N,00H 00M 00S 10MS
Pelajar870,810001869,GIIS,TuneTalk Challenge 1,Round 1,N,N,N,N,N,N,N,N,00H 00M 00S 10MS
Pelajar871,810001870,GIIS,TuneTalk Challenge 1,Round 1,N,N,N,N,N,N,N,N,00H 00M 00S 10MS
Pelajar872,810001871,GIIS,TuneTalk Challenge 1,Round 1,N,N,N,N,N,N,N,N,00H 00M 00S 10MS
Pelajar873,810001872,GIIS,TuneTalk Challenge 1,Round 1,N,N,N,N,N,N,N,N,00H 00M 00S 10MS
Pelajar874,810001873,GIIS,TuneTalk Challenge 1,Round 1,N,N,N,N,N,N,N,N,00H 00M 00S 10MS
Pelajar875,810001874,GIIS,TuneTalk Challenge 1,Round 1,N,N,N,N,N,N,N,N,00H 00M 00S 10MS
Pelajar876,810001875,GIIS,TuneTalk Challenge 1,Round 1,N,N,N,N,N,N,N,N,00H 00M 00S 10MS
Pelajar877,810001876,GIIS,TuneTalk Challenge 1,Round 1,N,N,N,N,N,N,N,N,00H 00M 00S 10MS
Pelajar878,810001877,GIIS,TuneTalk Challenge 1,Round 1,N,N,N,N,N,N,N,N,00H 00M 00S 10MS
Pelajar879,810001878,GIIS,TuneTalk Challenge 1,Round 1,N,N,N,N,N,N,N,N,00H 00M 00S 10MS
Pelajar880,810001879,GIIS,TuneTalk Challenge 1,Round 1,N,N,N,N,N,N,N,N,00H 00M 00S 10MS
Pelajar881,810001880,GIIS,TuneTalk Challenge 1,Round 1,N,N,N,N,N,N,N,N,00H 00M 00S 10MS
Pelajar882,810001881,GIIS,TuneTalk Challenge 1,Round 1,N,N,N,N,N,N,N,N,00H 00M 00S 10MS
Pelajar883,810001882,GIIS,TuneTalk Challenge 1,Round 1,N,N,N,N,N,N,N,N,00H 00M 00S 10MS
Pelajar884,810001883,GIIS,TuneTalk Challenge 1,Round 1,N,N,N,N,N,N,N,N,00H 00M 00S 10MS
Pelajar885,810001884,GIIS,TuneTalk Challenge 1,Round 1,N,N,N,N,N,N,N,N,00H 00M 00S 10MS
Pelajar886,810001885,GIIS,TuneTalk Challenge 1,Round 1,N,N,N,N,N,N,N,N,00H 00M 00S 10MS
Pelajar887,810001886,GIIS,TuneTalk Challenge 1,Round 1,N,N,N,N,N,N,N,N,00H 00M 00S 10MS
Pelajar888,810001887,GIIS,TuneTalk Challenge 1,Round 1,N,N,N,N,N,N,N,N,00H 00M 00S 10MS
Pelajar889,810001888,GIIS,TuneTalk Challenge 1,Round 1,N,N,N,N,N,N,N,N,00H 00M 00S 10MS
Pelajar890,810001889,GIIS,TuneTalk Challenge 1,Round 1,N,N,N,N,N,N,N,N,00H 00M 00S 10MS
Pelajar891,810001890,GIIS,TuneTalk Challenge 1,Round 1,N,N,N,N,N,N,N,N,00H 00M 00S 10MS
Pelajar892,810001891,GIIS,TuneTalk Challenge 1,Round 1,N,N,N,N,N,N,N,N,00H 00M 00S 10MS
Pelajar893,810001892,GIIS,TuneTalk Challenge 1,Round 1,N,N,N,N,N,N,N,N,00H 00M 00S 10MS
Pelajar894,810001893,GIIS,TuneTalk Challenge 1,Round 1,N,N,N,N,N,N,N,N,00H 00M 00S 10MS
Pelajar895,810001894,GIIS,TuneTalk Challenge 1,Round 1,N,N,N,N,N,N,N,N,00H 00M 00S 10MS
Pelajar896,810001895,GIIS,TuneTalk Challenge 1,Round 1,N,N,N,N,N,N,N,N,00H 00M 00S 10MS
Pelajar897,810001896,GIIS,TuneTalk Challenge 1,Round 1,N,N,N,N,N,N,N,N,00H 00M 00S 10MS
Pelajar898,810001897,GIIS,TuneTalk Challenge 1,Round 1,N,N,N,N,N,N,N,N,00H 00M 00S 10MS
Pelajar899,810001898,GIIS,TuneTalk Challenge 1,Round 1,N,N,N,N,N,N,N,N,00H 00M 00S 10MS
Pelajar900,810001899,GIIS,TuneTalk Challenge 1,Round 1,N,N,N,N,N,N,N,N,00H 00M 00S 10MS
Pelajar901,810001900,GIIS,TuneTalk Challenge 1,Round 1,N,N,N,N,N,N,N,N,00H 00M 00S 10MS
Pelajar902,810001901,GIIS,TuneTalk Challenge 1,Round 1,N,N,N,N,N,N,N,N,00H 00M 00S 10MS
Pelajar903,810001902,GIIS,TuneTalk Challenge 1,Round 1,N,N,N,N,N,N,N,N,00H 00M 00S 10MS
Pelajar904,810001903,GIIS,TuneTalk Challenge 1,Round 1,N,N,N,N,N,N,N,N,00H 00M 00S 10MS
Pelajar905,810001904,GIIS,TuneTalk Challenge 1,Round 1,N,N,N,N,N,N,N,N,00H 00M 00S 10MS
Pelajar906,810001905,GIIS,TuneTalk Challenge 1,Round 1,N,N,N,N,N,N,N,N,00H 00M 00S 10MS
Pelajar907,810001906,GIIS,TuneTalk Challenge 1,Round 1,N,N,N,N,N,N,N,N,00H 00M 00S 10MS
Pelajar908,810001907,GIIS,TuneTalk Challenge 1,Round 1,N,N,N,N,N,N,N,N,00H 00M 00S 10MS
Pelajar909,810001908,GIIS,TuneTalk Challenge 1,Round 1,N,N,N,N,N,N,N,N,00H 00M 00S 10MS
Pelajar910,810001909,GIIS,TuneTalk Challenge 1,Round 1,N,N,N,N,N,N,N,N,00H 00M 00S 10MS
Pelajar911,810001910,GIIS,TuneTalk Challenge 1,Round 1,N,N,N,N,N,N,N,N,00H 00M 00S 10MS
Pelajar912,810001911,GIIS,TuneTalk Challenge 1,Round 1,N,N,N,N,N,N,N,N,00H 00M 00S 10MS
Pelajar913,810001912,GIIS,TuneTalk Challenge 1,Round 1,N,N,N,N,N,N,N,N,00H 00M 00S 10MS
Pelajar914,810001913,GIIS,TuneTalk Challenge 1,Round 1,N,N,N,N,N,N,N,N,00H 00M 00S 10MS
Pelajar915,810001914,GIIS,TuneTalk Challenge 1,Round 1,N,N,N,N,N,N,N,N,00H 00M 00S 10MS
Pelajar916,810001915,GIIS,TuneTalk Challenge 1,Round 1,N,N,N,N,N,N,N,N,00H 00M 00S 10MS
Pelajar917,810001916,GIIS,TuneTalk Challenge 1,Round 1,N,N,N,N,N,N,N,N,00H 00M 00S 10MS
Pelajar918,810001917,GIIS,TuneTalk Challenge 1,Round 1,N,N,N,N,N,N,N,N,00H 00M 00S 10MS
Pelajar919,810001918,GIIS,TuneTalk Challenge 1,Round 1,N,N,N,N,N,N,N,N,00H 00M 00S 10MS
Pelajar920,810001919,GIIS,TuneTalk Challenge 1,Round 1,N,N,N,N,N,N,N,N,00H 00M 00S 10MS
Pelajar921,810001920,GIIS,TuneTalk Challenge 1,Round 1,N,N,N,N,N,N,N,N,00H 00M 00S 10MS
Pelajar922,810001921,GIIS,TuneTalk Challenge 1,Round 1,N,N,N,N,N,N,N,N,00H 00M 00S 10MS
Pelajar923,810001922,GIIS,TuneTalk Challenge 1,Round 1,N,N,N,N,N,N,N,N,00H 00M 00S 10MS
Pelajar924,810001923,GIIS,TuneTalk Challenge 1,Round 1,N,N,N,N,N,N,N,N,00H 00M 00S 10MS
Pelajar925,810001924,GIIS,TuneTalk Challenge 1,Round 1,N,N,N,N,N,N,N,N,00H 00M 00S 10MS
Pelajar926,810001925,GIIS,TuneTalk Challenge 1,Round 1,N,N,N,N,N,N,N,N,00H 00M 00S 10MS
Pelajar927,810001926,GIIS,TuneTalk Challenge 1,Round 1,N,N,N,N,N,N,N,N,00H 00M 00S 10MS
Pelajar928,810001927,GIIS,TuneTalk Challenge 1,Round 1,N,N,N,N,N,N,N,N,00H 00M 00S 10MS
Pelajar929,810001928,GIIS,TuneTalk Challenge 1,Round 1,N,N,N,N,N,N,N,N,00H 00M 00S 10MS
Pelajar930,810001929,GIIS,TuneTalk Challenge 1,Round 1,N,N,N,N,N,N,N,N,00H 00M 00S 10MS
Pelajar931,810001930,GIIS,TuneTalk Challenge 1,Round 1,N,N,N,N,N,N,N,N,00H 00M 00S 10MS
Pelajar932,810001931,GIIS,TuneTalk Challenge 1,Round 1,N,N,N,N,N,N,N,N,00H 00M 00S 10MS
Pelajar933,810001932,GIIS,TuneTalk Challenge 1,Round 1,N,N,N,N,N,N,N,N,00H 00M 00S 10MS
Pelajar934,810001933,GIIS,TuneTalk Challenge 1,Round 1,N,N,N,N,N,N,N,N,00H 00M 00S 10MS
Pelajar935,810001934,GIIS,TuneTalk Challenge 1,Round 1,N,N,N,N,N,N,N,N,00H 00M 00S 10MS
Pelajar936,810001935,GIIS,TuneTalk Challenge 1,Round 1,N,N,N,N,N,N,N,N,00H 00M 00S 10MS
Pelajar937,810001936,GIIS,TuneTalk Challenge 1,Round 1,N,N,N,N,N,N,N,N,00H 00M 00S 10MS
Pelajar938,810001937,GIIS,TuneTalk Challenge 1,Round 1,N,N,N,N,N,N,N,N,00H 00M 00S 10MS
Pelajar939,810001938,GIIS,TuneTalk Challenge 1,Round 1,N,N,N,N,N,N,N,N,00H 00M 00S 10MS
Pelajar940,810001939,GIIS,TuneTalk Challenge 1,Round 1,N,N,N,N,N,N,N,N,00H 00M 00S 10MS
Pelajar941,810001940,GIIS,TuneTalk Challenge 1,Round 1,N,N,N,N,N,N,N,N,00H 00M 00S 10MS
Pelajar942,810001941,GIIS,TuneTalk Challenge 1,Round 1,N,N,N,N,N,N,N,N,00H 00M 00S 10MS
Pelajar943,810001942,GIIS,TuneTalk Challenge 1,Round 1,N,N,N,N,N,N,N,N,00H 00M 00S 10MS
Pelajar944,810001943,GIIS,TuneTalk Challenge 1,Round 1,N,N,N,N,N,N,N,N,00H 00M 00S 10MS
Pelajar945,810001944,GIIS,TuneTalk Challenge 1,Round 1,N,N,N,N,N,N,N,N,00H 00M 00S 10MS
Pelajar946,810001945,GIIS,TuneTalk Challenge 1,Round 1,N,N,N,N,N,N,N,N,00H 00M 00S 10MS
Pelajar947,810001946,GIIS,TuneTalk Challenge 1,Round 1,N,N,N,N,N,N,N,N,00H 00M 00S 10MS
Pelajar948,810001947,GIIS,TuneTalk Challenge 1,Round 1,N,N,N,N,N,N,N,N,00H 00M 00S 10MS
Pelajar949,810001948,GIIS,TuneTalk Challenge 1,Round 1,N,N,N,N,N,N,N,N,00H 00M 00S 10MS
Pelajar950,810001949,GIIS,TuneTalk Challenge 1,Round 1,N,N,N,N,N,N,N,N,00H 00M 00S 10MS
Pelajar951,810001950,GIIS,TuneTalk Challenge 1,Round 1,N,N,N,N,N,N,N,N,00H 00M 00S 10MS
Pelajar952,810001951,GIIS,TuneTalk Challenge 1,Round 1,N,N,N,N,N,N,N,N,00H 00M 00S 10MS
Pelajar953,810001952,GIIS,TuneTalk Challenge 1,Round 1,N,N,N,N,N,N,N,N,00H 00M 00S 10MS
Pelajar954,810001953,GIIS,TuneTalk Challenge 1,Round 1,N,N,N,N,N,N,N,N,00H 00M 00S 10MS
Pelajar955,810001954,GIIS,TuneTalk Challenge 1,Round 1,N,N,N,N,N,N,N,N,00H 00M 00S 10MS
Pelajar956,810001955,GIIS,TuneTalk Challenge 1,Round 1,N,N,N,N,N,N,N,N,00H 00M 00S 10MS
Pelajar957,810001956,GIIS,TuneTalk Challenge 1,Round 1,N,N,N,N,N,N,N,N,00H 00M 00S 10MS
Pelajar958,810001957,GIIS,TuneTalk Challenge 1,Round 1,N,N,N,N,N,N,N,N,00H 00M 00S 10MS
Pelajar959,810001958,GIIS,TuneTalk Challenge 1,Round 1,N,N,N,N,N,N,N,N,00H 00M 00S 10MS
Pelajar960,810001959,GIIS,TuneTalk Challenge 1,Round 1,N,N,N,N,N,N,N,N,00H 00M 00S 10MS
Pelajar961,810001960,GIIS,TuneTalk Challenge 1,Round 1,N,N,N,N,N,N,N,N,00H 00M 00S 10MS
Pelajar962,810001961,GIIS,TuneTalk Challenge 1,Round 1,N,N,N,N,N,N,N,N,00H 00M 00S 10MS
Pelajar963,810001962,GIIS,TuneTalk Challenge 1,Round 1,N,N,N,N,N,N,N,N,00H 00M 00S 10MS
Pelajar964,810001963,GIIS,TuneTalk Challenge 1,Round 1,N,N,N,N,N,N,N,N,00H 00M 00S 10MS
Pelajar965,810001964,GIIS,TuneTalk Challenge 1,Round 1,N,N,N,N,N,N,N,N,00H 00M 00S 10MS
Pelajar966,810001965,GIIS,TuneTalk Challenge 1,Round 1,N,N,N,N,N,N,N,N,00H 00M 00S 10MS
Pelajar967,810001966,GIIS,TuneTalk Challenge 1,Round 1,N,N,N,N,N,N,N,N,00H 00M 00S 10MS
Pelajar968,810001967,GIIS,TuneTalk Challenge 1,Round 1,N,N,N,N,N,N,N,N,00H 00M 00S 10MS
Pelajar969,810001968,GIIS,TuneTalk Challenge 1,Round 1,N,N,N,N,N,N,N,N,00H 00M 00S 10MS
Pelajar970,810001969,GIIS,TuneTalk Challenge 1,Round 1,N,N,N,N,N,N,N,N,00H 00M 00S 10MS
Pelajar971,810001970,GIIS,TuneTalk Challenge 1,Round 1,N,N,N,N,N,N,N,N,00H 00M 00S 10MS
Pelajar972,810001971,GIIS,TuneTalk Challenge 1,Round 1,N,N,N,N,N,N,N,N,00H 00M 00S 10MS
Pelajar973,810001972,GIIS,TuneTalk Challenge 1,Round 1,N,N,N,N,N,N,N,N,00H 00M 00S 10MS
Pelajar974,810001973,GIIS,TuneTalk Challenge 1,Round 1,N,N,N,N,N,N,N,N,00H 00M 00S 10MS
Pelajar975,810001974,GIIS,TuneTalk Challenge 1,Round 1,N,N,N,N,N,N,N,N,00H 00M 00S 10MS
Pelajar976,810001975,GIIS,TuneTalk Challenge 1,Round 1,N,N,N,N,N,N,N,N,00H 00M 00S 10MS
Pelajar977,810001976,GIIS,TuneTalk Challenge 1,Round 1,N,N,N,N,N,N,N,N,00H 00M 00S 10MS
Pelajar978,810001977,GIIS,TuneTalk Challenge 1,Round 1,N,N,N,N,N,N,N,N,00H 00M 00S 10MS
Pelajar979,810001978,GIIS,TuneTalk Challenge 1,Round 1,N,N,N,N,N,N,N,N,00H 00M 00S 10MS
Pelajar980,810001979,GIIS,TuneTalk Challenge 1,Round 1,N,N,N,N,N,N,N,N,00H 00M 00S 10MS
Pelajar981,810001980,GIIS,TuneTalk Challenge 1,Round 1,N,N,N,N,N,N,N,N,00H 00M 00S 10MS
Pelajar982,810001981,GIIS,TuneTalk Challenge 1,Round 1,N,N,N,N,N,N,N,N,00H 00M 00S 10MS
Pelajar983,810001982,GIIS,TuneTalk Challenge 1,Round 1,N,N,N,N,N,N,N,N,00H 00M 00S 10MS
Pelajar984,810001983,GIIS,TuneTalk Challenge 1,Round 1,N,N,N,N,N,N,N,N,00H 00M 00S 10MS
Pelajar985,810001984,GIIS,TuneTalk Challenge 1,Round 1,N,N,N,N,N,N,N,N,00H 00M 00S 10MS
Pelajar986,810001985,GIIS,TuneTalk Challenge 1,Round 1,N,N,N,N,N,N,N,N,00H 00M 00S 10MS
Pelajar987,810001986,GIIS,TuneTalk Challenge 1,Round 1,N,N,N,N,N,N,N,N,00H 00M 00S 10MS
Pelajar988,810001987,GIIS,TuneTalk Challenge 1,Round 1,N,N,N,N,N,N,N,N,00H 00M 00S 10MS
Pelajar989,810001988,GIIS,TuneTalk Challenge 1,Round 1,N,N,N,N,N,N,N,N,00H 00M 00S 10MS
Pelajar990,810001989,GIIS,TuneTalk Challenge 1,Round 1,N,N,N,N,N,N,N,N,00H 00M 00S 10MS
Pelajar991,810001990,GIIS,TuneTalk Challenge 1,Round 1,N,N,N,N,N,N,N,N,00H 00M 00S 10MS
Pelajar992,810001991,GIIS,TuneTalk Challenge 1,Round 1,N,N,N,N,N,N,N,N,00H 00M 00S 10MS
Pelajar993,810001992,GIIS,TuneTalk Challenge 1,Round 1,N,N,N,N,N,N,N,N,00H 00M 00S 10MS
Pelajar994,810001993,GIIS,TuneTalk Challenge 1,Round 1,N,N,N,N,N,N,N,N,00H 00M 00S 10MS
Pelajar995,810001994,GIIS,TuneTalk Challenge 1,Round 1,N,N,N,N,N,N,N,N,00H 00M 00S 10MS
Pelajar996,810001995,GIIS,TuneTalk Challenge 1,Round 1,N,N,N,N,N,N,N,N,00H 00M 00S 10MS
