Student Name,Contact Number,School Name,Quiz Name,Round Name,Question 1,Question 2,Question 3,Question 4,Question 5,Duration (format: 01H 00M 00S 00MS)
,,,Correct Answer: Enter Y,Incorrect Answer : Enter N,Which of the following is true about demand and price of a good or service?,Which of the following statements is true?,"Before you buy something, what is it that you should always match?",Which of the following is a hidden cost that is usually a part of the price of something.,Which of the following is NOT a smart buying habit?,
Student1,891000000,Assunta,TuneTalk Challenge 1,Round 1,Y,Y,Y,Y,Y,00H 00M 20S 15MS
Student2,891000001,Assunta,TuneTalk Challenge 1,Round 1,Y,Y,Y,Y,Y,00H 00M 21S 15MS
Student3,891000002,Assunta,TuneTalk Challenge 1,Round 1,Y,Y,Y,Y,Y,00H 00M 30S 15MS
Student4,891000003,Assunta,TuneTalk Challenge 1,Round 1,Y,Y,Y,Y,Y,00H 00M 40S 15MS
Student5,891000004,Assunta,TuneTalk Challenge 1,Round 1,Y,Y,Y,Y,Y,00H 00M 20S 25MS
Student6,891000005,Assunta,TuneTalk Challenge 1,Round 1,Y,Y,Y,N,Y,00H 00M 30S 15MS
Student7,891000006,Assunta,TuneTalk Challenge 1,Round 1,Y,Y,N,Y,Y,00H 01M 20S 15MS
Student8,891000007,Assunta,TuneTalk Challenge 1,Round 1,Y,N,Y,Y,Y,00H 10M 20S 15MS
Student9,891000008,Assunta,TuneTalk Challenge 1,Round 1,N,Y,Y,Y,Y,01H 00M 20S 15MS
Student10,891000009,Assunta,TuneTalk Challenge 1,Round 1,N,N,Y,Y,Y,02H 00M 20S 15MS
Student11,891000010,Assunta,TuneTalk Challenge 1,Round 1,N,N,N,N,Y,00H 00M 20S 45MS
Student12,891000011,Assunta,TuneTalk Challenge 1,Round 1,Y,N,Y,N,Y,00H 00M 20S 15MS
Student13,891000012,Assunta,TuneTalk Challenge 1,Round 1,Y,Y,Y,Y,N,00H 00M 20S 15MS
Student14,891000013,Assunta,TuneTalk Challenge 1,Round 1,Y,Y,Y,Y,N,00H 00M 30S 15MS
Student15,891000014,Assunta,TuneTalk Challenge 1,Round 1,Y,Y,Y,Y,N,00H 00M 30S 15MS
Student16,891000015,Assunta,TuneTalk Challenge 1,Round 1,Y,Y,Y,Y,N,00H 00M 30S 15MS
Student17,891000016,Assunta,TuneTalk Challenge 1,Round 1,Y,Y,Y,Y,N,00H 00M 30S 15MS
Student18,891000017,Assunta,TuneTalk Challenge 1,Round 1,Y,Y,Y,Y,N,00H 00M 30S 15MS
Student19,891000018,Assunta,TuneTalk Challenge 1,Round 1,Y,Y,Y,Y,N,00H 00M 30S 15MS
Student20,891000019,Assunta,TuneTalk Challenge 1,Round 1,Y,Y,Y,Y,N,00H 00M 30S 15MS
Student21,891000020,Assunta,TuneTalk Challenge 1,Round 1,Y,Y,Y,Y,N,00H 00M 30S 15MS
Student22,891000021,Assunta,TuneTalk Challenge 1,Round 1,Y,Y,Y,Y,N,00H 00M 30S 15MS
Student23,891000022,Assunta,TuneTalk Challenge 1,Round 1,Y,Y,Y,Y,N,00H 00M 30S 15MS
Student24,891000023,Assunta,TuneTalk Challenge 1,Round 1,Y,Y,Y,Y,N,00H 00M 30S 15MS
Student25,891000024,Assunta,TuneTalk Challenge 1,Round 1,Y,Y,Y,Y,N,00H 00M 30S 15MS
Student26,891000025,Assunta,TuneTalk Challenge 1,Round 1,Y,Y,Y,Y,N,00H 00M 30S 15MS
Student27,891000026,Assunta,TuneTalk Challenge 1,Round 1,Y,Y,Y,Y,N,00H 00M 30S 15MS
Student28,891000027,Assunta,TuneTalk Challenge 1,Round 1,Y,Y,Y,Y,N,00H 00M 30S 15MS
Student29,891000028,Assunta,TuneTalk Challenge 1,Round 1,Y,Y,Y,Y,N,00H 00M 30S 15MS
Student30,891000029,Assunta,TuneTalk Challenge 1,Round 1,Y,Y,Y,Y,N,00H 00M 30S 15MS
Student31,891000030,Assunta,TuneTalk Challenge 1,Round 1,Y,Y,Y,Y,N,00H 00M 30S 15MS
Student32,891000031,Assunta,TuneTalk Challenge 1,Round 1,Y,Y,Y,Y,N,00H 00M 30S 15MS
Student33,891000032,Assunta,TuneTalk Challenge 1,Round 1,Y,Y,Y,Y,N,00H 00M 30S 15MS
Student34,891000033,Assunta,TuneTalk Challenge 1,Round 1,Y,Y,Y,Y,N,00H 00M 30S 15MS
Student35,891000034,Assunta,TuneTalk Challenge 1,Round 1,Y,Y,Y,Y,N,00H 00M 30S 15MS
Student36,891000035,Assunta,TuneTalk Challenge 1,Round 1,Y,Y,Y,Y,N,00H 00M 30S 15MS
Student37,891000036,Assunta,TuneTalk Challenge 1,Round 1,Y,Y,Y,Y,N,00H 00M 30S 15MS
Student38,891000037,Assunta,TuneTalk Challenge 1,Round 1,Y,Y,Y,Y,N,00H 00M 30S 15MS
Student39,891000038,Assunta,TuneTalk Challenge 1,Round 1,Y,Y,Y,Y,N,00H 00M 30S 15MS
Student40,891000039,Assunta,TuneTalk Challenge 1,Round 1,Y,Y,Y,Y,N,00H 00M 30S 15MS
Student41,891000040,Assunta,TuneTalk Challenge 1,Round 1,Y,Y,Y,Y,N,00H 00M 30S 15MS
Student42,891000041,Assunta,TuneTalk Challenge 1,Round 1,Y,Y,Y,Y,N,00H 00M 30S 15MS
Student43,891000042,Assunta,TuneTalk Challenge 1,Round 1,Y,Y,Y,Y,N,00H 00M 30S 15MS
Student44,891000043,Assunta,TuneTalk Challenge 1,Round 1,Y,Y,Y,Y,N,00H 00M 30S 15MS
Student45,891000044,Assunta,TuneTalk Challenge 1,Round 1,Y,Y,Y,Y,N,00H 00M 30S 15MS
Student46,891000045,Assunta,TuneTalk Challenge 1,Round 1,Y,Y,Y,Y,N,00H 00M 30S 15MS
Student47,891000046,Assunta,TuneTalk Challenge 1,Round 1,Y,Y,Y,Y,N,00H 00M 30S 15MS
Student48,891000047,Assunta,TuneTalk Challenge 1,Round 1,Y,Y,Y,Y,N,00H 00M 30S 15MS
Student49,891000048,Assunta,TuneTalk Challenge 1,Round 1,Y,Y,Y,Y,N,00H 00M 30S 15MS
Student50,891000049,Assunta,TuneTalk Challenge 1,Round 1,Y,Y,Y,Y,N,00H 00M 30S 15MS
Student51,891000050,Assunta,TuneTalk Challenge 1,Round 1,Y,Y,Y,Y,N,00H 00M 30S 15MS
Student52,891000051,Assunta,TuneTalk Challenge 1,Round 1,Y,Y,Y,Y,N,00H 00M 30S 15MS
Student53,891000052,Assunta,TuneTalk Challenge 1,Round 1,Y,Y,Y,Y,N,00H 00M 30S 15MS
Student54,891000053,Assunta,TuneTalk Challenge 1,Round 1,Y,Y,Y,Y,N,00H 00M 30S 15MS
Student55,891000054,Assunta,TuneTalk Challenge 1,Round 1,Y,Y,Y,Y,N,00H 00M 30S 15MS
Student56,891000055,Assunta,TuneTalk Challenge 1,Round 1,Y,Y,Y,Y,N,00H 00M 30S 15MS
Student57,891000056,Assunta,TuneTalk Challenge 1,Round 1,Y,Y,Y,Y,N,00H 00M 30S 15MS
Student58,891000057,Assunta,TuneTalk Challenge 1,Round 1,Y,Y,Y,Y,N,00H 00M 30S 15MS
Student59,891000058,Assunta,TuneTalk Challenge 1,Round 1,Y,Y,Y,Y,N,00H 00M 30S 15MS
Student60,891000059,Assunta,TuneTalk Challenge 1,Round 1,Y,Y,Y,Y,N,00H 00M 30S 15MS
Student61,891000060,Assunta,TuneTalk Challenge 1,Round 1,Y,Y,Y,Y,N,00H 00M 30S 15MS
Student62,891000061,Assunta,TuneTalk Challenge 1,Round 1,Y,Y,Y,Y,N,00H 00M 30S 15MS
Student63,891000062,Assunta,TuneTalk Challenge 1,Round 1,Y,Y,Y,Y,N,00H 00M 30S 15MS
Student64,891000063,Assunta,TuneTalk Challenge 1,Round 1,Y,Y,Y,Y,N,00H 00M 30S 15MS
Student65,891000064,Assunta,TuneTalk Challenge 1,Round 1,Y,Y,Y,Y,N,00H 00M 30S 15MS
Student66,891000065,Assunta,TuneTalk Challenge 1,Round 1,Y,Y,Y,Y,N,00H 00M 30S 15MS
Student67,891000066,Assunta,TuneTalk Challenge 1,Round 1,Y,Y,Y,Y,N,00H 00M 30S 15MS
Student68,891000067,Assunta,TuneTalk Challenge 1,Round 1,Y,Y,Y,Y,N,00H 00M 30S 15MS
Student69,891000068,Assunta,TuneTalk Challenge 1,Round 1,Y,Y,Y,Y,N,00H 00M 30S 15MS
Student70,891000069,Assunta,TuneTalk Challenge 1,Round 1,Y,Y,Y,Y,N,00H 00M 30S 15MS
Student71,891000070,Assunta,TuneTalk Challenge 1,Round 1,Y,Y,Y,Y,N,00H 00M 30S 15MS
Student72,891000071,Assunta,TuneTalk Challenge 1,Round 1,Y,Y,Y,Y,N,00H 00M 30S 15MS
Student73,891000072,Assunta,TuneTalk Challenge 1,Round 1,Y,Y,Y,Y,N,00H 00M 30S 15MS
Student74,891000073,Assunta,TuneTalk Challenge 1,Round 1,Y,Y,Y,Y,N,00H 00M 30S 15MS
Student75,891000074,Assunta,TuneTalk Challenge 1,Round 1,Y,Y,Y,Y,N,00H 00M 30S 15MS
Student76,891000075,Assunta,TuneTalk Challenge 1,Round 1,Y,Y,Y,Y,N,00H 00M 30S 15MS
Student77,891000076,Assunta,TuneTalk Challenge 1,Round 1,Y,Y,Y,Y,N,00H 00M 30S 15MS
Student78,891000077,Assunta,TuneTalk Challenge 1,Round 1,Y,Y,Y,Y,N,00H 00M 30S 15MS
Student79,891000078,Assunta,TuneTalk Challenge 1,Round 1,Y,Y,Y,Y,N,00H 00M 30S 15MS
Student80,891000079,Assunta,TuneTalk Challenge 1,Round 1,Y,Y,Y,Y,N,00H 00M 30S 15MS
Student81,891000080,Assunta,TuneTalk Challenge 1,Round 1,Y,Y,Y,Y,N,00H 00M 30S 15MS
Student82,891000081,Assunta,TuneTalk Challenge 1,Round 1,Y,Y,Y,Y,N,00H 00M 30S 15MS
Student83,891000082,Assunta,TuneTalk Challenge 1,Round 1,Y,Y,Y,Y,N,00H 00M 30S 15MS
Student84,891000083,Assunta,TuneTalk Challenge 1,Round 1,Y,Y,Y,Y,N,00H 00M 30S 15MS
Student85,891000084,Assunta,TuneTalk Challenge 1,Round 1,Y,Y,Y,Y,N,00H 00M 30S 15MS
Student86,891000085,Assunta,TuneTalk Challenge 1,Round 1,Y,Y,Y,Y,N,00H 00M 30S 15MS
Student87,891000086,Assunta,TuneTalk Challenge 1,Round 1,Y,Y,Y,Y,N,00H 00M 30S 15MS
Student88,891000087,Assunta,TuneTalk Challenge 1,Round 1,Y,Y,Y,Y,N,00H 00M 30S 15MS
Student89,891000088,Assunta,TuneTalk Challenge 1,Round 1,Y,Y,Y,Y,N,00H 00M 30S 15MS
Student90,891000089,Assunta,TuneTalk Challenge 1,Round 1,Y,Y,Y,Y,N,00H 00M 30S 15MS
Student91,891000090,Assunta,TuneTalk Challenge 1,Round 1,Y,Y,Y,Y,N,00H 00M 30S 15MS
Student92,891000091,Assunta,TuneTalk Challenge 1,Round 1,Y,Y,Y,Y,N,00H 00M 30S 15MS
Student93,891000092,Assunta,TuneTalk Challenge 1,Round 1,Y,Y,Y,Y,N,00H 00M 30S 15MS
Student94,891000093,Assunta,TuneTalk Challenge 1,Round 1,Y,Y,Y,Y,N,00H 00M 30S 15MS
Student95,891000094,Assunta,TuneTalk Challenge 1,Round 1,Y,Y,Y,Y,N,00H 00M 30S 15MS
Student96,891000095,Assunta,TuneTalk Challenge 1,Round 1,Y,Y,Y,Y,N,00H 00M 30S 15MS
Student97,891000096,Assunta,TuneTalk Challenge 1,Round 1,Y,Y,Y,Y,N,00H 00M 30S 15MS
Student98,891000097,Assunta,TuneTalk Challenge 1,Round 1,Y,Y,Y,Y,N,00H 00M 30S 15MS
Student99,891000098,Assunta,TuneTalk Challenge 1,Round 1,Y,Y,Y,Y,N,00H 00M 30S 15MS
Student100,891000099,Assunta,TuneTalk Challenge 1,Round 1,Y,Y,Y,Y,N,00H 00M 30S 15MS
Student101,891000100,Assunta,TuneTalk Challenge 1,Round 1,Y,Y,Y,Y,N,00H 00M 30S 15MS
Student102,891000101,Assunta,TuneTalk Challenge 1,Round 1,Y,Y,Y,Y,N,00H 00M 30S 15MS
Student103,891000102,Assunta,TuneTalk Challenge 1,Round 1,Y,Y,Y,Y,N,00H 00M 30S 15MS
Student104,891000103,Assunta,TuneTalk Challenge 1,Round 1,Y,Y,Y,Y,N,00H 00M 30S 15MS
Student105,891000104,Assunta,TuneTalk Challenge 1,Round 1,Y,Y,Y,Y,N,00H 00M 30S 15MS
Student106,891000105,Assunta,TuneTalk Challenge 1,Round 1,Y,Y,Y,Y,N,00H 00M 30S 15MS
Student107,891000106,Assunta,TuneTalk Challenge 1,Round 1,Y,Y,Y,Y,N,00H 00M 30S 15MS
Student108,891000107,Assunta,TuneTalk Challenge 1,Round 1,Y,Y,Y,Y,N,00H 00M 30S 15MS
Student109,891000108,Assunta,TuneTalk Challenge 1,Round 1,Y,Y,Y,Y,N,00H 00M 30S 15MS
Student110,891000109,Assunta,TuneTalk Challenge 1,Round 1,Y,Y,Y,Y,N,00H 00M 30S 15MS
Student111,891000110,Assunta,TuneTalk Challenge 1,Round 1,Y,Y,Y,Y,N,00H 00M 30S 15MS
Student112,891000111,Assunta,TuneTalk Challenge 1,Round 1,Y,Y,Y,Y,N,00H 00M 30S 15MS
Student113,891000112,Assunta,TuneTalk Challenge 1,Round 1,Y,Y,Y,Y,N,00H 00M 30S 15MS
Student114,891000113,Assunta,TuneTalk Challenge 1,Round 1,Y,Y,Y,Y,N,00H 00M 30S 15MS
Student115,891000114,Assunta,TuneTalk Challenge 1,Round 1,Y,Y,Y,Y,N,00H 00M 30S 15MS
Student116,891000115,Assunta,TuneTalk Challenge 1,Round 1,Y,Y,Y,Y,N,00H 00M 30S 15MS
Student117,891000116,Assunta,TuneTalk Challenge 1,Round 1,Y,Y,Y,Y,N,00H 00M 30S 15MS
Student118,891000117,Assunta,TuneTalk Challenge 1,Round 1,Y,Y,Y,Y,N,00H 00M 30S 15MS
Student119,891000118,Assunta,TuneTalk Challenge 1,Round 1,Y,Y,Y,Y,N,00H 00M 30S 15MS
Student120,891000119,Assunta,TuneTalk Challenge 1,Round 1,Y,Y,Y,Y,N,00H 00M 30S 15MS
Student121,891000120,Assunta,TuneTalk Challenge 1,Round 1,Y,Y,Y,Y,N,00H 00M 30S 15MS
Student122,891000121,Assunta,TuneTalk Challenge 1,Round 1,Y,Y,Y,Y,N,00H 00M 30S 15MS
Student123,891000122,Assunta,TuneTalk Challenge 1,Round 1,Y,Y,Y,Y,N,00H 00M 30S 15MS
Student124,891000123,Assunta,TuneTalk Challenge 1,Round 1,Y,Y,Y,Y,N,00H 00M 30S 15MS
Student125,891000124,Assunta,TuneTalk Challenge 1,Round 1,Y,Y,Y,Y,N,00H 00M 30S 15MS
Student126,891000125,Assunta,TuneTalk Challenge 1,Round 1,Y,Y,Y,Y,N,00H 00M 30S 15MS
Student127,891000126,Assunta,TuneTalk Challenge 1,Round 1,Y,Y,Y,Y,N,00H 00M 30S 15MS
Student128,891000127,Assunta,TuneTalk Challenge 1,Round 1,Y,Y,Y,Y,N,00H 00M 30S 15MS
Student129,891000128,Assunta,TuneTalk Challenge 1,Round 1,Y,Y,Y,Y,N,00H 00M 30S 15MS
Student130,891000129,Assunta,TuneTalk Challenge 1,Round 1,Y,Y,Y,Y,N,00H 00M 30S 15MS
Student131,891000130,Assunta,TuneTalk Challenge 1,Round 1,Y,Y,Y,Y,N,00H 00M 30S 15MS
Student132,891000131,Assunta,TuneTalk Challenge 1,Round 1,Y,Y,Y,Y,N,00H 00M 30S 15MS
Student133,891000132,Assunta,TuneTalk Challenge 1,Round 1,Y,Y,Y,Y,N,00H 00M 30S 15MS
Student134,891000133,Assunta,TuneTalk Challenge 1,Round 1,Y,Y,Y,Y,N,00H 00M 30S 15MS
Student135,891000134,Assunta,TuneTalk Challenge 1,Round 1,Y,Y,Y,Y,N,00H 00M 30S 15MS
Student136,891000135,Assunta,TuneTalk Challenge 1,Round 1,Y,Y,Y,Y,N,00H 00M 30S 15MS
Student137,891000136,Assunta,TuneTalk Challenge 1,Round 1,Y,Y,Y,Y,N,00H 00M 30S 15MS
Student138,891000137,Assunta,TuneTalk Challenge 1,Round 1,Y,Y,Y,Y,N,00H 00M 30S 15MS
Student139,891000138,Assunta,TuneTalk Challenge 1,Round 1,Y,Y,Y,Y,N,00H 00M 30S 15MS
Student140,891000139,Assunta,TuneTalk Challenge 1,Round 1,Y,Y,Y,Y,N,00H 00M 30S 15MS
Student141,891000140,Assunta,TuneTalk Challenge 1,Round 1,Y,Y,Y,Y,N,00H 00M 30S 15MS
Student142,891000141,Assunta,TuneTalk Challenge 1,Round 1,Y,Y,Y,Y,N,00H 00M 30S 15MS
Student143,891000142,Assunta,TuneTalk Challenge 1,Round 1,Y,Y,Y,Y,N,00H 00M 30S 15MS
Student144,891000143,Assunta,TuneTalk Challenge 1,Round 1,Y,Y,Y,Y,N,00H 00M 30S 15MS
Student145,891000144,Assunta,TuneTalk Challenge 1,Round 1,Y,Y,Y,Y,N,00H 00M 30S 15MS
Student146,891000145,Assunta,TuneTalk Challenge 1,Round 1,Y,Y,Y,Y,N,00H 00M 30S 15MS
Student147,891000146,Assunta,TuneTalk Challenge 1,Round 1,Y,Y,Y,Y,N,00H 00M 30S 15MS
Student148,891000147,Assunta,TuneTalk Challenge 1,Round 1,Y,Y,Y,Y,N,00H 00M 30S 15MS
Student149,891000148,Assunta,TuneTalk Challenge 1,Round 1,Y,Y,Y,Y,N,00H 00M 30S 15MS
Student150,891000149,Assunta,TuneTalk Challenge 1,Round 1,Y,Y,Y,Y,N,00H 00M 30S 15MS
Student151,891000150,Assunta,TuneTalk Challenge 1,Round 1,Y,Y,Y,Y,N,00H 00M 30S 15MS
Student152,891000151,Assunta,TuneTalk Challenge 1,Round 1,Y,Y,Y,Y,N,00H 00M 30S 15MS
Student153,891000152,Assunta,TuneTalk Challenge 1,Round 1,Y,Y,Y,Y,N,00H 00M 30S 15MS
Student154,891000153,Assunta,TuneTalk Challenge 1,Round 1,Y,Y,Y,Y,N,00H 00M 30S 15MS
Student155,891000154,Assunta,TuneTalk Challenge 1,Round 1,Y,Y,Y,Y,N,00H 00M 30S 15MS
Student156,891000155,Assunta,TuneTalk Challenge 1,Round 1,Y,Y,Y,Y,N,00H 00M 30S 15MS
Student157,891000156,Assunta,TuneTalk Challenge 1,Round 1,Y,Y,Y,Y,N,00H 00M 30S 15MS
Student158,891000157,Assunta,TuneTalk Challenge 1,Round 1,Y,Y,Y,Y,N,00H 00M 30S 15MS
Student159,891000158,Assunta,TuneTalk Challenge 1,Round 1,Y,Y,Y,Y,N,00H 00M 30S 15MS
Student160,891000159,Assunta,TuneTalk Challenge 1,Round 1,Y,Y,Y,Y,N,00H 00M 30S 15MS
Student161,891000160,Assunta,TuneTalk Challenge 1,Round 1,Y,Y,Y,Y,N,00H 00M 30S 15MS
Student162,891000161,Assunta,TuneTalk Challenge 1,Round 1,Y,Y,Y,Y,N,00H 00M 30S 15MS
Student163,891000162,Assunta,TuneTalk Challenge 1,Round 1,Y,Y,Y,Y,N,00H 00M 30S 15MS
Student164,891000163,Assunta,TuneTalk Challenge 1,Round 1,Y,Y,Y,Y,N,00H 00M 30S 15MS
Student165,891000164,Assunta,TuneTalk Challenge 1,Round 1,Y,Y,Y,Y,N,00H 00M 30S 15MS
Student166,891000165,Assunta,TuneTalk Challenge 1,Round 1,Y,Y,Y,Y,N,00H 00M 30S 15MS
Student167,891000166,Assunta,TuneTalk Challenge 1,Round 1,Y,Y,Y,Y,N,00H 00M 30S 15MS
Student168,891000167,Assunta,TuneTalk Challenge 1,Round 1,Y,Y,Y,Y,N,00H 00M 30S 15MS
Student169,891000168,Assunta,TuneTalk Challenge 1,Round 1,Y,Y,Y,Y,N,00H 00M 30S 15MS
Student170,891000169,Assunta,TuneTalk Challenge 1,Round 1,Y,Y,Y,Y,N,00H 00M 30S 15MS
Student171,891000170,Assunta,TuneTalk Challenge 1,Round 1,Y,Y,Y,Y,N,00H 00M 30S 15MS
Student172,891000171,Assunta,TuneTalk Challenge 1,Round 1,Y,Y,Y,Y,N,00H 00M 30S 15MS
Student173,891000172,Assunta,TuneTalk Challenge 1,Round 1,Y,Y,Y,Y,N,00H 00M 30S 15MS
Student174,891000173,Assunta,TuneTalk Challenge 1,Round 1,Y,Y,Y,Y,N,00H 00M 30S 15MS
Student175,891000174,Assunta,TuneTalk Challenge 1,Round 1,Y,Y,Y,Y,N,00H 00M 30S 15MS
Student176,891000175,Assunta,TuneTalk Challenge 1,Round 1,Y,Y,Y,Y,N,00H 00M 30S 15MS
Student177,891000176,Assunta,TuneTalk Challenge 1,Round 1,Y,Y,Y,Y,N,00H 00M 30S 15MS
Student178,891000177,Assunta,TuneTalk Challenge 1,Round 1,Y,Y,Y,Y,N,00H 00M 30S 15MS
Student179,891000178,Assunta,TuneTalk Challenge 1,Round 1,Y,Y,Y,Y,N,00H 00M 30S 15MS
Student180,891000179,Assunta,TuneTalk Challenge 1,Round 1,Y,Y,Y,Y,N,00H 00M 30S 15MS
Student181,891000180,Assunta,TuneTalk Challenge 1,Round 1,Y,Y,Y,Y,N,00H 00M 30S 15MS
Student182,891000181,Assunta,TuneTalk Challenge 1,Round 1,Y,Y,Y,Y,N,00H 00M 30S 15MS
Student183,891000182,Assunta,TuneTalk Challenge 1,Round 1,Y,Y,Y,Y,N,00H 00M 30S 15MS
Student184,891000183,Assunta,TuneTalk Challenge 1,Round 1,Y,Y,Y,Y,N,00H 00M 30S 15MS
Student185,891000184,Assunta,TuneTalk Challenge 1,Round 1,Y,Y,Y,Y,N,00H 00M 30S 15MS
Student186,891000185,Assunta,TuneTalk Challenge 1,Round 1,Y,Y,Y,Y,N,00H 00M 30S 15MS
Student187,891000186,Assunta,TuneTalk Challenge 1,Round 1,Y,Y,Y,Y,N,00H 00M 30S 15MS
Student188,891000187,Assunta,TuneTalk Challenge 1,Round 1,Y,Y,Y,Y,N,00H 00M 30S 15MS
Student189,891000188,Assunta,TuneTalk Challenge 1,Round 1,Y,Y,Y,Y,N,00H 00M 30S 15MS
Student190,891000189,Assunta,TuneTalk Challenge 1,Round 1,Y,Y,Y,Y,N,00H 00M 30S 15MS
Student191,891000190,Assunta,TuneTalk Challenge 1,Round 1,Y,Y,Y,Y,N,00H 00M 30S 15MS
Student192,891000191,Assunta,TuneTalk Challenge 1,Round 1,Y,Y,Y,Y,N,00H 00M 30S 15MS
Student193,891000192,Assunta,TuneTalk Challenge 1,Round 1,Y,Y,Y,Y,N,00H 00M 30S 15MS
Student194,891000193,Assunta,TuneTalk Challenge 1,Round 1,Y,Y,Y,Y,N,00H 00M 30S 15MS
Student195,891000194,Assunta,TuneTalk Challenge 1,Round 1,Y,Y,Y,Y,N,00H 00M 30S 15MS
Student196,891000195,Assunta,TuneTalk Challenge 1,Round 1,Y,Y,Y,Y,N,00H 00M 30S 15MS
Student197,891000196,Assunta,TuneTalk Challenge 1,Round 1,Y,Y,Y,Y,N,00H 00M 30S 15MS
Student198,891000197,Assunta,TuneTalk Challenge 1,Round 1,Y,Y,Y,Y,N,00H 00M 30S 15MS
Student199,891000198,Assunta,TuneTalk Challenge 1,Round 1,Y,Y,Y,Y,N,00H 00M 30S 15MS
Student200,891000199,Assunta,TuneTalk Challenge 1,Round 1,Y,Y,Y,Y,N,00H 00M 30S 15MS
Student201,891000200,Assunta,TuneTalk Challenge 1,Round 1,Y,Y,Y,Y,N,00H 00M 30S 15MS
Student202,891000201,Assunta,TuneTalk Challenge 1,Round 1,Y,Y,Y,Y,N,00H 00M 30S 15MS
Student203,891000202,Assunta,TuneTalk Challenge 1,Round 1,Y,Y,Y,Y,N,00H 00M 30S 15MS
Student204,891000203,Assunta,TuneTalk Challenge 1,Round 1,Y,Y,Y,Y,N,00H 00M 30S 15MS
Student205,891000204,Assunta,TuneTalk Challenge 1,Round 1,Y,Y,Y,Y,N,00H 00M 30S 15MS
Student206,891000205,Assunta,TuneTalk Challenge 1,Round 1,Y,Y,Y,Y,N,00H 00M 30S 15MS
Student207,891000206,Assunta,TuneTalk Challenge 1,Round 1,Y,Y,Y,Y,N,00H 00M 30S 15MS
Student208,891000207,Assunta,TuneTalk Challenge 1,Round 1,Y,Y,Y,Y,N,00H 00M 30S 15MS
Student209,891000208,Assunta,TuneTalk Challenge 1,Round 1,Y,Y,Y,Y,N,00H 00M 30S 15MS
Student210,891000209,Assunta,TuneTalk Challenge 1,Round 1,Y,Y,Y,Y,N,00H 00M 30S 15MS
Student211,891000210,Assunta,TuneTalk Challenge 1,Round 1,Y,Y,Y,Y,N,00H 00M 30S 15MS
Student212,891000211,Assunta,TuneTalk Challenge 1,Round 1,Y,Y,Y,Y,N,00H 00M 30S 15MS
Student213,891000212,Assunta,TuneTalk Challenge 1,Round 1,Y,Y,Y,Y,N,00H 00M 30S 15MS
Student214,891000213,Assunta,TuneTalk Challenge 1,Round 1,Y,Y,Y,Y,N,00H 00M 30S 15MS
Student215,891000214,Assunta,TuneTalk Challenge 1,Round 1,Y,Y,Y,Y,N,00H 00M 30S 15MS
Student216,891000215,Assunta,TuneTalk Challenge 1,Round 1,Y,Y,Y,Y,N,00H 00M 30S 15MS
Student217,891000216,Assunta,TuneTalk Challenge 1,Round 1,Y,Y,Y,Y,N,00H 00M 30S 15MS
Student218,891000217,Assunta,TuneTalk Challenge 1,Round 1,Y,Y,Y,Y,N,00H 00M 30S 15MS
Student219,891000218,Assunta,TuneTalk Challenge 1,Round 1,Y,Y,Y,Y,N,00H 00M 30S 15MS
Student220,891000219,Assunta,TuneTalk Challenge 1,Round 1,Y,Y,Y,Y,N,00H 00M 30S 15MS
Student221,891000220,Assunta,TuneTalk Challenge 1,Round 1,Y,Y,Y,Y,N,00H 00M 30S 15MS
Student222,891000221,Assunta,TuneTalk Challenge 1,Round 1,Y,Y,Y,Y,N,00H 00M 30S 15MS
Student223,891000222,Assunta,TuneTalk Challenge 1,Round 1,Y,Y,Y,Y,N,00H 00M 30S 15MS
Student224,891000223,Assunta,TuneTalk Challenge 1,Round 1,Y,Y,Y,Y,N,00H 00M 30S 15MS
Student225,891000224,Assunta,TuneTalk Challenge 1,Round 1,Y,Y,Y,Y,N,00H 00M 30S 15MS
Student226,891000225,Assunta,TuneTalk Challenge 1,Round 1,Y,Y,Y,Y,N,00H 00M 30S 15MS
Student227,891000226,Assunta,TuneTalk Challenge 1,Round 1,Y,Y,Y,Y,N,00H 00M 30S 15MS
Student228,891000227,Assunta,TuneTalk Challenge 1,Round 1,Y,Y,Y,Y,N,00H 00M 30S 15MS
Student229,891000228,Assunta,TuneTalk Challenge 1,Round 1,Y,Y,Y,Y,N,00H 00M 30S 15MS
Student230,891000229,Assunta,TuneTalk Challenge 1,Round 1,Y,Y,Y,Y,N,00H 00M 30S 15MS
Student231,891000230,Assunta,TuneTalk Challenge 1,Round 1,Y,Y,Y,Y,N,00H 00M 30S 15MS
Student232,891000231,Assunta,TuneTalk Challenge 1,Round 1,Y,Y,Y,Y,N,00H 00M 30S 15MS
Student233,891000232,Assunta,TuneTalk Challenge 1,Round 1,Y,Y,Y,Y,N,00H 00M 30S 15MS
Student234,891000233,Assunta,TuneTalk Challenge 1,Round 1,Y,Y,Y,Y,N,00H 00M 30S 15MS
Student235,891000234,Assunta,TuneTalk Challenge 1,Round 1,Y,Y,Y,Y,N,00H 00M 30S 15MS
Student236,891000235,Assunta,TuneTalk Challenge 1,Round 1,Y,Y,Y,Y,N,00H 00M 30S 15MS
Student237,891000236,Assunta,TuneTalk Challenge 1,Round 1,Y,Y,Y,Y,N,00H 00M 30S 15MS
Student238,891000237,Assunta,TuneTalk Challenge 1,Round 1,Y,Y,Y,Y,N,00H 00M 30S 15MS
Student239,891000238,Assunta,TuneTalk Challenge 1,Round 1,Y,Y,Y,Y,N,00H 00M 30S 15MS
Student240,891000239,Assunta,TuneTalk Challenge 1,Round 1,Y,Y,Y,Y,N,00H 00M 30S 15MS
Student241,891000240,Assunta,TuneTalk Challenge 1,Round 1,Y,Y,Y,Y,N,00H 00M 30S 15MS
Student242,891000241,Assunta,TuneTalk Challenge 1,Round 1,Y,Y,Y,Y,N,00H 00M 30S 15MS
Student243,891000242,Assunta,TuneTalk Challenge 1,Round 1,Y,Y,Y,Y,N,00H 00M 30S 15MS
Student244,891000243,Assunta,TuneTalk Challenge 1,Round 1,Y,Y,Y,Y,N,00H 00M 30S 15MS
Student245,891000244,Assunta,TuneTalk Challenge 1,Round 1,Y,Y,Y,Y,N,00H 00M 30S 15MS
Student246,891000245,Assunta,TuneTalk Challenge 1,Round 1,Y,Y,Y,Y,N,00H 00M 30S 15MS
Student247,891000246,Assunta,TuneTalk Challenge 1,Round 1,Y,Y,Y,Y,N,00H 00M 30S 15MS
Student248,891000247,Assunta,TuneTalk Challenge 1,Round 1,Y,Y,Y,Y,N,00H 00M 30S 15MS
Student249,891000248,Assunta,TuneTalk Challenge 1,Round 1,Y,Y,Y,Y,N,00H 00M 30S 15MS
Student250,891000249,Assunta,TuneTalk Challenge 1,Round 1,Y,Y,Y,Y,N,00H 00M 30S 15MS
Student251,891000250,Assunta,TuneTalk Challenge 1,Round 1,Y,Y,Y,Y,N,00H 00M 30S 15MS
Student252,891000251,Assunta,TuneTalk Challenge 1,Round 1,Y,Y,Y,Y,N,00H 00M 30S 15MS
Student253,891000252,Assunta,TuneTalk Challenge 1,Round 1,Y,Y,Y,Y,N,00H 00M 30S 15MS
Student254,891000253,Assunta,TuneTalk Challenge 1,Round 1,Y,Y,Y,Y,N,00H 00M 30S 15MS
Student255,891000254,Assunta,TuneTalk Challenge 1,Round 1,Y,Y,Y,Y,N,00H 00M 30S 15MS
Student256,891000255,Assunta,TuneTalk Challenge 1,Round 1,Y,Y,Y,Y,N,00H 00M 30S 15MS
Student257,891000256,Assunta,TuneTalk Challenge 1,Round 1,Y,Y,Y,Y,N,00H 00M 30S 15MS
Student258,891000257,Assunta,TuneTalk Challenge 1,Round 1,Y,Y,Y,Y,N,00H 00M 30S 15MS
Student259,891000258,Assunta,TuneTalk Challenge 1,Round 1,Y,Y,Y,Y,N,00H 00M 30S 15MS
Student260,891000259,Assunta,TuneTalk Challenge 1,Round 1,Y,Y,Y,Y,N,00H 00M 30S 15MS
Student261,891000260,Assunta,TuneTalk Challenge 1,Round 1,Y,Y,Y,Y,N,00H 00M 30S 15MS
Student262,891000261,Assunta,TuneTalk Challenge 1,Round 1,Y,Y,Y,Y,N,00H 00M 30S 15MS
Student263,891000262,Assunta,TuneTalk Challenge 1,Round 1,Y,Y,Y,Y,N,00H 00M 30S 15MS
Student264,891000263,Assunta,TuneTalk Challenge 1,Round 1,Y,Y,Y,Y,N,00H 00M 30S 15MS
Student265,891000264,Assunta,TuneTalk Challenge 1,Round 1,Y,Y,Y,Y,N,00H 00M 30S 15MS
Student266,891000265,Assunta,TuneTalk Challenge 1,Round 1,Y,Y,Y,Y,N,00H 00M 30S 15MS
Student267,891000266,Assunta,TuneTalk Challenge 1,Round 1,Y,Y,Y,Y,N,00H 00M 30S 15MS
Student268,891000267,Assunta,TuneTalk Challenge 1,Round 1,Y,Y,Y,Y,N,00H 00M 30S 15MS
Student269,891000268,Assunta,TuneTalk Challenge 1,Round 1,Y,Y,Y,Y,N,00H 00M 30S 15MS
Student270,891000269,Assunta,TuneTalk Challenge 1,Round 1,Y,Y,Y,Y,N,00H 00M 30S 15MS
Student271,891000270,Assunta,TuneTalk Challenge 1,Round 1,Y,Y,Y,Y,N,00H 00M 30S 15MS
Student272,891000271,Assunta,TuneTalk Challenge 1,Round 1,Y,Y,Y,Y,N,00H 00M 30S 15MS
Student273,891000272,Assunta,TuneTalk Challenge 1,Round 1,Y,Y,Y,Y,N,00H 00M 30S 15MS
Student274,891000273,Assunta,TuneTalk Challenge 1,Round 1,Y,Y,Y,Y,N,00H 00M 30S 15MS
Student275,891000274,Assunta,TuneTalk Challenge 1,Round 1,Y,Y,Y,Y,N,00H 00M 30S 15MS
Student276,891000275,Assunta,TuneTalk Challenge 1,Round 1,Y,Y,Y,Y,N,00H 00M 30S 15MS
Student277,891000276,Assunta,TuneTalk Challenge 1,Round 1,Y,Y,Y,Y,N,00H 00M 30S 15MS
Student278,891000277,Assunta,TuneTalk Challenge 1,Round 1,Y,Y,Y,Y,N,00H 00M 30S 15MS
Student279,891000278,Assunta,TuneTalk Challenge 1,Round 1,Y,Y,Y,Y,N,00H 00M 30S 15MS
Student280,891000279,Assunta,TuneTalk Challenge 1,Round 1,Y,Y,Y,Y,N,00H 00M 30S 15MS
Student281,891000280,Assunta,TuneTalk Challenge 1,Round 1,Y,Y,Y,Y,N,00H 00M 30S 15MS
Student282,891000281,Assunta,TuneTalk Challenge 1,Round 1,Y,Y,Y,Y,N,00H 00M 30S 15MS
Student283,891000282,Assunta,TuneTalk Challenge 1,Round 1,Y,Y,Y,Y,N,00H 00M 30S 15MS
Student284,891000283,Assunta,TuneTalk Challenge 1,Round 1,Y,Y,Y,Y,N,00H 00M 30S 15MS
Student285,891000284,Assunta,TuneTalk Challenge 1,Round 1,Y,Y,Y,Y,N,00H 00M 30S 15MS
Student286,891000285,Assunta,TuneTalk Challenge 1,Round 1,Y,Y,Y,Y,N,00H 00M 30S 15MS
Student287,891000286,Assunta,TuneTalk Challenge 1,Round 1,Y,Y,Y,Y,N,00H 00M 30S 15MS
Student288,891000287,Assunta,TuneTalk Challenge 1,Round 1,Y,Y,Y,Y,N,00H 00M 30S 15MS
Student289,891000288,Assunta,TuneTalk Challenge 1,Round 1,Y,Y,Y,Y,N,00H 00M 30S 15MS
Student290,891000289,Assunta,TuneTalk Challenge 1,Round 1,Y,Y,Y,Y,N,00H 00M 30S 15MS
Student291,891000290,Assunta,TuneTalk Challenge 1,Round 1,Y,Y,Y,Y,N,00H 00M 30S 15MS
Student292,891000291,Assunta,TuneTalk Challenge 1,Round 1,Y,Y,Y,Y,N,00H 00M 30S 15MS
Student293,891000292,Assunta,TuneTalk Challenge 1,Round 1,Y,Y,Y,Y,N,00H 00M 30S 15MS
Student294,891000293,Assunta,TuneTalk Challenge 1,Round 1,Y,Y,Y,Y,N,00H 00M 30S 15MS
Student295,891000294,Assunta,TuneTalk Challenge 1,Round 1,Y,Y,Y,Y,N,00H 00M 30S 15MS
Student296,891000295,Assunta,TuneTalk Challenge 1,Round 1,Y,Y,Y,Y,N,00H 00M 30S 15MS
Student297,891000296,Assunta,TuneTalk Challenge 1,Round 1,Y,Y,Y,Y,N,00H 00M 30S 15MS
Student298,891000297,Assunta,TuneTalk Challenge 1,Round 1,Y,Y,Y,Y,N,00H 00M 30S 15MS
Student299,891000298,Assunta,TuneTalk Challenge 1,Round 1,Y,Y,Y,Y,N,00H 00M 30S 15MS
Student300,891000299,Assunta,TuneTalk Challenge 1,Round 1,Y,Y,Y,Y,N,00H 00M 30S 15MS
Student301,891000300,Assunta,TuneTalk Challenge 1,Round 1,Y,Y,Y,Y,N,00H 00M 30S 15MS
Student302,891000301,Assunta,TuneTalk Challenge 1,Round 1,Y,Y,Y,Y,N,00H 00M 30S 15MS
Student303,891000302,Assunta,TuneTalk Challenge 1,Round 1,Y,Y,Y,Y,N,00H 00M 30S 15MS
Student304,891000303,Assunta,TuneTalk Challenge 1,Round 1,Y,Y,Y,Y,N,00H 00M 30S 15MS
Student305,891000304,Assunta,TuneTalk Challenge 1,Round 1,Y,Y,Y,Y,N,00H 00M 30S 15MS
Student306,891000305,Assunta,TuneTalk Challenge 1,Round 1,Y,Y,Y,Y,N,00H 00M 30S 15MS
Student307,891000306,Assunta,TuneTalk Challenge 1,Round 1,Y,Y,Y,Y,N,00H 00M 30S 15MS
Student308,891000307,Assunta,TuneTalk Challenge 1,Round 1,Y,Y,Y,Y,N,00H 00M 30S 15MS
Student309,891000308,Assunta,TuneTalk Challenge 1,Round 1,Y,Y,Y,Y,N,00H 00M 30S 15MS
Student310,891000309,Assunta,TuneTalk Challenge 1,Round 1,Y,Y,Y,Y,N,00H 00M 30S 15MS
Student311,891000310,Assunta,TuneTalk Challenge 1,Round 1,Y,Y,Y,Y,N,00H 00M 30S 15MS
Student312,891000311,Assunta,TuneTalk Challenge 1,Round 1,Y,Y,Y,Y,N,00H 00M 30S 15MS
Student313,891000312,Assunta,TuneTalk Challenge 1,Round 1,Y,Y,Y,Y,N,00H 00M 30S 15MS
Student314,891000313,Assunta,TuneTalk Challenge 1,Round 1,Y,Y,Y,Y,N,00H 00M 30S 15MS
Student315,891000314,Assunta,TuneTalk Challenge 1,Round 1,Y,Y,Y,Y,N,00H 00M 30S 15MS
Student316,891000315,Assunta,TuneTalk Challenge 1,Round 1,Y,Y,Y,Y,N,00H 00M 30S 15MS
Student317,891000316,Assunta,TuneTalk Challenge 1,Round 1,Y,Y,Y,Y,N,00H 00M 30S 15MS
Student318,891000317,Assunta,TuneTalk Challenge 1,Round 1,Y,Y,Y,Y,N,00H 00M 30S 15MS
Student319,891000318,Assunta,TuneTalk Challenge 1,Round 1,Y,Y,Y,Y,N,00H 00M 30S 15MS
Student320,891000319,Assunta,TuneTalk Challenge 1,Round 1,Y,Y,Y,Y,N,00H 00M 30S 15MS
Student321,891000320,Assunta,TuneTalk Challenge 1,Round 1,Y,Y,Y,Y,N,00H 00M 30S 15MS
Student322,891000321,Assunta,TuneTalk Challenge 1,Round 1,Y,Y,Y,Y,N,00H 00M 30S 15MS
Student323,891000322,Assunta,TuneTalk Challenge 1,Round 1,Y,Y,Y,Y,N,00H 00M 30S 15MS
Student324,891000323,Assunta,TuneTalk Challenge 1,Round 1,Y,Y,Y,Y,N,00H 00M 30S 15MS
Student325,891000324,Assunta,TuneTalk Challenge 1,Round 1,Y,Y,Y,Y,N,00H 00M 30S 15MS
Student326,891000325,Assunta,TuneTalk Challenge 1,Round 1,Y,Y,Y,Y,N,00H 00M 30S 15MS
Student327,891000326,Assunta,TuneTalk Challenge 1,Round 1,Y,Y,Y,Y,N,00H 00M 30S 15MS
Student328,891000327,Assunta,TuneTalk Challenge 1,Round 1,Y,Y,Y,Y,N,00H 00M 30S 15MS
Student329,891000328,Assunta,TuneTalk Challenge 1,Round 1,Y,Y,Y,Y,N,00H 00M 30S 15MS
Student330,891000329,Assunta,TuneTalk Challenge 1,Round 1,Y,Y,Y,Y,N,00H 00M 30S 15MS
Student331,891000330,Assunta,TuneTalk Challenge 1,Round 1,Y,Y,Y,Y,N,00H 00M 30S 15MS
Student332,891000331,Assunta,TuneTalk Challenge 1,Round 1,Y,Y,Y,Y,N,00H 00M 30S 15MS
Student333,891000332,Assunta,TuneTalk Challenge 1,Round 1,Y,Y,Y,Y,N,00H 00M 30S 15MS
Student334,891000333,Assunta,TuneTalk Challenge 1,Round 1,Y,Y,Y,Y,N,00H 00M 30S 15MS
Student335,891000334,Assunta,TuneTalk Challenge 1,Round 1,Y,Y,Y,Y,N,00H 00M 30S 15MS
Student336,891000335,Assunta,TuneTalk Challenge 1,Round 1,Y,Y,Y,Y,N,00H 00M 30S 15MS
Student337,891000336,Assunta,TuneTalk Challenge 1,Round 1,Y,Y,Y,Y,N,00H 00M 30S 15MS
Student338,891000337,Assunta,TuneTalk Challenge 1,Round 1,Y,Y,Y,Y,N,00H 00M 30S 15MS
Student339,891000338,Assunta,TuneTalk Challenge 1,Round 1,Y,Y,Y,Y,N,00H 00M 30S 15MS
Student340,891000339,Assunta,TuneTalk Challenge 1,Round 1,Y,Y,Y,Y,N,00H 00M 30S 15MS
Student341,891000340,Assunta,TuneTalk Challenge 1,Round 1,Y,Y,Y,Y,N,00H 00M 30S 15MS
Student342,891000341,Assunta,TuneTalk Challenge 1,Round 1,Y,Y,Y,Y,N,00H 00M 30S 15MS
Student343,891000342,Assunta,TuneTalk Challenge 1,Round 1,Y,Y,Y,Y,N,00H 00M 30S 15MS
Student344,891000343,Assunta,TuneTalk Challenge 1,Round 1,Y,Y,Y,Y,N,00H 00M 30S 15MS
Student345,891000344,Assunta,TuneTalk Challenge 1,Round 1,Y,Y,Y,Y,N,00H 00M 30S 15MS
Student346,891000345,Assunta,TuneTalk Challenge 1,Round 1,Y,Y,Y,Y,N,00H 00M 30S 15MS
Student347,891000346,Assunta,TuneTalk Challenge 1,Round 1,Y,Y,Y,Y,N,00H 00M 30S 15MS
Student348,891000347,Assunta,TuneTalk Challenge 1,Round 1,Y,Y,Y,Y,N,00H 00M 30S 15MS
Student349,891000348,Assunta,TuneTalk Challenge 1,Round 1,Y,Y,Y,Y,N,00H 00M 30S 15MS
Student350,891000349,Assunta,TuneTalk Challenge 1,Round 1,Y,Y,Y,Y,N,00H 00M 30S 15MS
Student351,891000350,Assunta,TuneTalk Challenge 1,Round 1,Y,Y,Y,Y,N,00H 00M 30S 15MS
Student352,891000351,Assunta,TuneTalk Challenge 1,Round 1,Y,Y,Y,Y,N,00H 00M 30S 15MS
Student353,891000352,Assunta,TuneTalk Challenge 1,Round 1,Y,Y,Y,Y,N,00H 00M 30S 15MS
Student354,891000353,Assunta,TuneTalk Challenge 1,Round 1,Y,Y,Y,Y,N,00H 00M 30S 15MS
Student355,891000354,Assunta,TuneTalk Challenge 1,Round 1,Y,Y,Y,Y,N,00H 00M 30S 15MS
Student356,891000355,Assunta,TuneTalk Challenge 1,Round 1,Y,Y,Y,Y,N,00H 00M 30S 15MS
Student357,891000356,Assunta,TuneTalk Challenge 1,Round 1,Y,Y,Y,Y,N,00H 00M 30S 15MS
Student358,891000357,Assunta,TuneTalk Challenge 1,Round 1,Y,Y,Y,Y,N,00H 00M 30S 15MS
Student359,891000358,Assunta,TuneTalk Challenge 1,Round 1,Y,Y,Y,Y,N,00H 00M 30S 15MS
Student360,891000359,Assunta,TuneTalk Challenge 1,Round 1,Y,Y,Y,Y,N,00H 00M 30S 15MS
Student361,891000360,Assunta,TuneTalk Challenge 1,Round 1,Y,Y,Y,Y,N,00H 00M 30S 15MS
Student362,891000361,Assunta,TuneTalk Challenge 1,Round 1,Y,Y,Y,Y,N,00H 00M 30S 15MS
Student363,891000362,Assunta,TuneTalk Challenge 1,Round 1,Y,Y,Y,Y,N,00H 00M 30S 15MS
Student364,891000363,Assunta,TuneTalk Challenge 1,Round 1,Y,Y,Y,Y,N,00H 00M 30S 15MS
Student365,891000364,Assunta,TuneTalk Challenge 1,Round 1,Y,Y,Y,Y,N,00H 00M 30S 15MS
Student366,891000365,Assunta,TuneTalk Challenge 1,Round 1,Y,Y,Y,Y,N,00H 00M 30S 15MS
Student367,891000366,Assunta,TuneTalk Challenge 1,Round 1,Y,Y,Y,Y,N,00H 00M 30S 15MS
Student368,891000367,Assunta,TuneTalk Challenge 1,Round 1,Y,Y,Y,Y,N,00H 00M 30S 15MS
Student369,891000368,Assunta,TuneTalk Challenge 1,Round 1,Y,Y,Y,Y,N,00H 00M 30S 15MS
Student370,891000369,Assunta,TuneTalk Challenge 1,Round 1,Y,Y,Y,Y,N,00H 00M 30S 15MS
Student371,891000370,Assunta,TuneTalk Challenge 1,Round 1,Y,Y,Y,Y,N,00H 00M 30S 15MS
Student372,891000371,Assunta,TuneTalk Challenge 1,Round 1,Y,Y,Y,Y,N,00H 00M 30S 15MS
Student373,891000372,Assunta,TuneTalk Challenge 1,Round 1,Y,Y,Y,Y,N,00H 00M 30S 15MS
Student374,891000373,Assunta,TuneTalk Challenge 1,Round 1,Y,Y,Y,Y,N,00H 00M 30S 15MS
Student375,891000374,Assunta,TuneTalk Challenge 1,Round 1,Y,Y,Y,Y,N,00H 00M 30S 15MS
Student376,891000375,Assunta,TuneTalk Challenge 1,Round 1,Y,Y,Y,Y,N,00H 00M 30S 15MS
Student377,891000376,Assunta,TuneTalk Challenge 1,Round 1,Y,Y,Y,Y,N,00H 00M 30S 15MS
Student378,891000377,Assunta,TuneTalk Challenge 1,Round 1,Y,Y,Y,Y,N,00H 00M 30S 15MS
Student379,891000378,Assunta,TuneTalk Challenge 1,Round 1,Y,Y,Y,Y,N,00H 00M 30S 15MS
Student380,891000379,Assunta,TuneTalk Challenge 1,Round 1,Y,Y,Y,Y,N,00H 00M 30S 15MS
Student381,891000380,Assunta,TuneTalk Challenge 1,Round 1,Y,Y,Y,Y,N,00H 00M 30S 15MS
Student382,891000381,Assunta,TuneTalk Challenge 1,Round 1,Y,Y,Y,Y,N,00H 00M 30S 15MS
Student383,891000382,Assunta,TuneTalk Challenge 1,Round 1,Y,Y,Y,Y,N,00H 00M 30S 15MS
Student384,891000383,Assunta,TuneTalk Challenge 1,Round 1,Y,Y,Y,Y,N,00H 00M 30S 15MS
Student385,891000384,Assunta,TuneTalk Challenge 1,Round 1,Y,Y,Y,Y,N,00H 00M 30S 15MS
Student386,891000385,Assunta,TuneTalk Challenge 1,Round 1,Y,Y,Y,Y,N,00H 00M 30S 15MS
Student387,891000386,Assunta,TuneTalk Challenge 1,Round 1,Y,Y,Y,Y,N,00H 00M 30S 15MS
Student388,891000387,Assunta,TuneTalk Challenge 1,Round 1,Y,Y,Y,Y,N,00H 00M 30S 15MS
Student389,891000388,Assunta,TuneTalk Challenge 1,Round 1,Y,Y,Y,Y,N,00H 00M 30S 15MS
Student390,891000389,Assunta,TuneTalk Challenge 1,Round 1,Y,Y,Y,Y,N,00H 00M 30S 15MS
Student391,891000390,Assunta,TuneTalk Challenge 1,Round 1,Y,Y,Y,Y,N,00H 00M 30S 15MS
Student392,891000391,Assunta,TuneTalk Challenge 1,Round 1,Y,Y,Y,Y,N,00H 00M 30S 15MS
Student393,891000392,Assunta,TuneTalk Challenge 1,Round 1,Y,Y,Y,Y,N,00H 00M 30S 15MS
Student394,891000393,Assunta,TuneTalk Challenge 1,Round 1,Y,Y,Y,Y,N,00H 00M 30S 15MS
Student395,891000394,Assunta,TuneTalk Challenge 1,Round 1,Y,Y,Y,Y,N,00H 00M 30S 15MS
Student396,891000395,Assunta,TuneTalk Challenge 1,Round 1,Y,Y,Y,Y,N,00H 00M 30S 15MS
Student397,891000396,Assunta,TuneTalk Challenge 1,Round 1,Y,Y,Y,Y,N,00H 00M 30S 15MS
Student398,891000397,Assunta,TuneTalk Challenge 1,Round 1,Y,Y,Y,Y,N,00H 00M 30S 15MS
Student399,891000398,Assunta,TuneTalk Challenge 1,Round 1,Y,Y,Y,Y,N,00H 00M 30S 15MS
Student400,891000399,Assunta,TuneTalk Challenge 1,Round 1,Y,Y,Y,Y,N,00H 00M 30S 15MS
Student401,891000400,Assunta,TuneTalk Challenge 1,Round 1,Y,Y,Y,Y,N,00H 00M 30S 15MS
Student402,891000401,Assunta,TuneTalk Challenge 1,Round 1,Y,Y,Y,Y,N,00H 00M 30S 15MS
Student403,891000402,Assunta,TuneTalk Challenge 1,Round 1,Y,Y,Y,Y,N,00H 00M 30S 15MS
Student404,891000403,Assunta,TuneTalk Challenge 1,Round 1,Y,Y,Y,Y,N,00H 00M 30S 15MS
Student405,891000404,Assunta,TuneTalk Challenge 1,Round 1,Y,Y,Y,Y,N,00H 00M 30S 15MS
Student406,891000405,Assunta,TuneTalk Challenge 1,Round 1,Y,Y,Y,Y,N,00H 00M 30S 15MS
Student407,891000406,Assunta,TuneTalk Challenge 1,Round 1,Y,Y,Y,Y,N,00H 00M 30S 15MS
Student408,891000407,Assunta,TuneTalk Challenge 1,Round 1,Y,Y,Y,Y,N,00H 00M 30S 15MS
Student409,891000408,Assunta,TuneTalk Challenge 1,Round 1,Y,Y,Y,Y,N,00H 00M 30S 15MS
Student410,891000409,Assunta,TuneTalk Challenge 1,Round 1,Y,Y,Y,Y,N,00H 00M 30S 15MS
Student411,891000410,Assunta,TuneTalk Challenge 1,Round 1,Y,Y,Y,Y,N,00H 00M 30S 15MS
Student412,891000411,Assunta,TuneTalk Challenge 1,Round 1,Y,Y,Y,Y,N,00H 00M 30S 15MS
Student413,891000412,Assunta,TuneTalk Challenge 1,Round 1,Y,Y,Y,Y,N,00H 00M 30S 15MS
Student414,891000413,Assunta,TuneTalk Challenge 1,Round 1,Y,Y,Y,Y,N,00H 00M 30S 15MS
Student415,891000414,Assunta,TuneTalk Challenge 1,Round 1,Y,Y,Y,Y,N,00H 00M 30S 15MS
Student416,891000415,Assunta,TuneTalk Challenge 1,Round 1,Y,Y,Y,Y,N,00H 00M 30S 15MS
Student417,891000416,Assunta,TuneTalk Challenge 1,Round 1,Y,Y,Y,Y,N,00H 00M 30S 15MS
Student418,891000417,Assunta,TuneTalk Challenge 1,Round 1,Y,Y,Y,Y,N,00H 00M 30S 15MS
Student419,891000418,Assunta,TuneTalk Challenge 1,Round 1,Y,Y,Y,Y,N,00H 00M 30S 15MS
Student420,891000419,Assunta,TuneTalk Challenge 1,Round 1,Y,Y,Y,Y,N,00H 00M 30S 15MS
Student421,891000420,Assunta,TuneTalk Challenge 1,Round 1,Y,Y,Y,Y,N,00H 00M 30S 15MS
Student422,891000421,Assunta,TuneTalk Challenge 1,Round 1,Y,Y,Y,Y,N,00H 00M 30S 15MS
Student423,891000422,Assunta,TuneTalk Challenge 1,Round 1,Y,Y,Y,Y,N,00H 00M 30S 15MS
Student424,891000423,Assunta,TuneTalk Challenge 1,Round 1,Y,Y,Y,Y,N,00H 00M 30S 15MS
Student425,891000424,Assunta,TuneTalk Challenge 1,Round 1,Y,Y,Y,Y,N,00H 00M 30S 15MS
Student426,891000425,Assunta,TuneTalk Challenge 1,Round 1,Y,Y,Y,Y,N,00H 00M 30S 15MS
Student427,891000426,Assunta,TuneTalk Challenge 1,Round 1,Y,Y,Y,Y,N,00H 00M 30S 15MS
Student428,891000427,Assunta,TuneTalk Challenge 1,Round 1,Y,Y,Y,Y,N,00H 00M 30S 15MS
Student429,891000428,Assunta,TuneTalk Challenge 1,Round 1,Y,Y,Y,Y,N,00H 00M 30S 15MS
Student430,891000429,Assunta,TuneTalk Challenge 1,Round 1,Y,Y,Y,Y,N,00H 00M 30S 15MS
Student431,891000430,Assunta,TuneTalk Challenge 1,Round 1,Y,Y,Y,Y,N,00H 00M 30S 15MS
Student432,891000431,Assunta,TuneTalk Challenge 1,Round 1,Y,Y,Y,Y,N,00H 00M 30S 15MS
Student433,891000432,Assunta,TuneTalk Challenge 1,Round 1,Y,Y,Y,Y,N,00H 00M 30S 15MS
Student434,891000433,Assunta,TuneTalk Challenge 1,Round 1,Y,Y,Y,Y,N,00H 00M 30S 15MS
Student435,891000434,Assunta,TuneTalk Challenge 1,Round 1,Y,Y,Y,Y,N,00H 00M 30S 15MS
Student436,891000435,Assunta,TuneTalk Challenge 1,Round 1,Y,Y,Y,Y,N,00H 00M 30S 15MS
Student437,891000436,Assunta,TuneTalk Challenge 1,Round 1,Y,Y,Y,Y,N,00H 00M 30S 15MS
Student438,891000437,Assunta,TuneTalk Challenge 1,Round 1,Y,Y,Y,Y,N,00H 00M 30S 15MS
Student439,891000438,Assunta,TuneTalk Challenge 1,Round 1,Y,Y,Y,Y,N,00H 00M 30S 15MS
Student440,891000439,Assunta,TuneTalk Challenge 1,Round 1,Y,Y,Y,Y,N,00H 00M 30S 15MS
Student441,891000440,Assunta,TuneTalk Challenge 1,Round 1,Y,Y,Y,Y,N,00H 00M 30S 15MS
Student442,891000441,Assunta,TuneTalk Challenge 1,Round 1,Y,Y,Y,Y,N,00H 00M 30S 15MS
Student443,891000442,Assunta,TuneTalk Challenge 1,Round 1,Y,Y,Y,Y,N,00H 00M 30S 15MS
Student444,891000443,Assunta,TuneTalk Challenge 1,Round 1,Y,Y,Y,Y,N,00H 00M 30S 15MS
Student445,891000444,Assunta,TuneTalk Challenge 1,Round 1,Y,Y,Y,Y,N,00H 00M 30S 15MS
Student446,891000445,Assunta,TuneTalk Challenge 1,Round 1,Y,Y,Y,Y,N,00H 00M 30S 15MS
Student447,891000446,Assunta,TuneTalk Challenge 1,Round 1,Y,Y,Y,Y,N,00H 00M 30S 15MS
Student448,891000447,Assunta,TuneTalk Challenge 1,Round 1,Y,Y,Y,Y,N,00H 00M 30S 15MS
Student449,891000448,Assunta,TuneTalk Challenge 1,Round 1,Y,Y,Y,Y,N,00H 00M 30S 15MS
Student450,891000449,Assunta,TuneTalk Challenge 1,Round 1,Y,Y,Y,Y,N,00H 00M 30S 15MS
Student451,891000450,Assunta,TuneTalk Challenge 1,Round 1,Y,Y,Y,Y,N,00H 00M 30S 15MS
Student452,891000451,Assunta,TuneTalk Challenge 1,Round 1,Y,Y,Y,Y,N,00H 00M 30S 15MS
Student453,891000452,Assunta,TuneTalk Challenge 1,Round 1,Y,Y,Y,Y,N,00H 00M 30S 15MS
Student454,891000453,Assunta,TuneTalk Challenge 1,Round 1,Y,Y,Y,Y,N,00H 00M 30S 15MS
Student455,891000454,Assunta,TuneTalk Challenge 1,Round 1,Y,Y,Y,Y,N,00H 00M 30S 15MS
Student456,891000455,Assunta,TuneTalk Challenge 1,Round 1,Y,Y,Y,Y,N,00H 00M 30S 15MS
Student457,891000456,Assunta,TuneTalk Challenge 1,Round 1,Y,Y,Y,Y,N,00H 00M 30S 15MS
Student458,891000457,Assunta,TuneTalk Challenge 1,Round 1,Y,Y,Y,Y,N,00H 00M 30S 15MS
Student459,891000458,Assunta,TuneTalk Challenge 1,Round 1,Y,Y,Y,Y,N,00H 00M 30S 15MS
Student460,891000459,Assunta,TuneTalk Challenge 1,Round 1,Y,Y,Y,Y,N,00H 00M 30S 15MS
Student461,891000460,Assunta,TuneTalk Challenge 1,Round 1,Y,Y,Y,Y,N,00H 00M 30S 15MS
Student462,891000461,Assunta,TuneTalk Challenge 1,Round 1,Y,Y,Y,Y,N,00H 00M 30S 15MS
Student463,891000462,Assunta,TuneTalk Challenge 1,Round 1,Y,Y,Y,Y,N,00H 00M 30S 15MS
Student464,891000463,Assunta,TuneTalk Challenge 1,Round 1,Y,Y,Y,Y,N,00H 00M 30S 15MS
Student465,891000464,Assunta,TuneTalk Challenge 1,Round 1,Y,Y,Y,Y,N,00H 00M 30S 15MS
Student466,891000465,Assunta,TuneTalk Challenge 1,Round 1,Y,Y,Y,Y,N,00H 00M 30S 15MS
Student467,891000466,Assunta,TuneTalk Challenge 1,Round 1,Y,Y,Y,Y,N,00H 00M 30S 15MS
Student468,891000467,Assunta,TuneTalk Challenge 1,Round 1,Y,Y,Y,Y,N,00H 00M 30S 15MS
Student469,891000468,Assunta,TuneTalk Challenge 1,Round 1,Y,Y,Y,Y,N,00H 00M 30S 15MS
Student470,891000469,Assunta,TuneTalk Challenge 1,Round 1,Y,Y,Y,Y,N,00H 00M 30S 15MS
Student471,891000470,Assunta,TuneTalk Challenge 1,Round 1,Y,Y,Y,Y,N,00H 00M 30S 15MS
Student472,891000471,Assunta,TuneTalk Challenge 1,Round 1,Y,Y,Y,Y,N,00H 00M 30S 15MS
Student473,891000472,Assunta,TuneTalk Challenge 1,Round 1,Y,Y,Y,Y,N,00H 00M 30S 15MS
Student474,891000473,Assunta,TuneTalk Challenge 1,Round 1,Y,Y,Y,Y,N,00H 00M 30S 15MS
Student475,891000474,Assunta,TuneTalk Challenge 1,Round 1,Y,Y,Y,Y,N,00H 00M 30S 15MS
Student476,891000475,Assunta,TuneTalk Challenge 1,Round 1,Y,Y,Y,Y,N,00H 00M 30S 15MS
Student477,891000476,Assunta,TuneTalk Challenge 1,Round 1,Y,Y,Y,Y,N,00H 00M 30S 15MS
Student478,891000477,Assunta,TuneTalk Challenge 1,Round 1,Y,Y,Y,Y,N,00H 00M 30S 15MS
Student479,891000478,Assunta,TuneTalk Challenge 1,Round 1,Y,Y,Y,Y,N,00H 00M 30S 15MS
Student480,891000479,Assunta,TuneTalk Challenge 1,Round 1,Y,Y,Y,Y,N,00H 00M 30S 15MS
Student481,891000480,Assunta,TuneTalk Challenge 1,Round 1,Y,Y,Y,Y,N,00H 00M 30S 15MS
Student482,891000481,Assunta,TuneTalk Challenge 1,Round 1,Y,Y,Y,Y,N,00H 00M 30S 15MS
Student483,891000482,Assunta,TuneTalk Challenge 1,Round 1,Y,Y,Y,Y,N,00H 00M 30S 15MS
Student484,891000483,Assunta,TuneTalk Challenge 1,Round 1,Y,Y,Y,Y,N,00H 00M 30S 15MS
Student485,891000484,Assunta,TuneTalk Challenge 1,Round 1,Y,Y,Y,Y,N,00H 00M 30S 15MS
Student486,891000485,Assunta,TuneTalk Challenge 1,Round 1,Y,Y,Y,Y,N,00H 00M 30S 15MS
Student487,891000486,Assunta,TuneTalk Challenge 1,Round 1,Y,Y,Y,Y,N,00H 00M 30S 15MS
Student488,891000487,Assunta,TuneTalk Challenge 1,Round 1,Y,Y,Y,Y,N,00H 00M 30S 15MS
Student489,891000488,Assunta,TuneTalk Challenge 1,Round 1,Y,Y,Y,Y,N,00H 00M 30S 15MS
Student490,891000489,Assunta,TuneTalk Challenge 1,Round 1,Y,Y,Y,Y,N,00H 00M 30S 15MS
Student491,891000490,Assunta,TuneTalk Challenge 1,Round 1,Y,Y,Y,Y,N,00H 00M 30S 15MS
Student492,891000491,Assunta,TuneTalk Challenge 1,Round 1,Y,Y,Y,Y,N,00H 00M 30S 15MS
Student493,891000492,Assunta,TuneTalk Challenge 1,Round 1,Y,Y,Y,Y,N,00H 00M 30S 15MS
Student494,891000493,Assunta,TuneTalk Challenge 1,Round 1,Y,Y,Y,Y,N,00H 00M 30S 15MS
Student495,891000494,Assunta,TuneTalk Challenge 1,Round 1,Y,Y,Y,Y,N,00H 00M 30S 15MS
Student496,891000495,Assunta,TuneTalk Challenge 1,Round 1,Y,Y,Y,Y,N,00H 00M 30S 15MS
Student497,891000496,Assunta,TuneTalk Challenge 1,Round 1,Y,Y,Y,Y,N,00H 00M 30S 15MS
Student498,891000497,Assunta,TuneTalk Challenge 1,Round 1,Y,Y,Y,Y,N,00H 00M 30S 15MS
Student499,891000498,Assunta,TuneTalk Challenge 1,Round 1,Y,Y,Y,Y,N,00H 00M 30S 15MS
Student500,891000499,Assunta,TuneTalk Challenge 1,Round 1,Y,Y,Y,Y,N,00H 00M 30S 15MS
Student501,891000500,Assunta,TuneTalk Challenge 1,Round 1,Y,Y,Y,Y,N,00H 00M 30S 15MS
Student502,891000501,Assunta,TuneTalk Challenge 1,Round 1,Y,Y,Y,Y,N,00H 00M 30S 15MS
Student503,891000502,Assunta,TuneTalk Challenge 1,Round 1,Y,Y,Y,Y,N,00H 00M 30S 15MS
Student504,891000503,Assunta,TuneTalk Challenge 1,Round 1,Y,Y,Y,Y,N,00H 00M 30S 15MS
Student505,891000504,Assunta,TuneTalk Challenge 1,Round 1,Y,Y,Y,Y,N,00H 00M 30S 15MS
Student506,891000505,Assunta,TuneTalk Challenge 1,Round 1,Y,Y,Y,Y,N,00H 00M 30S 15MS
Student507,891000506,Assunta,TuneTalk Challenge 1,Round 1,Y,Y,Y,Y,N,00H 00M 30S 15MS
Student508,891000507,Assunta,TuneTalk Challenge 1,Round 1,Y,Y,Y,Y,N,00H 00M 30S 15MS
Student509,891000508,Assunta,TuneTalk Challenge 1,Round 1,Y,Y,Y,Y,N,00H 00M 30S 15MS
Student510,891000509,Assunta,TuneTalk Challenge 1,Round 1,Y,Y,Y,Y,N,00H 00M 30S 15MS
Student511,891000510,Assunta,TuneTalk Challenge 1,Round 1,Y,Y,Y,Y,N,00H 00M 30S 15MS
Student512,891000511,Assunta,TuneTalk Challenge 1,Round 1,Y,Y,Y,Y,N,00H 00M 30S 15MS
Student513,891000512,Assunta,TuneTalk Challenge 1,Round 1,Y,Y,Y,Y,N,00H 00M 30S 15MS
Student514,891000513,Assunta,TuneTalk Challenge 1,Round 1,Y,Y,Y,Y,N,00H 00M 30S 15MS
Student515,891000514,Assunta,TuneTalk Challenge 1,Round 1,Y,Y,Y,Y,N,00H 00M 30S 15MS
Student516,891000515,Assunta,TuneTalk Challenge 1,Round 1,Y,Y,Y,Y,N,00H 00M 30S 15MS
Student517,891000516,Assunta,TuneTalk Challenge 1,Round 1,Y,Y,Y,Y,N,00H 00M 30S 15MS
Student518,891000517,Assunta,TuneTalk Challenge 1,Round 1,Y,Y,Y,Y,N,00H 00M 30S 15MS
Student519,891000518,Assunta,TuneTalk Challenge 1,Round 1,Y,Y,Y,Y,N,00H 00M 30S 15MS
Student520,891000519,Assunta,TuneTalk Challenge 1,Round 1,Y,Y,Y,Y,N,00H 00M 30S 15MS
Student521,891000520,Assunta,TuneTalk Challenge 1,Round 1,Y,Y,Y,Y,N,00H 00M 30S 15MS
Student522,891000521,Assunta,TuneTalk Challenge 1,Round 1,Y,Y,Y,Y,N,00H 00M 30S 15MS
Student523,891000522,Assunta,TuneTalk Challenge 1,Round 1,Y,Y,Y,Y,N,00H 00M 30S 15MS
Student524,891000523,Assunta,TuneTalk Challenge 1,Round 1,Y,Y,Y,Y,N,00H 00M 30S 15MS
Student525,891000524,Assunta,TuneTalk Challenge 1,Round 1,Y,Y,Y,Y,N,00H 00M 30S 15MS
Student526,891000525,Assunta,TuneTalk Challenge 1,Round 1,Y,Y,Y,Y,N,00H 00M 30S 15MS
Student527,891000526,Assunta,TuneTalk Challenge 1,Round 1,Y,Y,Y,Y,N,00H 00M 30S 15MS
Student528,891000527,Assunta,TuneTalk Challenge 1,Round 1,Y,Y,Y,Y,N,00H 00M 30S 15MS
Student529,891000528,Assunta,TuneTalk Challenge 1,Round 1,Y,Y,Y,Y,N,00H 00M 30S 15MS
Student530,891000529,Assunta,TuneTalk Challenge 1,Round 1,Y,Y,Y,Y,N,00H 00M 30S 15MS
Student531,891000530,Assunta,TuneTalk Challenge 1,Round 1,Y,Y,Y,Y,N,00H 00M 30S 15MS
Student532,891000531,Assunta,TuneTalk Challenge 1,Round 1,Y,Y,Y,Y,N,00H 00M 30S 15MS
Student533,891000532,Assunta,TuneTalk Challenge 1,Round 1,Y,Y,Y,Y,N,00H 00M 30S 15MS
Student534,891000533,Assunta,TuneTalk Challenge 1,Round 1,Y,Y,Y,Y,N,00H 00M 30S 15MS
Student535,891000534,Assunta,TuneTalk Challenge 1,Round 1,Y,Y,Y,Y,N,00H 00M 30S 15MS
Student536,891000535,Assunta,TuneTalk Challenge 1,Round 1,Y,Y,Y,Y,N,00H 00M 30S 15MS
Student537,891000536,Assunta,TuneTalk Challenge 1,Round 1,Y,Y,Y,Y,N,00H 00M 30S 15MS
Student538,891000537,Assunta,TuneTalk Challenge 1,Round 1,Y,Y,Y,Y,N,00H 00M 30S 15MS
Student539,891000538,Assunta,TuneTalk Challenge 1,Round 1,Y,Y,Y,Y,N,00H 00M 30S 15MS
Student540,891000539,Assunta,TuneTalk Challenge 1,Round 1,Y,Y,Y,Y,N,00H 00M 30S 15MS
Student541,891000540,Assunta,TuneTalk Challenge 1,Round 1,Y,Y,Y,Y,N,00H 00M 30S 15MS
Student542,891000541,Assunta,TuneTalk Challenge 1,Round 1,Y,Y,Y,Y,N,00H 00M 30S 15MS
Student543,891000542,Assunta,TuneTalk Challenge 1,Round 1,Y,Y,Y,Y,N,00H 00M 30S 15MS
Student544,891000543,Assunta,TuneTalk Challenge 1,Round 1,Y,Y,Y,Y,N,00H 00M 30S 15MS
Student545,891000544,Assunta,TuneTalk Challenge 1,Round 1,Y,Y,Y,Y,N,00H 00M 30S 15MS
Student546,891000545,Assunta,TuneTalk Challenge 1,Round 1,Y,Y,Y,Y,N,00H 00M 30S 15MS
Student547,891000546,Assunta,TuneTalk Challenge 1,Round 1,Y,Y,Y,Y,N,00H 00M 30S 15MS
Student548,891000547,Assunta,TuneTalk Challenge 1,Round 1,Y,Y,Y,Y,N,00H 00M 30S 15MS
Student549,891000548,Assunta,TuneTalk Challenge 1,Round 1,Y,Y,Y,Y,N,00H 00M 30S 15MS
Student550,891000549,Assunta,TuneTalk Challenge 1,Round 1,Y,Y,Y,Y,N,00H 00M 30S 15MS
Student551,891000550,Assunta,TuneTalk Challenge 1,Round 1,Y,Y,Y,Y,N,00H 00M 30S 15MS
Student552,891000551,Assunta,TuneTalk Challenge 1,Round 1,Y,Y,Y,Y,N,00H 00M 30S 15MS
Student553,891000552,Assunta,TuneTalk Challenge 1,Round 1,Y,Y,Y,Y,N,00H 00M 30S 15MS
Student554,891000553,Assunta,TuneTalk Challenge 1,Round 1,Y,Y,Y,Y,N,00H 00M 30S 15MS
Student555,891000554,Assunta,TuneTalk Challenge 1,Round 1,Y,Y,Y,Y,N,00H 00M 30S 15MS
Student556,891000555,Assunta,TuneTalk Challenge 1,Round 1,Y,Y,Y,Y,N,00H 00M 30S 15MS
Student557,891000556,Assunta,TuneTalk Challenge 1,Round 1,Y,Y,Y,Y,N,00H 00M 30S 15MS
Student558,891000557,Assunta,TuneTalk Challenge 1,Round 1,Y,Y,Y,Y,N,00H 00M 30S 15MS
Student559,891000558,Assunta,TuneTalk Challenge 1,Round 1,Y,Y,Y,Y,N,00H 00M 30S 15MS
Student560,891000559,Assunta,TuneTalk Challenge 1,Round 1,Y,Y,Y,Y,N,00H 00M 30S 15MS
Student561,891000560,Assunta,TuneTalk Challenge 1,Round 1,Y,Y,Y,Y,N,00H 00M 30S 15MS
Student562,891000561,Assunta,TuneTalk Challenge 1,Round 1,Y,Y,Y,Y,N,00H 00M 30S 15MS
Student563,891000562,Assunta,TuneTalk Challenge 1,Round 1,Y,Y,Y,Y,N,00H 00M 30S 15MS
Student564,891000563,Assunta,TuneTalk Challenge 1,Round 1,Y,Y,Y,Y,N,00H 00M 30S 15MS
Student565,891000564,Assunta,TuneTalk Challenge 1,Round 1,Y,Y,Y,Y,N,00H 00M 30S 15MS
Student566,891000565,Assunta,TuneTalk Challenge 1,Round 1,Y,Y,Y,Y,N,00H 00M 30S 15MS
Student567,891000566,Assunta,TuneTalk Challenge 1,Round 1,Y,Y,Y,Y,N,00H 00M 30S 15MS
Student568,891000567,Assunta,TuneTalk Challenge 1,Round 1,Y,Y,Y,Y,N,00H 00M 30S 15MS
Student569,891000568,Assunta,TuneTalk Challenge 1,Round 1,Y,Y,Y,Y,N,00H 00M 30S 15MS
Student570,891000569,Assunta,TuneTalk Challenge 1,Round 1,Y,Y,Y,Y,N,00H 00M 30S 15MS
Student571,891000570,Assunta,TuneTalk Challenge 1,Round 1,Y,Y,Y,Y,N,00H 00M 30S 15MS
Student572,891000571,Assunta,TuneTalk Challenge 1,Round 1,Y,Y,Y,Y,N,00H 00M 30S 15MS
Student573,891000572,Assunta,TuneTalk Challenge 1,Round 1,Y,Y,Y,Y,N,00H 00M 30S 15MS
Student574,891000573,Assunta,TuneTalk Challenge 1,Round 1,Y,Y,Y,Y,N,00H 00M 30S 15MS
Student575,891000574,Assunta,TuneTalk Challenge 1,Round 1,Y,Y,Y,Y,N,00H 00M 30S 15MS
Student576,891000575,Assunta,TuneTalk Challenge 1,Round 1,Y,Y,Y,Y,N,00H 00M 30S 15MS
Student577,891000576,Assunta,TuneTalk Challenge 1,Round 1,Y,Y,Y,Y,N,00H 00M 30S 15MS
Student578,891000577,Assunta,TuneTalk Challenge 1,Round 1,Y,Y,Y,Y,N,00H 00M 30S 15MS
Student579,891000578,Assunta,TuneTalk Challenge 1,Round 1,Y,Y,Y,Y,N,00H 00M 30S 15MS
Student580,891000579,Assunta,TuneTalk Challenge 1,Round 1,Y,Y,Y,Y,N,00H 00M 30S 15MS
Student581,891000580,Assunta,TuneTalk Challenge 1,Round 1,Y,Y,Y,Y,N,00H 00M 30S 15MS
Student582,891000581,Assunta,TuneTalk Challenge 1,Round 1,Y,Y,Y,Y,N,00H 00M 30S 15MS
Student583,891000582,Assunta,TuneTalk Challenge 1,Round 1,Y,Y,Y,Y,N,00H 00M 30S 15MS
Student584,891000583,Assunta,TuneTalk Challenge 1,Round 1,Y,Y,Y,Y,N,00H 00M 30S 15MS
Student585,891000584,Assunta,TuneTalk Challenge 1,Round 1,Y,Y,Y,Y,N,00H 00M 30S 15MS
Student586,891000585,Assunta,TuneTalk Challenge 1,Round 1,Y,Y,Y,Y,N,00H 00M 30S 15MS
Student587,891000586,Assunta,TuneTalk Challenge 1,Round 1,Y,Y,Y,Y,N,00H 00M 30S 15MS
Student588,891000587,Assunta,TuneTalk Challenge 1,Round 1,Y,Y,Y,Y,N,00H 00M 30S 15MS
Student589,891000588,Assunta,TuneTalk Challenge 1,Round 1,Y,Y,Y,Y,N,00H 00M 30S 15MS
Student590,891000589,Assunta,TuneTalk Challenge 1,Round 1,Y,Y,Y,Y,N,00H 00M 30S 15MS
Student591,891000590,Assunta,TuneTalk Challenge 1,Round 1,Y,Y,Y,Y,N,00H 00M 30S 15MS
Student592,891000591,Assunta,TuneTalk Challenge 1,Round 1,Y,Y,Y,Y,N,00H 00M 30S 15MS
Student593,891000592,Assunta,TuneTalk Challenge 1,Round 1,Y,Y,Y,Y,N,00H 00M 30S 15MS
Student594,891000593,Assunta,TuneTalk Challenge 1,Round 1,Y,Y,Y,Y,N,00H 00M 30S 15MS
Student595,891000594,Assunta,TuneTalk Challenge 1,Round 1,Y,Y,Y,Y,N,00H 00M 30S 15MS
Student596,891000595,Assunta,TuneTalk Challenge 1,Round 1,Y,Y,Y,Y,N,00H 00M 30S 15MS
Student597,891000596,Assunta,TuneTalk Challenge 1,Round 1,Y,Y,Y,Y,N,00H 00M 30S 15MS
Student598,891000597,Assunta,TuneTalk Challenge 1,Round 1,Y,Y,Y,Y,N,00H 00M 30S 15MS
Student599,891000598,Assunta,TuneTalk Challenge 1,Round 1,Y,Y,Y,Y,N,00H 00M 30S 15MS
Student600,891000599,Assunta,TuneTalk Challenge 1,Round 1,Y,Y,Y,Y,N,00H 00M 30S 15MS
Student601,891000600,Assunta,TuneTalk Challenge 1,Round 1,Y,Y,Y,Y,N,00H 00M 30S 15MS
Student602,891000601,Assunta,TuneTalk Challenge 1,Round 1,Y,Y,Y,Y,N,00H 00M 30S 15MS
Student603,891000602,Assunta,TuneTalk Challenge 1,Round 1,Y,Y,Y,Y,N,00H 00M 30S 15MS
Student604,891000603,Assunta,TuneTalk Challenge 1,Round 1,Y,Y,Y,Y,N,00H 00M 30S 15MS
Student605,891000604,Assunta,TuneTalk Challenge 1,Round 1,Y,Y,Y,Y,N,00H 00M 30S 15MS
Student606,891000605,Assunta,TuneTalk Challenge 1,Round 1,Y,Y,Y,Y,N,00H 00M 30S 15MS
Student607,891000606,Assunta,TuneTalk Challenge 1,Round 1,Y,Y,Y,Y,N,00H 00M 30S 15MS
Student608,891000607,Assunta,TuneTalk Challenge 1,Round 1,Y,Y,Y,Y,N,00H 00M 30S 15MS
Student609,891000608,Assunta,TuneTalk Challenge 1,Round 1,Y,Y,Y,Y,N,00H 00M 30S 15MS
Student610,891000609,Assunta,TuneTalk Challenge 1,Round 1,Y,Y,Y,Y,N,00H 00M 30S 15MS
Student611,891000610,Assunta,TuneTalk Challenge 1,Round 1,Y,Y,Y,Y,N,00H 00M 30S 15MS
Student612,891000611,Assunta,TuneTalk Challenge 1,Round 1,Y,Y,Y,Y,N,00H 00M 30S 15MS
Student613,891000612,Assunta,TuneTalk Challenge 1,Round 1,Y,Y,Y,Y,N,00H 00M 30S 15MS
Student614,891000613,Assunta,TuneTalk Challenge 1,Round 1,Y,Y,Y,Y,N,00H 00M 30S 15MS
Student615,891000614,Assunta,TuneTalk Challenge 1,Round 1,Y,Y,Y,Y,N,00H 00M 30S 15MS
Student616,891000615,Assunta,TuneTalk Challenge 1,Round 1,Y,Y,Y,Y,N,00H 00M 30S 15MS
Student617,891000616,Assunta,TuneTalk Challenge 1,Round 1,Y,Y,Y,Y,N,00H 00M 30S 15MS
Student618,891000617,Assunta,TuneTalk Challenge 1,Round 1,Y,Y,Y,Y,N,00H 00M 30S 15MS
Student619,891000618,Assunta,TuneTalk Challenge 1,Round 1,Y,Y,Y,Y,N,00H 00M 30S 15MS
Student620,891000619,Assunta,TuneTalk Challenge 1,Round 1,Y,Y,Y,Y,N,00H 00M 30S 15MS
Student621,891000620,Assunta,TuneTalk Challenge 1,Round 1,Y,Y,Y,Y,N,00H 00M 30S 15MS
Student622,891000621,Assunta,TuneTalk Challenge 1,Round 1,Y,Y,Y,Y,N,00H 00M 30S 15MS
Student623,891000622,Assunta,TuneTalk Challenge 1,Round 1,Y,Y,Y,Y,N,00H 00M 30S 15MS
Student624,891000623,Assunta,TuneTalk Challenge 1,Round 1,Y,Y,Y,Y,N,00H 00M 30S 15MS
Student625,891000624,Assunta,TuneTalk Challenge 1,Round 1,Y,Y,Y,Y,N,00H 00M 30S 15MS
Student626,891000625,Assunta,TuneTalk Challenge 1,Round 1,Y,Y,Y,Y,N,00H 00M 30S 15MS
Student627,891000626,Assunta,TuneTalk Challenge 1,Round 1,Y,Y,Y,Y,N,00H 00M 30S 15MS
Student628,891000627,Assunta,TuneTalk Challenge 1,Round 1,Y,Y,Y,Y,N,00H 00M 30S 15MS
Student629,891000628,Assunta,TuneTalk Challenge 1,Round 1,Y,Y,Y,Y,N,00H 00M 30S 15MS
Student630,891000629,Assunta,TuneTalk Challenge 1,Round 1,Y,Y,Y,Y,N,00H 00M 30S 15MS
Student631,891000630,Assunta,TuneTalk Challenge 1,Round 1,Y,Y,Y,Y,N,00H 00M 30S 15MS
Student632,891000631,Assunta,TuneTalk Challenge 1,Round 1,Y,Y,Y,Y,N,00H 00M 30S 15MS
Student633,891000632,Assunta,TuneTalk Challenge 1,Round 1,Y,Y,Y,Y,N,00H 00M 30S 15MS
Student634,891000633,Assunta,TuneTalk Challenge 1,Round 1,Y,Y,Y,Y,N,00H 00M 30S 15MS
Student635,891000634,Assunta,TuneTalk Challenge 1,Round 1,Y,Y,Y,Y,N,00H 00M 30S 15MS
Student636,891000635,Assunta,TuneTalk Challenge 1,Round 1,Y,Y,Y,Y,N,00H 00M 30S 15MS
Student637,891000636,Assunta,TuneTalk Challenge 1,Round 1,Y,Y,Y,Y,N,00H 00M 30S 15MS
Student638,891000637,Assunta,TuneTalk Challenge 1,Round 1,Y,Y,Y,Y,N,00H 00M 30S 15MS
Student639,891000638,Assunta,TuneTalk Challenge 1,Round 1,Y,Y,Y,Y,N,00H 00M 30S 15MS
Student640,891000639,Assunta,TuneTalk Challenge 1,Round 1,Y,Y,Y,Y,N,00H 00M 30S 15MS
Student641,891000640,Assunta,TuneTalk Challenge 1,Round 1,Y,Y,Y,Y,N,00H 00M 30S 15MS
Student642,891000641,Assunta,TuneTalk Challenge 1,Round 1,Y,Y,Y,Y,N,00H 00M 30S 15MS
Student643,891000642,Assunta,TuneTalk Challenge 1,Round 1,Y,Y,Y,Y,N,00H 00M 30S 15MS
Student644,891000643,Assunta,TuneTalk Challenge 1,Round 1,Y,Y,Y,Y,N,00H 00M 30S 15MS
Student645,891000644,Assunta,TuneTalk Challenge 1,Round 1,Y,Y,Y,Y,N,00H 00M 30S 15MS
Student646,891000645,Assunta,TuneTalk Challenge 1,Round 1,Y,Y,Y,Y,N,00H 00M 30S 15MS
Student647,891000646,Assunta,TuneTalk Challenge 1,Round 1,Y,Y,Y,Y,N,00H 00M 30S 15MS
Student648,891000647,Assunta,TuneTalk Challenge 1,Round 1,Y,Y,Y,Y,N,00H 00M 30S 15MS
Student649,891000648,Assunta,TuneTalk Challenge 1,Round 1,Y,Y,Y,Y,N,00H 00M 30S 15MS
Student650,891000649,Assunta,TuneTalk Challenge 1,Round 1,Y,Y,Y,Y,N,00H 00M 30S 15MS
Student651,891000650,Assunta,TuneTalk Challenge 1,Round 1,Y,Y,Y,Y,N,00H 00M 30S 15MS
Student652,891000651,Assunta,TuneTalk Challenge 1,Round 1,Y,Y,Y,Y,N,00H 00M 30S 15MS
Student653,891000652,Assunta,TuneTalk Challenge 1,Round 1,Y,Y,Y,Y,N,00H 00M 30S 15MS
Student654,891000653,Assunta,TuneTalk Challenge 1,Round 1,Y,Y,Y,Y,N,00H 00M 30S 15MS
Student655,891000654,Assunta,TuneTalk Challenge 1,Round 1,Y,Y,Y,Y,N,00H 00M 30S 15MS
Student656,891000655,Assunta,TuneTalk Challenge 1,Round 1,Y,Y,Y,Y,N,00H 00M 30S 15MS
Student657,891000656,Assunta,TuneTalk Challenge 1,Round 1,Y,Y,Y,Y,N,00H 00M 30S 15MS
Student658,891000657,Assunta,TuneTalk Challenge 1,Round 1,Y,Y,Y,Y,N,00H 00M 30S 15MS
Student659,891000658,Assunta,TuneTalk Challenge 1,Round 1,Y,Y,Y,Y,N,00H 00M 30S 15MS
Student660,891000659,Assunta,TuneTalk Challenge 1,Round 1,Y,Y,Y,Y,N,00H 00M 30S 15MS
Student661,891000660,Assunta,TuneTalk Challenge 1,Round 1,Y,Y,Y,Y,N,00H 00M 30S 15MS
Student662,891000661,Assunta,TuneTalk Challenge 1,Round 1,Y,Y,Y,Y,N,00H 00M 30S 15MS
Student663,891000662,Assunta,TuneTalk Challenge 1,Round 1,Y,Y,Y,Y,N,00H 00M 30S 15MS
Student664,891000663,Assunta,TuneTalk Challenge 1,Round 1,Y,Y,Y,Y,N,00H 00M 30S 15MS
Student665,891000664,Assunta,TuneTalk Challenge 1,Round 1,Y,Y,Y,Y,N,00H 00M 30S 15MS
Student666,891000665,Assunta,TuneTalk Challenge 1,Round 1,Y,Y,Y,Y,N,00H 00M 30S 15MS
Student667,891000666,Assunta,TuneTalk Challenge 1,Round 1,Y,Y,Y,Y,N,00H 00M 30S 15MS
Student668,891000667,Assunta,TuneTalk Challenge 1,Round 1,Y,Y,Y,Y,N,00H 00M 30S 15MS
Student669,891000668,Assunta,TuneTalk Challenge 1,Round 1,Y,Y,Y,Y,N,00H 00M 30S 15MS
Student670,891000669,Assunta,TuneTalk Challenge 1,Round 1,Y,Y,Y,Y,N,00H 00M 30S 15MS
Student671,891000670,Assunta,TuneTalk Challenge 1,Round 1,Y,Y,Y,Y,N,00H 00M 30S 15MS
Student672,891000671,Assunta,TuneTalk Challenge 1,Round 1,Y,Y,Y,Y,N,00H 00M 30S 15MS
Student673,891000672,Assunta,TuneTalk Challenge 1,Round 1,Y,Y,Y,Y,N,00H 00M 30S 15MS
Student674,891000673,Assunta,TuneTalk Challenge 1,Round 1,Y,Y,Y,Y,N,00H 00M 30S 15MS
Student675,891000674,Assunta,TuneTalk Challenge 1,Round 1,Y,Y,Y,Y,N,00H 00M 30S 15MS
Student676,891000675,Assunta,TuneTalk Challenge 1,Round 1,Y,Y,Y,Y,N,00H 00M 30S 15MS
Student677,891000676,Assunta,TuneTalk Challenge 1,Round 1,Y,Y,Y,Y,N,00H 00M 30S 15MS
Student678,891000677,Assunta,TuneTalk Challenge 1,Round 1,Y,Y,Y,Y,N,00H 00M 30S 15MS
Student679,891000678,Assunta,TuneTalk Challenge 1,Round 1,Y,Y,Y,Y,N,00H 00M 30S 15MS
Student680,891000679,Assunta,TuneTalk Challenge 1,Round 1,Y,Y,Y,Y,N,00H 00M 30S 15MS
Student681,891000680,Assunta,TuneTalk Challenge 1,Round 1,Y,Y,Y,Y,N,00H 00M 30S 15MS
Student682,891000681,Assunta,TuneTalk Challenge 1,Round 1,Y,Y,Y,Y,N,00H 00M 30S 15MS
Student683,891000682,Assunta,TuneTalk Challenge 1,Round 1,Y,Y,Y,Y,N,00H 00M 30S 15MS
Student684,891000683,Assunta,TuneTalk Challenge 1,Round 1,Y,Y,Y,Y,N,00H 00M 30S 15MS
Student685,891000684,Assunta,TuneTalk Challenge 1,Round 1,Y,Y,Y,Y,N,00H 00M 30S 15MS
Student686,891000685,Assunta,TuneTalk Challenge 1,Round 1,Y,Y,Y,Y,N,00H 00M 30S 15MS
Student687,891000686,Assunta,TuneTalk Challenge 1,Round 1,Y,Y,Y,Y,N,00H 00M 30S 15MS
Student688,891000687,Assunta,TuneTalk Challenge 1,Round 1,Y,Y,Y,Y,N,00H 00M 30S 15MS
Student689,891000688,Assunta,TuneTalk Challenge 1,Round 1,Y,Y,Y,Y,N,00H 00M 30S 15MS
Student690,891000689,Assunta,TuneTalk Challenge 1,Round 1,Y,Y,Y,Y,N,00H 00M 30S 15MS
Student691,891000690,Assunta,TuneTalk Challenge 1,Round 1,Y,Y,Y,Y,N,00H 00M 30S 15MS
Student692,891000691,Assunta,TuneTalk Challenge 1,Round 1,Y,Y,Y,Y,N,00H 00M 30S 15MS
Student693,891000692,Assunta,TuneTalk Challenge 1,Round 1,Y,Y,Y,Y,N,00H 00M 30S 15MS
Student694,891000693,Assunta,TuneTalk Challenge 1,Round 1,Y,Y,Y,Y,N,00H 00M 30S 15MS
Student695,891000694,Assunta,TuneTalk Challenge 1,Round 1,Y,Y,Y,Y,N,00H 00M 30S 15MS
Student696,891000695,Assunta,TuneTalk Challenge 1,Round 1,Y,Y,Y,Y,N,00H 00M 30S 15MS
Student697,891000696,Assunta,TuneTalk Challenge 1,Round 1,Y,Y,Y,Y,N,00H 00M 30S 15MS
Student698,891000697,Assunta,TuneTalk Challenge 1,Round 1,Y,Y,Y,Y,N,00H 00M 30S 15MS
Student699,891000698,Assunta,TuneTalk Challenge 1,Round 1,Y,Y,Y,Y,N,00H 00M 30S 15MS
Student700,891000699,Assunta,TuneTalk Challenge 1,Round 1,Y,Y,Y,Y,N,00H 00M 30S 15MS
Student701,891000700,Assunta,TuneTalk Challenge 1,Round 1,Y,Y,Y,Y,N,00H 00M 30S 15MS
Student702,891000701,Assunta,TuneTalk Challenge 1,Round 1,Y,Y,Y,Y,N,00H 00M 30S 15MS
Student703,891000702,Assunta,TuneTalk Challenge 1,Round 1,Y,Y,Y,Y,N,00H 00M 30S 15MS
Student704,891000703,Assunta,TuneTalk Challenge 1,Round 1,Y,Y,Y,Y,N,00H 00M 30S 15MS
Student705,891000704,Assunta,TuneTalk Challenge 1,Round 1,Y,Y,Y,Y,N,00H 00M 30S 15MS
Student706,891000705,Assunta,TuneTalk Challenge 1,Round 1,Y,Y,Y,Y,N,00H 00M 30S 15MS
Student707,891000706,Assunta,TuneTalk Challenge 1,Round 1,Y,Y,Y,Y,N,00H 00M 30S 15MS
Student708,891000707,Assunta,TuneTalk Challenge 1,Round 1,Y,Y,Y,Y,N,00H 00M 30S 15MS
Student709,891000708,Assunta,TuneTalk Challenge 1,Round 1,Y,Y,Y,Y,N,00H 00M 30S 15MS
Student710,891000709,Assunta,TuneTalk Challenge 1,Round 1,Y,Y,Y,Y,N,00H 00M 30S 15MS
Student711,891000710,Assunta,TuneTalk Challenge 1,Round 1,Y,Y,Y,Y,N,00H 00M 30S 15MS
Student712,891000711,Assunta,TuneTalk Challenge 1,Round 1,Y,Y,Y,Y,N,00H 00M 30S 15MS
Student713,891000712,Assunta,TuneTalk Challenge 1,Round 1,Y,Y,Y,Y,N,00H 00M 30S 15MS
Student714,891000713,Assunta,TuneTalk Challenge 1,Round 1,Y,Y,Y,Y,N,00H 00M 30S 15MS
Student715,891000714,Assunta,TuneTalk Challenge 1,Round 1,Y,Y,Y,Y,N,00H 00M 30S 15MS
Student716,891000715,Assunta,TuneTalk Challenge 1,Round 1,Y,Y,Y,Y,N,00H 00M 30S 15MS
Student717,891000716,Assunta,TuneTalk Challenge 1,Round 1,Y,Y,Y,Y,N,00H 00M 30S 15MS
Student718,891000717,Assunta,TuneTalk Challenge 1,Round 1,Y,Y,Y,Y,N,00H 00M 30S 15MS
Student719,891000718,Assunta,TuneTalk Challenge 1,Round 1,Y,Y,Y,Y,N,00H 00M 30S 15MS
Student720,891000719,Assunta,TuneTalk Challenge 1,Round 1,Y,Y,Y,Y,N,00H 00M 30S 15MS
Student721,891000720,Assunta,TuneTalk Challenge 1,Round 1,Y,Y,Y,Y,N,00H 00M 30S 15MS
Student722,891000721,Assunta,TuneTalk Challenge 1,Round 1,Y,Y,Y,Y,N,00H 00M 30S 15MS
Student723,891000722,Assunta,TuneTalk Challenge 1,Round 1,Y,Y,Y,Y,N,00H 00M 30S 15MS
Student724,891000723,Assunta,TuneTalk Challenge 1,Round 1,Y,Y,Y,Y,N,00H 00M 30S 15MS
Student725,891000724,Assunta,TuneTalk Challenge 1,Round 1,Y,Y,Y,Y,N,00H 00M 30S 15MS
Student726,891000725,Assunta,TuneTalk Challenge 1,Round 1,Y,Y,Y,Y,N,00H 00M 30S 15MS
Student727,891000726,Assunta,TuneTalk Challenge 1,Round 1,Y,Y,Y,Y,N,00H 00M 30S 15MS
Student728,891000727,Assunta,TuneTalk Challenge 1,Round 1,Y,Y,Y,Y,N,00H 00M 30S 15MS
Student729,891000728,Assunta,TuneTalk Challenge 1,Round 1,Y,Y,Y,Y,N,00H 00M 30S 15MS
Student730,891000729,Assunta,TuneTalk Challenge 1,Round 1,Y,Y,Y,Y,N,00H 00M 30S 15MS
Student731,891000730,Assunta,TuneTalk Challenge 1,Round 1,Y,Y,Y,Y,N,00H 00M 30S 15MS
Student732,891000731,Assunta,TuneTalk Challenge 1,Round 1,Y,Y,Y,Y,N,00H 00M 30S 15MS
Student733,891000732,Assunta,TuneTalk Challenge 1,Round 1,Y,Y,Y,Y,N,00H 00M 30S 15MS
Student734,891000733,Assunta,TuneTalk Challenge 1,Round 1,Y,Y,Y,Y,N,00H 00M 30S 15MS
Student735,891000734,Assunta,TuneTalk Challenge 1,Round 1,Y,Y,Y,Y,N,00H 00M 30S 15MS
Student736,891000735,Assunta,TuneTalk Challenge 1,Round 1,Y,Y,Y,Y,N,00H 00M 30S 15MS
Student737,891000736,Assunta,TuneTalk Challenge 1,Round 1,Y,Y,Y,Y,N,00H 00M 30S 15MS
Student738,891000737,Assunta,TuneTalk Challenge 1,Round 1,Y,Y,Y,Y,N,00H 00M 30S 15MS
Student739,891000738,Assunta,TuneTalk Challenge 1,Round 1,Y,Y,Y,Y,N,00H 00M 30S 15MS
Student740,891000739,Assunta,TuneTalk Challenge 1,Round 1,Y,Y,Y,Y,N,00H 00M 30S 15MS
Student741,891000740,Assunta,TuneTalk Challenge 1,Round 1,Y,Y,Y,Y,N,00H 00M 30S 15MS
Student742,891000741,Assunta,TuneTalk Challenge 1,Round 1,Y,Y,Y,Y,N,00H 00M 30S 15MS
Student743,891000742,Assunta,TuneTalk Challenge 1,Round 1,Y,Y,Y,Y,N,00H 00M 30S 15MS
Student744,891000743,Assunta,TuneTalk Challenge 1,Round 1,Y,Y,Y,Y,N,00H 00M 30S 15MS
Student745,891000744,Assunta,TuneTalk Challenge 1,Round 1,Y,Y,Y,Y,N,00H 00M 30S 15MS
Student746,891000745,Assunta,TuneTalk Challenge 1,Round 1,Y,Y,Y,Y,N,00H 00M 30S 15MS
Student747,891000746,Assunta,TuneTalk Challenge 1,Round 1,Y,Y,Y,Y,N,00H 00M 30S 15MS
Student748,891000747,Assunta,TuneTalk Challenge 1,Round 1,Y,Y,Y,Y,N,00H 00M 30S 15MS
Student749,891000748,Assunta,TuneTalk Challenge 1,Round 1,Y,Y,Y,Y,N,00H 00M 30S 15MS
Student750,891000749,Assunta,TuneTalk Challenge 1,Round 1,Y,Y,Y,Y,N,00H 00M 30S 15MS
Student751,891000750,Assunta,TuneTalk Challenge 1,Round 1,Y,Y,Y,Y,N,00H 00M 30S 15MS
Student752,891000751,Assunta,TuneTalk Challenge 1,Round 1,Y,Y,Y,Y,N,00H 00M 30S 15MS
Student753,891000752,Assunta,TuneTalk Challenge 1,Round 1,Y,Y,Y,Y,N,00H 00M 30S 15MS
Student754,891000753,Assunta,TuneTalk Challenge 1,Round 1,Y,Y,Y,Y,N,00H 00M 30S 15MS
Student755,891000754,Assunta,TuneTalk Challenge 1,Round 1,Y,Y,Y,Y,N,00H 00M 30S 15MS
Student756,891000755,Assunta,TuneTalk Challenge 1,Round 1,Y,Y,Y,Y,N,00H 00M 30S 15MS
Student757,891000756,Assunta,TuneTalk Challenge 1,Round 1,Y,Y,Y,Y,N,00H 00M 30S 15MS
Student758,891000757,Assunta,TuneTalk Challenge 1,Round 1,Y,Y,Y,Y,N,00H 00M 30S 15MS
Student759,891000758,Assunta,TuneTalk Challenge 1,Round 1,Y,Y,Y,Y,N,00H 00M 30S 15MS
Student760,891000759,Assunta,TuneTalk Challenge 1,Round 1,Y,Y,Y,Y,N,00H 00M 30S 15MS
Student761,891000760,Assunta,TuneTalk Challenge 1,Round 1,Y,Y,Y,Y,N,00H 00M 30S 15MS
Student762,891000761,Assunta,TuneTalk Challenge 1,Round 1,Y,Y,Y,Y,N,00H 00M 30S 15MS
Student763,891000762,Assunta,TuneTalk Challenge 1,Round 1,Y,Y,Y,Y,N,00H 00M 30S 15MS
Student764,891000763,Assunta,TuneTalk Challenge 1,Round 1,Y,Y,Y,Y,N,00H 00M 30S 15MS
Student765,891000764,Assunta,TuneTalk Challenge 1,Round 1,Y,Y,Y,Y,N,00H 00M 30S 15MS
Student766,891000765,Assunta,TuneTalk Challenge 1,Round 1,Y,Y,Y,Y,N,00H 00M 30S 15MS
Student767,891000766,Assunta,TuneTalk Challenge 1,Round 1,Y,Y,Y,Y,N,00H 00M 30S 15MS
Student768,891000767,Assunta,TuneTalk Challenge 1,Round 1,Y,Y,Y,Y,N,00H 00M 30S 15MS
Student769,891000768,Assunta,TuneTalk Challenge 1,Round 1,Y,Y,Y,Y,N,00H 00M 30S 15MS
Student770,891000769,Assunta,TuneTalk Challenge 1,Round 1,Y,Y,Y,Y,N,00H 00M 30S 15MS
Student771,891000770,Assunta,TuneTalk Challenge 1,Round 1,Y,Y,Y,Y,N,00H 00M 30S 15MS
Student772,891000771,Assunta,TuneTalk Challenge 1,Round 1,Y,Y,Y,Y,N,00H 00M 30S 15MS
Student773,891000772,Assunta,TuneTalk Challenge 1,Round 1,Y,Y,Y,Y,N,00H 00M 30S 15MS
Student774,891000773,Assunta,TuneTalk Challenge 1,Round 1,Y,Y,Y,Y,N,00H 00M 30S 15MS
Student775,891000774,Assunta,TuneTalk Challenge 1,Round 1,Y,Y,Y,Y,N,00H 00M 30S 15MS
Student776,891000775,Assunta,TuneTalk Challenge 1,Round 1,Y,Y,Y,Y,N,00H 00M 30S 15MS
Student777,891000776,Assunta,TuneTalk Challenge 1,Round 1,Y,Y,Y,Y,N,00H 00M 30S 15MS
Student778,891000777,Assunta,TuneTalk Challenge 1,Round 1,Y,Y,Y,Y,N,00H 00M 30S 15MS
Student779,891000778,Assunta,TuneTalk Challenge 1,Round 1,Y,Y,Y,Y,N,00H 00M 30S 15MS
Student780,891000779,Assunta,TuneTalk Challenge 1,Round 1,Y,Y,Y,Y,N,00H 00M 30S 15MS
Student781,891000780,Assunta,TuneTalk Challenge 1,Round 1,Y,Y,Y,Y,N,00H 00M 30S 15MS
Student782,891000781,Assunta,TuneTalk Challenge 1,Round 1,Y,Y,Y,Y,N,00H 00M 30S 15MS
Student783,891000782,Assunta,TuneTalk Challenge 1,Round 1,Y,Y,Y,Y,N,00H 00M 30S 15MS
Student784,891000783,Assunta,TuneTalk Challenge 1,Round 1,Y,Y,Y,Y,N,00H 00M 30S 15MS
Student785,891000784,Assunta,TuneTalk Challenge 1,Round 1,Y,Y,Y,Y,N,00H 00M 30S 15MS
Student786,891000785,Assunta,TuneTalk Challenge 1,Round 1,Y,Y,Y,Y,N,00H 00M 30S 15MS
Student787,891000786,Assunta,TuneTalk Challenge 1,Round 1,Y,Y,Y,Y,N,00H 00M 30S 15MS
Student788,891000787,Assunta,TuneTalk Challenge 1,Round 1,Y,Y,Y,Y,N,00H 00M 30S 15MS
Student789,891000788,Assunta,TuneTalk Challenge 1,Round 1,Y,Y,Y,Y,N,00H 00M 30S 15MS
Student790,891000789,Assunta,TuneTalk Challenge 1,Round 1,Y,Y,Y,Y,N,00H 00M 30S 15MS
Student791,891000790,Assunta,TuneTalk Challenge 1,Round 1,Y,Y,Y,Y,N,00H 00M 30S 15MS
Student792,891000791,Assunta,TuneTalk Challenge 1,Round 1,Y,Y,Y,Y,N,00H 00M 30S 15MS
Student793,891000792,Assunta,TuneTalk Challenge 1,Round 1,Y,Y,Y,Y,N,00H 00M 30S 15MS
Student794,891000793,Assunta,TuneTalk Challenge 1,Round 1,Y,Y,Y,Y,N,00H 00M 30S 15MS
Student795,891000794,Assunta,TuneTalk Challenge 1,Round 1,Y,Y,Y,Y,N,00H 00M 30S 15MS
Student796,891000795,Assunta,TuneTalk Challenge 1,Round 1,Y,Y,Y,Y,N,00H 00M 30S 15MS
Student797,891000796,Assunta,TuneTalk Challenge 1,Round 1,Y,Y,Y,Y,N,00H 00M 30S 15MS
Student798,891000797,Assunta,TuneTalk Challenge 1,Round 1,Y,Y,Y,Y,N,00H 00M 30S 15MS
Student799,891000798,Assunta,TuneTalk Challenge 1,Round 1,Y,Y,Y,Y,N,00H 00M 30S 15MS
Student800,891000799,Assunta,TuneTalk Challenge 1,Round 1,Y,Y,Y,Y,N,00H 00M 30S 15MS
Student801,891000800,Assunta,TuneTalk Challenge 1,Round 1,Y,Y,Y,Y,N,00H 00M 30S 15MS
Student802,891000801,Assunta,TuneTalk Challenge 1,Round 1,Y,Y,Y,Y,N,00H 00M 30S 15MS
Student803,891000802,Assunta,TuneTalk Challenge 1,Round 1,Y,Y,Y,Y,N,00H 00M 30S 15MS
Student804,891000803,Assunta,TuneTalk Challenge 1,Round 1,Y,Y,Y,Y,N,00H 00M 30S 15MS
Student805,891000804,Assunta,TuneTalk Challenge 1,Round 1,Y,Y,Y,Y,N,00H 00M 30S 15MS
Student806,891000805,Assunta,TuneTalk Challenge 1,Round 1,Y,Y,Y,Y,N,00H 00M 30S 15MS
Student807,891000806,Assunta,TuneTalk Challenge 1,Round 1,Y,Y,Y,Y,N,00H 00M 30S 15MS
Student808,891000807,Assunta,TuneTalk Challenge 1,Round 1,Y,Y,Y,Y,N,00H 00M 30S 15MS
Student809,891000808,Assunta,TuneTalk Challenge 1,Round 1,Y,Y,Y,Y,N,00H 00M 30S 15MS
Student810,891000809,Assunta,TuneTalk Challenge 1,Round 1,Y,Y,Y,Y,N,00H 00M 30S 15MS
Student811,891000810,Assunta,TuneTalk Challenge 1,Round 1,Y,Y,Y,Y,N,00H 00M 30S 15MS
Student812,891000811,Assunta,TuneTalk Challenge 1,Round 1,Y,Y,Y,Y,N,00H 00M 30S 15MS
Student813,891000812,Assunta,TuneTalk Challenge 1,Round 1,Y,Y,Y,Y,N,00H 00M 30S 15MS
Student814,891000813,Assunta,TuneTalk Challenge 1,Round 1,Y,Y,Y,Y,N,00H 00M 30S 15MS
Student815,891000814,Assunta,TuneTalk Challenge 1,Round 1,Y,Y,Y,Y,N,00H 00M 30S 15MS
Student816,891000815,Assunta,TuneTalk Challenge 1,Round 1,Y,Y,Y,Y,N,00H 00M 30S 15MS
Student817,891000816,Assunta,TuneTalk Challenge 1,Round 1,Y,Y,Y,Y,N,00H 00M 30S 15MS
Student818,891000817,Assunta,TuneTalk Challenge 1,Round 1,Y,Y,Y,Y,N,00H 00M 30S 15MS
Student819,891000818,Assunta,TuneTalk Challenge 1,Round 1,Y,Y,Y,Y,N,00H 00M 30S 15MS
Student820,891000819,Assunta,TuneTalk Challenge 1,Round 1,Y,Y,Y,Y,N,00H 00M 30S 15MS
Student821,891000820,Assunta,TuneTalk Challenge 1,Round 1,Y,Y,Y,Y,N,00H 00M 30S 15MS
Student822,891000821,Assunta,TuneTalk Challenge 1,Round 1,Y,Y,Y,Y,N,00H 00M 30S 15MS
Student823,891000822,Assunta,TuneTalk Challenge 1,Round 1,Y,Y,Y,Y,N,00H 00M 30S 15MS
Student824,891000823,Assunta,TuneTalk Challenge 1,Round 1,Y,Y,Y,Y,N,00H 00M 30S 15MS
Student825,891000824,Assunta,TuneTalk Challenge 1,Round 1,Y,Y,Y,Y,N,00H 00M 30S 15MS
Student826,891000825,Assunta,TuneTalk Challenge 1,Round 1,Y,Y,Y,Y,N,00H 00M 30S 15MS
Student827,891000826,Assunta,TuneTalk Challenge 1,Round 1,Y,Y,Y,Y,N,00H 00M 30S 15MS
Student828,891000827,Assunta,TuneTalk Challenge 1,Round 1,Y,Y,Y,Y,N,00H 00M 30S 15MS
Student829,891000828,Assunta,TuneTalk Challenge 1,Round 1,Y,Y,Y,Y,N,00H 00M 30S 15MS
Student830,891000829,Assunta,TuneTalk Challenge 1,Round 1,Y,Y,Y,Y,N,00H 00M 30S 15MS
Student831,891000830,Assunta,TuneTalk Challenge 1,Round 1,Y,Y,Y,Y,N,00H 00M 30S 15MS
Student832,891000831,Assunta,TuneTalk Challenge 1,Round 1,Y,Y,Y,Y,N,00H 00M 30S 15MS
Student833,891000832,Assunta,TuneTalk Challenge 1,Round 1,Y,Y,Y,Y,N,00H 00M 30S 15MS
Student834,891000833,Assunta,TuneTalk Challenge 1,Round 1,Y,Y,Y,Y,N,00H 00M 30S 15MS
Student835,891000834,Assunta,TuneTalk Challenge 1,Round 1,Y,Y,Y,Y,N,00H 00M 30S 15MS
Student836,891000835,Assunta,TuneTalk Challenge 1,Round 1,Y,Y,Y,Y,N,00H 00M 30S 15MS
Student837,891000836,Assunta,TuneTalk Challenge 1,Round 1,Y,Y,Y,Y,N,00H 00M 30S 15MS
Student838,891000837,Assunta,TuneTalk Challenge 1,Round 1,Y,Y,Y,Y,N,00H 00M 30S 15MS
Student839,891000838,Assunta,TuneTalk Challenge 1,Round 1,Y,Y,Y,Y,N,00H 00M 30S 15MS
Student840,891000839,Assunta,TuneTalk Challenge 1,Round 1,Y,Y,Y,Y,N,00H 00M 30S 15MS
Student841,891000840,Assunta,TuneTalk Challenge 1,Round 1,Y,Y,Y,Y,N,00H 00M 30S 15MS
Student842,891000841,Assunta,TuneTalk Challenge 1,Round 1,Y,Y,Y,Y,N,00H 00M 30S 15MS
Student843,891000842,Assunta,TuneTalk Challenge 1,Round 1,Y,Y,Y,Y,N,00H 00M 30S 15MS
Student844,891000843,Assunta,TuneTalk Challenge 1,Round 1,Y,Y,Y,Y,N,00H 00M 30S 15MS
Student845,891000844,Assunta,TuneTalk Challenge 1,Round 1,Y,Y,Y,Y,N,00H 00M 30S 15MS
Student846,891000845,Assunta,TuneTalk Challenge 1,Round 1,Y,Y,Y,Y,N,00H 00M 30S 15MS
Student847,891000846,Assunta,TuneTalk Challenge 1,Round 1,Y,Y,Y,Y,N,00H 00M 30S 15MS
Student848,891000847,Assunta,TuneTalk Challenge 1,Round 1,Y,Y,Y,Y,N,00H 00M 30S 15MS
Student849,891000848,Assunta,TuneTalk Challenge 1,Round 1,Y,Y,Y,Y,N,00H 00M 30S 15MS
Student850,891000849,Assunta,TuneTalk Challenge 1,Round 1,Y,Y,Y,Y,N,00H 00M 30S 15MS
Student851,891000850,Assunta,TuneTalk Challenge 1,Round 1,Y,Y,Y,Y,N,00H 00M 30S 15MS
Student852,891000851,Assunta,TuneTalk Challenge 1,Round 1,Y,Y,Y,Y,N,00H 00M 30S 15MS
Student853,891000852,Assunta,TuneTalk Challenge 1,Round 1,Y,Y,Y,Y,N,00H 00M 30S 15MS
Student854,891000853,Assunta,TuneTalk Challenge 1,Round 1,Y,Y,Y,Y,N,00H 00M 30S 15MS
Student855,891000854,Assunta,TuneTalk Challenge 1,Round 1,Y,Y,Y,Y,N,00H 00M 30S 15MS
Student856,891000855,Assunta,TuneTalk Challenge 1,Round 1,Y,Y,Y,Y,N,00H 00M 30S 15MS
Student857,891000856,Assunta,TuneTalk Challenge 1,Round 1,Y,Y,Y,Y,N,00H 00M 30S 15MS
Student858,891000857,Assunta,TuneTalk Challenge 1,Round 1,Y,Y,Y,Y,N,00H 00M 30S 15MS
Student859,891000858,Assunta,TuneTalk Challenge 1,Round 1,Y,Y,Y,Y,N,00H 00M 30S 15MS
Student860,891000859,Assunta,TuneTalk Challenge 1,Round 1,Y,Y,Y,Y,N,00H 00M 30S 15MS
Student861,891000860,Assunta,TuneTalk Challenge 1,Round 1,Y,Y,Y,Y,N,00H 00M 30S 15MS
Student862,891000861,Assunta,TuneTalk Challenge 1,Round 1,Y,Y,Y,Y,N,00H 00M 30S 15MS
Student863,891000862,Assunta,TuneTalk Challenge 1,Round 1,Y,Y,Y,Y,N,00H 00M 30S 15MS
Student864,891000863,Assunta,TuneTalk Challenge 1,Round 1,Y,Y,Y,Y,N,00H 00M 30S 15MS
Student865,891000864,Assunta,TuneTalk Challenge 1,Round 1,Y,Y,Y,Y,N,00H 00M 30S 15MS
Student866,891000865,Assunta,TuneTalk Challenge 1,Round 1,Y,Y,Y,Y,N,00H 00M 30S 15MS
Student867,891000866,Assunta,TuneTalk Challenge 1,Round 1,Y,Y,Y,Y,N,00H 00M 30S 15MS
Student868,891000867,Assunta,TuneTalk Challenge 1,Round 1,Y,Y,Y,Y,N,00H 00M 30S 15MS
Student869,891000868,Assunta,TuneTalk Challenge 1,Round 1,Y,Y,Y,Y,N,00H 00M 30S 15MS
Student870,891000869,Assunta,TuneTalk Challenge 1,Round 1,Y,Y,Y,Y,N,00H 00M 30S 15MS
Student871,891000870,Assunta,TuneTalk Challenge 1,Round 1,Y,Y,Y,Y,N,00H 00M 30S 15MS
Student872,891000871,Assunta,TuneTalk Challenge 1,Round 1,Y,Y,Y,Y,N,00H 00M 30S 15MS
Student873,891000872,Assunta,TuneTalk Challenge 1,Round 1,Y,Y,Y,Y,N,00H 00M 30S 15MS
Student874,891000873,Assunta,TuneTalk Challenge 1,Round 1,Y,Y,Y,Y,N,00H 00M 30S 15MS
Student875,891000874,Assunta,TuneTalk Challenge 1,Round 1,Y,Y,Y,Y,N,00H 00M 30S 15MS
Student876,891000875,Assunta,TuneTalk Challenge 1,Round 1,Y,Y,Y,Y,N,00H 00M 30S 15MS
Student877,891000876,Assunta,TuneTalk Challenge 1,Round 1,Y,Y,Y,Y,N,00H 00M 30S 15MS
Student878,891000877,Assunta,TuneTalk Challenge 1,Round 1,Y,Y,Y,Y,N,00H 00M 30S 15MS
Student879,891000878,Assunta,TuneTalk Challenge 1,Round 1,Y,Y,Y,Y,N,00H 00M 30S 15MS
Student880,891000879,Assunta,TuneTalk Challenge 1,Round 1,Y,Y,Y,Y,N,00H 00M 30S 15MS
Student881,891000880,Assunta,TuneTalk Challenge 1,Round 1,Y,Y,Y,Y,N,00H 00M 30S 15MS
Student882,891000881,Assunta,TuneTalk Challenge 1,Round 1,Y,Y,Y,Y,N,00H 00M 30S 15MS
Student883,891000882,Assunta,TuneTalk Challenge 1,Round 1,Y,Y,Y,Y,N,00H 00M 30S 15MS
Student884,891000883,Assunta,TuneTalk Challenge 1,Round 1,Y,Y,Y,Y,N,00H 00M 30S 15MS
Student885,891000884,Assunta,TuneTalk Challenge 1,Round 1,Y,Y,Y,Y,N,00H 00M 30S 15MS
Student886,891000885,Assunta,TuneTalk Challenge 1,Round 1,Y,Y,Y,Y,N,00H 00M 30S 15MS
Student887,891000886,Assunta,TuneTalk Challenge 1,Round 1,Y,Y,Y,Y,N,00H 00M 30S 15MS
Student888,891000887,Assunta,TuneTalk Challenge 1,Round 1,Y,Y,Y,Y,N,00H 00M 30S 15MS
Student889,891000888,Assunta,TuneTalk Challenge 1,Round 1,Y,Y,Y,Y,N,00H 00M 30S 15MS
Student890,891000889,Assunta,TuneTalk Challenge 1,Round 1,Y,Y,Y,Y,N,00H 00M 30S 15MS
Student891,891000890,Assunta,TuneTalk Challenge 1,Round 1,Y,Y,Y,Y,N,00H 00M 30S 15MS
Student892,891000891,Assunta,TuneTalk Challenge 1,Round 1,Y,Y,Y,Y,N,00H 00M 30S 15MS
Student893,891000892,Assunta,TuneTalk Challenge 1,Round 1,Y,Y,Y,Y,N,00H 00M 30S 15MS
Student894,891000893,Assunta,TuneTalk Challenge 1,Round 1,Y,Y,Y,Y,N,00H 00M 30S 15MS
Student895,891000894,Assunta,TuneTalk Challenge 1,Round 1,Y,Y,Y,Y,N,00H 00M 30S 15MS
Student896,891000895,Assunta,TuneTalk Challenge 1,Round 1,Y,Y,Y,Y,N,00H 00M 30S 15MS
Student897,891000896,Assunta,TuneTalk Challenge 1,Round 1,Y,Y,Y,Y,N,00H 00M 30S 15MS
Student898,891000897,Assunta,TuneTalk Challenge 1,Round 1,Y,Y,Y,Y,N,00H 00M 30S 15MS
Student899,891000898,Assunta,TuneTalk Challenge 1,Round 1,Y,Y,Y,Y,N,00H 00M 30S 15MS
Student900,891000899,Assunta,TuneTalk Challenge 1,Round 1,Y,Y,Y,Y,N,00H 00M 30S 15MS
Student901,891000900,Assunta,TuneTalk Challenge 1,Round 1,Y,Y,Y,Y,N,00H 00M 30S 15MS
Student902,891000901,Assunta,TuneTalk Challenge 1,Round 1,Y,Y,Y,Y,N,00H 00M 30S 15MS
Student903,891000902,Assunta,TuneTalk Challenge 1,Round 1,Y,Y,Y,Y,N,00H 00M 30S 15MS
Student904,891000903,Assunta,TuneTalk Challenge 1,Round 1,Y,Y,Y,Y,N,00H 00M 30S 15MS
Student905,891000904,Assunta,TuneTalk Challenge 1,Round 1,Y,Y,Y,Y,N,00H 00M 30S 15MS
Student906,891000905,Assunta,TuneTalk Challenge 1,Round 1,Y,Y,Y,Y,N,00H 00M 30S 15MS
Student907,891000906,Assunta,TuneTalk Challenge 1,Round 1,Y,Y,Y,Y,N,00H 00M 30S 15MS
Student908,891000907,Assunta,TuneTalk Challenge 1,Round 1,Y,Y,Y,Y,N,00H 00M 30S 15MS
Student909,891000908,Assunta,TuneTalk Challenge 1,Round 1,Y,Y,Y,Y,N,00H 00M 30S 15MS
Student910,891000909,Assunta,TuneTalk Challenge 1,Round 1,Y,Y,Y,Y,N,00H 00M 30S 15MS
Student911,891000910,Assunta,TuneTalk Challenge 1,Round 1,Y,Y,Y,Y,N,00H 00M 30S 15MS
Student912,891000911,Assunta,TuneTalk Challenge 1,Round 1,Y,Y,Y,Y,N,00H 00M 30S 15MS
Student913,891000912,Assunta,TuneTalk Challenge 1,Round 1,Y,Y,Y,Y,N,00H 00M 30S 15MS
Student914,891000913,Assunta,TuneTalk Challenge 1,Round 1,Y,Y,Y,Y,N,00H 00M 30S 15MS
Student915,891000914,Assunta,TuneTalk Challenge 1,Round 1,Y,Y,Y,Y,N,00H 00M 30S 15MS
Student916,891000915,Assunta,TuneTalk Challenge 1,Round 1,Y,Y,Y,Y,N,00H 00M 30S 15MS
Student917,891000916,Assunta,TuneTalk Challenge 1,Round 1,Y,Y,Y,Y,N,00H 00M 30S 15MS
Student918,891000917,Assunta,TuneTalk Challenge 1,Round 1,Y,Y,Y,Y,N,00H 00M 30S 15MS
Student919,891000918,Assunta,TuneTalk Challenge 1,Round 1,Y,Y,Y,Y,N,00H 00M 30S 15MS
Student920,891000919,Assunta,TuneTalk Challenge 1,Round 1,Y,Y,Y,Y,N,00H 00M 30S 15MS
Student921,891000920,Assunta,TuneTalk Challenge 1,Round 1,Y,Y,Y,Y,N,00H 00M 30S 15MS
Student922,891000921,Assunta,TuneTalk Challenge 1,Round 1,Y,Y,Y,Y,N,00H 00M 30S 15MS
Student923,891000922,Assunta,TuneTalk Challenge 1,Round 1,Y,Y,Y,Y,N,00H 00M 30S 15MS
Student924,891000923,Assunta,TuneTalk Challenge 1,Round 1,Y,Y,Y,Y,N,00H 00M 30S 15MS
Student925,891000924,Assunta,TuneTalk Challenge 1,Round 1,Y,Y,Y,Y,N,00H 00M 30S 15MS
Student926,891000925,Assunta,TuneTalk Challenge 1,Round 1,Y,Y,Y,Y,N,00H 00M 30S 15MS
Student927,891000926,Assunta,TuneTalk Challenge 1,Round 1,Y,Y,Y,Y,N,00H 00M 30S 15MS
Student928,891000927,Assunta,TuneTalk Challenge 1,Round 1,Y,Y,Y,Y,N,00H 00M 30S 15MS
Student929,891000928,Assunta,TuneTalk Challenge 1,Round 1,Y,Y,Y,Y,N,00H 00M 30S 15MS
Student930,891000929,Assunta,TuneTalk Challenge 1,Round 1,Y,Y,Y,Y,N,00H 00M 30S 15MS
Student931,891000930,Assunta,TuneTalk Challenge 1,Round 1,Y,Y,Y,Y,N,00H 00M 30S 15MS
Student932,891000931,Assunta,TuneTalk Challenge 1,Round 1,Y,Y,Y,Y,N,00H 00M 30S 15MS
Student933,891000932,Assunta,TuneTalk Challenge 1,Round 1,Y,Y,Y,Y,N,00H 00M 30S 15MS
Student934,891000933,Assunta,TuneTalk Challenge 1,Round 1,Y,Y,Y,Y,N,00H 00M 30S 15MS
Student935,891000934,Assunta,TuneTalk Challenge 1,Round 1,Y,Y,Y,Y,N,00H 00M 30S 15MS
Student936,891000935,Assunta,TuneTalk Challenge 1,Round 1,Y,Y,Y,Y,N,00H 00M 30S 15MS
Student937,891000936,Assunta,TuneTalk Challenge 1,Round 1,Y,Y,Y,Y,N,00H 00M 30S 15MS
Student938,891000937,Assunta,TuneTalk Challenge 1,Round 1,Y,Y,Y,Y,N,00H 00M 30S 15MS
Student939,891000938,Assunta,TuneTalk Challenge 1,Round 1,Y,Y,Y,Y,N,00H 00M 30S 15MS
Student940,891000939,Assunta,TuneTalk Challenge 1,Round 1,Y,Y,Y,Y,N,00H 00M 30S 15MS
Student941,891000940,Assunta,TuneTalk Challenge 1,Round 1,Y,Y,Y,Y,N,00H 00M 30S 15MS
Student942,891000941,Assunta,TuneTalk Challenge 1,Round 1,Y,Y,Y,Y,N,00H 00M 30S 15MS
Student943,891000942,Assunta,TuneTalk Challenge 1,Round 1,Y,Y,Y,Y,N,00H 00M 30S 15MS
Student944,891000943,Assunta,TuneTalk Challenge 1,Round 1,Y,Y,Y,Y,N,00H 00M 30S 15MS
Student945,891000944,Assunta,TuneTalk Challenge 1,Round 1,Y,Y,Y,Y,N,00H 00M 30S 15MS
Student946,891000945,Assunta,TuneTalk Challenge 1,Round 1,Y,Y,Y,Y,N,00H 00M 30S 15MS
Student947,891000946,Assunta,TuneTalk Challenge 1,Round 1,Y,Y,Y,Y,N,00H 00M 30S 15MS
Student948,891000947,Assunta,TuneTalk Challenge 1,Round 1,Y,Y,Y,Y,N,00H 00M 30S 15MS
Student949,891000948,Assunta,TuneTalk Challenge 1,Round 1,Y,Y,Y,Y,N,00H 00M 30S 15MS
Student950,891000949,Assunta,TuneTalk Challenge 1,Round 1,Y,Y,Y,Y,N,00H 00M 30S 15MS
Student951,891000950,Assunta,TuneTalk Challenge 1,Round 1,Y,Y,Y,Y,N,00H 00M 30S 15MS
Student952,891000951,Assunta,TuneTalk Challenge 1,Round 1,Y,Y,Y,Y,N,00H 00M 30S 15MS
Student953,891000952,Assunta,TuneTalk Challenge 1,Round 1,Y,Y,Y,Y,N,00H 00M 30S 15MS
Student954,891000953,Assunta,TuneTalk Challenge 1,Round 1,Y,Y,Y,Y,N,00H 00M 30S 15MS
Student955,891000954,Assunta,TuneTalk Challenge 1,Round 1,Y,Y,Y,Y,N,00H 00M 30S 15MS
Student956,891000955,Assunta,TuneTalk Challenge 1,Round 1,Y,Y,Y,Y,N,00H 00M 30S 15MS
Student957,891000956,Assunta,TuneTalk Challenge 1,Round 1,Y,Y,Y,Y,N,00H 00M 30S 15MS
Student958,891000957,Assunta,TuneTalk Challenge 1,Round 1,Y,Y,Y,Y,N,00H 00M 30S 15MS
Student959,891000958,Assunta,TuneTalk Challenge 1,Round 1,Y,Y,Y,Y,N,00H 00M 30S 15MS
Student960,891000959,Assunta,TuneTalk Challenge 1,Round 1,Y,Y,Y,Y,N,00H 00M 30S 15MS
Student961,891000960,Assunta,TuneTalk Challenge 1,Round 1,Y,Y,Y,Y,N,00H 00M 30S 15MS
Student962,891000961,Assunta,TuneTalk Challenge 1,Round 1,Y,Y,Y,Y,N,00H 00M 30S 15MS
Student963,891000962,Assunta,TuneTalk Challenge 1,Round 1,Y,Y,Y,Y,N,00H 00M 30S 15MS
Student964,891000963,Assunta,TuneTalk Challenge 1,Round 1,Y,Y,Y,Y,N,00H 00M 30S 15MS
Student965,891000964,Assunta,TuneTalk Challenge 1,Round 1,Y,Y,Y,Y,N,00H 00M 30S 15MS
Student966,891000965,Assunta,TuneTalk Challenge 1,Round 1,Y,Y,Y,Y,N,00H 00M 30S 15MS
Student967,891000966,Assunta,TuneTalk Challenge 1,Round 1,Y,Y,Y,Y,N,00H 00M 30S 15MS
Student968,891000967,Assunta,TuneTalk Challenge 1,Round 1,Y,Y,Y,Y,N,00H 00M 30S 15MS
Student969,891000968,Assunta,TuneTalk Challenge 1,Round 1,Y,Y,Y,Y,N,00H 00M 30S 15MS
Student970,891000969,Assunta,TuneTalk Challenge 1,Round 1,Y,Y,Y,Y,N,00H 00M 30S 15MS
Student971,891000970,Assunta,TuneTalk Challenge 1,Round 1,Y,Y,Y,Y,N,00H 00M 30S 15MS
Student972,891000971,Assunta,TuneTalk Challenge 1,Round 1,Y,Y,Y,Y,N,00H 00M 30S 15MS
Student973,891000972,Assunta,TuneTalk Challenge 1,Round 1,Y,Y,Y,Y,N,00H 00M 30S 15MS
Student974,891000973,Assunta,TuneTalk Challenge 1,Round 1,Y,Y,Y,Y,N,00H 00M 30S 15MS
Student975,891000974,Assunta,TuneTalk Challenge 1,Round 1,Y,Y,Y,Y,N,00H 00M 30S 15MS
Student976,891000975,Assunta,TuneTalk Challenge 1,Round 1,Y,Y,Y,Y,N,00H 00M 30S 15MS
Student977,891000976,Assunta,TuneTalk Challenge 1,Round 1,Y,Y,Y,Y,N,00H 00M 30S 15MS
Student978,891000977,Assunta,TuneTalk Challenge 1,Round 1,Y,Y,Y,Y,N,00H 00M 30S 15MS
Student979,891000978,Assunta,TuneTalk Challenge 1,Round 1,Y,Y,Y,Y,N,00H 00M 30S 15MS
Student980,891000979,Assunta,TuneTalk Challenge 1,Round 1,Y,Y,Y,Y,N,00H 00M 30S 15MS
Student981,891000980,Assunta,TuneTalk Challenge 1,Round 1,Y,Y,Y,Y,N,00H 00M 30S 15MS
Student982,891000981,Assunta,TuneTalk Challenge 1,Round 1,Y,Y,Y,Y,N,00H 00M 30S 15MS
Student983,891000982,Assunta,TuneTalk Challenge 1,Round 1,Y,Y,Y,Y,N,00H 00M 30S 15MS
Student984,891000983,Assunta,TuneTalk Challenge 1,Round 1,Y,Y,Y,Y,N,00H 00M 30S 15MS
Student985,891000984,Assunta,TuneTalk Challenge 1,Round 1,Y,Y,Y,Y,N,00H 00M 30S 15MS
Student986,891000985,Assunta,TuneTalk Challenge 1,Round 1,Y,Y,Y,Y,N,00H 00M 30S 15MS
Student987,891000986,Assunta,TuneTalk Challenge 1,Round 1,Y,Y,Y,Y,N,00H 00M 30S 15MS
Student988,891000987,Assunta,TuneTalk Challenge 1,Round 1,Y,Y,Y,Y,N,00H 00M 30S 15MS
Student989,891000988,Assunta,TuneTalk Challenge 1,Round 1,Y,Y,Y,Y,N,00H 00M 30S 15MS
Student990,891000989,Assunta,TuneTalk Challenge 1,Round 1,Y,Y,Y,Y,N,00H 00M 30S 15MS
Student991,891000990,Assunta,TuneTalk Challenge 1,Round 1,Y,Y,Y,Y,N,00H 00M 30S 15MS
Student992,891000991,Assunta,TuneTalk Challenge 1,Round 1,Y,Y,Y,Y,N,00H 00M 30S 15MS
Student993,891000992,Assunta,TuneTalk Challenge 1,Round 1,Y,Y,Y,Y,N,00H 00M 30S 15MS
Student994,891000993,Assunta,TuneTalk Challenge 1,Round 1,Y,Y,Y,Y,N,00H 00M 30S 15MS
Student995,891000994,Assunta,TuneTalk Challenge 1,Round 1,Y,Y,Y,Y,N,00H 00M 30S 15MS
Student996,891000995,Assunta,TuneTalk Challenge 1,Round 1,Y,Y,Y,Y,N,00H 00M 30S 15MS
Student997,891000996,Assunta,TuneTalk Challenge 1,Round 1,Y,Y,Y,Y,N,00H 00M 30S 15MS
Student998,891000997,Assunta,TuneTalk Challenge 1,Round 1,Y,Y,Y,Y,N,00H 00M 30S 15MS
Student999,891000998,Assunta,TuneTalk Challenge 1,Round 1,Y,Y,Y,Y,N,00H 00M 30S 15MS
Student1000,891000999,Assunta,TuneTalk Challenge 1,Round 1,Y,Y,Y,Y,N,00H 00M 30S 15MS
Student1001,891001000,Assunta,TuneTalk Challenge 1,Round 1,Y,Y,Y,Y,N,00H 00M 30S 15MS
Student1002,891001001,Assunta,TuneTalk Challenge 1,Round 1,Y,Y,Y,Y,N,00H 00M 30S 15MS
Student1003,891001002,Assunta,TuneTalk Challenge 1,Round 1,Y,Y,Y,Y,N,00H 00M 30S 15MS
Student1004,891001003,Assunta,TuneTalk Challenge 1,Round 1,Y,Y,Y,Y,N,00H 00M 30S 15MS
Student1005,891001004,Assunta,TuneTalk Challenge 1,Round 1,Y,Y,Y,Y,N,00H 00M 30S 15MS
Student1006,891001005,Assunta,TuneTalk Challenge 1,Round 1,Y,Y,Y,Y,N,00H 00M 30S 15MS
Student1007,891001006,Assunta,TuneTalk Challenge 1,Round 1,Y,Y,Y,Y,N,00H 00M 30S 15MS
Student1008,891001007,Assunta,TuneTalk Challenge 1,Round 1,Y,Y,Y,Y,N,00H 00M 30S 15MS
Student1009,891001008,Assunta,TuneTalk Challenge 1,Round 1,Y,Y,Y,Y,N,00H 00M 30S 15MS
Student1010,891001009,Assunta,TuneTalk Challenge 1,Round 1,Y,Y,Y,Y,N,00H 00M 30S 15MS
Student1011,891001010,Assunta,TuneTalk Challenge 1,Round 1,Y,Y,Y,Y,N,00H 00M 30S 15MS
Student1012,891001011,Assunta,TuneTalk Challenge 1,Round 1,Y,Y,Y,Y,N,00H 00M 30S 15MS
Student1013,891001012,Assunta,TuneTalk Challenge 1,Round 1,Y,Y,Y,Y,N,00H 00M 30S 15MS
Student1014,891001013,Assunta,TuneTalk Challenge 1,Round 1,Y,Y,Y,Y,N,00H 00M 30S 15MS
Student1015,891001014,Assunta,TuneTalk Challenge 1,Round 1,Y,Y,Y,Y,N,00H 00M 30S 15MS
Student1016,891001015,Assunta,TuneTalk Challenge 1,Round 1,Y,Y,Y,Y,N,00H 00M 30S 15MS
Student1017,891001016,Assunta,TuneTalk Challenge 1,Round 1,Y,Y,Y,Y,N,00H 00M 30S 15MS
Student1018,891001017,Assunta,TuneTalk Challenge 1,Round 1,Y,Y,Y,Y,N,00H 00M 30S 15MS
Student1019,891001018,Assunta,TuneTalk Challenge 1,Round 1,Y,Y,Y,Y,N,00H 00M 30S 15MS
Student1020,891001019,Assunta,TuneTalk Challenge 1,Round 1,Y,Y,Y,Y,N,00H 00M 30S 15MS
Student1021,891001020,Assunta,TuneTalk Challenge 1,Round 1,Y,Y,Y,Y,N,00H 00M 30S 15MS
Student1022,891001021,Assunta,TuneTalk Challenge 1,Round 1,Y,Y,Y,Y,N,00H 00M 30S 15MS
Student1023,891001022,Assunta,TuneTalk Challenge 1,Round 1,Y,Y,Y,Y,N,00H 00M 30S 15MS
Student1024,891001023,Assunta,TuneTalk Challenge 1,Round 1,Y,Y,Y,Y,N,00H 00M 30S 15MS
Student1025,891001024,Assunta,TuneTalk Challenge 1,Round 1,Y,Y,Y,Y,N,00H 00M 30S 15MS
Student1026,891001025,Assunta,TuneTalk Challenge 1,Round 1,Y,Y,Y,Y,N,00H 00M 30S 15MS
Student1027,891001026,Assunta,TuneTalk Challenge 1,Round 1,Y,Y,Y,Y,N,00H 00M 30S 15MS
Student1028,891001027,Assunta,TuneTalk Challenge 1,Round 1,Y,Y,Y,Y,N,00H 00M 30S 15MS
Student1029,891001028,Assunta,TuneTalk Challenge 1,Round 1,Y,Y,Y,Y,N,00H 00M 30S 15MS
Student1030,891001029,Assunta,TuneTalk Challenge 1,Round 1,Y,Y,Y,Y,N,00H 00M 30S 15MS
Student1031,891001030,Assunta,TuneTalk Challenge 1,Round 1,Y,Y,Y,Y,N,00H 00M 30S 15MS
Student1032,891001031,Assunta,TuneTalk Challenge 1,Round 1,Y,Y,Y,Y,N,00H 00M 30S 15MS
Student1033,891001032,Assunta,TuneTalk Challenge 1,Round 1,Y,Y,Y,Y,N,00H 00M 30S 15MS
Student1034,891001033,Assunta,TuneTalk Challenge 1,Round 1,Y,Y,Y,Y,N,00H 00M 30S 15MS
Student1035,891001034,Assunta,TuneTalk Challenge 1,Round 1,Y,Y,Y,Y,N,00H 00M 30S 15MS
Student1036,891001035,Assunta,TuneTalk Challenge 1,Round 1,Y,Y,Y,Y,N,00H 00M 30S 15MS
Student1037,891001036,Assunta,TuneTalk Challenge 1,Round 1,Y,Y,Y,Y,N,00H 00M 30S 15MS
Student1038,891001037,Assunta,TuneTalk Challenge 1,Round 1,Y,Y,Y,Y,N,00H 00M 30S 15MS
Student1039,891001038,Assunta,TuneTalk Challenge 1,Round 1,Y,Y,Y,Y,N,00H 00M 30S 15MS
Student1040,891001039,Assunta,TuneTalk Challenge 1,Round 1,Y,Y,Y,Y,N,00H 00M 30S 15MS
Student1041,891001040,Assunta,TuneTalk Challenge 1,Round 1,Y,Y,Y,Y,N,00H 00M 30S 15MS
Student1042,891001041,Assunta,TuneTalk Challenge 1,Round 1,Y,Y,Y,Y,N,00H 00M 30S 15MS
Student1043,891001042,Assunta,TuneTalk Challenge 1,Round 1,Y,Y,Y,Y,N,00H 00M 30S 15MS
Student1044,891001043,Assunta,TuneTalk Challenge 1,Round 1,Y,Y,Y,Y,N,00H 00M 30S 15MS
Student1045,891001044,Assunta,TuneTalk Challenge 1,Round 1,Y,Y,Y,Y,N,00H 00M 30S 15MS
Student1046,891001045,Assunta,TuneTalk Challenge 1,Round 1,Y,Y,Y,Y,N,00H 00M 30S 15MS
Student1047,891001046,Assunta,TuneTalk Challenge 1,Round 1,Y,Y,Y,Y,N,00H 00M 30S 15MS
Student1048,891001047,Assunta,TuneTalk Challenge 1,Round 1,Y,Y,Y,Y,N,00H 00M 30S 15MS
Student1049,891001048,Assunta,TuneTalk Challenge 1,Round 1,Y,Y,Y,Y,N,00H 00M 30S 15MS
Student1050,891001049,Assunta,TuneTalk Challenge 1,Round 1,Y,Y,Y,Y,N,00H 00M 30S 15MS
Student1051,891001050,Assunta,TuneTalk Challenge 1,Round 1,Y,Y,Y,Y,N,00H 00M 30S 15MS
Student1052,891001051,Assunta,TuneTalk Challenge 1,Round 1,Y,Y,Y,Y,N,00H 00M 30S 15MS
Student1053,891001052,Assunta,TuneTalk Challenge 1,Round 1,Y,Y,Y,Y,N,00H 00M 30S 15MS
Student1054,891001053,Assunta,TuneTalk Challenge 1,Round 1,Y,Y,Y,Y,N,00H 00M 30S 15MS
Student1055,891001054,Assunta,TuneTalk Challenge 1,Round 1,Y,Y,Y,Y,N,00H 00M 30S 15MS
Student1056,891001055,Assunta,TuneTalk Challenge 1,Round 1,Y,Y,Y,Y,N,00H 00M 30S 15MS
Student1057,891001056,Assunta,TuneTalk Challenge 1,Round 1,Y,Y,Y,Y,N,00H 00M 30S 15MS
Student1058,891001057,Assunta,TuneTalk Challenge 1,Round 1,Y,Y,Y,Y,N,00H 00M 30S 15MS
Student1059,891001058,Assunta,TuneTalk Challenge 1,Round 1,Y,Y,Y,Y,N,00H 00M 30S 15MS
Student1060,891001059,Assunta,TuneTalk Challenge 1,Round 1,Y,Y,Y,Y,N,00H 00M 30S 15MS
Student1061,891001060,Assunta,TuneTalk Challenge 1,Round 1,Y,Y,Y,Y,N,00H 00M 30S 15MS
Student1062,891001061,Assunta,TuneTalk Challenge 1,Round 1,Y,Y,Y,Y,N,00H 00M 30S 15MS
Student1063,891001062,Assunta,TuneTalk Challenge 1,Round 1,Y,Y,Y,Y,N,00H 00M 30S 15MS
Student1064,891001063,Assunta,TuneTalk Challenge 1,Round 1,Y,Y,Y,Y,N,00H 00M 30S 15MS
Student1065,891001064,Assunta,TuneTalk Challenge 1,Round 1,Y,Y,Y,Y,N,00H 00M 30S 15MS
Student1066,891001065,Assunta,TuneTalk Challenge 1,Round 1,Y,Y,Y,Y,N,00H 00M 30S 15MS
Student1067,891001066,Assunta,TuneTalk Challenge 1,Round 1,Y,Y,Y,Y,N,00H 00M 30S 15MS
Student1068,891001067,Assunta,TuneTalk Challenge 1,Round 1,Y,Y,Y,Y,N,00H 00M 30S 15MS
Student1069,891001068,Assunta,TuneTalk Challenge 1,Round 1,Y,Y,Y,Y,N,00H 00M 30S 15MS
Student1070,891001069,Assunta,TuneTalk Challenge 1,Round 1,Y,Y,Y,Y,N,00H 00M 30S 15MS
Student1071,891001070,Assunta,TuneTalk Challenge 1,Round 1,Y,Y,Y,Y,N,00H 00M 30S 15MS
Student1072,891001071,Assunta,TuneTalk Challenge 1,Round 1,Y,Y,Y,Y,N,00H 00M 30S 15MS
Student1073,891001072,Assunta,TuneTalk Challenge 1,Round 1,Y,Y,Y,Y,N,00H 00M 30S 15MS
Student1074,891001073,Assunta,TuneTalk Challenge 1,Round 1,Y,Y,Y,Y,N,00H 00M 30S 15MS
Student1075,891001074,Assunta,TuneTalk Challenge 1,Round 1,Y,Y,Y,Y,N,00H 00M 30S 15MS
Student1076,891001075,Assunta,TuneTalk Challenge 1,Round 1,Y,Y,Y,Y,N,00H 00M 30S 15MS
Student1077,891001076,Assunta,TuneTalk Challenge 1,Round 1,Y,Y,Y,Y,N,00H 00M 30S 15MS
Student1078,891001077,Assunta,TuneTalk Challenge 1,Round 1,Y,Y,Y,Y,N,00H 00M 30S 15MS
Student1079,891001078,Assunta,TuneTalk Challenge 1,Round 1,Y,Y,Y,Y,N,00H 00M 30S 15MS
Student1080,891001079,Assunta,TuneTalk Challenge 1,Round 1,Y,Y,Y,Y,N,00H 00M 30S 15MS
Student1081,891001080,Assunta,TuneTalk Challenge 1,Round 1,Y,Y,Y,Y,N,00H 00M 30S 15MS
Student1082,891001081,Assunta,TuneTalk Challenge 1,Round 1,Y,Y,Y,Y,N,00H 00M 30S 15MS
Student1083,891001082,Assunta,TuneTalk Challenge 1,Round 1,Y,Y,Y,Y,N,00H 00M 30S 15MS
Student1084,891001083,Assunta,TuneTalk Challenge 1,Round 1,Y,Y,Y,Y,N,00H 00M 30S 15MS
Student1085,891001084,Assunta,TuneTalk Challenge 1,Round 1,Y,Y,Y,Y,N,00H 00M 30S 15MS
Student1086,891001085,Assunta,TuneTalk Challenge 1,Round 1,Y,Y,Y,Y,N,00H 00M 30S 15MS
Student1087,891001086,Assunta,TuneTalk Challenge 1,Round 1,Y,Y,Y,Y,N,00H 00M 30S 15MS
Student1088,891001087,Assunta,TuneTalk Challenge 1,Round 1,Y,Y,Y,Y,N,00H 00M 30S 15MS
Student1089,891001088,Assunta,TuneTalk Challenge 1,Round 1,Y,Y,Y,Y,N,00H 00M 30S 15MS
Student1090,891001089,Assunta,TuneTalk Challenge 1,Round 1,Y,Y,Y,Y,N,00H 00M 30S 15MS
Student1091,891001090,Assunta,TuneTalk Challenge 1,Round 1,Y,Y,Y,Y,N,00H 00M 30S 15MS
Student1092,891001091,Assunta,TuneTalk Challenge 1,Round 1,Y,Y,Y,Y,N,00H 00M 30S 15MS
Student1093,891001092,Assunta,TuneTalk Challenge 1,Round 1,Y,Y,Y,Y,N,00H 00M 30S 15MS
Student1094,891001093,Assunta,TuneTalk Challenge 1,Round 1,Y,Y,Y,Y,N,00H 00M 30S 15MS
