Name,Email,Password,Country Code,Contact,School,,
Pick one of the value for Student School Column: ,Assunta,Idrissi,Brainy Bunch,REAL School,GIIS,Tenby School,Convent
Pick one of the value for Country Code Column,Malaysia : 60,India : 91,United Kingdom : 44,Singapore : 65,United State : 1,,
Rakan1,,secret,60,892000100,Idrissi,,
Rakan2,,secret,60,892000101,Idrissi,,
Rakan3,,secret,60,892000102,Idrissi,,
Rakan4,,secret,60,892000103,Idrissi,,
Rakan5,,secret,60,892000104,Idrissi,,
Rakan6,,secret,60,892000105,Idrissi,,
Rakan7,,secret,60,892000106,Idrissi,,
Rakan8,,secret,60,892000107,Idrissi,,
Rakan9,,secret,60,892000108,Idrissi,,
Rakan10,,secret,60,892000109,Idrissi,,
Rakan11,,secret,60,892000110,Idrissi,,
Rakan12,,secret,60,892000111,Idrissi,,
Rakan13,,secret,60,892000112,Idrissi,,
Rakan14,,secret,60,892000113,Idrissi,,
Rakan15,,secret,60,892000114,Idrissi,,
Rakan16,,secret,60,892000115,Idrissi,,
Rakan17,,secret,60,892000116,Idrissi,,
Rakan18,,secret,60,892000117,Idrissi,,
Rakan19,,secret,60,892000118,Idrissi,,
Rakan20,,secret,60,892000119,Idrissi,,
Rakan21,,secret,60,892000120,Idrissi,,
Rakan22,,secret,60,892000121,Idrissi,,
Rakan23,,secret,60,892000122,Idrissi,,
Rakan24,,secret,60,892000123,Idrissi,,
Rakan25,,secret,60,892000124,Idrissi,,
Rakan26,,secret,60,892000125,Idrissi,,
Rakan27,,secret,60,892000126,Idrissi,,
Rakan28,,secret,60,892000127,Idrissi,,
Rakan29,,secret,60,892000128,Idrissi,,
Rakan30,,secret,60,892000129,Idrissi,,
Rakan31,,secret,60,892000130,Idrissi,,
Rakan32,,secret,60,892000131,Idrissi,,
Rakan33,,secret,60,892000132,Idrissi,,
Rakan34,,secret,60,892000133,Idrissi,,
Rakan35,,secret,60,892000134,Idrissi,,
Rakan36,,secret,60,892000135,Idrissi,,
Rakan37,,secret,60,892000136,Idrissi,,
Rakan38,,secret,60,892000137,Idrissi,,
Rakan39,,secret,60,892000138,Idrissi,,
Rakan40,,secret,60,892000139,Idrissi,,
Rakan41,,secret,60,892000140,Idrissi,,
Rakan42,,secret,60,892000141,Idrissi,,
Rakan43,,secret,60,892000142,Idrissi,,
Rakan44,,secret,60,892000143,Idrissi,,
Rakan45,,secret,60,892000144,Idrissi,,
Rakan46,,secret,60,892000145,Idrissi,,
Rakan47,,secret,60,892000146,Idrissi,,
Rakan48,,secret,60,892000147,Idrissi,,
Rakan49,,secret,60,892000148,Idrissi,,
Rakan50,,secret,60,892000149,Idrissi,,
Rakan51,,secret,60,892000150,Idrissi,,
Rakan52,,secret,60,892000151,Idrissi,,
Rakan53,,secret,60,892000152,Idrissi,,
Rakan54,,secret,60,892000153,Idrissi,,
Rakan55,,secret,60,892000154,Idrissi,,
Rakan56,,secret,60,892000155,Idrissi,,
Rakan57,,secret,60,892000156,Idrissi,,
Rakan58,,secret,60,892000157,Idrissi,,
Rakan59,,secret,60,892000158,Idrissi,,
Rakan60,,secret,60,892000159,Idrissi,,
Rakan61,,secret,60,892000160,Idrissi,,
Rakan62,,secret,60,892000161,Idrissi,,
Rakan63,,secret,60,892000162,Idrissi,,
Rakan64,,secret,60,892000163,Idrissi,,
Rakan65,,secret,60,892000164,Idrissi,,
Rakan66,,secret,60,892000165,Idrissi,,
Rakan67,,secret,60,892000166,Idrissi,,
Rakan68,,secret,60,892000167,Idrissi,,
Rakan69,,secret,60,892000168,Idrissi,,
Rakan70,,secret,60,892000169,Idrissi,,
Rakan71,,secret,60,892000170,Idrissi,,
Rakan72,,secret,60,892000171,Idrissi,,
Rakan73,,secret,60,892000172,Idrissi,,
Rakan74,,secret,60,892000173,Idrissi,,
Rakan75,,secret,60,892000174,Idrissi,,
Rakan76,,secret,60,892000175,Idrissi,,
Rakan77,,secret,60,892000176,Idrissi,,
Rakan78,,secret,60,892000177,Idrissi,,
Rakan79,,secret,60,892000178,Idrissi,,
Rakan80,,secret,60,892000179,Idrissi,,
Rakan81,,secret,60,892000180,Idrissi,,
Rakan82,,secret,60,892000181,Idrissi,,
Rakan83,,secret,60,892000182,Idrissi,,
Rakan84,,secret,60,892000183,Idrissi,,
Rakan85,,secret,60,892000184,Idrissi,,
Rakan86,,secret,60,892000185,Idrissi,,
Rakan87,,secret,60,892000186,Idrissi,,
Rakan88,,secret,60,892000187,Idrissi,,
Rakan89,,secret,60,892000188,Idrissi,,
Rakan90,,secret,60,892000189,Idrissi,,
Rakan91,,secret,60,892000190,Idrissi,,
Rakan92,,secret,60,892000191,Idrissi,,
Rakan93,,secret,60,892000192,Idrissi,,
Rakan94,,secret,60,892000193,Idrissi,,
Rakan95,,secret,60,892000194,Idrissi,,
Rakan96,,secret,60,892000195,Idrissi,,
Rakan97,,secret,60,892000196,Idrissi,,
