Name,Email,Password,Country Code,Contact,School,,,,,
Pick one of the value for Student School Column: ,Assunta,Idrissi,Brainy Bunch,REAL School,GIIS,Tenby School,Convent,MoneyTree,TuneTalk,Bandar Utama
Pick one of the value for Country Code Column,Malaysia : 60,India : 91,United Kingdom : 44,Singapore : 65,United State : 1,,,,,
JohnDoe,john@gmail.com,johndoe123,91,8989898989,City Montessory School,,,,,
01118781238,,1238,60,1118781238,Assunta,,,,,
0107705612,,5612,60,107705612,Assunta,,,,,
01118861238,,1238,60,1118861238,Assunta,,,,,
0108145739,,5739,60,108145739,Assunta,,,,,
01118801238,,1238,60,1118801238,Assunta,,,,,
01115251237,,1237,60,1115251237,Assunta,,,,,
0105204220,,4220,60,105204220,Assunta,,,,,
,,,,,,,,,,
,,,,,,,,,,
