Student Name,Contact Number,School Name,Quiz Name,Round Name,Question 1,Question 2,Question 3,Question 4,Question 5,Question 6,Question 7,Question 8,Duration (format: 01H 00M 00S 00MS)
,,,Correct Answer: Enter Y,Incorrect Answer : Enter N,Which of the following is true about demand and price of a good or service?,Which of the following statements is true?,"Before you buy something, what is it that you should always match?",Which of the following is a hidden cost that is usually a part of the price of something.,Which of the following is NOT a smart buying habit?,What is the corporate colour for Tune Talk?,Which airline is Tune Talk affiliated with?,Tune Talk does not have the following social media account,
Girl1,87300101000,Convent,TuneTalk Challenge,Round 1,Y,Y,Y,Y,Y,Y,Y,Y,00H 00M 20S 11MS
Girl1,87300101000,Convent,TuneTalk Challenge,Round 1,Y,Y,Y,Y,Y,Y,Y,Y,00H 00M 20S 11MS
Girl103,87300101102,Convent,TuneTalk Challenge,Round 1,N,N,N,N,N,N,N,N,00H 00M 00S 00MS
Girl104,87300101103,Convent,TuneTalk Challenge,Round 1,N,N,N,N,N,N,N,N,00H 00M 00S 00MS
Girl105,87300101104,Convent,TuneTalk Challenge,Round 1,N,N,N,N,N,N,N,N,00H 00M 00S 00MS
Girl106,87300101105,Convent,TuneTalk Challenge,Round 1,N,N,N,N,N,N,N,N,00H 00M 00S 00MS
Girl107,87300101106,Convent,TuneTalk Challenge,Round 1,N,N,N,N,N,N,N,N,00H 00M 00S 00MS
Girl108,87300101107,Convent,TuneTalk Challenge,Round 1,N,N,N,N,N,N,N,N,00H 00M 00S 00MS
Girl109,87300101108,Convent,TuneTalk Challenge,Round 1,N,N,N,N,N,N,N,N,00H 00M 00S 00MS
Girl110,87300101109,Convent,TuneTalk Challenge,Round 1,N,N,N,N,N,N,N,N,00H 00M 00S 00MS
Girl111,87300101110,Convent,TuneTalk Challenge,Round 1,N,N,N,N,N,N,N,N,00H 00M 00S 00MS
Girl112,87300101111,Convent,TuneTalk Challenge,Round 1,N,N,N,N,N,N,N,N,00H 00M 00S 00MS
Girl113,87300101112,Convent,TuneTalk Challenge,Round 1,N,N,N,N,N,N,N,N,00H 00M 00S 00MS
Girl114,87300101113,Convent,TuneTalk Challenge,Round 1,N,N,N,N,N,N,N,N,00H 00M 00S 00MS
Girl115,87300101114,Convent,TuneTalk Challenge,Round 1,N,N,N,N,N,N,N,N,00H 00M 00S 00MS
Girl116,87300101115,Convent,TuneTalk Challenge,Round 1,N,N,N,N,N,N,N,N,00H 00M 00S 00MS
Girl117,87300101116,Convent,TuneTalk Challenge,Round 1,N,N,N,N,N,N,N,N,00H 00M 00S 00MS
Girl118,87300101117,Convent,TuneTalk Challenge,Round 1,N,N,N,N,N,N,N,N,00H 00M 00S 00MS
Girl119,87300101118,Convent,TuneTalk Challenge,Round 1,N,N,N,N,N,N,N,N,00H 00M 00S 00MS
Girl120,87300101119,Convent,TuneTalk Challenge,Round 1,N,N,N,N,N,N,N,N,00H 00M 00S 00MS
Girl121,87300101120,Convent,TuneTalk Challenge,Round 1,N,N,N,N,N,N,N,N,00H 00M 00S 00MS
Girl122,87300101121,Convent,TuneTalk Challenge,Round 1,N,N,N,N,N,N,N,N,00H 00M 00S 00MS
Girl123,87300101122,Convent,TuneTalk Challenge,Round 1,N,N,N,N,N,N,N,N,00H 00M 00S 00MS
Girl124,87300101123,Convent,TuneTalk Challenge,Round 1,N,N,N,N,N,N,N,N,00H 00M 00S 00MS
Girl125,87300101124,Convent,TuneTalk Challenge,Round 1,N,N,N,N,N,N,N,N,00H 00M 00S 00MS
Girl126,87300101125,Convent,TuneTalk Challenge,Round 1,N,N,N,N,N,N,N,N,00H 00M 00S 00MS
Girl127,87300101126,Convent,TuneTalk Challenge,Round 1,N,N,N,N,N,N,N,N,00H 00M 00S 00MS
Girl128,87300101127,Convent,TuneTalk Challenge,Round 1,N,N,N,N,N,N,N,N,00H 00M 00S 00MS
Girl129,87300101128,Convent,TuneTalk Challenge,Round 1,N,N,N,N,N,N,N,N,00H 00M 00S 00MS
Girl130,87300101129,Convent,TuneTalk Challenge,Round 1,N,N,N,N,N,N,N,N,00H 00M 00S 00MS
Girl131,87300101130,Convent,TuneTalk Challenge,Round 1,N,N,N,N,N,N,N,N,00H 00M 00S 00MS
Girl132,87300101131,Convent,TuneTalk Challenge,Round 1,N,N,N,N,N,N,N,N,00H 00M 00S 00MS
Girl133,87300101132,Convent,TuneTalk Challenge,Round 1,N,N,N,N,N,N,N,N,00H 00M 00S 00MS
Girl134,87300101133,Convent,TuneTalk Challenge,Round 1,N,N,N,N,N,N,N,N,00H 00M 00S 00MS
Girl135,87300101134,Convent,TuneTalk Challenge,Round 1,N,N,N,N,N,N,N,N,00H 00M 00S 00MS
Girl136,87300101135,Convent,TuneTalk Challenge,Round 1,N,N,N,N,N,N,N,N,00H 00M 00S 00MS
Girl137,87300101136,Convent,TuneTalk Challenge,Round 1,N,N,N,N,N,N,N,N,00H 00M 00S 00MS
Girl138,87300101137,Convent,TuneTalk Challenge,Round 1,N,N,N,N,N,N,N,N,00H 00M 00S 00MS
Girl139,87300101138,Convent,TuneTalk Challenge,Round 1,N,N,N,N,N,N,N,N,00H 00M 00S 00MS
Girl140,87300101139,Convent,TuneTalk Challenge,Round 1,N,N,N,N,N,N,N,N,00H 00M 00S 00MS
Girl141,87300101140,Convent,TuneTalk Challenge,Round 1,N,N,N,N,N,N,N,N,00H 00M 00S 00MS
Girl142,87300101141,Convent,TuneTalk Challenge,Round 1,N,N,N,N,N,N,N,N,00H 00M 00S 00MS
Girl143,87300101142,Convent,TuneTalk Challenge,Round 1,N,N,N,N,N,N,N,N,00H 00M 00S 00MS
Girl144,87300101143,Convent,TuneTalk Challenge,Round 1,N,N,N,N,N,N,N,N,00H 00M 00S 00MS
Girl145,87300101144,Convent,TuneTalk Challenge,Round 1,N,N,N,N,N,N,N,N,00H 00M 00S 00MS
Girl146,87300101145,Convent,TuneTalk Challenge,Round 1,N,N,N,N,N,N,N,N,00H 00M 00S 00MS
Girl147,87300101146,Convent,TuneTalk Challenge,Round 1,N,N,N,N,N,N,N,N,00H 00M 00S 00MS
Girl148,87300101147,Convent,TuneTalk Challenge,Round 1,N,N,N,N,N,N,N,N,00H 00M 00S 00MS
Girl149,87300101148,Convent,TuneTalk Challenge,Round 1,N,N,N,N,N,N,N,N,00H 00M 00S 00MS
Girl150,87300101149,Convent,TuneTalk Challenge,Round 1,N,N,N,N,N,N,N,N,00H 00M 00S 00MS
Girl151,87300101150,Convent,TuneTalk Challenge,Round 1,N,N,N,N,N,N,N,N,00H 00M 00S 00MS
Girl152,87300101151,Convent,TuneTalk Challenge,Round 1,N,N,N,N,N,N,N,N,00H 00M 00S 00MS
Girl153,87300101152,Convent,TuneTalk Challenge,Round 1,N,N,N,N,N,N,N,N,00H 00M 00S 00MS
Girl154,87300101153,Convent,TuneTalk Challenge,Round 1,N,N,N,N,N,N,N,N,00H 00M 00S 00MS
Girl155,87300101154,Convent,TuneTalk Challenge,Round 1,N,N,N,N,N,N,N,N,00H 00M 00S 00MS
Girl156,87300101155,Convent,TuneTalk Challenge,Round 1,N,N,N,N,N,N,N,N,00H 00M 00S 00MS
Girl157,87300101156,Convent,TuneTalk Challenge,Round 1,N,N,N,N,N,N,N,N,00H 00M 00S 00MS
Girl158,87300101157,Convent,TuneTalk Challenge,Round 1,N,N,N,N,N,N,N,N,00H 00M 00S 00MS
Girl159,87300101158,Convent,TuneTalk Challenge,Round 1,N,N,N,N,N,N,N,N,00H 00M 00S 00MS
Girl160,87300101159,Convent,TuneTalk Challenge,Round 1,N,N,N,N,N,N,N,N,00H 00M 00S 00MS
Girl161,87300101160,Convent,TuneTalk Challenge,Round 1,N,N,N,N,N,N,N,N,00H 00M 00S 00MS
Girl162,87300101161,Convent,TuneTalk Challenge,Round 1,N,N,N,N,N,N,N,N,00H 00M 00S 00MS
Girl163,87300101162,Convent,TuneTalk Challenge,Round 1,N,N,N,N,N,N,N,N,00H 00M 00S 00MS
Girl164,87300101163,Convent,TuneTalk Challenge,Round 1,N,N,N,N,N,N,N,N,00H 00M 00S 00MS
Girl165,87300101164,Convent,TuneTalk Challenge,Round 1,N,N,N,N,N,N,N,N,00H 00M 00S 00MS
Girl166,87300101165,Convent,TuneTalk Challenge,Round 1,N,N,N,N,N,N,N,N,00H 00M 00S 00MS
Girl167,87300101166,Convent,TuneTalk Challenge,Round 1,N,N,N,N,N,N,N,N,00H 00M 00S 00MS
Girl168,87300101167,Convent,TuneTalk Challenge,Round 1,N,N,N,N,N,N,N,N,00H 00M 00S 00MS
Girl169,87300101168,Convent,TuneTalk Challenge,Round 1,N,N,N,N,N,N,N,N,00H 00M 00S 00MS
Girl170,87300101169,Convent,TuneTalk Challenge,Round 1,N,N,N,N,N,N,N,N,00H 00M 00S 00MS
Girl171,87300101170,Convent,TuneTalk Challenge,Round 1,N,N,N,N,N,N,N,N,00H 00M 00S 00MS
Girl172,87300101171,Convent,TuneTalk Challenge,Round 1,N,N,N,N,N,N,N,N,00H 00M 00S 00MS
Girl173,87300101172,Convent,TuneTalk Challenge,Round 1,N,N,N,N,N,N,N,N,00H 00M 00S 00MS
Girl174,87300101173,Convent,TuneTalk Challenge,Round 1,N,N,N,N,N,N,N,N,00H 00M 00S 00MS
Girl175,87300101174,Convent,TuneTalk Challenge,Round 1,N,N,N,N,N,N,N,N,00H 00M 00S 00MS
Girl176,87300101175,Convent,TuneTalk Challenge,Round 1,N,N,N,N,N,N,N,N,00H 00M 00S 00MS
Girl177,87300101176,Convent,TuneTalk Challenge,Round 1,N,N,N,N,N,N,N,N,00H 00M 00S 00MS
Girl178,87300101177,Convent,TuneTalk Challenge,Round 1,N,N,N,N,N,N,N,N,00H 00M 00S 00MS
Girl179,87300101178,Convent,TuneTalk Challenge,Round 1,N,N,N,N,N,N,N,N,00H 00M 00S 00MS
Girl180,87300101179,Convent,TuneTalk Challenge,Round 1,N,N,N,N,N,N,N,N,00H 00M 00S 00MS
Girl181,87300101180,Convent,TuneTalk Challenge,Round 1,N,N,N,N,N,N,N,N,00H 00M 00S 00MS
Girl182,87300101181,Convent,TuneTalk Challenge,Round 1,N,N,N,N,N,N,N,N,00H 00M 00S 00MS
Girl183,87300101182,Convent,TuneTalk Challenge,Round 1,N,N,N,N,N,N,N,N,00H 00M 00S 00MS
Girl184,87300101183,Convent,TuneTalk Challenge,Round 1,N,N,N,N,N,N,N,N,00H 00M 00S 00MS
Girl185,87300101184,Convent,TuneTalk Challenge,Round 1,N,N,N,N,N,N,N,N,00H 00M 00S 00MS
Girl186,87300101185,Convent,TuneTalk Challenge,Round 1,N,N,N,N,N,N,N,N,00H 00M 00S 00MS
Girl187,87300101186,Convent,TuneTalk Challenge,Round 1,N,N,N,N,N,N,N,N,00H 00M 00S 00MS
Girl188,87300101187,Convent,TuneTalk Challenge,Round 1,N,N,N,N,N,N,N,N,00H 00M 00S 00MS
Girl189,87300101188,Convent,TuneTalk Challenge,Round 1,N,N,N,N,N,N,N,N,00H 00M 00S 00MS
Girl190,87300101189,Convent,TuneTalk Challenge,Round 1,N,N,N,N,N,N,N,N,00H 00M 00S 00MS
Girl191,87300101190,Convent,TuneTalk Challenge,Round 1,N,N,N,N,N,N,N,N,00H 00M 00S 00MS
Girl192,87300101191,Convent,TuneTalk Challenge,Round 1,N,N,N,N,N,N,N,N,00H 00M 00S 00MS
Girl193,87300101192,Convent,TuneTalk Challenge,Round 1,N,N,N,N,N,N,N,N,00H 00M 00S 00MS
Girl194,87300101193,Convent,TuneTalk Challenge,Round 1,N,N,N,N,N,N,N,N,00H 00M 00S 00MS
Girl195,87300101194,Convent,TuneTalk Challenge,Round 1,N,N,N,N,N,N,N,N,00H 00M 00S 00MS
Girl196,87300101195,Convent,TuneTalk Challenge,Round 1,N,N,N,N,N,N,N,N,00H 00M 00S 00MS
Girl197,87300101196,Convent,TuneTalk Challenge,Round 1,N,N,N,N,N,N,N,N,00H 00M 00S 00MS
Girl198,87300101197,Convent,TuneTalk Challenge,Round 1,N,N,N,N,N,N,N,N,00H 00M 00S 00MS
Girl199,87300101198,Convent,TuneTalk Challenge,Round 1,N,N,N,N,N,N,N,N,00H 00M 00S 00MS
Girl200,87300101199,Convent,TuneTalk Challenge,Round 1,N,N,N,N,N,N,N,N,00H 00M 00S 00MS
Girl201,87300101200,Convent,TuneTalk Challenge,Round 1,N,N,N,N,N,N,N,N,00H 00M 00S 00MS
Girl202,87300101201,Convent,TuneTalk Challenge,Round 1,N,N,N,N,N,N,N,N,00H 00M 00S 00MS
Girl203,87300101202,Convent,TuneTalk Challenge,Round 1,N,N,N,N,N,N,N,N,00H 00M 00S 00MS
Girl204,87300101203,Convent,TuneTalk Challenge,Round 1,N,N,N,N,N,N,N,N,00H 00M 00S 00MS
Girl205,87300101204,Convent,TuneTalk Challenge,Round 1,N,N,N,N,N,N,N,N,00H 00M 00S 00MS
Girl206,87300101205,Convent,TuneTalk Challenge,Round 1,N,N,N,N,N,N,N,N,00H 00M 00S 00MS
Girl207,87300101206,Convent,TuneTalk Challenge,Round 1,N,N,N,N,N,N,N,N,00H 00M 00S 00MS
Girl208,87300101207,Convent,TuneTalk Challenge,Round 1,N,N,N,N,N,N,N,N,00H 00M 00S 00MS
Girl209,87300101208,Convent,TuneTalk Challenge,Round 1,N,N,N,N,N,N,N,N,00H 00M 00S 00MS
Girl210,87300101209,Convent,TuneTalk Challenge,Round 1,N,N,N,N,N,N,N,N,00H 00M 00S 00MS
Girl211,87300101210,Convent,TuneTalk Challenge,Round 1,N,N,N,N,N,N,N,N,00H 00M 00S 00MS
Girl212,87300101211,Convent,TuneTalk Challenge,Round 1,N,N,N,N,N,N,N,N,00H 00M 00S 00MS
Girl213,87300101212,Convent,TuneTalk Challenge,Round 1,N,N,N,N,N,N,N,N,00H 00M 00S 00MS
Girl214,87300101213,Convent,TuneTalk Challenge,Round 1,N,N,N,N,N,N,N,N,00H 00M 00S 00MS
Girl215,87300101214,Convent,TuneTalk Challenge,Round 1,N,N,N,N,N,N,N,N,00H 00M 00S 00MS
Girl216,87300101215,Convent,TuneTalk Challenge,Round 1,N,N,N,N,N,N,N,N,00H 00M 00S 00MS
Girl217,87300101216,Convent,TuneTalk Challenge,Round 1,N,N,N,N,N,N,N,N,00H 00M 00S 00MS
Girl218,87300101217,Convent,TuneTalk Challenge,Round 1,N,N,N,N,N,N,N,N,00H 00M 00S 00MS
Girl219,87300101218,Convent,TuneTalk Challenge,Round 1,N,N,N,N,N,N,N,N,00H 00M 00S 00MS
Girl220,87300101219,Convent,TuneTalk Challenge,Round 1,N,N,N,N,N,N,N,N,00H 00M 00S 00MS
Girl221,87300101220,Convent,TuneTalk Challenge,Round 1,N,N,N,N,N,N,N,N,00H 00M 00S 00MS
Girl222,87300101221,Convent,TuneTalk Challenge,Round 1,N,N,N,N,N,N,N,N,00H 00M 00S 00MS
Girl223,87300101222,Convent,TuneTalk Challenge,Round 1,N,N,N,N,N,N,N,N,00H 00M 00S 00MS
Girl224,87300101223,Convent,TuneTalk Challenge,Round 1,N,N,N,N,N,N,N,N,00H 00M 00S 00MS
Girl225,87300101224,Convent,TuneTalk Challenge,Round 1,N,N,N,N,N,N,N,N,00H 00M 00S 00MS
Girl226,87300101225,Convent,TuneTalk Challenge,Round 1,N,N,N,N,N,N,N,N,00H 00M 00S 00MS
Girl227,87300101226,Convent,TuneTalk Challenge,Round 1,N,N,N,N,N,N,N,N,00H 00M 00S 00MS
Girl228,87300101227,Convent,TuneTalk Challenge,Round 1,N,N,N,N,N,N,N,N,00H 00M 00S 00MS
Girl229,87300101228,Convent,TuneTalk Challenge,Round 1,N,N,N,N,N,N,N,N,00H 00M 00S 00MS
Girl230,87300101229,Convent,TuneTalk Challenge,Round 1,N,N,N,N,N,N,N,N,00H 00M 00S 00MS
Girl231,87300101230,Convent,TuneTalk Challenge,Round 1,N,N,N,N,N,N,N,N,00H 00M 00S 00MS
Girl232,87300101231,Convent,TuneTalk Challenge,Round 1,N,N,N,N,N,N,N,N,00H 00M 00S 00MS
Girl233,87300101232,Convent,TuneTalk Challenge,Round 1,N,N,N,N,N,N,N,N,00H 00M 00S 00MS
Girl234,87300101233,Convent,TuneTalk Challenge,Round 1,N,N,N,N,N,N,N,N,00H 00M 00S 00MS
Girl235,87300101234,Convent,TuneTalk Challenge,Round 1,N,N,N,N,N,N,N,N,00H 00M 00S 00MS
Girl236,87300101235,Convent,TuneTalk Challenge,Round 1,N,N,N,N,N,N,N,N,00H 00M 00S 00MS
Girl237,87300101236,Convent,TuneTalk Challenge,Round 1,N,N,N,N,N,N,N,N,00H 00M 00S 00MS
Girl238,87300101237,Convent,TuneTalk Challenge,Round 1,N,N,N,N,N,N,N,N,00H 00M 00S 00MS
Girl239,87300101238,Convent,TuneTalk Challenge,Round 1,N,N,N,N,N,N,N,N,00H 00M 00S 00MS
Girl240,87300101239,Convent,TuneTalk Challenge,Round 1,N,N,N,N,N,N,N,N,00H 00M 00S 00MS
Girl241,87300101240,Convent,TuneTalk Challenge,Round 1,N,N,N,N,N,N,N,N,00H 00M 00S 00MS
Girl242,87300101241,Convent,TuneTalk Challenge,Round 1,N,N,N,N,N,N,N,N,00H 00M 00S 00MS
Girl243,87300101242,Convent,TuneTalk Challenge,Round 1,N,N,N,N,N,N,N,N,00H 00M 00S 00MS
Girl244,87300101243,Convent,TuneTalk Challenge,Round 1,N,N,N,N,N,N,N,N,00H 00M 00S 00MS
Girl245,87300101244,Convent,TuneTalk Challenge,Round 1,N,N,N,N,N,N,N,N,00H 00M 00S 00MS
Girl246,87300101245,Convent,TuneTalk Challenge,Round 1,N,N,N,N,N,N,N,N,00H 00M 00S 00MS
Girl247,87300101246,Convent,TuneTalk Challenge,Round 1,N,N,N,N,N,N,N,N,00H 00M 00S 00MS
Girl248,87300101247,Convent,TuneTalk Challenge,Round 1,N,N,N,N,N,N,N,N,00H 00M 00S 00MS
Girl249,87300101248,Convent,TuneTalk Challenge,Round 1,N,N,N,N,N,N,N,N,00H 00M 00S 00MS
Girl250,87300101249,Convent,TuneTalk Challenge,Round 1,N,N,N,N,N,N,N,N,00H 00M 00S 00MS
Girl251,87300101250,Convent,TuneTalk Challenge,Round 1,N,N,N,N,N,N,N,N,00H 00M 00S 00MS
Girl252,87300101251,Convent,TuneTalk Challenge,Round 1,N,N,N,N,N,N,N,N,00H 00M 00S 00MS
Girl253,87300101252,Convent,TuneTalk Challenge,Round 1,N,N,N,N,N,N,N,N,00H 00M 00S 00MS
Girl254,87300101253,Convent,TuneTalk Challenge,Round 1,N,N,N,N,N,N,N,N,00H 00M 00S 00MS
Girl255,87300101254,Convent,TuneTalk Challenge,Round 1,N,N,N,N,N,N,N,N,00H 00M 00S 00MS
Girl256,87300101255,Convent,TuneTalk Challenge,Round 1,N,N,N,N,N,N,N,N,00H 00M 00S 00MS
Girl257,87300101256,Convent,TuneTalk Challenge,Round 1,N,N,N,N,N,N,N,N,00H 00M 00S 00MS
Girl258,87300101257,Convent,TuneTalk Challenge,Round 1,N,N,N,N,N,N,N,N,00H 00M 00S 00MS
Girl259,87300101258,Convent,TuneTalk Challenge,Round 1,N,N,N,N,N,N,N,N,00H 00M 00S 00MS
Girl260,87300101259,Convent,TuneTalk Challenge,Round 1,N,N,N,N,N,N,N,N,00H 00M 00S 00MS
Girl261,87300101260,Convent,TuneTalk Challenge,Round 1,N,N,N,N,N,N,N,N,00H 00M 00S 00MS
Girl262,87300101261,Convent,TuneTalk Challenge,Round 1,N,N,N,N,N,N,N,N,00H 00M 00S 00MS
Girl263,87300101262,Convent,TuneTalk Challenge,Round 1,N,N,N,N,N,N,N,N,00H 00M 00S 00MS
Girl264,87300101263,Convent,TuneTalk Challenge,Round 1,N,N,N,N,N,N,N,N,00H 00M 00S 00MS
Girl265,87300101264,Convent,TuneTalk Challenge,Round 1,N,N,N,N,N,N,N,N,00H 00M 00S 00MS
Girl266,87300101265,Convent,TuneTalk Challenge,Round 1,N,N,N,N,N,N,N,N,00H 00M 00S 00MS
Girl267,87300101266,Convent,TuneTalk Challenge,Round 1,N,N,N,N,N,N,N,N,00H 00M 00S 00MS
Girl268,87300101267,Convent,TuneTalk Challenge,Round 1,N,N,N,N,N,N,N,N,00H 00M 00S 00MS
Girl269,87300101268,Convent,TuneTalk Challenge,Round 1,N,N,N,N,N,N,N,N,00H 00M 00S 00MS
Girl270,87300101269,Convent,TuneTalk Challenge,Round 1,N,N,N,N,N,N,N,N,00H 00M 00S 00MS
Girl271,87300101270,Convent,TuneTalk Challenge,Round 1,N,N,N,N,N,N,N,N,00H 00M 00S 00MS
Girl272,87300101271,Convent,TuneTalk Challenge,Round 1,N,N,N,N,N,N,N,N,00H 00M 00S 00MS
Girl273,87300101272,Convent,TuneTalk Challenge,Round 1,N,N,N,N,N,N,N,N,00H 00M 00S 00MS
Girl274,87300101273,Convent,TuneTalk Challenge,Round 1,N,N,N,N,N,N,N,N,00H 00M 00S 00MS
Girl275,87300101274,Convent,TuneTalk Challenge,Round 1,N,N,N,N,N,N,N,N,00H 00M 00S 00MS
Girl276,87300101275,Convent,TuneTalk Challenge,Round 1,N,N,N,N,N,N,N,N,00H 00M 00S 00MS
Girl277,87300101276,Convent,TuneTalk Challenge,Round 1,N,N,N,N,N,N,N,N,00H 00M 00S 00MS
Girl278,87300101277,Convent,TuneTalk Challenge,Round 1,N,N,N,N,N,N,N,N,00H 00M 00S 00MS
Girl279,87300101278,Convent,TuneTalk Challenge,Round 1,N,N,N,N,N,N,N,N,00H 00M 00S 00MS
Girl280,87300101279,Convent,TuneTalk Challenge,Round 1,N,N,N,N,N,N,N,N,00H 00M 00S 00MS
Girl281,87300101280,Convent,TuneTalk Challenge,Round 1,N,N,N,N,N,N,N,N,00H 00M 00S 00MS
Girl282,87300101281,Convent,TuneTalk Challenge,Round 1,N,N,N,N,N,N,N,N,00H 00M 00S 00MS
Girl283,87300101282,Convent,TuneTalk Challenge,Round 1,N,N,N,N,N,N,N,N,00H 00M 00S 00MS
Girl284,87300101283,Convent,TuneTalk Challenge,Round 1,N,N,N,N,N,N,N,N,00H 00M 00S 00MS
Girl285,87300101284,Convent,TuneTalk Challenge,Round 1,N,N,N,N,N,N,N,N,00H 00M 00S 00MS
Girl286,87300101285,Convent,TuneTalk Challenge,Round 1,N,N,N,N,N,N,N,N,00H 00M 00S 00MS
Girl287,87300101286,Convent,TuneTalk Challenge,Round 1,N,N,N,N,N,N,N,N,00H 00M 00S 00MS
Girl288,87300101287,Convent,TuneTalk Challenge,Round 1,N,N,N,N,N,N,N,N,00H 00M 00S 00MS
Girl289,87300101288,Convent,TuneTalk Challenge,Round 1,N,N,N,N,N,N,N,N,00H 00M 00S 00MS
Girl290,87300101289,Convent,TuneTalk Challenge,Round 1,N,N,N,N,N,N,N,N,00H 00M 00S 00MS
Girl291,87300101290,Convent,TuneTalk Challenge,Round 1,N,N,N,N,N,N,N,N,00H 00M 00S 00MS
Girl292,87300101291,Convent,TuneTalk Challenge,Round 1,N,N,N,N,N,N,N,N,00H 00M 00S 00MS
Girl293,87300101292,Convent,TuneTalk Challenge,Round 1,N,N,N,N,N,N,N,N,00H 00M 00S 00MS
Girl294,87300101293,Convent,TuneTalk Challenge,Round 1,N,N,N,N,N,N,N,N,00H 00M 00S 00MS
Girl295,87300101294,Convent,TuneTalk Challenge,Round 1,N,N,N,N,N,N,N,N,00H 00M 00S 00MS
Girl296,87300101295,Convent,TuneTalk Challenge,Round 1,N,N,N,N,N,N,N,N,00H 00M 00S 00MS
Girl297,87300101296,Convent,TuneTalk Challenge,Round 1,N,N,N,N,N,N,N,N,00H 00M 00S 00MS
Girl298,87300101297,Convent,TuneTalk Challenge,Round 1,N,N,N,N,N,N,N,N,00H 00M 00S 00MS
Girl299,87300101298,Convent,TuneTalk Challenge,Round 1,N,N,N,N,N,N,N,N,00H 00M 00S 00MS
Girl300,87300101299,Convent,TuneTalk Challenge,Round 1,N,N,N,N,N,N,N,N,00H 00M 00S 00MS
Girl301,87300101300,Convent,TuneTalk Challenge,Round 1,N,N,N,N,N,N,N,N,00H 00M 00S 00MS
Girl302,87300101301,Convent,TuneTalk Challenge,Round 1,N,N,N,N,N,N,N,N,00H 00M 00S 00MS
Girl303,87300101302,Convent,TuneTalk Challenge,Round 1,N,N,N,N,N,N,N,N,00H 00M 00S 00MS
Girl304,87300101303,Convent,TuneTalk Challenge,Round 1,N,N,N,N,N,N,N,N,00H 00M 00S 00MS
Girl305,87300101304,Convent,TuneTalk Challenge,Round 1,N,N,N,N,N,N,N,N,00H 00M 00S 00MS
Girl306,87300101305,Convent,TuneTalk Challenge,Round 1,N,N,N,N,N,N,N,N,00H 00M 00S 00MS
Girl307,87300101306,Convent,TuneTalk Challenge,Round 1,N,N,N,N,N,N,N,N,00H 00M 00S 00MS
Girl308,87300101307,Convent,TuneTalk Challenge,Round 1,N,N,N,N,N,N,N,N,00H 00M 00S 00MS
Girl309,87300101308,Convent,TuneTalk Challenge,Round 1,N,N,N,N,N,N,N,N,00H 00M 00S 00MS
Girl310,87300101309,Convent,TuneTalk Challenge,Round 1,N,N,N,N,N,N,N,N,00H 00M 00S 00MS
Girl311,87300101310,Convent,TuneTalk Challenge,Round 1,N,N,N,N,N,N,N,N,00H 00M 00S 00MS
Girl312,87300101311,Convent,TuneTalk Challenge,Round 1,N,N,N,N,N,N,N,N,00H 00M 00S 00MS
Girl313,87300101312,Convent,TuneTalk Challenge,Round 1,N,N,N,N,N,N,N,N,00H 00M 00S 00MS
Girl314,87300101313,Convent,TuneTalk Challenge,Round 1,N,N,N,N,N,N,N,N,00H 00M 00S 00MS
Girl315,87300101314,Convent,TuneTalk Challenge,Round 1,N,N,N,N,N,N,N,N,00H 00M 00S 00MS
Girl316,87300101315,Convent,TuneTalk Challenge,Round 1,N,N,N,N,N,N,N,N,00H 00M 00S 00MS
Girl317,87300101316,Convent,TuneTalk Challenge,Round 1,N,N,N,N,N,N,N,N,00H 00M 00S 00MS
Girl318,87300101317,Convent,TuneTalk Challenge,Round 1,N,N,N,N,N,N,N,N,00H 00M 00S 00MS
Girl319,87300101318,Convent,TuneTalk Challenge,Round 1,N,N,N,N,N,N,N,N,00H 00M 00S 00MS
Girl320,87300101319,Convent,TuneTalk Challenge,Round 1,N,N,N,N,N,N,N,N,00H 00M 00S 00MS
Girl321,87300101320,Convent,TuneTalk Challenge,Round 1,N,N,N,N,N,N,N,N,00H 00M 00S 00MS
Girl322,87300101321,Convent,TuneTalk Challenge,Round 1,N,N,N,N,N,N,N,N,00H 00M 00S 00MS
Girl323,87300101322,Convent,TuneTalk Challenge,Round 1,N,N,N,N,N,N,N,N,00H 00M 00S 00MS
Girl324,87300101323,Convent,TuneTalk Challenge,Round 1,N,N,N,N,N,N,N,N,00H 00M 00S 00MS
Girl325,87300101324,Convent,TuneTalk Challenge,Round 1,N,N,N,N,N,N,N,N,00H 00M 00S 00MS
Girl326,87300101325,Convent,TuneTalk Challenge,Round 1,N,N,N,N,N,N,N,N,00H 00M 00S 00MS
Girl327,87300101326,Convent,TuneTalk Challenge,Round 1,N,N,N,N,N,N,N,N,00H 00M 00S 00MS
Girl328,87300101327,Convent,TuneTalk Challenge,Round 1,N,N,N,N,N,N,N,N,00H 00M 00S 00MS
Girl329,87300101328,Convent,TuneTalk Challenge,Round 1,N,N,N,N,N,N,N,N,00H 00M 00S 00MS
Girl330,87300101329,Convent,TuneTalk Challenge,Round 1,N,N,N,N,N,N,N,N,00H 00M 00S 00MS
Girl331,87300101330,Convent,TuneTalk Challenge,Round 1,N,N,N,N,N,N,N,N,00H 00M 00S 00MS
Girl332,87300101331,Convent,TuneTalk Challenge,Round 1,N,N,N,N,N,N,N,N,00H 00M 00S 00MS
Girl333,87300101332,Convent,TuneTalk Challenge,Round 1,N,N,N,N,N,N,N,N,00H 00M 00S 00MS
Girl334,87300101333,Convent,TuneTalk Challenge,Round 1,N,N,N,N,N,N,N,N,00H 00M 00S 00MS
Girl335,87300101334,Convent,TuneTalk Challenge,Round 1,N,N,N,N,N,N,N,N,00H 00M 00S 00MS
Girl336,87300101335,Convent,TuneTalk Challenge,Round 1,N,N,N,N,N,N,N,N,00H 00M 00S 00MS
Girl337,87300101336,Convent,TuneTalk Challenge,Round 1,N,N,N,N,N,N,N,N,00H 00M 00S 00MS
Girl338,87300101337,Convent,TuneTalk Challenge,Round 1,N,N,N,N,N,N,N,N,00H 00M 00S 00MS
Girl339,87300101338,Convent,TuneTalk Challenge,Round 1,N,N,N,N,N,N,N,N,00H 00M 00S 00MS
Girl340,87300101339,Convent,TuneTalk Challenge,Round 1,N,N,N,N,N,N,N,N,00H 00M 00S 00MS
Girl341,87300101340,Convent,TuneTalk Challenge,Round 1,N,N,N,N,N,N,N,N,00H 00M 00S 00MS
Girl342,87300101341,Convent,TuneTalk Challenge,Round 1,N,N,N,N,N,N,N,N,00H 00M 00S 00MS
Girl343,87300101342,Convent,TuneTalk Challenge,Round 1,N,N,N,N,N,N,N,N,00H 00M 00S 00MS
Girl344,87300101343,Convent,TuneTalk Challenge,Round 1,N,N,N,N,N,N,N,N,00H 00M 00S 00MS
Girl345,87300101344,Convent,TuneTalk Challenge,Round 1,N,N,N,N,N,N,N,N,00H 00M 00S 00MS
Girl346,87300101345,Convent,TuneTalk Challenge,Round 1,N,N,N,N,N,N,N,N,00H 00M 00S 00MS
Girl347,87300101346,Convent,TuneTalk Challenge,Round 1,N,N,N,N,N,N,N,N,00H 00M 00S 00MS
Girl348,87300101347,Convent,TuneTalk Challenge,Round 1,N,N,N,N,N,N,N,N,00H 00M 00S 00MS
Girl349,87300101348,Convent,TuneTalk Challenge,Round 1,N,N,N,N,N,N,N,N,00H 00M 00S 00MS
Girl350,87300101349,Convent,TuneTalk Challenge,Round 1,N,N,N,N,N,N,N,N,00H 00M 00S 00MS
Girl351,87300101350,Convent,TuneTalk Challenge,Round 1,N,N,N,N,N,N,N,N,00H 00M 00S 00MS
Girl352,87300101351,Convent,TuneTalk Challenge,Round 1,N,N,N,N,N,N,N,N,00H 00M 00S 00MS
Girl353,87300101352,Convent,TuneTalk Challenge,Round 1,N,N,N,N,N,N,N,N,00H 00M 00S 00MS
Girl354,87300101353,Convent,TuneTalk Challenge,Round 1,N,N,N,N,N,N,N,N,00H 00M 00S 00MS
Girl355,87300101354,Convent,TuneTalk Challenge,Round 1,N,N,N,N,N,N,N,N,00H 00M 00S 00MS
Girl356,87300101355,Convent,TuneTalk Challenge,Round 1,N,N,N,N,N,N,N,N,00H 00M 00S 00MS
Girl357,87300101356,Convent,TuneTalk Challenge,Round 1,N,N,N,N,N,N,N,N,00H 00M 00S 00MS
Girl358,87300101357,Convent,TuneTalk Challenge,Round 1,N,N,N,N,N,N,N,N,00H 00M 00S 00MS
Girl359,87300101358,Convent,TuneTalk Challenge,Round 1,N,N,N,N,N,N,N,N,00H 00M 00S 00MS
Girl360,87300101359,Convent,TuneTalk Challenge,Round 1,N,N,N,N,N,N,N,N,00H 00M 00S 00MS
Girl361,87300101360,Convent,TuneTalk Challenge,Round 1,N,N,N,N,N,N,N,N,00H 00M 00S 00MS
Girl362,87300101361,Convent,TuneTalk Challenge,Round 1,N,N,N,N,N,N,N,N,00H 00M 00S 00MS
Girl363,87300101362,Convent,TuneTalk Challenge,Round 1,N,N,N,N,N,N,N,N,00H 00M 00S 00MS
Girl364,87300101363,Convent,TuneTalk Challenge,Round 1,N,N,N,N,N,N,N,N,00H 00M 00S 00MS
Girl365,87300101364,Convent,TuneTalk Challenge,Round 1,N,N,N,N,N,N,N,N,00H 00M 00S 00MS
Girl366,87300101365,Convent,TuneTalk Challenge,Round 1,N,N,N,N,N,N,N,N,00H 00M 00S 00MS
Girl367,87300101366,Convent,TuneTalk Challenge,Round 1,N,N,N,N,N,N,N,N,00H 00M 00S 00MS
Girl368,87300101367,Convent,TuneTalk Challenge,Round 1,N,N,N,N,N,N,N,N,00H 00M 00S 00MS
Girl369,87300101368,Convent,TuneTalk Challenge,Round 1,N,N,N,N,N,N,N,N,00H 00M 00S 00MS
Girl370,87300101369,Convent,TuneTalk Challenge,Round 1,N,N,N,N,N,N,N,N,00H 00M 00S 00MS
Girl371,87300101370,Convent,TuneTalk Challenge,Round 1,N,N,N,N,N,N,N,N,00H 00M 00S 00MS
Girl372,87300101371,Convent,TuneTalk Challenge,Round 1,N,N,N,N,N,N,N,N,00H 00M 00S 00MS
Girl373,87300101372,Convent,TuneTalk Challenge,Round 1,N,N,N,N,N,N,N,N,00H 00M 00S 00MS
Girl374,87300101373,Convent,TuneTalk Challenge,Round 1,N,N,N,N,N,N,N,N,00H 00M 00S 00MS
Girl375,87300101374,Convent,TuneTalk Challenge,Round 1,N,N,N,N,N,N,N,N,00H 00M 00S 00MS
Girl376,87300101375,Convent,TuneTalk Challenge,Round 1,N,N,N,N,N,N,N,N,00H 00M 00S 00MS
Girl377,87300101376,Convent,TuneTalk Challenge,Round 1,N,N,N,N,N,N,N,N,00H 00M 00S 00MS
Girl378,87300101377,Convent,TuneTalk Challenge,Round 1,N,N,N,N,N,N,N,N,00H 00M 00S 00MS
Girl379,87300101378,Convent,TuneTalk Challenge,Round 1,N,N,N,N,N,N,N,N,00H 00M 00S 00MS
Girl380,87300101379,Convent,TuneTalk Challenge,Round 1,N,N,N,N,N,N,N,N,00H 00M 00S 00MS
Girl381,87300101380,Convent,TuneTalk Challenge,Round 1,N,N,N,N,N,N,N,N,00H 00M 00S 00MS
Girl382,87300101381,Convent,TuneTalk Challenge,Round 1,N,N,N,N,N,N,N,N,00H 00M 00S 00MS
Girl383,87300101382,Convent,TuneTalk Challenge,Round 1,N,N,N,N,N,N,N,N,00H 00M 00S 00MS
Girl384,87300101383,Convent,TuneTalk Challenge,Round 1,N,N,N,N,N,N,N,N,00H 00M 00S 00MS
Girl385,87300101384,Convent,TuneTalk Challenge,Round 1,N,N,N,N,N,N,N,N,00H 00M 00S 00MS
Girl386,87300101385,Convent,TuneTalk Challenge,Round 1,N,N,N,N,N,N,N,N,00H 00M 00S 00MS
Girl387,87300101386,Convent,TuneTalk Challenge,Round 1,N,N,N,N,N,N,N,N,00H 00M 00S 00MS
Girl388,87300101387,Convent,TuneTalk Challenge,Round 1,N,N,N,N,N,N,N,N,00H 00M 00S 00MS
Girl389,87300101388,Convent,TuneTalk Challenge,Round 1,N,N,N,N,N,N,N,N,00H 00M 00S 00MS
Girl390,87300101389,Convent,TuneTalk Challenge,Round 1,N,N,N,N,N,N,N,N,00H 00M 00S 00MS
Girl391,87300101390,Convent,TuneTalk Challenge,Round 1,N,N,N,N,N,N,N,N,00H 00M 00S 00MS
Girl392,87300101391,Convent,TuneTalk Challenge,Round 1,N,N,N,N,N,N,N,N,00H 00M 00S 00MS
Girl393,87300101392,Convent,TuneTalk Challenge,Round 1,N,N,N,N,N,N,N,N,00H 00M 00S 00MS
Girl394,87300101393,Convent,TuneTalk Challenge,Round 1,N,N,N,N,N,N,N,N,00H 00M 00S 00MS
Girl395,87300101394,Convent,TuneTalk Challenge,Round 1,N,N,N,N,N,N,N,N,00H 00M 00S 00MS
Girl396,87300101395,Convent,TuneTalk Challenge,Round 1,N,N,N,N,N,N,N,N,00H 00M 00S 00MS
Girl397,87300101396,Convent,TuneTalk Challenge,Round 1,N,N,N,N,N,N,N,N,00H 00M 00S 00MS
Girl398,87300101397,Convent,TuneTalk Challenge,Round 1,N,N,N,N,N,N,N,N,00H 00M 00S 00MS
Girl399,87300101398,Convent,TuneTalk Challenge,Round 1,N,N,N,N,N,N,N,N,00H 00M 00S 00MS
Girl400,87300101399,Convent,TuneTalk Challenge,Round 1,N,N,N,N,N,N,N,N,00H 00M 00S 00MS
Girl401,87300101400,Convent,TuneTalk Challenge,Round 1,N,N,N,N,N,N,N,N,00H 00M 00S 00MS
Girl402,87300101401,Convent,TuneTalk Challenge,Round 1,N,N,N,N,N,N,N,N,00H 00M 00S 00MS
Girl403,87300101402,Convent,TuneTalk Challenge,Round 1,N,N,N,N,N,N,N,N,00H 00M 00S 00MS
Girl404,87300101403,Convent,TuneTalk Challenge,Round 1,N,N,N,N,N,N,N,N,00H 00M 00S 00MS
Girl405,87300101404,Convent,TuneTalk Challenge,Round 1,N,N,N,N,N,N,N,N,00H 00M 00S 00MS
Girl406,87300101405,Convent,TuneTalk Challenge,Round 1,N,N,N,N,N,N,N,N,00H 00M 00S 00MS
Girl407,87300101406,Convent,TuneTalk Challenge,Round 1,N,N,N,N,N,N,N,N,00H 00M 00S 00MS
Girl408,87300101407,Convent,TuneTalk Challenge,Round 1,N,N,N,N,N,N,N,N,00H 00M 00S 00MS
Girl409,87300101408,Convent,TuneTalk Challenge,Round 1,N,N,N,N,N,N,N,N,00H 00M 00S 00MS
Girl410,87300101409,Convent,TuneTalk Challenge,Round 1,N,N,N,N,N,N,N,N,00H 00M 00S 00MS
Girl411,87300101410,Convent,TuneTalk Challenge,Round 1,N,N,N,N,N,N,N,N,00H 00M 00S 00MS
Girl412,87300101411,Convent,TuneTalk Challenge,Round 1,N,N,N,N,N,N,N,N,00H 00M 00S 00MS
Girl413,87300101412,Convent,TuneTalk Challenge,Round 1,N,N,N,N,N,N,N,N,00H 00M 00S 00MS
Girl414,87300101413,Convent,TuneTalk Challenge,Round 1,N,N,N,N,N,N,N,N,00H 00M 00S 00MS
Girl415,87300101414,Convent,TuneTalk Challenge,Round 1,N,N,N,N,N,N,N,N,00H 00M 00S 00MS
Girl416,87300101415,Convent,TuneTalk Challenge,Round 1,N,N,N,N,N,N,N,N,00H 00M 00S 00MS
Girl417,87300101416,Convent,TuneTalk Challenge,Round 1,N,N,N,N,N,N,N,N,00H 00M 00S 00MS
Girl418,87300101417,Convent,TuneTalk Challenge,Round 1,N,N,N,N,N,N,N,N,00H 00M 00S 00MS
Girl419,87300101418,Convent,TuneTalk Challenge,Round 1,N,N,N,N,N,N,N,N,00H 00M 00S 00MS
Girl420,87300101419,Convent,TuneTalk Challenge,Round 1,N,N,N,N,N,N,N,N,00H 00M 00S 00MS
Girl421,87300101420,Convent,TuneTalk Challenge,Round 1,N,N,N,N,N,N,N,N,00H 00M 00S 00MS
Girl422,87300101421,Convent,TuneTalk Challenge,Round 1,N,N,N,N,N,N,N,N,00H 00M 00S 00MS
Girl423,87300101422,Convent,TuneTalk Challenge,Round 1,N,N,N,N,N,N,N,N,00H 00M 00S 00MS
Girl424,87300101423,Convent,TuneTalk Challenge,Round 1,N,N,N,N,N,N,N,N,00H 00M 00S 00MS
Girl425,87300101424,Convent,TuneTalk Challenge,Round 1,N,N,N,N,N,N,N,N,00H 00M 00S 00MS
Girl426,87300101425,Convent,TuneTalk Challenge,Round 1,N,N,N,N,N,N,N,N,00H 00M 00S 00MS
Girl427,87300101426,Convent,TuneTalk Challenge,Round 1,N,N,N,N,N,N,N,N,00H 00M 00S 00MS
Girl428,87300101427,Convent,TuneTalk Challenge,Round 1,N,N,N,N,N,N,N,N,00H 00M 00S 00MS
Girl429,87300101428,Convent,TuneTalk Challenge,Round 1,N,N,N,N,N,N,N,N,00H 00M 00S 00MS
Girl430,87300101429,Convent,TuneTalk Challenge,Round 1,N,N,N,N,N,N,N,N,00H 00M 00S 00MS
Girl431,87300101430,Convent,TuneTalk Challenge,Round 1,N,N,N,N,N,N,N,N,00H 00M 00S 00MS
Girl432,87300101431,Convent,TuneTalk Challenge,Round 1,N,N,N,N,N,N,N,N,00H 00M 00S 00MS
Girl433,87300101432,Convent,TuneTalk Challenge,Round 1,N,N,N,N,N,N,N,N,00H 00M 00S 00MS
Girl434,87300101433,Convent,TuneTalk Challenge,Round 1,N,N,N,N,N,N,N,N,00H 00M 00S 00MS
Girl435,87300101434,Convent,TuneTalk Challenge,Round 1,N,N,N,N,N,N,N,N,00H 00M 00S 00MS
Girl436,87300101435,Convent,TuneTalk Challenge,Round 1,N,N,N,N,N,N,N,N,00H 00M 00S 00MS
Girl437,87300101436,Convent,TuneTalk Challenge,Round 1,N,N,N,N,N,N,N,N,00H 00M 00S 00MS
Girl438,87300101437,Convent,TuneTalk Challenge,Round 1,N,N,N,N,N,N,N,N,00H 00M 00S 00MS
Girl439,87300101438,Convent,TuneTalk Challenge,Round 1,N,N,N,N,N,N,N,N,00H 00M 00S 00MS
Girl440,87300101439,Convent,TuneTalk Challenge,Round 1,N,N,N,N,N,N,N,N,00H 00M 00S 00MS
Girl441,87300101440,Convent,TuneTalk Challenge,Round 1,N,N,N,N,N,N,N,N,00H 00M 00S 00MS
Girl442,87300101441,Convent,TuneTalk Challenge,Round 1,N,N,N,N,N,N,N,N,00H 00M 00S 00MS
Girl443,87300101442,Convent,TuneTalk Challenge,Round 1,N,N,N,N,N,N,N,N,00H 00M 00S 00MS
Girl444,87300101443,Convent,TuneTalk Challenge,Round 1,N,N,N,N,N,N,N,N,00H 00M 00S 00MS
Girl445,87300101444,Convent,TuneTalk Challenge,Round 1,N,N,N,N,N,N,N,N,00H 00M 00S 00MS
Girl446,87300101445,Convent,TuneTalk Challenge,Round 1,N,N,N,N,N,N,N,N,00H 00M 00S 00MS
Girl447,87300101446,Convent,TuneTalk Challenge,Round 1,N,N,N,N,N,N,N,N,00H 00M 00S 00MS
Girl448,87300101447,Convent,TuneTalk Challenge,Round 1,N,N,N,N,N,N,N,N,00H 00M 00S 00MS
Girl449,87300101448,Convent,TuneTalk Challenge,Round 1,N,N,N,N,N,N,N,N,00H 00M 00S 00MS
Girl450,87300101449,Convent,TuneTalk Challenge,Round 1,N,N,N,N,N,N,N,N,00H 00M 00S 00MS
Girl451,87300101450,Convent,TuneTalk Challenge,Round 1,N,N,N,N,N,N,N,N,00H 00M 00S 00MS
Girl452,87300101451,Convent,TuneTalk Challenge,Round 1,N,N,N,N,N,N,N,N,00H 00M 00S 00MS
Girl453,87300101452,Convent,TuneTalk Challenge,Round 1,N,N,N,N,N,N,N,N,00H 00M 00S 00MS
Girl454,87300101453,Convent,TuneTalk Challenge,Round 1,N,N,N,N,N,N,N,N,00H 00M 00S 00MS
Girl455,87300101454,Convent,TuneTalk Challenge,Round 1,N,N,N,N,N,N,N,N,00H 00M 00S 00MS
Girl456,87300101455,Convent,TuneTalk Challenge,Round 1,N,N,N,N,N,N,N,N,00H 00M 00S 00MS
Girl457,87300101456,Convent,TuneTalk Challenge,Round 1,N,N,N,N,N,N,N,N,00H 00M 00S 00MS
Girl458,87300101457,Convent,TuneTalk Challenge,Round 1,N,N,N,N,N,N,N,N,00H 00M 00S 00MS
Girl459,87300101458,Convent,TuneTalk Challenge,Round 1,N,N,N,N,N,N,N,N,00H 00M 00S 00MS
Girl460,87300101459,Convent,TuneTalk Challenge,Round 1,N,N,N,N,N,N,N,N,00H 00M 00S 00MS
Girl461,87300101460,Convent,TuneTalk Challenge,Round 1,N,N,N,N,N,N,N,N,00H 00M 00S 00MS
Girl462,87300101461,Convent,TuneTalk Challenge,Round 1,N,N,N,N,N,N,N,N,00H 00M 00S 00MS
Girl463,87300101462,Convent,TuneTalk Challenge,Round 1,N,N,N,N,N,N,N,N,00H 00M 00S 00MS
Girl464,87300101463,Convent,TuneTalk Challenge,Round 1,N,N,N,N,N,N,N,N,00H 00M 00S 00MS
Girl465,87300101464,Convent,TuneTalk Challenge,Round 1,N,N,N,N,N,N,N,N,00H 00M 00S 00MS
Girl466,87300101465,Convent,TuneTalk Challenge,Round 1,N,N,N,N,N,N,N,N,00H 00M 00S 00MS
Girl467,87300101466,Convent,TuneTalk Challenge,Round 1,N,N,N,N,N,N,N,N,00H 00M 00S 00MS
Girl468,87300101467,Convent,TuneTalk Challenge,Round 1,N,N,N,N,N,N,N,N,00H 00M 00S 00MS
Girl469,87300101468,Convent,TuneTalk Challenge,Round 1,N,N,N,N,N,N,N,N,00H 00M 00S 00MS
Girl470,87300101469,Convent,TuneTalk Challenge,Round 1,N,N,N,N,N,N,N,N,00H 00M 00S 00MS
Girl471,87300101470,Convent,TuneTalk Challenge,Round 1,N,N,N,N,N,N,N,N,00H 00M 00S 00MS
Girl472,87300101471,Convent,TuneTalk Challenge,Round 1,N,N,N,N,N,N,N,N,00H 00M 00S 00MS
Girl473,87300101472,Convent,TuneTalk Challenge,Round 1,N,N,N,N,N,N,N,N,00H 00M 00S 00MS
Girl474,87300101473,Convent,TuneTalk Challenge,Round 1,N,N,N,N,N,N,N,N,00H 00M 00S 00MS
Girl475,87300101474,Convent,TuneTalk Challenge,Round 1,N,N,N,N,N,N,N,N,00H 00M 00S 00MS
Girl476,87300101475,Convent,TuneTalk Challenge,Round 1,N,N,N,N,N,N,N,N,00H 00M 00S 00MS
Girl477,87300101476,Convent,TuneTalk Challenge,Round 1,N,N,N,N,N,N,N,N,00H 00M 00S 00MS
Girl478,87300101477,Convent,TuneTalk Challenge,Round 1,N,N,N,N,N,N,N,N,00H 00M 00S 00MS
Girl479,87300101478,Convent,TuneTalk Challenge,Round 1,N,N,N,N,N,N,N,N,00H 00M 00S 00MS
Girl480,87300101479,Convent,TuneTalk Challenge,Round 1,N,N,N,N,N,N,N,N,00H 00M 00S 00MS
Girl481,87300101480,Convent,TuneTalk Challenge,Round 1,N,N,N,N,N,N,N,N,00H 00M 00S 00MS
Girl482,87300101481,Convent,TuneTalk Challenge,Round 1,N,N,N,N,N,N,N,N,00H 00M 00S 00MS
Girl483,87300101482,Convent,TuneTalk Challenge,Round 1,N,N,N,N,N,N,N,N,00H 00M 00S 00MS
Girl484,87300101483,Convent,TuneTalk Challenge,Round 1,N,N,N,N,N,N,N,N,00H 00M 00S 00MS
Girl485,87300101484,Convent,TuneTalk Challenge,Round 1,N,N,N,N,N,N,N,N,00H 00M 00S 00MS
Girl486,87300101485,Convent,TuneTalk Challenge,Round 1,N,N,N,N,N,N,N,N,00H 00M 00S 00MS
Girl487,87300101486,Convent,TuneTalk Challenge,Round 1,N,N,N,N,N,N,N,N,00H 00M 00S 00MS
Girl488,87300101487,Convent,TuneTalk Challenge,Round 1,N,N,N,N,N,N,N,N,00H 00M 00S 00MS
Girl489,87300101488,Convent,TuneTalk Challenge,Round 1,N,N,N,N,N,N,N,N,00H 00M 00S 00MS
Girl490,87300101489,Convent,TuneTalk Challenge,Round 1,N,N,N,N,N,N,N,N,00H 00M 00S 00MS
Girl491,87300101490,Convent,TuneTalk Challenge,Round 1,N,N,N,N,N,N,N,N,00H 00M 00S 00MS
Girl492,87300101491,Convent,TuneTalk Challenge,Round 1,N,N,N,N,N,N,N,N,00H 00M 00S 00MS
Girl493,87300101492,Convent,TuneTalk Challenge,Round 1,N,N,N,N,N,N,N,N,00H 00M 00S 00MS
Girl494,87300101493,Convent,TuneTalk Challenge,Round 1,N,N,N,N,N,N,N,N,00H 00M 00S 00MS
Girl495,87300101494,Convent,TuneTalk Challenge,Round 1,N,N,N,N,N,N,N,N,00H 00M 00S 00MS
Girl496,87300101495,Convent,TuneTalk Challenge,Round 1,N,N,N,N,N,N,N,N,00H 00M 00S 00MS
Girl497,87300101496,Convent,TuneTalk Challenge,Round 1,N,N,N,N,N,N,N,N,00H 00M 00S 00MS
Girl498,87300101497,Convent,TuneTalk Challenge,Round 1,N,N,N,N,N,N,N,N,00H 00M 00S 00MS
Girl499,87300101498,Convent,TuneTalk Challenge,Round 1,N,N,N,N,N,N,N,N,00H 00M 00S 00MS
Girl500,87300101499,Convent,TuneTalk Challenge,Round 1,N,N,N,N,N,N,N,N,00H 00M 00S 00MS
Girl501,87300101500,Convent,TuneTalk Challenge,Round 1,N,N,N,N,N,N,N,N,00H 00M 00S 00MS
Girl502,87300101501,Convent,TuneTalk Challenge,Round 1,N,N,N,N,N,N,N,N,00H 00M 00S 00MS
Girl503,87300101502,Convent,TuneTalk Challenge,Round 1,N,N,N,N,N,N,N,N,00H 00M 00S 00MS
Girl504,87300101503,Convent,TuneTalk Challenge,Round 1,N,N,N,N,N,N,N,N,00H 00M 00S 00MS
Girl505,87300101504,Convent,TuneTalk Challenge,Round 1,N,N,N,N,N,N,N,N,00H 00M 00S 00MS
Girl506,87300101505,Convent,TuneTalk Challenge,Round 1,N,N,N,N,N,N,N,N,00H 00M 00S 00MS
Girl507,87300101506,Convent,TuneTalk Challenge,Round 1,N,N,N,N,N,N,N,N,00H 00M 00S 00MS
Girl508,87300101507,Convent,TuneTalk Challenge,Round 1,N,N,N,N,N,N,N,N,00H 00M 00S 00MS
Girl509,87300101508,Convent,TuneTalk Challenge,Round 1,N,N,N,N,N,N,N,N,00H 00M 00S 00MS
Girl510,87300101509,Convent,TuneTalk Challenge,Round 1,N,N,N,N,N,N,N,N,00H 00M 00S 00MS
Girl511,87300101510,Convent,TuneTalk Challenge,Round 1,N,N,N,N,N,N,N,N,00H 00M 00S 00MS
Girl512,87300101511,Convent,TuneTalk Challenge,Round 1,N,N,N,N,N,N,N,N,00H 00M 00S 00MS
Girl513,87300101512,Convent,TuneTalk Challenge,Round 1,N,N,N,N,N,N,N,N,00H 00M 00S 00MS
Girl514,87300101513,Convent,TuneTalk Challenge,Round 1,N,N,N,N,N,N,N,N,00H 00M 00S 00MS
Girl515,87300101514,Convent,TuneTalk Challenge,Round 1,N,N,N,N,N,N,N,N,00H 00M 00S 00MS
Girl516,87300101515,Convent,TuneTalk Challenge,Round 1,N,N,N,N,N,N,N,N,00H 00M 00S 00MS
Girl517,87300101516,Convent,TuneTalk Challenge,Round 1,N,N,N,N,N,N,N,N,00H 00M 00S 00MS
Girl518,87300101517,Convent,TuneTalk Challenge,Round 1,N,N,N,N,N,N,N,N,00H 00M 00S 00MS
Girl519,87300101518,Convent,TuneTalk Challenge,Round 1,N,N,N,N,N,N,N,N,00H 00M 00S 00MS
Girl520,87300101519,Convent,TuneTalk Challenge,Round 1,N,N,N,N,N,N,N,N,00H 00M 00S 00MS
Girl521,87300101520,Convent,TuneTalk Challenge,Round 1,N,N,N,N,N,N,N,N,00H 00M 00S 00MS
Girl522,87300101521,Convent,TuneTalk Challenge,Round 1,N,N,N,N,N,N,N,N,00H 00M 00S 00MS
Girl523,87300101522,Convent,TuneTalk Challenge,Round 1,N,N,N,N,N,N,N,N,00H 00M 00S 00MS
Girl524,87300101523,Convent,TuneTalk Challenge,Round 1,N,N,N,N,N,N,N,N,00H 00M 00S 00MS
Girl525,87300101524,Convent,TuneTalk Challenge,Round 1,N,N,N,N,N,N,N,N,00H 00M 00S 00MS
Girl526,87300101525,Convent,TuneTalk Challenge,Round 1,N,N,N,N,N,N,N,N,00H 00M 00S 00MS
Girl527,87300101526,Convent,TuneTalk Challenge,Round 1,N,N,N,N,N,N,N,N,00H 00M 00S 00MS
Girl528,87300101527,Convent,TuneTalk Challenge,Round 1,N,N,N,N,N,N,N,N,00H 00M 00S 00MS
Girl529,87300101528,Convent,TuneTalk Challenge,Round 1,N,N,N,N,N,N,N,N,00H 00M 00S 00MS
Girl530,87300101529,Convent,TuneTalk Challenge,Round 1,N,N,N,N,N,N,N,N,00H 00M 00S 00MS
Girl531,87300101530,Convent,TuneTalk Challenge,Round 1,N,N,N,N,N,N,N,N,00H 00M 00S 00MS
Girl532,87300101531,Convent,TuneTalk Challenge,Round 1,N,N,N,N,N,N,N,N,00H 00M 00S 00MS
Girl533,87300101532,Convent,TuneTalk Challenge,Round 1,N,N,N,N,N,N,N,N,00H 00M 00S 00MS
Girl534,87300101533,Convent,TuneTalk Challenge,Round 1,N,N,N,N,N,N,N,N,00H 00M 00S 00MS
Girl535,87300101534,Convent,TuneTalk Challenge,Round 1,N,N,N,N,N,N,N,N,00H 00M 00S 00MS
Girl536,87300101535,Convent,TuneTalk Challenge,Round 1,N,N,N,N,N,N,N,N,00H 00M 00S 00MS
Girl537,87300101536,Convent,TuneTalk Challenge,Round 1,N,N,N,N,N,N,N,N,00H 00M 00S 00MS
Girl538,87300101537,Convent,TuneTalk Challenge,Round 1,N,N,N,N,N,N,N,N,00H 00M 00S 00MS
Girl539,87300101538,Convent,TuneTalk Challenge,Round 1,N,N,N,N,N,N,N,N,00H 00M 00S 00MS
Girl540,87300101539,Convent,TuneTalk Challenge,Round 1,N,N,N,N,N,N,N,N,00H 00M 00S 00MS
Girl541,87300101540,Convent,TuneTalk Challenge,Round 1,N,N,N,N,N,N,N,N,00H 00M 00S 00MS
Girl542,87300101541,Convent,TuneTalk Challenge,Round 1,N,N,N,N,N,N,N,N,00H 00M 00S 00MS
Girl543,87300101542,Convent,TuneTalk Challenge,Round 1,N,N,N,N,N,N,N,N,00H 00M 00S 00MS
Girl544,87300101543,Convent,TuneTalk Challenge,Round 1,N,N,N,N,N,N,N,N,00H 00M 00S 00MS
Girl545,87300101544,Convent,TuneTalk Challenge,Round 1,N,N,N,N,N,N,N,N,00H 00M 00S 00MS
Girl546,87300101545,Convent,TuneTalk Challenge,Round 1,N,N,N,N,N,N,N,N,00H 00M 00S 00MS
Girl547,87300101546,Convent,TuneTalk Challenge,Round 1,N,N,N,N,N,N,N,N,00H 00M 00S 00MS
Girl548,87300101547,Convent,TuneTalk Challenge,Round 1,N,N,N,N,N,N,N,N,00H 00M 00S 00MS
Girl549,87300101548,Convent,TuneTalk Challenge,Round 1,N,N,N,N,N,N,N,N,00H 00M 00S 00MS
Girl550,87300101549,Convent,TuneTalk Challenge,Round 1,N,N,N,N,N,N,N,N,00H 00M 00S 00MS
Girl551,87300101550,Convent,TuneTalk Challenge,Round 1,N,N,N,N,N,N,N,N,00H 00M 00S 00MS
Girl552,87300101551,Convent,TuneTalk Challenge,Round 1,N,N,N,N,N,N,N,N,00H 00M 00S 00MS
Girl553,87300101552,Convent,TuneTalk Challenge,Round 1,N,N,N,N,N,N,N,N,00H 00M 00S 00MS
Girl554,87300101553,Convent,TuneTalk Challenge,Round 1,N,N,N,N,N,N,N,N,00H 00M 00S 00MS
Girl555,87300101554,Convent,TuneTalk Challenge,Round 1,N,N,N,N,N,N,N,N,00H 00M 00S 00MS
Girl556,87300101555,Convent,TuneTalk Challenge,Round 1,N,N,N,N,N,N,N,N,00H 00M 00S 00MS
Girl557,87300101556,Convent,TuneTalk Challenge,Round 1,N,N,N,N,N,N,N,N,00H 00M 00S 00MS
Girl558,87300101557,Convent,TuneTalk Challenge,Round 1,N,N,N,N,N,N,N,N,00H 00M 00S 00MS
Girl559,87300101558,Convent,TuneTalk Challenge,Round 1,N,N,N,N,N,N,N,N,00H 00M 00S 00MS
Girl560,87300101559,Convent,TuneTalk Challenge,Round 1,N,N,N,N,N,N,N,N,00H 00M 00S 00MS
Girl561,87300101560,Convent,TuneTalk Challenge,Round 1,N,N,N,N,N,N,N,N,00H 00M 00S 00MS
Girl562,87300101561,Convent,TuneTalk Challenge,Round 1,N,N,N,N,N,N,N,N,00H 00M 00S 00MS
Girl563,87300101562,Convent,TuneTalk Challenge,Round 1,N,N,N,N,N,N,N,N,00H 00M 00S 00MS
Girl564,87300101563,Convent,TuneTalk Challenge,Round 1,N,N,N,N,N,N,N,N,00H 00M 00S 00MS
Girl565,87300101564,Convent,TuneTalk Challenge,Round 1,N,N,N,N,N,N,N,N,00H 00M 00S 00MS
Girl566,87300101565,Convent,TuneTalk Challenge,Round 1,N,N,N,N,N,N,N,N,00H 00M 00S 00MS
Girl567,87300101566,Convent,TuneTalk Challenge,Round 1,N,N,N,N,N,N,N,N,00H 00M 00S 00MS
Girl568,87300101567,Convent,TuneTalk Challenge,Round 1,N,N,N,N,N,N,N,N,00H 00M 00S 00MS
Girl569,87300101568,Convent,TuneTalk Challenge,Round 1,N,N,N,N,N,N,N,N,00H 00M 00S 00MS
Girl570,87300101569,Convent,TuneTalk Challenge,Round 1,N,N,N,N,N,N,N,N,00H 00M 00S 00MS
Girl571,87300101570,Convent,TuneTalk Challenge,Round 1,N,N,N,N,N,N,N,N,00H 00M 00S 00MS
Girl572,87300101571,Convent,TuneTalk Challenge,Round 1,N,N,N,N,N,N,N,N,00H 00M 00S 00MS
Girl573,87300101572,Convent,TuneTalk Challenge,Round 1,N,N,N,N,N,N,N,N,00H 00M 00S 00MS
Girl574,87300101573,Convent,TuneTalk Challenge,Round 1,N,N,N,N,N,N,N,N,00H 00M 00S 00MS
Girl575,87300101574,Convent,TuneTalk Challenge,Round 1,N,N,N,N,N,N,N,N,00H 00M 00S 00MS
Girl576,87300101575,Convent,TuneTalk Challenge,Round 1,N,N,N,N,N,N,N,N,00H 00M 00S 00MS
Girl577,87300101576,Convent,TuneTalk Challenge,Round 1,N,N,N,N,N,N,N,N,00H 00M 00S 00MS
Girl578,87300101577,Convent,TuneTalk Challenge,Round 1,N,N,N,N,N,N,N,N,00H 00M 00S 00MS
Girl579,87300101578,Convent,TuneTalk Challenge,Round 1,N,N,N,N,N,N,N,N,00H 00M 00S 00MS
Girl580,87300101579,Convent,TuneTalk Challenge,Round 1,N,N,N,N,N,N,N,N,00H 00M 00S 00MS
Girl581,87300101580,Convent,TuneTalk Challenge,Round 1,N,N,N,N,N,N,N,N,00H 00M 00S 00MS
Girl582,87300101581,Convent,TuneTalk Challenge,Round 1,N,N,N,N,N,N,N,N,00H 00M 00S 00MS
Girl583,87300101582,Convent,TuneTalk Challenge,Round 1,N,N,N,N,N,N,N,N,00H 00M 00S 00MS
Girl584,87300101583,Convent,TuneTalk Challenge,Round 1,N,N,N,N,N,N,N,N,00H 00M 00S 00MS
Girl585,87300101584,Convent,TuneTalk Challenge,Round 1,N,N,N,N,N,N,N,N,00H 00M 00S 00MS
Girl586,87300101585,Convent,TuneTalk Challenge,Round 1,N,N,N,N,N,N,N,N,00H 00M 00S 00MS
Girl587,87300101586,Convent,TuneTalk Challenge,Round 1,N,N,N,N,N,N,N,N,00H 00M 00S 00MS
Girl588,87300101587,Convent,TuneTalk Challenge,Round 1,N,N,N,N,N,N,N,N,00H 00M 00S 00MS
Girl589,87300101588,Convent,TuneTalk Challenge,Round 1,N,N,N,N,N,N,N,N,00H 00M 00S 00MS
Girl590,87300101589,Convent,TuneTalk Challenge,Round 1,N,N,N,N,N,N,N,N,00H 00M 00S 00MS
Girl591,87300101590,Convent,TuneTalk Challenge,Round 1,N,N,N,N,N,N,N,N,00H 00M 00S 00MS
Girl592,87300101591,Convent,TuneTalk Challenge,Round 1,N,N,N,N,N,N,N,N,00H 00M 00S 00MS
Girl593,87300101592,Convent,TuneTalk Challenge,Round 1,N,N,N,N,N,N,N,N,00H 00M 00S 00MS
Girl594,87300101593,Convent,TuneTalk Challenge,Round 1,N,N,N,N,N,N,N,N,00H 00M 00S 00MS
Girl595,87300101594,Convent,TuneTalk Challenge,Round 1,N,N,N,N,N,N,N,N,00H 00M 00S 00MS
Girl596,87300101595,Convent,TuneTalk Challenge,Round 1,N,N,N,N,N,N,N,N,00H 00M 00S 00MS
Girl597,87300101596,Convent,TuneTalk Challenge,Round 1,N,N,N,N,N,N,N,N,00H 00M 00S 00MS
Girl598,87300101597,Convent,TuneTalk Challenge,Round 1,N,N,N,N,N,N,N,N,00H 00M 00S 00MS
Girl599,87300101598,Convent,TuneTalk Challenge,Round 1,N,N,N,N,N,N,N,N,00H 00M 00S 00MS
Girl600,87300101599,Convent,TuneTalk Challenge,Round 1,N,N,N,N,N,N,N,N,00H 00M 00S 00MS
Girl601,87300101600,Convent,TuneTalk Challenge,Round 1,N,N,N,N,N,N,N,N,00H 00M 00S 00MS
Girl602,87300101601,Convent,TuneTalk Challenge,Round 1,N,N,N,N,N,N,N,N,00H 00M 00S 00MS
Girl603,87300101602,Convent,TuneTalk Challenge,Round 1,N,N,N,N,N,N,N,N,00H 00M 00S 00MS
Girl604,87300101603,Convent,TuneTalk Challenge,Round 1,N,N,N,N,N,N,N,N,00H 00M 00S 00MS
Girl605,87300101604,Convent,TuneTalk Challenge,Round 1,N,N,N,N,N,N,N,N,00H 00M 00S 00MS
Girl606,87300101605,Convent,TuneTalk Challenge,Round 1,N,N,N,N,N,N,N,N,00H 00M 00S 00MS
Girl607,87300101606,Convent,TuneTalk Challenge,Round 1,N,N,N,N,N,N,N,N,00H 00M 00S 00MS
Girl608,87300101607,Convent,TuneTalk Challenge,Round 1,N,N,N,N,N,N,N,N,00H 00M 00S 00MS
Girl609,87300101608,Convent,TuneTalk Challenge,Round 1,N,N,N,N,N,N,N,N,00H 00M 00S 00MS
Girl610,87300101609,Convent,TuneTalk Challenge,Round 1,N,N,N,N,N,N,N,N,00H 00M 00S 00MS
Girl611,87300101610,Convent,TuneTalk Challenge,Round 1,N,N,N,N,N,N,N,N,00H 00M 00S 00MS
Girl612,87300101611,Convent,TuneTalk Challenge,Round 1,N,N,N,N,N,N,N,N,00H 00M 00S 00MS
Girl613,87300101612,Convent,TuneTalk Challenge,Round 1,N,N,N,N,N,N,N,N,00H 00M 00S 00MS
Girl614,87300101613,Convent,TuneTalk Challenge,Round 1,N,N,N,N,N,N,N,N,00H 00M 00S 00MS
Girl615,87300101614,Convent,TuneTalk Challenge,Round 1,N,N,N,N,N,N,N,N,00H 00M 00S 00MS
Girl616,87300101615,Convent,TuneTalk Challenge,Round 1,N,N,N,N,N,N,N,N,00H 00M 00S 00MS
Girl617,87300101616,Convent,TuneTalk Challenge,Round 1,N,N,N,N,N,N,N,N,00H 00M 00S 00MS
Girl618,87300101617,Convent,TuneTalk Challenge,Round 1,N,N,N,N,N,N,N,N,00H 00M 00S 00MS
Girl619,87300101618,Convent,TuneTalk Challenge,Round 1,N,N,N,N,N,N,N,N,00H 00M 00S 00MS
Girl620,87300101619,Convent,TuneTalk Challenge,Round 1,N,N,N,N,N,N,N,N,00H 00M 00S 00MS
Girl621,87300101620,Convent,TuneTalk Challenge,Round 1,N,N,N,N,N,N,N,N,00H 00M 00S 00MS
Girl622,87300101621,Convent,TuneTalk Challenge,Round 1,N,N,N,N,N,N,N,N,00H 00M 00S 00MS
Girl623,87300101622,Convent,TuneTalk Challenge,Round 1,N,N,N,N,N,N,N,N,00H 00M 00S 00MS
Girl624,87300101623,Convent,TuneTalk Challenge,Round 1,N,N,N,N,N,N,N,N,00H 00M 00S 00MS
Girl625,87300101624,Convent,TuneTalk Challenge,Round 1,N,N,N,N,N,N,N,N,00H 00M 00S 00MS
Girl626,87300101625,Convent,TuneTalk Challenge,Round 1,N,N,N,N,N,N,N,N,00H 00M 00S 00MS
Girl627,87300101626,Convent,TuneTalk Challenge,Round 1,N,N,N,N,N,N,N,N,00H 00M 00S 00MS
Girl628,87300101627,Convent,TuneTalk Challenge,Round 1,N,N,N,N,N,N,N,N,00H 00M 00S 00MS
Girl629,87300101628,Convent,TuneTalk Challenge,Round 1,N,N,N,N,N,N,N,N,00H 00M 00S 00MS
Girl630,87300101629,Convent,TuneTalk Challenge,Round 1,N,N,N,N,N,N,N,N,00H 00M 00S 00MS
Girl631,87300101630,Convent,TuneTalk Challenge,Round 1,N,N,N,N,N,N,N,N,00H 00M 00S 00MS
Girl632,87300101631,Convent,TuneTalk Challenge,Round 1,N,N,N,N,N,N,N,N,00H 00M 00S 00MS
Girl633,87300101632,Convent,TuneTalk Challenge,Round 1,N,N,N,N,N,N,N,N,00H 00M 00S 00MS
Girl634,87300101633,Convent,TuneTalk Challenge,Round 1,N,N,N,N,N,N,N,N,00H 00M 00S 00MS
Girl635,87300101634,Convent,TuneTalk Challenge,Round 1,N,N,N,N,N,N,N,N,00H 00M 00S 00MS
Girl636,87300101635,Convent,TuneTalk Challenge,Round 1,N,N,N,N,N,N,N,N,00H 00M 00S 00MS
Girl637,87300101636,Convent,TuneTalk Challenge,Round 1,N,N,N,N,N,N,N,N,00H 00M 00S 00MS
Girl638,87300101637,Convent,TuneTalk Challenge,Round 1,N,N,N,N,N,N,N,N,00H 00M 00S 00MS
Girl639,87300101638,Convent,TuneTalk Challenge,Round 1,N,N,N,N,N,N,N,N,00H 00M 00S 00MS
Girl640,87300101639,Convent,TuneTalk Challenge,Round 1,N,N,N,N,N,N,N,N,00H 00M 00S 00MS
Girl641,87300101640,Convent,TuneTalk Challenge,Round 1,N,N,N,N,N,N,N,N,00H 00M 00S 00MS
Girl642,87300101641,Convent,TuneTalk Challenge,Round 1,N,N,N,N,N,N,N,N,00H 00M 00S 00MS
Girl643,87300101642,Convent,TuneTalk Challenge,Round 1,N,N,N,N,N,N,N,N,00H 00M 00S 00MS
Girl644,87300101643,Convent,TuneTalk Challenge,Round 1,N,N,N,N,N,N,N,N,00H 00M 00S 00MS
Girl645,87300101644,Convent,TuneTalk Challenge,Round 1,N,N,N,N,N,N,N,N,00H 00M 00S 00MS
Girl646,87300101645,Convent,TuneTalk Challenge,Round 1,N,N,N,N,N,N,N,N,00H 00M 00S 00MS
Girl647,87300101646,Convent,TuneTalk Challenge,Round 1,N,N,N,N,N,N,N,N,00H 00M 00S 00MS
Girl648,87300101647,Convent,TuneTalk Challenge,Round 1,N,N,N,N,N,N,N,N,00H 00M 00S 00MS
Girl649,87300101648,Convent,TuneTalk Challenge,Round 1,N,N,N,N,N,N,N,N,00H 00M 00S 00MS
Girl650,87300101649,Convent,TuneTalk Challenge,Round 1,N,N,N,N,N,N,N,N,00H 00M 00S 00MS
Girl651,87300101650,Convent,TuneTalk Challenge,Round 1,N,N,N,N,N,N,N,N,00H 00M 00S 00MS
Girl652,87300101651,Convent,TuneTalk Challenge,Round 1,N,N,N,N,N,N,N,N,00H 00M 00S 00MS
Girl653,87300101652,Convent,TuneTalk Challenge,Round 1,N,N,N,N,N,N,N,N,00H 00M 00S 00MS
Girl654,87300101653,Convent,TuneTalk Challenge,Round 1,N,N,N,N,N,N,N,N,00H 00M 00S 00MS
Girl655,87300101654,Convent,TuneTalk Challenge,Round 1,N,N,N,N,N,N,N,N,00H 00M 00S 00MS
Girl656,87300101655,Convent,TuneTalk Challenge,Round 1,N,N,N,N,N,N,N,N,00H 00M 00S 00MS
Girl657,87300101656,Convent,TuneTalk Challenge,Round 1,N,N,N,N,N,N,N,N,00H 00M 00S 00MS
Girl658,87300101657,Convent,TuneTalk Challenge,Round 1,N,N,N,N,N,N,N,N,00H 00M 00S 00MS
Girl659,87300101658,Convent,TuneTalk Challenge,Round 1,N,N,N,N,N,N,N,N,00H 00M 00S 00MS
Girl660,87300101659,Convent,TuneTalk Challenge,Round 1,N,N,N,N,N,N,N,N,00H 00M 00S 00MS
Girl661,87300101660,Convent,TuneTalk Challenge,Round 1,N,N,N,N,N,N,N,N,00H 00M 00S 00MS
Girl662,87300101661,Convent,TuneTalk Challenge,Round 1,N,N,N,N,N,N,N,N,00H 00M 00S 00MS
Girl663,87300101662,Convent,TuneTalk Challenge,Round 1,N,N,N,N,N,N,N,N,00H 00M 00S 00MS
Girl664,87300101663,Convent,TuneTalk Challenge,Round 1,N,N,N,N,N,N,N,N,00H 00M 00S 00MS
Girl665,87300101664,Convent,TuneTalk Challenge,Round 1,N,N,N,N,N,N,N,N,00H 00M 00S 00MS
Girl666,87300101665,Convent,TuneTalk Challenge,Round 1,N,N,N,N,N,N,N,N,00H 00M 00S 00MS
Girl667,87300101666,Convent,TuneTalk Challenge,Round 1,N,N,N,N,N,N,N,N,00H 00M 00S 00MS
Girl668,87300101667,Convent,TuneTalk Challenge,Round 1,N,N,N,N,N,N,N,N,00H 00M 00S 00MS
Girl669,87300101668,Convent,TuneTalk Challenge,Round 1,N,N,N,N,N,N,N,N,00H 00M 00S 00MS
Girl670,87300101669,Convent,TuneTalk Challenge,Round 1,N,N,N,N,N,N,N,N,00H 00M 00S 00MS
Girl671,87300101670,Convent,TuneTalk Challenge,Round 1,N,N,N,N,N,N,N,N,00H 00M 00S 00MS
Girl672,87300101671,Convent,TuneTalk Challenge,Round 1,N,N,N,N,N,N,N,N,00H 00M 00S 00MS
Girl673,87300101672,Convent,TuneTalk Challenge,Round 1,N,N,N,N,N,N,N,N,00H 00M 00S 00MS
Girl674,87300101673,Convent,TuneTalk Challenge,Round 1,N,N,N,N,N,N,N,N,00H 00M 00S 00MS
Girl675,87300101674,Convent,TuneTalk Challenge,Round 1,N,N,N,N,N,N,N,N,00H 00M 00S 00MS
Girl676,87300101675,Convent,TuneTalk Challenge,Round 1,N,N,N,N,N,N,N,N,00H 00M 00S 00MS
Girl677,87300101676,Convent,TuneTalk Challenge,Round 1,N,N,N,N,N,N,N,N,00H 00M 00S 00MS
Girl678,87300101677,Convent,TuneTalk Challenge,Round 1,N,N,N,N,N,N,N,N,00H 00M 00S 00MS
Girl679,87300101678,Convent,TuneTalk Challenge,Round 1,N,N,N,N,N,N,N,N,00H 00M 00S 00MS
Girl680,87300101679,Convent,TuneTalk Challenge,Round 1,N,N,N,N,N,N,N,N,00H 00M 00S 00MS
Girl681,87300101680,Convent,TuneTalk Challenge,Round 1,N,N,N,N,N,N,N,N,00H 00M 00S 00MS
Girl682,87300101681,Convent,TuneTalk Challenge,Round 1,N,N,N,N,N,N,N,N,00H 00M 00S 00MS
Girl683,87300101682,Convent,TuneTalk Challenge,Round 1,N,N,N,N,N,N,N,N,00H 00M 00S 00MS
Girl684,87300101683,Convent,TuneTalk Challenge,Round 1,N,N,N,N,N,N,N,N,00H 00M 00S 00MS
Girl685,87300101684,Convent,TuneTalk Challenge,Round 1,N,N,N,N,N,N,N,N,00H 00M 00S 00MS
Girl686,87300101685,Convent,TuneTalk Challenge,Round 1,N,N,N,N,N,N,N,N,00H 00M 00S 00MS
Girl687,87300101686,Convent,TuneTalk Challenge,Round 1,N,N,N,N,N,N,N,N,00H 00M 00S 00MS
Girl688,87300101687,Convent,TuneTalk Challenge,Round 1,N,N,N,N,N,N,N,N,00H 00M 00S 00MS
Girl689,87300101688,Convent,TuneTalk Challenge,Round 1,N,N,N,N,N,N,N,N,00H 00M 00S 00MS
Girl690,87300101689,Convent,TuneTalk Challenge,Round 1,N,N,N,N,N,N,N,N,00H 00M 00S 00MS
Girl691,87300101690,Convent,TuneTalk Challenge,Round 1,N,N,N,N,N,N,N,N,00H 00M 00S 00MS
Girl692,87300101691,Convent,TuneTalk Challenge,Round 1,N,N,N,N,N,N,N,N,00H 00M 00S 00MS
Girl693,87300101692,Convent,TuneTalk Challenge,Round 1,N,N,N,N,N,N,N,N,00H 00M 00S 00MS
Girl694,87300101693,Convent,TuneTalk Challenge,Round 1,N,N,N,N,N,N,N,N,00H 00M 00S 00MS
Girl695,87300101694,Convent,TuneTalk Challenge,Round 1,N,N,N,N,N,N,N,N,00H 00M 00S 00MS
Girl696,87300101695,Convent,TuneTalk Challenge,Round 1,N,N,N,N,N,N,N,N,00H 00M 00S 00MS
Girl697,87300101696,Convent,TuneTalk Challenge,Round 1,N,N,N,N,N,N,N,N,00H 00M 00S 00MS
Girl698,87300101697,Convent,TuneTalk Challenge,Round 1,N,N,N,N,N,N,N,N,00H 00M 00S 00MS
Girl699,87300101698,Convent,TuneTalk Challenge,Round 1,N,N,N,N,N,N,N,N,00H 00M 00S 00MS
Girl700,87300101699,Convent,TuneTalk Challenge,Round 1,N,N,N,N,N,N,N,N,00H 00M 00S 00MS
Girl701,87300101700,Convent,TuneTalk Challenge,Round 1,N,N,N,N,N,N,N,N,00H 00M 00S 00MS
Girl702,87300101701,Convent,TuneTalk Challenge,Round 1,N,N,N,N,N,N,N,N,00H 00M 00S 00MS
Girl703,87300101702,Convent,TuneTalk Challenge,Round 1,N,N,N,N,N,N,N,N,00H 00M 00S 00MS
Girl704,87300101703,Convent,TuneTalk Challenge,Round 1,N,N,N,N,N,N,N,N,00H 00M 00S 00MS
Girl705,87300101704,Convent,TuneTalk Challenge,Round 1,N,N,N,N,N,N,N,N,00H 00M 00S 00MS
Girl706,87300101705,Convent,TuneTalk Challenge,Round 1,N,N,N,N,N,N,N,N,00H 00M 00S 00MS
Girl707,87300101706,Convent,TuneTalk Challenge,Round 1,N,N,N,N,N,N,N,N,00H 00M 00S 00MS
Girl708,87300101707,Convent,TuneTalk Challenge,Round 1,N,N,N,N,N,N,N,N,00H 00M 00S 00MS
Girl709,87300101708,Convent,TuneTalk Challenge,Round 1,N,N,N,N,N,N,N,N,00H 00M 00S 00MS
Girl710,87300101709,Convent,TuneTalk Challenge,Round 1,N,N,N,N,N,N,N,N,00H 00M 00S 00MS
Girl711,87300101710,Convent,TuneTalk Challenge,Round 1,N,N,N,N,N,N,N,N,00H 00M 00S 00MS
Girl712,87300101711,Convent,TuneTalk Challenge,Round 1,N,N,N,N,N,N,N,N,00H 00M 00S 00MS
Girl713,87300101712,Convent,TuneTalk Challenge,Round 1,N,N,N,N,N,N,N,N,00H 00M 00S 00MS
Girl714,87300101713,Convent,TuneTalk Challenge,Round 1,N,N,N,N,N,N,N,N,00H 00M 00S 00MS
Girl715,87300101714,Convent,TuneTalk Challenge,Round 1,N,N,N,N,N,N,N,N,00H 00M 00S 00MS
Girl716,87300101715,Convent,TuneTalk Challenge,Round 1,N,N,N,N,N,N,N,N,00H 00M 00S 00MS
Girl717,87300101716,Convent,TuneTalk Challenge,Round 1,N,N,N,N,N,N,N,N,00H 00M 00S 00MS
Girl718,87300101717,Convent,TuneTalk Challenge,Round 1,N,N,N,N,N,N,N,N,00H 00M 00S 00MS
Girl719,87300101718,Convent,TuneTalk Challenge,Round 1,N,N,N,N,N,N,N,N,00H 00M 00S 00MS
Girl720,87300101719,Convent,TuneTalk Challenge,Round 1,N,N,N,N,N,N,N,N,00H 00M 00S 00MS
Girl721,87300101720,Convent,TuneTalk Challenge,Round 1,N,N,N,N,N,N,N,N,00H 00M 00S 00MS
Girl722,87300101721,Convent,TuneTalk Challenge,Round 1,N,N,N,N,N,N,N,N,00H 00M 00S 00MS
Girl723,87300101722,Convent,TuneTalk Challenge,Round 1,N,N,N,N,N,N,N,N,00H 00M 00S 00MS
Girl724,87300101723,Convent,TuneTalk Challenge,Round 1,N,N,N,N,N,N,N,N,00H 00M 00S 00MS
Girl725,87300101724,Convent,TuneTalk Challenge,Round 1,N,N,N,N,N,N,N,N,00H 00M 00S 00MS
Girl726,87300101725,Convent,TuneTalk Challenge,Round 1,N,N,N,N,N,N,N,N,00H 00M 00S 00MS
Girl727,87300101726,Convent,TuneTalk Challenge,Round 1,N,N,N,N,N,N,N,N,00H 00M 00S 00MS
Girl728,87300101727,Convent,TuneTalk Challenge,Round 1,N,N,N,N,N,N,N,N,00H 00M 00S 00MS
Girl729,87300101728,Convent,TuneTalk Challenge,Round 1,N,N,N,N,N,N,N,N,00H 00M 00S 00MS
Girl730,87300101729,Convent,TuneTalk Challenge,Round 1,N,N,N,N,N,N,N,N,00H 00M 00S 00MS
Girl731,87300101730,Convent,TuneTalk Challenge,Round 1,N,N,N,N,N,N,N,N,00H 00M 00S 00MS
Girl732,87300101731,Convent,TuneTalk Challenge,Round 1,N,N,N,N,N,N,N,N,00H 00M 00S 00MS
Girl733,87300101732,Convent,TuneTalk Challenge,Round 1,N,N,N,N,N,N,N,N,00H 00M 00S 00MS
Girl734,87300101733,Convent,TuneTalk Challenge,Round 1,N,N,N,N,N,N,N,N,00H 00M 00S 00MS
Girl735,87300101734,Convent,TuneTalk Challenge,Round 1,N,N,N,N,N,N,N,N,00H 00M 00S 00MS
Girl736,87300101735,Convent,TuneTalk Challenge,Round 1,N,N,N,N,N,N,N,N,00H 00M 00S 00MS
Girl737,87300101736,Convent,TuneTalk Challenge,Round 1,N,N,N,N,N,N,N,N,00H 00M 00S 00MS
Girl738,87300101737,Convent,TuneTalk Challenge,Round 1,N,N,N,N,N,N,N,N,00H 00M 00S 00MS
Girl739,87300101738,Convent,TuneTalk Challenge,Round 1,N,N,N,N,N,N,N,N,00H 00M 00S 00MS
Girl740,87300101739,Convent,TuneTalk Challenge,Round 1,N,N,N,N,N,N,N,N,00H 00M 00S 00MS
Girl741,87300101740,Convent,TuneTalk Challenge,Round 1,N,N,N,N,N,N,N,N,00H 00M 00S 00MS
Girl742,87300101741,Convent,TuneTalk Challenge,Round 1,N,N,N,N,N,N,N,N,00H 00M 00S 00MS
Girl743,87300101742,Convent,TuneTalk Challenge,Round 1,N,N,N,N,N,N,N,N,00H 00M 00S 00MS
Girl744,87300101743,Convent,TuneTalk Challenge,Round 1,N,N,N,N,N,N,N,N,00H 00M 00S 00MS
Girl745,87300101744,Convent,TuneTalk Challenge,Round 1,N,N,N,N,N,N,N,N,00H 00M 00S 00MS
Girl746,87300101745,Convent,TuneTalk Challenge,Round 1,N,N,N,N,N,N,N,N,00H 00M 00S 00MS
Girl747,87300101746,Convent,TuneTalk Challenge,Round 1,N,N,N,N,N,N,N,N,00H 00M 00S 00MS
Girl748,87300101747,Convent,TuneTalk Challenge,Round 1,N,N,N,N,N,N,N,N,00H 00M 00S 00MS
Girl749,87300101748,Convent,TuneTalk Challenge,Round 1,N,N,N,N,N,N,N,N,00H 00M 00S 00MS
Girl750,87300101749,Convent,TuneTalk Challenge,Round 1,N,N,N,N,N,N,N,N,00H 00M 00S 00MS
Girl751,87300101750,Convent,TuneTalk Challenge,Round 1,N,N,N,N,N,N,N,N,00H 00M 00S 00MS
Girl752,87300101751,Convent,TuneTalk Challenge,Round 1,N,N,N,N,N,N,N,N,00H 00M 00S 00MS
Girl753,87300101752,Convent,TuneTalk Challenge,Round 1,N,N,N,N,N,N,N,N,00H 00M 00S 00MS
Girl754,87300101753,Convent,TuneTalk Challenge,Round 1,N,N,N,N,N,N,N,N,00H 00M 00S 00MS
Girl755,87300101754,Convent,TuneTalk Challenge,Round 1,N,N,N,N,N,N,N,N,00H 00M 00S 00MS
Girl756,87300101755,Convent,TuneTalk Challenge,Round 1,N,N,N,N,N,N,N,N,00H 00M 00S 00MS
Girl757,87300101756,Convent,TuneTalk Challenge,Round 1,N,N,N,N,N,N,N,N,00H 00M 00S 00MS
Girl758,87300101757,Convent,TuneTalk Challenge,Round 1,N,N,N,N,N,N,N,N,00H 00M 00S 00MS
Girl759,87300101758,Convent,TuneTalk Challenge,Round 1,N,N,N,N,N,N,N,N,00H 00M 00S 00MS
Girl760,87300101759,Convent,TuneTalk Challenge,Round 1,N,N,N,N,N,N,N,N,00H 00M 00S 00MS
Girl761,87300101760,Convent,TuneTalk Challenge,Round 1,N,N,N,N,N,N,N,N,00H 00M 00S 00MS
Girl762,87300101761,Convent,TuneTalk Challenge,Round 1,N,N,N,N,N,N,N,N,00H 00M 00S 00MS
Girl763,87300101762,Convent,TuneTalk Challenge,Round 1,N,N,N,N,N,N,N,N,00H 00M 00S 00MS
Girl764,87300101763,Convent,TuneTalk Challenge,Round 1,N,N,N,N,N,N,N,N,00H 00M 00S 00MS
Girl765,87300101764,Convent,TuneTalk Challenge,Round 1,N,N,N,N,N,N,N,N,00H 00M 00S 00MS
Girl766,87300101765,Convent,TuneTalk Challenge,Round 1,N,N,N,N,N,N,N,N,00H 00M 00S 00MS
Girl767,87300101766,Convent,TuneTalk Challenge,Round 1,N,N,N,N,N,N,N,N,00H 00M 00S 00MS
Girl768,87300101767,Convent,TuneTalk Challenge,Round 1,N,N,N,N,N,N,N,N,00H 00M 00S 00MS
Girl769,87300101768,Convent,TuneTalk Challenge,Round 1,N,N,N,N,N,N,N,N,00H 00M 00S 00MS
Girl770,87300101769,Convent,TuneTalk Challenge,Round 1,N,N,N,N,N,N,N,N,00H 00M 00S 00MS
Girl771,87300101770,Convent,TuneTalk Challenge,Round 1,N,N,N,N,N,N,N,N,00H 00M 00S 00MS
Girl772,87300101771,Convent,TuneTalk Challenge,Round 1,N,N,N,N,N,N,N,N,00H 00M 00S 00MS
Girl773,87300101772,Convent,TuneTalk Challenge,Round 1,N,N,N,N,N,N,N,N,00H 00M 00S 00MS
Girl774,87300101773,Convent,TuneTalk Challenge,Round 1,N,N,N,N,N,N,N,N,00H 00M 00S 00MS
Girl775,87300101774,Convent,TuneTalk Challenge,Round 1,N,N,N,N,N,N,N,N,00H 00M 00S 00MS
Girl776,87300101775,Convent,TuneTalk Challenge,Round 1,N,N,N,N,N,N,N,N,00H 00M 00S 00MS
Girl777,87300101776,Convent,TuneTalk Challenge,Round 1,N,N,N,N,N,N,N,N,00H 00M 00S 00MS
Girl778,87300101777,Convent,TuneTalk Challenge,Round 1,N,N,N,N,N,N,N,N,00H 00M 00S 00MS
Girl779,87300101778,Convent,TuneTalk Challenge,Round 1,N,N,N,N,N,N,N,N,00H 00M 00S 00MS
Girl780,87300101779,Convent,TuneTalk Challenge,Round 1,N,N,N,N,N,N,N,N,00H 00M 00S 00MS
Girl781,87300101780,Convent,TuneTalk Challenge,Round 1,N,N,N,N,N,N,N,N,00H 00M 00S 00MS
Girl782,87300101781,Convent,TuneTalk Challenge,Round 1,N,N,N,N,N,N,N,N,00H 00M 00S 00MS
Girl783,87300101782,Convent,TuneTalk Challenge,Round 1,N,N,N,N,N,N,N,N,00H 00M 00S 00MS
Girl784,87300101783,Convent,TuneTalk Challenge,Round 1,N,N,N,N,N,N,N,N,00H 00M 00S 00MS
Girl785,87300101784,Convent,TuneTalk Challenge,Round 1,N,N,N,N,N,N,N,N,00H 00M 00S 00MS
Girl786,87300101785,Convent,TuneTalk Challenge,Round 1,N,N,N,N,N,N,N,N,00H 00M 00S 00MS
Girl787,87300101786,Convent,TuneTalk Challenge,Round 1,N,N,N,N,N,N,N,N,00H 00M 00S 00MS
Girl788,87300101787,Convent,TuneTalk Challenge,Round 1,N,N,N,N,N,N,N,N,00H 00M 00S 00MS
Girl789,87300101788,Convent,TuneTalk Challenge,Round 1,N,N,N,N,N,N,N,N,00H 00M 00S 00MS
Girl790,87300101789,Convent,TuneTalk Challenge,Round 1,N,N,N,N,N,N,N,N,00H 00M 00S 00MS
Girl791,87300101790,Convent,TuneTalk Challenge,Round 1,N,N,N,N,N,N,N,N,00H 00M 00S 00MS
Girl792,87300101791,Convent,TuneTalk Challenge,Round 1,N,N,N,N,N,N,N,N,00H 00M 00S 00MS
Girl793,87300101792,Convent,TuneTalk Challenge,Round 1,N,N,N,N,N,N,N,N,00H 00M 00S 00MS
Girl794,87300101793,Convent,TuneTalk Challenge,Round 1,N,N,N,N,N,N,N,N,00H 00M 00S 00MS
Girl795,87300101794,Convent,TuneTalk Challenge,Round 1,N,N,N,N,N,N,N,N,00H 00M 00S 00MS
Girl796,87300101795,Convent,TuneTalk Challenge,Round 1,N,N,N,N,N,N,N,N,00H 00M 00S 00MS
Girl797,87300101796,Convent,TuneTalk Challenge,Round 1,N,N,N,N,N,N,N,N,00H 00M 00S 00MS
Girl798,87300101797,Convent,TuneTalk Challenge,Round 1,N,N,N,N,N,N,N,N,00H 00M 00S 00MS
Girl799,87300101798,Convent,TuneTalk Challenge,Round 1,N,N,N,N,N,N,N,N,00H 00M 00S 00MS
Girl800,87300101799,Convent,TuneTalk Challenge,Round 1,N,N,N,N,N,N,N,N,00H 00M 00S 00MS
Girl801,87300101800,Convent,TuneTalk Challenge,Round 1,N,N,N,N,N,N,N,N,00H 00M 00S 00MS
Girl802,87300101801,Convent,TuneTalk Challenge,Round 1,N,N,N,N,N,N,N,N,00H 00M 00S 00MS
Girl803,87300101802,Convent,TuneTalk Challenge,Round 1,N,N,N,N,N,N,N,N,00H 00M 00S 00MS
Girl804,87300101803,Convent,TuneTalk Challenge,Round 1,N,N,N,N,N,N,N,N,00H 00M 00S 00MS
Girl805,87300101804,Convent,TuneTalk Challenge,Round 1,N,N,N,N,N,N,N,N,00H 00M 00S 00MS
Girl806,87300101805,Convent,TuneTalk Challenge,Round 1,N,N,N,N,N,N,N,N,00H 00M 00S 00MS
Girl807,87300101806,Convent,TuneTalk Challenge,Round 1,N,N,N,N,N,N,N,N,00H 00M 00S 00MS
Girl808,87300101807,Convent,TuneTalk Challenge,Round 1,N,N,N,N,N,N,N,N,00H 00M 00S 00MS
Girl809,87300101808,Convent,TuneTalk Challenge,Round 1,N,N,N,N,N,N,N,N,00H 00M 00S 00MS
Girl810,87300101809,Convent,TuneTalk Challenge,Round 1,N,N,N,N,N,N,N,N,00H 00M 00S 00MS
Girl811,87300101810,Convent,TuneTalk Challenge,Round 1,N,N,N,N,N,N,N,N,00H 00M 00S 00MS
Girl812,87300101811,Convent,TuneTalk Challenge,Round 1,N,N,N,N,N,N,N,N,00H 00M 00S 00MS
Girl813,87300101812,Convent,TuneTalk Challenge,Round 1,N,N,N,N,N,N,N,N,00H 00M 00S 00MS
Girl814,87300101813,Convent,TuneTalk Challenge,Round 1,N,N,N,N,N,N,N,N,00H 00M 00S 00MS
Girl815,87300101814,Convent,TuneTalk Challenge,Round 1,N,N,N,N,N,N,N,N,00H 00M 00S 00MS
Girl816,87300101815,Convent,TuneTalk Challenge,Round 1,N,N,N,N,N,N,N,N,00H 00M 00S 00MS
Girl817,87300101816,Convent,TuneTalk Challenge,Round 1,N,N,N,N,N,N,N,N,00H 00M 00S 00MS
Girl818,87300101817,Convent,TuneTalk Challenge,Round 1,N,N,N,N,N,N,N,N,00H 00M 00S 00MS
Girl819,87300101818,Convent,TuneTalk Challenge,Round 1,N,N,N,N,N,N,N,N,00H 00M 00S 00MS
Girl820,87300101819,Convent,TuneTalk Challenge,Round 1,N,N,N,N,N,N,N,N,00H 00M 00S 00MS
Girl821,87300101820,Convent,TuneTalk Challenge,Round 1,N,N,N,N,N,N,N,N,00H 00M 00S 00MS
Girl822,87300101821,Convent,TuneTalk Challenge,Round 1,N,N,N,N,N,N,N,N,00H 00M 00S 00MS
Girl823,87300101822,Convent,TuneTalk Challenge,Round 1,N,N,N,N,N,N,N,N,00H 00M 00S 00MS
Girl824,87300101823,Convent,TuneTalk Challenge,Round 1,N,N,N,N,N,N,N,N,00H 00M 00S 00MS
Girl825,87300101824,Convent,TuneTalk Challenge,Round 1,N,N,N,N,N,N,N,N,00H 00M 00S 00MS
Girl826,87300101825,Convent,TuneTalk Challenge,Round 1,N,N,N,N,N,N,N,N,00H 00M 00S 00MS
Girl827,87300101826,Convent,TuneTalk Challenge,Round 1,N,N,N,N,N,N,N,N,00H 00M 00S 00MS
Girl828,87300101827,Convent,TuneTalk Challenge,Round 1,N,N,N,N,N,N,N,N,00H 00M 00S 00MS
Girl829,87300101828,Convent,TuneTalk Challenge,Round 1,N,N,N,N,N,N,N,N,00H 00M 00S 00MS
Girl830,87300101829,Convent,TuneTalk Challenge,Round 1,N,N,N,N,N,N,N,N,00H 00M 00S 00MS
Girl831,87300101830,Convent,TuneTalk Challenge,Round 1,N,N,N,N,N,N,N,N,00H 00M 00S 00MS
Girl832,87300101831,Convent,TuneTalk Challenge,Round 1,N,N,N,N,N,N,N,N,00H 00M 00S 00MS
Girl833,87300101832,Convent,TuneTalk Challenge,Round 1,N,N,N,N,N,N,N,N,00H 00M 00S 00MS
Girl834,87300101833,Convent,TuneTalk Challenge,Round 1,N,N,N,N,N,N,N,N,00H 00M 00S 00MS
Girl835,87300101834,Convent,TuneTalk Challenge,Round 1,N,N,N,N,N,N,N,N,00H 00M 00S 00MS
Girl836,87300101835,Convent,TuneTalk Challenge,Round 1,N,N,N,N,N,N,N,N,00H 00M 00S 00MS
Girl837,87300101836,Convent,TuneTalk Challenge,Round 1,N,N,N,N,N,N,N,N,00H 00M 00S 00MS
Girl838,87300101837,Convent,TuneTalk Challenge,Round 1,N,N,N,N,N,N,N,N,00H 00M 00S 00MS
Girl839,87300101838,Convent,TuneTalk Challenge,Round 1,N,N,N,N,N,N,N,N,00H 00M 00S 00MS
Girl840,87300101839,Convent,TuneTalk Challenge,Round 1,N,N,N,N,N,N,N,N,00H 00M 00S 00MS
Girl841,87300101840,Convent,TuneTalk Challenge,Round 1,N,N,N,N,N,N,N,N,00H 00M 00S 00MS
Girl842,87300101841,Convent,TuneTalk Challenge,Round 1,N,N,N,N,N,N,N,N,00H 00M 00S 00MS
Girl843,87300101842,Convent,TuneTalk Challenge,Round 1,N,N,N,N,N,N,N,N,00H 00M 00S 00MS
Girl844,87300101843,Convent,TuneTalk Challenge,Round 1,N,N,N,N,N,N,N,N,00H 00M 00S 00MS
Girl845,87300101844,Convent,TuneTalk Challenge,Round 1,N,N,N,N,N,N,N,N,00H 00M 00S 00MS
Girl846,87300101845,Convent,TuneTalk Challenge,Round 1,N,N,N,N,N,N,N,N,00H 00M 00S 00MS
Girl847,87300101846,Convent,TuneTalk Challenge,Round 1,N,N,N,N,N,N,N,N,00H 00M 00S 00MS
Girl848,87300101847,Convent,TuneTalk Challenge,Round 1,N,N,N,N,N,N,N,N,00H 00M 00S 00MS
Girl849,87300101848,Convent,TuneTalk Challenge,Round 1,N,N,N,N,N,N,N,N,00H 00M 00S 00MS
Girl850,87300101849,Convent,TuneTalk Challenge,Round 1,N,N,N,N,N,N,N,N,00H 00M 00S 00MS
Girl851,87300101850,Convent,TuneTalk Challenge,Round 1,N,N,N,N,N,N,N,N,00H 00M 00S 00MS
Girl852,87300101851,Convent,TuneTalk Challenge,Round 1,N,N,N,N,N,N,N,N,00H 00M 00S 00MS
Girl853,87300101852,Convent,TuneTalk Challenge,Round 1,N,N,N,N,N,N,N,N,00H 00M 00S 00MS
Girl854,87300101853,Convent,TuneTalk Challenge,Round 1,N,N,N,N,N,N,N,N,00H 00M 00S 00MS
Girl855,87300101854,Convent,TuneTalk Challenge,Round 1,N,N,N,N,N,N,N,N,00H 00M 00S 00MS
Girl856,87300101855,Convent,TuneTalk Challenge,Round 1,N,N,N,N,N,N,N,N,00H 00M 00S 00MS
Girl857,87300101856,Convent,TuneTalk Challenge,Round 1,N,N,N,N,N,N,N,N,00H 00M 00S 00MS
Girl858,87300101857,Convent,TuneTalk Challenge,Round 1,N,N,N,N,N,N,N,N,00H 00M 00S 00MS
Girl859,87300101858,Convent,TuneTalk Challenge,Round 1,N,N,N,N,N,N,N,N,00H 00M 00S 00MS
Girl860,87300101859,Convent,TuneTalk Challenge,Round 1,N,N,N,N,N,N,N,N,00H 00M 00S 00MS
Girl861,87300101860,Convent,TuneTalk Challenge,Round 1,N,N,N,N,N,N,N,N,00H 00M 00S 00MS
Girl862,87300101861,Convent,TuneTalk Challenge,Round 1,N,N,N,N,N,N,N,N,00H 00M 00S 00MS
Girl863,87300101862,Convent,TuneTalk Challenge,Round 1,N,N,N,N,N,N,N,N,00H 00M 00S 00MS
Girl864,87300101863,Convent,TuneTalk Challenge,Round 1,N,N,N,N,N,N,N,N,00H 00M 00S 00MS
Girl865,87300101864,Convent,TuneTalk Challenge,Round 1,N,N,N,N,N,N,N,N,00H 00M 00S 00MS
Girl866,87300101865,Convent,TuneTalk Challenge,Round 1,N,N,N,N,N,N,N,N,00H 00M 00S 00MS
Girl867,87300101866,Convent,TuneTalk Challenge,Round 1,N,N,N,N,N,N,N,N,00H 00M 00S 00MS
Girl868,87300101867,Convent,TuneTalk Challenge,Round 1,N,N,N,N,N,N,N,N,00H 00M 00S 00MS
Girl869,87300101868,Convent,TuneTalk Challenge,Round 1,N,N,N,N,N,N,N,N,00H 00M 00S 00MS
Girl870,87300101869,Convent,TuneTalk Challenge,Round 1,N,N,N,N,N,N,N,N,00H 00M 00S 00MS
Girl871,87300101870,Convent,TuneTalk Challenge,Round 1,N,N,N,N,N,N,N,N,00H 00M 00S 00MS
Girl872,87300101871,Convent,TuneTalk Challenge,Round 1,N,N,N,N,N,N,N,N,00H 00M 00S 00MS
Girl873,87300101872,Convent,TuneTalk Challenge,Round 1,N,N,N,N,N,N,N,N,00H 00M 00S 00MS
Girl874,87300101873,Convent,TuneTalk Challenge,Round 1,N,N,N,N,N,N,N,N,00H 00M 00S 00MS
Girl875,87300101874,Convent,TuneTalk Challenge,Round 1,N,N,N,N,N,N,N,N,00H 00M 00S 00MS
Girl876,87300101875,Convent,TuneTalk Challenge,Round 1,N,N,N,N,N,N,N,N,00H 00M 00S 00MS
Girl877,87300101876,Convent,TuneTalk Challenge,Round 1,N,N,N,N,N,N,N,N,00H 00M 00S 00MS
Girl878,87300101877,Convent,TuneTalk Challenge,Round 1,N,N,N,N,N,N,N,N,00H 00M 00S 00MS
Girl879,87300101878,Convent,TuneTalk Challenge,Round 1,N,N,N,N,N,N,N,N,00H 00M 00S 00MS
Girl880,87300101879,Convent,TuneTalk Challenge,Round 1,N,N,N,N,N,N,N,N,00H 00M 00S 00MS
Girl881,87300101880,Convent,TuneTalk Challenge,Round 1,N,N,N,N,N,N,N,N,00H 00M 00S 00MS
Girl882,87300101881,Convent,TuneTalk Challenge,Round 1,N,N,N,N,N,N,N,N,00H 00M 00S 00MS
Girl883,87300101882,Convent,TuneTalk Challenge,Round 1,N,N,N,N,N,N,N,N,00H 00M 00S 00MS
Girl884,87300101883,Convent,TuneTalk Challenge,Round 1,N,N,N,N,N,N,N,N,00H 00M 00S 00MS
Girl885,87300101884,Convent,TuneTalk Challenge,Round 1,N,N,N,N,N,N,N,N,00H 00M 00S 00MS
Girl886,87300101885,Convent,TuneTalk Challenge,Round 1,N,N,N,N,N,N,N,N,00H 00M 00S 00MS
Girl887,87300101886,Convent,TuneTalk Challenge,Round 1,N,N,N,N,N,N,N,N,00H 00M 00S 00MS
Girl888,87300101887,Convent,TuneTalk Challenge,Round 1,N,N,N,N,N,N,N,N,00H 00M 00S 00MS
Girl889,87300101888,Convent,TuneTalk Challenge,Round 1,N,N,N,N,N,N,N,N,00H 00M 00S 00MS
Girl890,87300101889,Convent,TuneTalk Challenge,Round 1,N,N,N,N,N,N,N,N,00H 00M 00S 00MS
Girl891,87300101890,Convent,TuneTalk Challenge,Round 1,N,N,N,N,N,N,N,N,00H 00M 00S 00MS
Girl892,87300101891,Convent,TuneTalk Challenge,Round 1,N,N,N,N,N,N,N,N,00H 00M 00S 00MS
Girl893,87300101892,Convent,TuneTalk Challenge,Round 1,N,N,N,N,N,N,N,N,00H 00M 00S 00MS
Girl894,87300101893,Convent,TuneTalk Challenge,Round 1,N,N,N,N,N,N,N,N,00H 00M 00S 00MS
Girl895,87300101894,Convent,TuneTalk Challenge,Round 1,N,N,N,N,N,N,N,N,00H 00M 00S 00MS
Girl896,87300101895,Convent,TuneTalk Challenge,Round 1,N,N,N,N,N,N,N,N,00H 00M 00S 00MS
Girl897,87300101896,Convent,TuneTalk Challenge,Round 1,N,N,N,N,N,N,N,N,00H 00M 00S 00MS
Girl898,87300101897,Convent,TuneTalk Challenge,Round 1,N,N,N,N,N,N,N,N,00H 00M 00S 00MS
Girl899,87300101898,Convent,TuneTalk Challenge,Round 1,N,N,N,N,N,N,N,N,00H 00M 00S 00MS
Girl900,87300101899,Convent,TuneTalk Challenge,Round 1,N,N,N,N,N,N,N,N,00H 00M 00S 00MS
Girl901,87300101900,Convent,TuneTalk Challenge,Round 1,N,N,N,N,N,N,N,N,00H 00M 00S 00MS
Girl902,87300101901,Convent,TuneTalk Challenge,Round 1,N,N,N,N,N,N,N,N,00H 00M 00S 00MS
Girl903,87300101902,Convent,TuneTalk Challenge,Round 1,N,N,N,N,N,N,N,N,00H 00M 00S 00MS
Girl904,87300101903,Convent,TuneTalk Challenge,Round 1,N,N,N,N,N,N,N,N,00H 00M 00S 00MS
Girl905,87300101904,Convent,TuneTalk Challenge,Round 1,N,N,N,N,N,N,N,N,00H 00M 00S 00MS
Girl906,87300101905,Convent,TuneTalk Challenge,Round 1,N,N,N,N,N,N,N,N,00H 00M 00S 00MS
Girl907,87300101906,Convent,TuneTalk Challenge,Round 1,N,N,N,N,N,N,N,N,00H 00M 00S 00MS
Girl908,87300101907,Convent,TuneTalk Challenge,Round 1,N,N,N,N,N,N,N,N,00H 00M 00S 00MS
Girl909,87300101908,Convent,TuneTalk Challenge,Round 1,N,N,N,N,N,N,N,N,00H 00M 00S 00MS
Girl910,87300101909,Convent,TuneTalk Challenge,Round 1,N,N,N,N,N,N,N,N,00H 00M 00S 00MS
Girl911,87300101910,Convent,TuneTalk Challenge,Round 1,N,N,N,N,N,N,N,N,00H 00M 00S 00MS
Girl912,87300101911,Convent,TuneTalk Challenge,Round 1,N,N,N,N,N,N,N,N,00H 00M 00S 00MS
Girl913,87300101912,Convent,TuneTalk Challenge,Round 1,N,N,N,N,N,N,N,N,00H 00M 00S 00MS
Girl914,87300101913,Convent,TuneTalk Challenge,Round 1,N,N,N,N,N,N,N,N,00H 00M 00S 00MS
Girl915,87300101914,Convent,TuneTalk Challenge,Round 1,N,N,N,N,N,N,N,N,00H 00M 00S 00MS
Girl916,87300101915,Convent,TuneTalk Challenge,Round 1,N,N,N,N,N,N,N,N,00H 00M 00S 00MS
Girl917,87300101916,Convent,TuneTalk Challenge,Round 1,N,N,N,N,N,N,N,N,00H 00M 00S 00MS
Girl918,87300101917,Convent,TuneTalk Challenge,Round 1,N,N,N,N,N,N,N,N,00H 00M 00S 00MS
Girl919,87300101918,Convent,TuneTalk Challenge,Round 1,N,N,N,N,N,N,N,N,00H 00M 00S 00MS
Girl920,87300101919,Convent,TuneTalk Challenge,Round 1,N,N,N,N,N,N,N,N,00H 00M 00S 00MS
Girl921,87300101920,Convent,TuneTalk Challenge,Round 1,N,N,N,N,N,N,N,N,00H 00M 00S 00MS
Girl922,87300101921,Convent,TuneTalk Challenge,Round 1,N,N,N,N,N,N,N,N,00H 00M 00S 00MS
Girl923,87300101922,Convent,TuneTalk Challenge,Round 1,N,N,N,N,N,N,N,N,00H 00M 00S 00MS
Girl924,87300101923,Convent,TuneTalk Challenge,Round 1,N,N,N,N,N,N,N,N,00H 00M 00S 00MS
Girl925,87300101924,Convent,TuneTalk Challenge,Round 1,N,N,N,N,N,N,N,N,00H 00M 00S 00MS
Girl926,87300101925,Convent,TuneTalk Challenge,Round 1,N,N,N,N,N,N,N,N,00H 00M 00S 00MS
Girl927,87300101926,Convent,TuneTalk Challenge,Round 1,N,N,N,N,N,N,N,N,00H 00M 00S 00MS
Girl928,87300101927,Convent,TuneTalk Challenge,Round 1,N,N,N,N,N,N,N,N,00H 00M 00S 00MS
Girl929,87300101928,Convent,TuneTalk Challenge,Round 1,N,N,N,N,N,N,N,N,00H 00M 00S 00MS
Girl930,87300101929,Convent,TuneTalk Challenge,Round 1,N,N,N,N,N,N,N,N,00H 00M 00S 00MS
Girl931,87300101930,Convent,TuneTalk Challenge,Round 1,N,N,N,N,N,N,N,N,00H 00M 00S 00MS
Girl932,87300101931,Convent,TuneTalk Challenge,Round 1,N,N,N,N,N,N,N,N,00H 00M 00S 00MS
Girl933,87300101932,Convent,TuneTalk Challenge,Round 1,N,N,N,N,N,N,N,N,00H 00M 00S 00MS
Girl934,87300101933,Convent,TuneTalk Challenge,Round 1,N,N,N,N,N,N,N,N,00H 00M 00S 00MS
Girl935,87300101934,Convent,TuneTalk Challenge,Round 1,N,N,N,N,N,N,N,N,00H 00M 00S 00MS
Girl936,87300101935,Convent,TuneTalk Challenge,Round 1,N,N,N,N,N,N,N,N,00H 00M 00S 00MS
Girl937,87300101936,Convent,TuneTalk Challenge,Round 1,N,N,N,N,N,N,N,N,00H 00M 00S 00MS
Girl938,87300101937,Convent,TuneTalk Challenge,Round 1,N,N,N,N,N,N,N,N,00H 00M 00S 00MS
Girl939,87300101938,Convent,TuneTalk Challenge,Round 1,N,N,N,N,N,N,N,N,00H 00M 00S 00MS
Girl940,87300101939,Convent,TuneTalk Challenge,Round 1,N,N,N,N,N,N,N,N,00H 00M 00S 00MS
Girl941,87300101940,Convent,TuneTalk Challenge,Round 1,N,N,N,N,N,N,N,N,00H 00M 00S 00MS
Girl942,87300101941,Convent,TuneTalk Challenge,Round 1,N,N,N,N,N,N,N,N,00H 00M 00S 00MS
Girl943,87300101942,Convent,TuneTalk Challenge,Round 1,N,N,N,N,N,N,N,N,00H 00M 00S 00MS
Girl944,87300101943,Convent,TuneTalk Challenge,Round 1,N,N,N,N,N,N,N,N,00H 00M 00S 00MS
Girl945,87300101944,Convent,TuneTalk Challenge,Round 1,N,N,N,N,N,N,N,N,00H 00M 00S 00MS
Girl946,87300101945,Convent,TuneTalk Challenge,Round 1,N,N,N,N,N,N,N,N,00H 00M 00S 00MS
Girl947,87300101946,Convent,TuneTalk Challenge,Round 1,N,N,N,N,N,N,N,N,00H 00M 00S 00MS
Girl948,87300101947,Convent,TuneTalk Challenge,Round 1,N,N,N,N,N,N,N,N,00H 00M 00S 00MS
Girl949,87300101948,Convent,TuneTalk Challenge,Round 1,N,N,N,N,N,N,N,N,00H 00M 00S 00MS
Girl950,87300101949,Convent,TuneTalk Challenge,Round 1,N,N,N,N,N,N,N,N,00H 00M 00S 00MS
Girl951,87300101950,Convent,TuneTalk Challenge,Round 1,N,N,N,N,N,N,N,N,00H 00M 00S 00MS
Girl952,87300101951,Convent,TuneTalk Challenge,Round 1,N,N,N,N,N,N,N,N,00H 00M 00S 00MS
Girl953,87300101952,Convent,TuneTalk Challenge,Round 1,N,N,N,N,N,N,N,N,00H 00M 00S 00MS
Girl954,87300101953,Convent,TuneTalk Challenge,Round 1,N,N,N,N,N,N,N,N,00H 00M 00S 00MS
Girl955,87300101954,Convent,TuneTalk Challenge,Round 1,N,N,N,N,N,N,N,N,00H 00M 00S 00MS
Girl956,87300101955,Convent,TuneTalk Challenge,Round 1,N,N,N,N,N,N,N,N,00H 00M 00S 00MS
Girl957,87300101956,Convent,TuneTalk Challenge,Round 1,N,N,N,N,N,N,N,N,00H 00M 00S 00MS
Girl958,87300101957,Convent,TuneTalk Challenge,Round 1,N,N,N,N,N,N,N,N,00H 00M 00S 00MS
Girl959,87300101958,Convent,TuneTalk Challenge,Round 1,N,N,N,N,N,N,N,N,00H 00M 00S 00MS
Girl960,87300101959,Convent,TuneTalk Challenge,Round 1,N,N,N,N,N,N,N,N,00H 00M 00S 00MS
Girl961,87300101960,Convent,TuneTalk Challenge,Round 1,N,N,N,N,N,N,N,N,00H 00M 00S 00MS
Girl962,87300101961,Convent,TuneTalk Challenge,Round 1,N,N,N,N,N,N,N,N,00H 00M 00S 00MS
Girl963,87300101962,Convent,TuneTalk Challenge,Round 1,N,N,N,N,N,N,N,N,00H 00M 00S 00MS
Girl964,87300101963,Convent,TuneTalk Challenge,Round 1,N,N,N,N,N,N,N,N,00H 00M 00S 00MS
Girl965,87300101964,Convent,TuneTalk Challenge,Round 1,N,N,N,N,N,N,N,N,00H 00M 00S 00MS
Girl966,87300101965,Convent,TuneTalk Challenge,Round 1,N,N,N,N,N,N,N,N,00H 00M 00S 00MS
Girl967,87300101966,Convent,TuneTalk Challenge,Round 1,N,N,N,N,N,N,N,N,00H 00M 00S 00MS
Girl968,87300101967,Convent,TuneTalk Challenge,Round 1,N,N,N,N,N,N,N,N,00H 00M 00S 00MS
Girl969,87300101968,Convent,TuneTalk Challenge,Round 1,N,N,N,N,N,N,N,N,00H 00M 00S 00MS
Girl970,87300101969,Convent,TuneTalk Challenge,Round 1,N,N,N,N,N,N,N,N,00H 00M 00S 00MS
Girl971,87300101970,Convent,TuneTalk Challenge,Round 1,N,N,N,N,N,N,N,N,00H 00M 00S 00MS
Girl972,87300101971,Convent,TuneTalk Challenge,Round 1,N,N,N,N,N,N,N,N,00H 00M 00S 00MS
Girl973,87300101972,Convent,TuneTalk Challenge,Round 1,N,N,N,N,N,N,N,N,00H 00M 00S 00MS
Girl974,87300101973,Convent,TuneTalk Challenge,Round 1,N,N,N,N,N,N,N,N,00H 00M 00S 00MS
Girl975,87300101974,Convent,TuneTalk Challenge,Round 1,N,N,N,N,N,N,N,N,00H 00M 00S 00MS
Girl976,87300101975,Convent,TuneTalk Challenge,Round 1,N,N,N,N,N,N,N,N,00H 00M 00S 00MS
Girl977,87300101976,Convent,TuneTalk Challenge,Round 1,N,N,N,N,N,N,N,N,00H 00M 00S 00MS
Girl978,87300101977,Convent,TuneTalk Challenge,Round 1,N,N,N,N,N,N,N,N,00H 00M 00S 00MS
Girl979,87300101978,Convent,TuneTalk Challenge,Round 1,N,N,N,N,N,N,N,N,00H 00M 00S 00MS
Girl980,87300101979,Convent,TuneTalk Challenge,Round 1,N,N,N,N,N,N,N,N,00H 00M 00S 00MS
Girl981,87300101980,Convent,TuneTalk Challenge,Round 1,N,N,N,N,N,N,N,N,00H 00M 00S 00MS
Girl982,87300101981,Convent,TuneTalk Challenge,Round 1,N,N,N,N,N,N,N,N,00H 00M 00S 00MS
Girl983,87300101982,Convent,TuneTalk Challenge,Round 1,N,N,N,N,N,N,N,N,00H 00M 00S 00MS
Girl984,87300101983,Convent,TuneTalk Challenge,Round 1,N,N,N,N,N,N,N,N,00H 00M 00S 00MS
Girl985,87300101984,Convent,TuneTalk Challenge,Round 1,N,N,N,N,N,N,N,N,00H 00M 00S 00MS
Girl986,87300101985,Convent,TuneTalk Challenge,Round 1,N,N,N,N,N,N,N,N,00H 00M 00S 00MS
Girl987,87300101986,Convent,TuneTalk Challenge,Round 1,N,N,N,N,N,N,N,N,00H 00M 00S 00MS
Girl988,87300101987,Convent,TuneTalk Challenge,Round 1,N,N,N,N,N,N,N,N,00H 00M 00S 00MS
Girl989,87300101988,Convent,TuneTalk Challenge,Round 1,N,N,N,N,N,N,N,N,00H 00M 00S 00MS
Girl990,87300101989,Convent,TuneTalk Challenge,Round 1,N,N,N,N,N,N,N,N,00H 00M 00S 00MS
Girl991,87300101990,Convent,TuneTalk Challenge,Round 1,N,N,N,N,N,N,N,N,00H 00M 00S 00MS
Girl992,87300101991,Convent,TuneTalk Challenge,Round 1,N,N,N,N,N,N,N,N,00H 00M 00S 00MS
Girl993,87300101992,Convent,TuneTalk Challenge,Round 1,N,N,N,N,N,N,N,N,00H 00M 00S 00MS
Girl994,87300101993,Convent,TuneTalk Challenge,Round 1,N,N,N,N,N,N,N,N,00H 00M 00S 00MS
Girl995,87300101994,Convent,TuneTalk Challenge,Round 1,N,N,N,N,N,N,N,N,00H 00M 00S 00MS
Girl996,87300101995,Convent,TuneTalk Challenge,Round 1,N,N,N,N,N,N,N,N,00H 00M 00S 00MS
Girl997,87300101996,Convent,TuneTalk Challenge,Round 1,N,N,N,N,N,N,N,N,00H 00M 00S 00MS
Girl998,87300101997,Convent,TuneTalk Challenge,Round 1,N,N,N,N,N,N,N,N,00H 00M 00S 00MS
Girl999,87300101998,Convent,TuneTalk Challenge,Round 1,N,N,N,N,N,N,N,N,00H 00M 00S 00MS
Girl1000,87300101999,Convent,TuneTalk Challenge,Round 1,N,N,N,N,N,N,N,N,00H 00M 00S 00MS
Girl1001,87300102000,Convent,TuneTalk Challenge,Round 1,N,N,N,N,N,N,N,N,00H 00M 00S 00MS
Girl1002,87300102001,Convent,TuneTalk Challenge,Round 1,N,N,N,N,N,N,N,N,00H 00M 00S 00MS
Girl1003,87300102002,Convent,TuneTalk Challenge,Round 1,N,N,N,N,N,N,N,N,00H 00M 00S 00MS
Girl1004,87300102003,Convent,TuneTalk Challenge,Round 1,N,N,N,N,N,N,N,N,00H 00M 00S 00MS
Girl1005,87300102004,Convent,TuneTalk Challenge,Round 1,N,N,N,N,N,N,N,N,00H 00M 00S 00MS
Girl1006,87300102005,Convent,TuneTalk Challenge,Round 1,N,N,N,N,N,N,N,N,00H 00M 00S 00MS
Girl1007,87300102006,Convent,TuneTalk Challenge,Round 1,N,N,N,N,N,N,N,N,00H 00M 00S 00MS
Girl1008,87300102007,Convent,TuneTalk Challenge,Round 1,N,N,N,N,N,N,N,N,00H 00M 00S 00MS
Girl1009,87300102008,Convent,TuneTalk Challenge,Round 1,N,N,N,N,N,N,N,N,00H 00M 00S 00MS
Girl1010,87300102009,Convent,TuneTalk Challenge,Round 1,N,N,N,N,N,N,N,N,00H 00M 00S 00MS
Girl1011,87300102010,Convent,TuneTalk Challenge,Round 1,N,N,N,N,N,N,N,N,00H 00M 00S 00MS
Girl1012,87300102011,Convent,TuneTalk Challenge,Round 1,N,N,N,N,N,N,N,N,00H 00M 00S 00MS
Girl1013,87300102012,Convent,TuneTalk Challenge,Round 1,N,N,N,N,N,N,N,N,00H 00M 00S 00MS
Girl1014,87300102013,Convent,TuneTalk Challenge,Round 1,N,N,N,N,N,N,N,N,00H 00M 00S 00MS
Girl1015,87300102014,Convent,TuneTalk Challenge,Round 1,N,N,N,N,N,N,N,N,00H 00M 00S 00MS
Girl1016,87300102015,Convent,TuneTalk Challenge,Round 1,N,N,N,N,N,N,N,N,00H 00M 00S 00MS
Girl1017,87300102016,Convent,TuneTalk Challenge,Round 1,N,N,N,N,N,N,N,N,00H 00M 00S 00MS
Girl1018,87300102017,Convent,TuneTalk Challenge,Round 1,N,N,N,N,N,N,N,N,00H 00M 00S 00MS
Girl1019,87300102018,Convent,TuneTalk Challenge,Round 1,N,N,N,N,N,N,N,N,00H 00M 00S 00MS
Girl1020,87300102019,Convent,TuneTalk Challenge,Round 1,N,N,N,N,N,N,N,N,00H 00M 00S 00MS
Girl1021,87300102020,Convent,TuneTalk Challenge,Round 1,N,N,N,N,N,N,N,N,00H 00M 00S 00MS
Girl1022,87300102021,Convent,TuneTalk Challenge,Round 1,N,N,N,N,N,N,N,N,00H 00M 00S 00MS
Girl1023,87300102022,Convent,TuneTalk Challenge,Round 1,N,N,N,N,N,N,N,N,00H 00M 00S 00MS
Girl1024,87300102023,Convent,TuneTalk Challenge,Round 1,N,N,N,N,N,N,N,N,00H 00M 00S 00MS
Girl1025,87300102024,Convent,TuneTalk Challenge,Round 1,N,N,N,N,N,N,N,N,00H 00M 00S 00MS
Girl1026,87300102025,Convent,TuneTalk Challenge,Round 1,N,N,N,N,N,N,N,N,00H 00M 00S 00MS
Girl1027,87300102026,Convent,TuneTalk Challenge,Round 1,N,N,N,N,N,N,N,N,00H 00M 00S 00MS
Girl1028,87300102027,Convent,TuneTalk Challenge,Round 1,N,N,N,N,N,N,N,N,00H 00M 00S 00MS
Girl1029,87300102028,Convent,TuneTalk Challenge,Round 1,N,N,N,N,N,N,N,N,00H 00M 00S 00MS
Girl1030,87300102029,Convent,TuneTalk Challenge,Round 1,N,N,N,N,N,N,N,N,00H 00M 00S 00MS
Girl1031,87300102030,Convent,TuneTalk Challenge,Round 1,N,N,N,N,N,N,N,N,00H 00M 00S 00MS
Girl1032,87300102031,Convent,TuneTalk Challenge,Round 1,N,N,N,N,N,N,N,N,00H 00M 00S 00MS
Girl1033,87300102032,Convent,TuneTalk Challenge,Round 1,N,N,N,N,N,N,N,N,00H 00M 00S 00MS
Girl1034,87300102033,Convent,TuneTalk Challenge,Round 1,N,N,N,N,N,N,N,N,00H 00M 00S 00MS
Girl1035,87300102034,Convent,TuneTalk Challenge,Round 1,N,N,N,N,N,N,N,N,00H 00M 00S 00MS
Girl1036,87300102035,Convent,TuneTalk Challenge,Round 1,N,N,N,N,N,N,N,N,00H 00M 00S 00MS
Girl1037,87300102036,Convent,TuneTalk Challenge,Round 1,N,N,N,N,N,N,N,N,00H 00M 00S 00MS
Girl1038,87300102037,Convent,TuneTalk Challenge,Round 1,N,N,N,N,N,N,N,N,00H 00M 00S 00MS
Girl1039,87300102038,Convent,TuneTalk Challenge,Round 1,N,N,N,N,N,N,N,N,00H 00M 00S 00MS
Girl1040,87300102039,Convent,TuneTalk Challenge,Round 1,N,N,N,N,N,N,N,N,00H 00M 00S 00MS
Girl1041,87300102040,Convent,TuneTalk Challenge,Round 1,N,N,N,N,N,N,N,N,00H 00M 00S 00MS
Girl1042,87300102041,Convent,TuneTalk Challenge,Round 1,N,N,N,N,N,N,N,N,00H 00M 00S 00MS
Girl1043,87300102042,Convent,TuneTalk Challenge,Round 1,N,N,N,N,N,N,N,N,00H 00M 00S 00MS
Girl1044,87300102043,Convent,TuneTalk Challenge,Round 1,N,N,N,N,N,N,N,N,00H 00M 00S 00MS
Girl1045,87300102044,Convent,TuneTalk Challenge,Round 1,N,N,N,N,N,N,N,N,00H 00M 00S 00MS
Girl1046,87300102045,Convent,TuneTalk Challenge,Round 1,N,N,N,N,N,N,N,N,00H 00M 00S 00MS
Girl1047,87300102046,Convent,TuneTalk Challenge,Round 1,N,N,N,N,N,N,N,N,00H 00M 00S 00MS
Girl1048,87300102047,Convent,TuneTalk Challenge,Round 1,N,N,N,N,N,N,N,N,00H 00M 00S 00MS
Girl1049,87300102048,Convent,TuneTalk Challenge,Round 1,N,N,N,N,N,N,N,N,00H 00M 00S 00MS
Girl1050,87300102049,Convent,TuneTalk Challenge,Round 1,N,N,N,N,N,N,N,N,00H 00M 00S 00MS
Girl1051,87300102050,Convent,TuneTalk Challenge,Round 1,N,N,N,N,N,N,N,N,00H 00M 00S 00MS
Girl1052,87300102051,Convent,TuneTalk Challenge,Round 1,N,N,N,N,N,N,N,N,00H 00M 00S 00MS
Girl1053,87300102052,Convent,TuneTalk Challenge,Round 1,N,N,N,N,N,N,N,N,00H 00M 00S 00MS
Girl1054,87300102053,Convent,TuneTalk Challenge,Round 1,N,N,N,N,N,N,N,N,00H 00M 00S 00MS
Girl1055,87300102054,Convent,TuneTalk Challenge,Round 1,N,N,N,N,N,N,N,N,00H 00M 00S 00MS
Girl1056,87300102055,Convent,TuneTalk Challenge,Round 1,N,N,N,N,N,N,N,N,00H 00M 00S 00MS
Girl1057,87300102056,Convent,TuneTalk Challenge,Round 1,N,N,N,N,N,N,N,N,00H 00M 00S 00MS
Girl1058,87300102057,Convent,TuneTalk Challenge,Round 1,N,N,N,N,N,N,N,N,00H 00M 00S 00MS
Girl1059,87300102058,Convent,TuneTalk Challenge,Round 1,N,N,N,N,N,N,N,N,00H 00M 00S 00MS
Girl1060,87300102059,Convent,TuneTalk Challenge,Round 1,N,N,N,N,N,N,N,N,00H 00M 00S 00MS
Girl1061,87300102060,Convent,TuneTalk Challenge,Round 1,N,N,N,N,N,N,N,N,00H 00M 00S 00MS
Girl1062,87300102061,Convent,TuneTalk Challenge,Round 1,N,N,N,N,N,N,N,N,00H 00M 00S 00MS
Girl1063,87300102062,Convent,TuneTalk Challenge,Round 1,N,N,N,N,N,N,N,N,00H 00M 00S 00MS
Girl1064,87300102063,Convent,TuneTalk Challenge,Round 1,N,N,N,N,N,N,N,N,00H 00M 00S 00MS
Girl1065,87300102064,Convent,TuneTalk Challenge,Round 1,N,N,N,N,N,N,N,N,00H 00M 00S 00MS
Girl1066,87300102065,Convent,TuneTalk Challenge,Round 1,N,N,N,N,N,N,N,N,00H 00M 00S 00MS
Girl1067,87300102066,Convent,TuneTalk Challenge,Round 1,N,N,N,N,N,N,N,N,00H 00M 00S 00MS
Girl1068,87300102067,Convent,TuneTalk Challenge,Round 1,N,N,N,N,N,N,N,N,00H 00M 00S 00MS
Girl1069,87300102068,Convent,TuneTalk Challenge,Round 1,N,N,N,N,N,N,N,N,00H 00M 00S 00MS
Girl1070,87300102069,Convent,TuneTalk Challenge,Round 1,N,N,N,N,N,N,N,N,00H 00M 00S 00MS
Girl1071,87300102070,Convent,TuneTalk Challenge,Round 1,N,N,N,N,N,N,N,N,00H 00M 00S 00MS
Girl1072,87300102071,Convent,TuneTalk Challenge,Round 1,N,N,N,N,N,N,N,N,00H 00M 00S 00MS
Girl1073,87300102072,Convent,TuneTalk Challenge,Round 1,N,N,N,N,N,N,N,N,00H 00M 00S 00MS
Girl1074,87300102073,Convent,TuneTalk Challenge,Round 1,N,N,N,N,N,N,N,N,00H 00M 00S 00MS
Girl1075,87300102074,Convent,TuneTalk Challenge,Round 1,N,N,N,N,N,N,N,N,00H 00M 00S 00MS
Girl1076,87300102075,Convent,TuneTalk Challenge,Round 1,N,N,N,N,N,N,N,N,00H 00M 00S 00MS
Girl1077,87300102076,Convent,TuneTalk Challenge,Round 1,N,N,N,N,N,N,N,N,00H 00M 00S 00MS
Girl1078,87300102077,Convent,TuneTalk Challenge,Round 1,N,N,N,N,N,N,N,N,00H 00M 00S 00MS
Girl1079,87300102078,Convent,TuneTalk Challenge,Round 1,N,N,N,N,N,N,N,N,00H 00M 00S 00MS
Girl1080,87300102079,Convent,TuneTalk Challenge,Round 1,N,N,N,N,N,N,N,N,00H 00M 00S 00MS
Girl1081,87300102080,Convent,TuneTalk Challenge,Round 1,N,N,N,N,N,N,N,N,00H 00M 00S 00MS
Girl1082,87300102081,Convent,TuneTalk Challenge,Round 1,N,N,N,N,N,N,N,N,00H 00M 00S 00MS
Girl1083,87300102082,Convent,TuneTalk Challenge,Round 1,N,N,N,N,N,N,N,N,00H 00M 00S 00MS
Girl1084,87300102083,Convent,TuneTalk Challenge,Round 1,N,N,N,N,N,N,N,N,00H 00M 00S 00MS
Girl1085,87300102084,Convent,TuneTalk Challenge,Round 1,N,N,N,N,N,N,N,N,00H 00M 00S 00MS
Girl1086,87300102085,Convent,TuneTalk Challenge,Round 1,N,N,N,N,N,N,N,N,00H 00M 00S 00MS
Girl1087,87300102086,Convent,TuneTalk Challenge,Round 1,N,N,N,N,N,N,N,N,00H 00M 00S 00MS
Girl1088,87300102087,Convent,TuneTalk Challenge,Round 1,N,N,N,N,N,N,N,N,00H 00M 00S 00MS
Girl1089,87300102088,Convent,TuneTalk Challenge,Round 1,N,N,N,N,N,N,N,N,00H 00M 00S 00MS
Girl1090,87300102089,Convent,TuneTalk Challenge,Round 1,N,N,N,N,N,N,N,N,00H 00M 00S 00MS
Girl1091,87300102090,Convent,TuneTalk Challenge,Round 1,N,N,N,N,N,N,N,N,00H 00M 00S 00MS
Girl1092,87300102091,Convent,TuneTalk Challenge,Round 1,N,N,N,N,N,N,N,N,00H 00M 00S 00MS
Girl1093,87300102092,Convent,TuneTalk Challenge,Round 1,N,N,N,N,N,N,N,N,00H 00M 00S 00MS
Girl1094,87300102093,Convent,TuneTalk Challenge,Round 1,N,N,N,N,N,N,N,N,00H 00M 00S 00MS
Girl1095,87300102094,Convent,TuneTalk Challenge,Round 1,N,N,N,N,N,N,N,N,00H 00M 00S 00MS
Girl1096,87300102095,Convent,TuneTalk Challenge,Round 1,N,N,N,N,N,N,N,N,00H 00M 00S 00MS
Girl1097,87300102096,Convent,TuneTalk Challenge,Round 1,N,N,N,N,N,N,N,N,00H 00M 00S 00MS
Girl1098,87300102097,Convent,TuneTalk Challenge,Round 1,N,N,N,N,N,N,N,N,00H 00M 00S 00MS
Girl1099,87300102098,Convent,TuneTalk Challenge,Round 1,N,N,N,N,N,N,N,N,00H 00M 00S 00MS
Girl1100,87300102099,Convent,TuneTalk Challenge,Round 1,N,N,N,N,N,N,N,N,00H 00M 00S 00MS
Girl1101,87300102100,Convent,TuneTalk Challenge,Round 1,N,N,N,N,N,N,N,N,00H 00M 00S 00MS
Girl1102,87300102101,Convent,TuneTalk Challenge,Round 1,N,N,N,N,N,N,N,N,00H 00M 00S 00MS
Girl1103,87300102102,Convent,TuneTalk Challenge,Round 1,N,N,N,N,N,N,N,N,00H 00M 00S 00MS
Girl1104,87300102103,Convent,TuneTalk Challenge,Round 1,N,N,N,N,N,N,N,N,00H 00M 00S 00MS
Girl1105,87300102104,Convent,TuneTalk Challenge,Round 1,N,N,N,N,N,N,N,N,00H 00M 00S 00MS
Girl1106,87300102105,Convent,TuneTalk Challenge,Round 1,N,N,N,N,N,N,N,N,00H 00M 00S 00MS
Girl1107,87300102106,Convent,TuneTalk Challenge,Round 1,N,N,N,N,N,N,N,N,00H 00M 00S 00MS
Girl1108,87300102107,Convent,TuneTalk Challenge,Round 1,N,N,N,N,N,N,N,N,00H 00M 00S 00MS
Girl1109,87300102108,Convent,TuneTalk Challenge,Round 1,N,N,N,N,N,N,N,N,00H 00M 00S 00MS
Girl1110,87300102109,Convent,TuneTalk Challenge,Round 1,N,N,N,N,N,N,N,N,00H 00M 00S 00MS
Girl1111,87300102110,Convent,TuneTalk Challenge,Round 1,N,N,N,N,N,N,N,N,00H 00M 00S 00MS
Girl1112,87300102111,Convent,TuneTalk Challenge,Round 1,N,N,N,N,N,N,N,N,00H 00M 00S 00MS
Girl1113,87300102112,Convent,TuneTalk Challenge,Round 1,N,N,N,N,N,N,N,N,00H 00M 00S 00MS
Girl1114,87300102113,Convent,TuneTalk Challenge,Round 1,N,N,N,N,N,N,N,N,00H 00M 00S 00MS
Girl1115,87300102114,Convent,TuneTalk Challenge,Round 1,N,N,N,N,N,N,N,N,00H 00M 00S 00MS
Girl1116,87300102115,Convent,TuneTalk Challenge,Round 1,N,N,N,N,N,N,N,N,00H 00M 00S 00MS
Girl1117,87300102116,Convent,TuneTalk Challenge,Round 1,N,N,N,N,N,N,N,N,00H 00M 00S 00MS
Girl1118,87300102117,Convent,TuneTalk Challenge,Round 1,N,N,N,N,N,N,N,N,00H 00M 00S 00MS
Girl1119,87300102118,Convent,TuneTalk Challenge,Round 1,N,N,N,N,N,N,N,N,00H 00M 00S 00MS
Girl1120,87300102119,Convent,TuneTalk Challenge,Round 1,N,N,N,N,N,N,N,N,00H 00M 00S 00MS
Girl1121,87300102120,Convent,TuneTalk Challenge,Round 1,N,N,N,N,N,N,N,N,00H 00M 00S 00MS
Girl1122,87300102121,Convent,TuneTalk Challenge,Round 1,N,N,N,N,N,N,N,N,00H 00M 00S 00MS
Girl1123,87300102122,Convent,TuneTalk Challenge,Round 1,N,N,N,N,N,N,N,N,00H 00M 00S 00MS
Girl1124,87300102123,Convent,TuneTalk Challenge,Round 1,N,N,N,N,N,N,N,N,00H 00M 00S 00MS
Girl1125,87300102124,Convent,TuneTalk Challenge,Round 1,N,N,N,N,N,N,N,N,00H 00M 00S 00MS
Girl1126,87300102125,Convent,TuneTalk Challenge,Round 1,N,N,N,N,N,N,N,N,00H 00M 00S 00MS
Girl1127,87300102126,Convent,TuneTalk Challenge,Round 1,N,N,N,N,N,N,N,N,00H 00M 00S 00MS
Girl1128,87300102127,Convent,TuneTalk Challenge,Round 1,N,N,N,N,N,N,N,N,00H 00M 00S 00MS
Girl1129,87300102128,Convent,TuneTalk Challenge,Round 1,N,N,N,N,N,N,N,N,00H 00M 00S 00MS
Girl1130,87300102129,Convent,TuneTalk Challenge,Round 1,N,N,N,N,N,N,N,N,00H 00M 00S 00MS
Girl1131,87300102130,Convent,TuneTalk Challenge,Round 1,N,N,N,N,N,N,N,N,00H 00M 00S 00MS
Girl1132,87300102131,Convent,TuneTalk Challenge,Round 1,N,N,N,N,N,N,N,N,00H 00M 00S 00MS
Girl1133,87300102132,Convent,TuneTalk Challenge,Round 1,N,N,N,N,N,N,N,N,00H 00M 00S 00MS
Girl1134,87300102133,Convent,TuneTalk Challenge,Round 1,N,N,N,N,N,N,N,N,00H 00M 00S 00MS
Girl1135,87300102134,Convent,TuneTalk Challenge,Round 1,N,N,N,N,N,N,N,N,00H 00M 00S 00MS
Girl1136,87300102135,Convent,TuneTalk Challenge,Round 1,N,N,N,N,N,N,N,N,00H 00M 00S 00MS
Girl1137,87300102136,Convent,TuneTalk Challenge,Round 1,N,N,N,N,N,N,N,N,00H 00M 00S 00MS
Girl1138,87300102137,Convent,TuneTalk Challenge,Round 1,N,N,N,N,N,N,N,N,00H 00M 00S 00MS
Girl1139,87300102138,Convent,TuneTalk Challenge,Round 1,N,N,N,N,N,N,N,N,00H 00M 00S 00MS
Girl1140,87300102139,Convent,TuneTalk Challenge,Round 1,N,N,N,N,N,N,N,N,00H 00M 00S 00MS
Girl1141,87300102140,Convent,TuneTalk Challenge,Round 1,N,N,N,N,N,N,N,N,00H 00M 00S 00MS
Girl1142,87300102141,Convent,TuneTalk Challenge,Round 1,N,N,N,N,N,N,N,N,00H 00M 00S 00MS
Girl1143,87300102142,Convent,TuneTalk Challenge,Round 1,N,N,N,N,N,N,N,N,00H 00M 00S 00MS
Girl1144,87300102143,Convent,TuneTalk Challenge,Round 1,N,N,N,N,N,N,N,N,00H 00M 00S 00MS
Girl1145,87300102144,Convent,TuneTalk Challenge,Round 1,N,N,N,N,N,N,N,N,00H 00M 00S 00MS
Girl1146,87300102145,Convent,TuneTalk Challenge,Round 1,N,N,N,N,N,N,N,N,00H 00M 00S 00MS
Girl1147,87300102146,Convent,TuneTalk Challenge,Round 1,N,N,N,N,N,N,N,N,00H 00M 00S 00MS
Girl1148,87300102147,Convent,TuneTalk Challenge,Round 1,N,N,N,N,N,N,N,N,00H 00M 00S 00MS
Girl1149,87300102148,Convent,TuneTalk Challenge,Round 1,N,N,N,N,N,N,N,N,00H 00M 00S 00MS
Girl1150,87300102149,Convent,TuneTalk Challenge,Round 1,N,N,N,N,N,N,N,N,00H 00M 00S 00MS
Girl1151,87300102150,Convent,TuneTalk Challenge,Round 1,N,N,N,N,N,N,N,N,00H 00M 00S 00MS
Girl1152,87300102151,Convent,TuneTalk Challenge,Round 1,N,N,N,N,N,N,N,N,00H 00M 00S 00MS
Girl1153,87300102152,Convent,TuneTalk Challenge,Round 1,N,N,N,N,N,N,N,N,00H 00M 00S 00MS
Girl1154,87300102153,Convent,TuneTalk Challenge,Round 1,N,N,N,N,N,N,N,N,00H 00M 00S 00MS
Girl1155,87300102154,Convent,TuneTalk Challenge,Round 1,N,N,N,N,N,N,N,N,00H 00M 00S 00MS
Girl1156,87300102155,Convent,TuneTalk Challenge,Round 1,N,N,N,N,N,N,N,N,00H 00M 00S 00MS
Girl1157,87300102156,Convent,TuneTalk Challenge,Round 1,N,N,N,N,N,N,N,N,00H 00M 00S 00MS
Girl1158,87300102157,Convent,TuneTalk Challenge,Round 1,N,N,N,N,N,N,N,N,00H 00M 00S 00MS
Girl1159,87300102158,Convent,TuneTalk Challenge,Round 1,N,N,N,N,N,N,N,N,00H 00M 00S 00MS
Girl1160,87300102159,Convent,TuneTalk Challenge,Round 1,N,N,N,N,N,N,N,N,00H 00M 00S 00MS
Girl1161,87300102160,Convent,TuneTalk Challenge,Round 1,N,N,N,N,N,N,N,N,00H 00M 00S 00MS
Girl1162,87300102161,Convent,TuneTalk Challenge,Round 1,N,N,N,N,N,N,N,N,00H 00M 00S 00MS
Girl1163,87300102162,Convent,TuneTalk Challenge,Round 1,N,N,N,N,N,N,N,N,00H 00M 00S 00MS
Girl1164,87300102163,Convent,TuneTalk Challenge,Round 1,N,N,N,N,N,N,N,N,00H 00M 00S 00MS
Girl1165,87300102164,Convent,TuneTalk Challenge,Round 1,N,N,N,N,N,N,N,N,00H 00M 00S 00MS
Girl1166,87300102165,Convent,TuneTalk Challenge,Round 1,N,N,N,N,N,N,N,N,00H 00M 00S 00MS
Girl1167,87300102166,Convent,TuneTalk Challenge,Round 1,N,N,N,N,N,N,N,N,00H 00M 00S 00MS
Girl1168,87300102167,Convent,TuneTalk Challenge,Round 1,N,N,N,N,N,N,N,N,00H 00M 00S 00MS
Girl1169,87300102168,Convent,TuneTalk Challenge,Round 1,N,N,N,N,N,N,N,N,00H 00M 00S 00MS
Girl1170,87300102169,Convent,TuneTalk Challenge,Round 1,N,N,N,N,N,N,N,N,00H 00M 00S 00MS
Girl1171,87300102170,Convent,TuneTalk Challenge,Round 1,N,N,N,N,N,N,N,N,00H 00M 00S 00MS
Girl1172,87300102171,Convent,TuneTalk Challenge,Round 1,N,N,N,N,N,N,N,N,00H 00M 00S 00MS
Girl1173,87300102172,Convent,TuneTalk Challenge,Round 1,N,N,N,N,N,N,N,N,00H 00M 00S 00MS
Girl1174,87300102173,Convent,TuneTalk Challenge,Round 1,N,N,N,N,N,N,N,N,00H 00M 00S 00MS
Girl1175,87300102174,Convent,TuneTalk Challenge,Round 1,N,N,N,N,N,N,N,N,00H 00M 00S 00MS
Girl1176,87300102175,Convent,TuneTalk Challenge,Round 1,N,N,N,N,N,N,N,N,00H 00M 00S 00MS
Girl1177,87300102176,Convent,TuneTalk Challenge,Round 1,N,N,N,N,N,N,N,N,00H 00M 00S 00MS
Girl1178,87300102177,Convent,TuneTalk Challenge,Round 1,N,N,N,N,N,N,N,N,00H 00M 00S 00MS
Girl1179,87300102178,Convent,TuneTalk Challenge,Round 1,N,N,N,N,N,N,N,N,00H 00M 00S 00MS
Girl1180,87300102179,Convent,TuneTalk Challenge,Round 1,N,N,N,N,N,N,N,N,00H 00M 00S 00MS
Girl1181,87300102180,Convent,TuneTalk Challenge,Round 1,N,N,N,N,N,N,N,N,00H 00M 00S 00MS
Girl1182,87300102181,Convent,TuneTalk Challenge,Round 1,N,N,N,N,N,N,N,N,00H 00M 00S 00MS
Girl1183,87300102182,Convent,TuneTalk Challenge,Round 1,N,N,N,N,N,N,N,N,00H 00M 00S 00MS
Girl1184,87300102183,Convent,TuneTalk Challenge,Round 1,N,N,N,N,N,N,N,N,00H 00M 00S 00MS
Girl1185,87300102184,Convent,TuneTalk Challenge,Round 1,N,N,N,N,N,N,N,N,00H 00M 00S 00MS
Girl1186,87300102185,Convent,TuneTalk Challenge,Round 1,N,N,N,N,N,N,N,N,00H 00M 00S 00MS
Girl1187,87300102186,Convent,TuneTalk Challenge,Round 1,N,N,N,N,N,N,N,N,00H 00M 00S 00MS
Girl1188,87300102187,Convent,TuneTalk Challenge,Round 1,N,N,N,N,N,N,N,N,00H 00M 00S 00MS
Girl1189,87300102188,Convent,TuneTalk Challenge,Round 1,N,N,N,N,N,N,N,N,00H 00M 00S 00MS
Girl1190,87300102189,Convent,TuneTalk Challenge,Round 1,N,N,N,N,N,N,N,N,00H 00M 00S 00MS
Girl1191,87300102190,Convent,TuneTalk Challenge,Round 1,N,N,N,N,N,N,N,N,00H 00M 00S 00MS
Girl1193,87300102192,Convent,TuneTalk Challenge,Round 1,N,N,N,N,N,N,N,N,00H 00M 00S 00MS
Girl1194,87300102193,Convent,TuneTalk Challenge,Round 1,N,N,N,N,N,N,N,N,00H 00M 00S 00MS
Girl1195,87300102194,Convent,TuneTalk Challenge,Round 1,N,N,N,N,N,N,N,N,00H 00M 00S 00MS
Girl1196,87300102195,Convent,TuneTalk Challenge,Round 1,N,N,N,N,N,N,N,N,00H 00M 00S 00MS
