Student Name,Contact Number,School Name,Quiz Name,Round Name,Question 1,Question 2,Question 3,Question 4,Question 5,Question 6,Question 7,Question 8,Duration (format: 01H 00M 00S 00MS)
,,,Correct Answer: Enter Y,Incorrect Answer : Enter N,Risk is ________,"The higher the ____, the higher the returns",Which of the following carries the least risk,Investing carries higher risk than Saving,Risk cannot be managed. True or False?,What is a Tune Buddy?,"in Tune Talk's self registration process, you will need to have:",How many GB of data more do you get from the +VIBE 50 plan compared to +VIBE 15 plan?,
Pelajar1,810001000,GIIS,TuneTalk Challenge,Round 3,Y,Y,Y,Y,Y,Y,N,N,00H 00M 20S 11MS
Pelajar1,810001000,GIIS,TuneTalk Challenge,Round 3,Y,Y,Y,Y,Y,Y,N,N,00H 00M 20S 11MS
Pelajar2,810001001,GIIS,TuneTalk Challenge,Round 3,Y,Y,Y,Y,Y,Y,Y,N,00H 20M 20S 11MS
Pelajar3,810001002,GIIS,TuneTalk Challenge,Round 3,Y,Y,Y,Y,Y,Y,Y,N,01H 20M 20S 11MS
Pelajar4,810001003,GIIS,TuneTalk Challenge,Round 3,Y,Y,Y,Y,Y,N,N,N,00H 00M 20S 11MS
Pelajar5,810001004,GIIS,TuneTalk Challenge,Round 3,Y,Y,Y,Y,Y,N,N,N,00H 00M 20S 11MS
Pelajar6,810001005,GIIS,TuneTalk Challenge,Round 3,Y,Y,Y,Y,N,N,N,N,00H 00M 20S 11MS
Pelajar7,810001006,GIIS,TuneTalk Challenge,Round 3,Y,Y,Y,Y,N,N,N,N,00H 00M 20S 11MS
Pelajar8,810001007,GIIS,TuneTalk Challenge,Round 3,Y,Y,Y,Y,N,N,N,N,00H 00M 20S 11MS
Pelajar9,810001008,GIIS,TuneTalk Challenge,Round 3,Y,Y,Y,Y,N,N,N,N,00H 01M 20S 11MS
Pelajar10,810001009,GIIS,TuneTalk Challenge,Round 3,Y,Y,Y,Y,N,N,N,N,00H 01M 20S 11MS
Pelajar11,810001010,GIIS,TuneTalk Challenge,Round 3,Y,Y,Y,Y,N,N,N,N,00H 01M 20S 11MS
Pelajar12,810001011,GIIS,TuneTalk Challenge,Round 3,Y,Y,Y,Y,N,N,N,N,00H 01M 20S 11MS
Pelajar13,810001012,GIIS,TuneTalk Challenge,Round 3,Y,Y,Y,Y,N,N,N,N,00H 01M 20S 11MS
Pelajar14,810001013,GIIS,TuneTalk Challenge,Round 3,Y,Y,Y,Y,N,N,N,N,00H 01M 20S 11MS
Pelajar15,810001014,GIIS,TuneTalk Challenge,Round 3,Y,Y,Y,Y,N,N,N,N,00H 01M 20S 11MS
Pelajar16,810001015,GIIS,TuneTalk Challenge,Round 3,Y,Y,Y,Y,N,N,N,N,00H 01M 20S 11MS
Pelajar17,810001016,GIIS,TuneTalk Challenge,Round 3,Y,Y,Y,Y,N,N,N,N,00H 01M 20S 11MS
Pelajar18,810001017,GIIS,TuneTalk Challenge,Round 3,Y,Y,Y,Y,N,N,N,N,00H 01M 20S 11MS
Pelajar19,810001018,GIIS,TuneTalk Challenge,Round 3,Y,Y,Y,Y,N,N,N,N,00H 01M 20S 11MS
Pelajar20,810001019,GIIS,TuneTalk Challenge,Round 3,Y,Y,Y,Y,N,N,N,N,00H 01M 20S 11MS
Pelajar21,810001020,GIIS,TuneTalk Challenge,Round 3,Y,Y,Y,Y,N,N,N,N,00H 01M 20S 11MS
Pelajar22,810001021,GIIS,TuneTalk Challenge,Round 3,Y,Y,Y,Y,N,N,N,N,00H 01M 20S 11MS
Pelajar23,810001022,GIIS,TuneTalk Challenge,Round 3,Y,Y,Y,Y,N,N,N,N,00H 01M 20S 11MS
Pelajar24,810001023,GIIS,TuneTalk Challenge,Round 3,Y,Y,Y,Y,N,N,N,N,00H 01M 20S 11MS
Pelajar25,810001024,GIIS,TuneTalk Challenge,Round 3,Y,Y,Y,Y,N,N,N,N,00H 01M 20S 11MS
Pelajar26,810001025,GIIS,TuneTalk Challenge,Round 3,Y,Y,Y,Y,N,N,N,N,00H 01M 20S 11MS
Pelajar27,810001026,GIIS,TuneTalk Challenge,Round 3,Y,Y,Y,Y,N,N,N,N,00H 01M 20S 11MS
Pelajar28,810001027,GIIS,TuneTalk Challenge,Round 3,Y,Y,Y,Y,N,N,N,N,00H 01M 20S 11MS
Pelajar29,810001028,GIIS,TuneTalk Challenge,Round 3,Y,Y,Y,Y,N,N,N,N,00H 01M 20S 11MS
Pelajar30,810001029,GIIS,TuneTalk Challenge,Round 3,Y,Y,Y,Y,N,N,N,N,00H 01M 20S 11MS
Pelajar31,810001030,GIIS,TuneTalk Challenge,Round 3,Y,Y,Y,Y,N,N,N,N,00H 01M 20S 11MS
Pelajar32,810001031,GIIS,TuneTalk Challenge,Round 3,Y,Y,Y,Y,N,N,N,N,00H 01M 20S 11MS
Pelajar33,810001032,GIIS,TuneTalk Challenge,Round 3,Y,Y,Y,Y,N,N,N,N,00H 01M 20S 11MS
Pelajar34,810001033,GIIS,TuneTalk Challenge,Round 3,Y,Y,Y,Y,N,N,N,N,00H 01M 20S 11MS
Pelajar35,810001034,GIIS,TuneTalk Challenge,Round 3,Y,Y,Y,Y,N,N,N,N,00H 01M 20S 11MS
Pelajar36,810001035,GIIS,TuneTalk Challenge,Round 3,Y,Y,Y,Y,N,N,N,N,00H 01M 20S 11MS
Pelajar37,810001036,GIIS,TuneTalk Challenge,Round 3,Y,Y,Y,Y,N,N,N,N,00H 01M 20S 11MS
Pelajar38,810001037,GIIS,TuneTalk Challenge,Round 3,Y,Y,Y,Y,N,N,N,N,00H 01M 20S 11MS
Pelajar39,810001038,GIIS,TuneTalk Challenge,Round 3,Y,Y,Y,Y,N,N,N,N,00H 01M 20S 11MS
Pelajar40,810001039,GIIS,TuneTalk Challenge,Round 3,Y,Y,Y,Y,N,N,N,N,00H 01M 20S 11MS
Pelajar41,810001040,GIIS,TuneTalk Challenge,Round 3,Y,Y,Y,Y,N,N,N,N,00H 01M 20S 11MS
Pelajar42,810001041,GIIS,TuneTalk Challenge,Round 3,Y,Y,Y,Y,N,N,N,N,00H 01M 20S 11MS
Pelajar43,810001042,GIIS,TuneTalk Challenge,Round 3,Y,Y,Y,Y,N,N,N,N,00H 01M 20S 11MS
Pelajar44,810001043,GIIS,TuneTalk Challenge,Round 3,Y,Y,Y,Y,N,N,N,N,00H 01M 20S 11MS
Pelajar45,810001044,GIIS,TuneTalk Challenge,Round 3,Y,Y,Y,Y,N,N,N,N,00H 01M 20S 11MS
Pelajar46,810001045,GIIS,TuneTalk Challenge,Round 3,Y,Y,Y,Y,N,N,N,N,00H 01M 20S 11MS
Pelajar47,810001046,GIIS,TuneTalk Challenge,Round 3,Y,Y,Y,Y,N,N,N,N,00H 01M 20S 11MS
Pelajar48,810001047,GIIS,TuneTalk Challenge,Round 3,Y,Y,Y,Y,N,N,N,N,00H 01M 20S 11MS
Pelajar49,810001048,GIIS,TuneTalk Challenge,Round 3,Y,Y,Y,Y,N,N,N,N,00H 01M 20S 11MS
Pelajar50,810001049,GIIS,TuneTalk Challenge,Round 3,Y,Y,Y,Y,N,N,N,N,00H 01M 20S 11MS
Pelajar51,810001050,GIIS,TuneTalk Challenge,Round 3,Y,Y,Y,Y,N,N,N,N,00H 01M 20S 11MS
Pelajar52,810001051,GIIS,TuneTalk Challenge,Round 3,Y,Y,Y,Y,N,N,N,N,00H 01M 20S 11MS
Pelajar53,810001052,GIIS,TuneTalk Challenge,Round 3,Y,Y,Y,Y,N,N,N,N,00H 01M 20S 11MS
Pelajar54,810001053,GIIS,TuneTalk Challenge,Round 3,Y,Y,Y,Y,N,N,N,N,00H 01M 20S 11MS
Pelajar55,810001054,GIIS,TuneTalk Challenge,Round 3,Y,Y,Y,Y,N,N,N,N,00H 01M 20S 11MS
Pelajar56,810001055,GIIS,TuneTalk Challenge,Round 3,Y,Y,Y,Y,N,N,N,N,00H 01M 20S 11MS
Pelajar57,810001056,GIIS,TuneTalk Challenge,Round 3,Y,Y,Y,Y,N,N,N,N,00H 01M 20S 11MS
Pelajar58,810001057,GIIS,TuneTalk Challenge,Round 3,Y,Y,Y,Y,N,N,N,N,00H 01M 20S 11MS
Pelajar59,810001058,GIIS,TuneTalk Challenge,Round 3,Y,Y,Y,Y,N,N,N,N,00H 01M 20S 11MS
Pelajar60,810001059,GIIS,TuneTalk Challenge,Round 3,Y,Y,Y,Y,N,N,N,N,00H 01M 20S 11MS
Pelajar61,810001060,GIIS,TuneTalk Challenge,Round 3,Y,Y,Y,Y,N,N,N,N,00H 01M 20S 11MS
Pelajar62,810001061,GIIS,TuneTalk Challenge,Round 3,Y,Y,Y,Y,N,N,N,N,00H 01M 20S 11MS
Pelajar63,810001062,GIIS,TuneTalk Challenge,Round 3,Y,Y,Y,Y,N,N,N,N,00H 01M 20S 11MS
Pelajar64,810001063,GIIS,TuneTalk Challenge,Round 3,Y,Y,Y,Y,N,N,N,N,00H 01M 20S 11MS
Pelajar65,810001064,GIIS,TuneTalk Challenge,Round 3,Y,Y,Y,Y,N,N,N,N,00H 01M 20S 11MS
Pelajar66,810001065,GIIS,TuneTalk Challenge,Round 3,Y,Y,Y,Y,N,N,N,N,00H 01M 20S 11MS
Pelajar67,810001066,GIIS,TuneTalk Challenge,Round 3,Y,Y,Y,Y,N,N,N,N,00H 01M 20S 11MS
Pelajar68,810001067,GIIS,TuneTalk Challenge,Round 3,Y,Y,Y,Y,N,N,N,N,00H 01M 20S 11MS
Pelajar69,810001068,GIIS,TuneTalk Challenge,Round 3,Y,Y,Y,Y,N,N,N,N,00H 01M 20S 11MS
Pelajar70,810001069,GIIS,TuneTalk Challenge,Round 3,Y,Y,Y,Y,N,N,N,N,00H 01M 20S 11MS
Pelajar71,810001070,GIIS,TuneTalk Challenge,Round 3,Y,Y,Y,Y,N,N,N,N,00H 01M 20S 11MS
Pelajar72,810001071,GIIS,TuneTalk Challenge,Round 3,Y,Y,Y,Y,N,N,N,N,00H 01M 20S 11MS
Pelajar73,810001072,GIIS,TuneTalk Challenge,Round 3,Y,Y,Y,Y,N,N,N,N,00H 01M 20S 11MS
Pelajar74,810001073,GIIS,TuneTalk Challenge,Round 3,Y,Y,Y,Y,N,N,N,N,00H 01M 20S 11MS
Pelajar75,810001074,GIIS,TuneTalk Challenge,Round 3,Y,Y,Y,Y,N,N,N,N,00H 01M 20S 11MS
Pelajar76,810001075,GIIS,TuneTalk Challenge,Round 3,Y,Y,Y,Y,N,N,N,N,00H 01M 20S 11MS
Pelajar77,810001076,GIIS,TuneTalk Challenge,Round 3,Y,Y,Y,Y,N,N,N,N,00H 01M 20S 11MS
Pelajar78,810001077,GIIS,TuneTalk Challenge,Round 3,Y,Y,Y,Y,N,N,N,N,00H 01M 20S 11MS
Pelajar79,810001078,GIIS,TuneTalk Challenge,Round 3,Y,Y,Y,Y,N,N,N,N,00H 01M 20S 11MS
Pelajar80,810001079,GIIS,TuneTalk Challenge,Round 3,Y,Y,Y,Y,N,N,N,N,00H 01M 20S 11MS
Pelajar81,810001080,GIIS,TuneTalk Challenge,Round 3,Y,Y,Y,Y,N,N,N,N,00H 01M 20S 11MS
Pelajar82,810001081,GIIS,TuneTalk Challenge,Round 3,Y,Y,Y,Y,N,N,N,N,00H 01M 20S 11MS
Pelajar83,810001082,GIIS,TuneTalk Challenge,Round 3,Y,Y,Y,Y,N,N,N,N,00H 01M 20S 11MS
Pelajar84,810001083,GIIS,TuneTalk Challenge,Round 3,Y,Y,Y,Y,N,N,N,N,00H 01M 20S 11MS
Pelajar85,810001084,GIIS,TuneTalk Challenge,Round 3,Y,Y,Y,Y,N,N,N,N,00H 01M 20S 11MS
Pelajar86,810001085,GIIS,TuneTalk Challenge,Round 3,Y,Y,Y,Y,N,N,N,N,00H 01M 20S 11MS
Pelajar87,810001086,GIIS,TuneTalk Challenge,Round 3,Y,Y,Y,Y,N,N,N,N,00H 01M 20S 11MS
Pelajar88,810001087,GIIS,TuneTalk Challenge,Round 3,Y,Y,Y,Y,N,N,N,N,00H 01M 20S 11MS
Pelajar89,810001088,GIIS,TuneTalk Challenge,Round 3,Y,Y,Y,Y,N,N,N,N,00H 01M 20S 11MS
Pelajar90,810001089,GIIS,TuneTalk Challenge,Round 3,Y,Y,Y,Y,N,N,N,N,00H 01M 20S 11MS
Pelajar91,810001090,GIIS,TuneTalk Challenge,Round 3,Y,Y,Y,Y,N,N,N,N,00H 01M 20S 11MS
Pelajar92,810001091,GIIS,TuneTalk Challenge,Round 3,Y,Y,Y,Y,N,N,N,N,00H 01M 20S 11MS
Pelajar93,810001092,GIIS,TuneTalk Challenge,Round 3,Y,Y,Y,Y,N,N,N,N,00H 01M 20S 11MS
Pelajar94,810001093,GIIS,TuneTalk Challenge,Round 3,Y,Y,Y,Y,N,N,N,N,00H 01M 20S 11MS
Pelajar95,810001094,GIIS,TuneTalk Challenge,Round 3,Y,Y,Y,Y,N,N,N,N,00H 01M 20S 11MS
Pelajar96,810001095,GIIS,TuneTalk Challenge,Round 3,Y,Y,Y,Y,N,N,N,N,00H 01M 20S 11MS
Pelajar97,810001096,GIIS,TuneTalk Challenge,Round 3,Y,Y,Y,Y,N,N,N,N,00H 01M 20S 11MS
Pelajar98,810001097,GIIS,TuneTalk Challenge,Round 3,Y,Y,Y,Y,N,N,N,N,00H 01M 20S 11MS
Pelajar99,810001098,GIIS,TuneTalk Challenge,Round 3,Y,Y,Y,Y,N,N,N,N,00H 01M 20S 11MS
Pelajar100,810001099,GIIS,TuneTalk Challenge,Round 3,Y,Y,Y,Y,N,N,N,N,00H 01M 20S 11MS
Pelajar101,810001100,GIIS,TuneTalk Challenge,Round 3,Y,Y,Y,Y,N,N,N,N,00H 01M 20S 11MS
Pelajar102,810001101,GIIS,TuneTalk Challenge,Round 3,Y,Y,Y,Y,N,N,N,N,00H 01M 20S 11MS
Pelajar103,810001102,GIIS,TuneTalk Challenge,Round 3,Y,Y,Y,Y,N,N,N,N,00H 01M 20S 11MS
Pelajar104,810001103,GIIS,TuneTalk Challenge,Round 3,Y,Y,Y,Y,N,N,N,N,00H 01M 20S 11MS
Pelajar105,810001104,GIIS,TuneTalk Challenge,Round 3,Y,Y,Y,Y,N,N,N,N,00H 01M 20S 11MS
Pelajar106,810001105,GIIS,TuneTalk Challenge,Round 3,Y,Y,Y,Y,N,N,N,N,00H 01M 20S 11MS
Pelajar107,810001106,GIIS,TuneTalk Challenge,Round 3,Y,Y,Y,Y,N,N,N,N,00H 01M 20S 11MS
Pelajar108,810001107,GIIS,TuneTalk Challenge,Round 3,Y,Y,Y,Y,N,N,N,N,00H 01M 20S 11MS
Pelajar109,810001108,GIIS,TuneTalk Challenge,Round 3,Y,Y,Y,Y,N,N,N,N,00H 01M 20S 11MS
Pelajar110,810001109,GIIS,TuneTalk Challenge,Round 3,Y,Y,Y,Y,N,N,N,N,00H 01M 20S 11MS
Pelajar111,810001110,GIIS,TuneTalk Challenge,Round 3,Y,Y,Y,Y,N,N,N,N,00H 01M 20S 11MS
Pelajar112,810001111,GIIS,TuneTalk Challenge,Round 3,Y,Y,Y,Y,N,N,N,N,00H 01M 20S 11MS
Pelajar113,810001112,GIIS,TuneTalk Challenge,Round 3,Y,Y,Y,Y,N,N,N,N,00H 01M 20S 11MS
Pelajar114,810001113,GIIS,TuneTalk Challenge,Round 3,Y,Y,Y,Y,N,N,N,N,00H 01M 20S 11MS
Pelajar115,810001114,GIIS,TuneTalk Challenge,Round 3,Y,Y,Y,Y,N,N,N,N,00H 01M 20S 11MS
Pelajar116,810001115,GIIS,TuneTalk Challenge,Round 3,Y,Y,Y,Y,N,N,N,N,00H 01M 20S 11MS
Pelajar117,810001116,GIIS,TuneTalk Challenge,Round 3,Y,Y,Y,Y,N,N,N,N,00H 01M 20S 11MS
Pelajar118,810001117,GIIS,TuneTalk Challenge,Round 3,Y,Y,Y,Y,N,N,N,N,00H 01M 20S 11MS
Pelajar119,810001118,GIIS,TuneTalk Challenge,Round 3,Y,Y,Y,Y,N,N,N,N,00H 01M 20S 11MS
Pelajar120,810001119,GIIS,TuneTalk Challenge,Round 3,Y,Y,Y,Y,N,N,N,N,00H 01M 20S 11MS
Pelajar121,810001120,GIIS,TuneTalk Challenge,Round 3,Y,Y,Y,Y,N,N,N,N,00H 01M 20S 11MS
Pelajar122,810001121,GIIS,TuneTalk Challenge,Round 3,Y,Y,Y,Y,N,N,N,N,00H 01M 20S 11MS
Pelajar123,810001122,GIIS,TuneTalk Challenge,Round 3,Y,Y,Y,Y,N,N,N,N,00H 01M 20S 11MS
Pelajar124,810001123,GIIS,TuneTalk Challenge,Round 3,Y,Y,Y,Y,N,N,N,N,00H 01M 20S 11MS
Pelajar125,810001124,GIIS,TuneTalk Challenge,Round 3,Y,Y,Y,Y,N,N,N,N,00H 01M 20S 11MS
Pelajar126,810001125,GIIS,TuneTalk Challenge,Round 3,Y,Y,Y,Y,N,N,N,N,00H 01M 20S 11MS
Pelajar127,810001126,GIIS,TuneTalk Challenge,Round 3,Y,Y,Y,Y,N,N,N,N,00H 01M 20S 11MS
Pelajar128,810001127,GIIS,TuneTalk Challenge,Round 3,Y,Y,Y,Y,N,N,N,N,00H 01M 20S 11MS
Pelajar129,810001128,GIIS,TuneTalk Challenge,Round 3,Y,Y,Y,Y,N,N,N,N,00H 01M 20S 11MS
Pelajar130,810001129,GIIS,TuneTalk Challenge,Round 3,Y,Y,Y,Y,N,N,N,N,00H 01M 20S 11MS
Pelajar131,810001130,GIIS,TuneTalk Challenge,Round 3,Y,Y,Y,Y,N,N,N,N,00H 01M 20S 11MS
Pelajar132,810001131,GIIS,TuneTalk Challenge,Round 3,Y,Y,Y,Y,N,N,N,N,00H 01M 20S 11MS
Pelajar133,810001132,GIIS,TuneTalk Challenge,Round 3,Y,Y,Y,Y,N,N,N,N,00H 01M 20S 11MS
Pelajar134,810001133,GIIS,TuneTalk Challenge,Round 3,Y,Y,Y,Y,N,N,N,N,00H 01M 20S 11MS
Pelajar135,810001134,GIIS,TuneTalk Challenge,Round 3,Y,Y,Y,Y,N,N,N,N,00H 01M 20S 11MS
Pelajar136,810001135,GIIS,TuneTalk Challenge,Round 3,Y,Y,Y,Y,N,N,N,N,00H 01M 20S 11MS
Pelajar137,810001136,GIIS,TuneTalk Challenge,Round 3,Y,Y,Y,Y,N,N,N,N,00H 01M 20S 11MS
Pelajar138,810001137,GIIS,TuneTalk Challenge,Round 3,Y,Y,Y,Y,N,N,N,N,00H 01M 20S 11MS
Pelajar139,810001138,GIIS,TuneTalk Challenge,Round 3,Y,Y,Y,Y,N,N,N,N,00H 01M 20S 11MS
Pelajar140,810001139,GIIS,TuneTalk Challenge,Round 3,Y,Y,Y,Y,N,N,N,N,00H 01M 20S 11MS
Pelajar141,810001140,GIIS,TuneTalk Challenge,Round 3,Y,Y,Y,Y,N,N,N,N,00H 01M 20S 11MS
Pelajar142,810001141,GIIS,TuneTalk Challenge,Round 3,Y,Y,Y,Y,N,N,N,N,00H 01M 20S 11MS
Pelajar143,810001142,GIIS,TuneTalk Challenge,Round 3,Y,Y,Y,Y,N,N,N,N,00H 01M 20S 11MS
Pelajar144,810001143,GIIS,TuneTalk Challenge,Round 3,Y,Y,Y,Y,N,N,N,N,00H 01M 20S 11MS
Pelajar145,810001144,GIIS,TuneTalk Challenge,Round 3,N,N,N,N,N,N,N,N,00H 01M 20S 11MS
Pelajar146,810001145,GIIS,TuneTalk Challenge,Round 3,N,N,N,N,N,N,N,N,00H 01M 20S 11MS
Pelajar147,810001146,GIIS,TuneTalk Challenge,Round 3,N,N,N,N,N,N,N,N,00H 01M 20S 11MS
Pelajar148,810001147,GIIS,TuneTalk Challenge,Round 3,N,N,N,N,N,N,N,N,00H 01M 20S 11MS
Pelajar149,810001148,GIIS,TuneTalk Challenge,Round 3,N,N,N,N,N,N,N,N,00H 01M 20S 11MS
Pelajar150,810001149,GIIS,TuneTalk Challenge,Round 3,N,N,N,N,N,N,N,N,00H 01M 20S 11MS
Pelajar151,810001150,GIIS,TuneTalk Challenge,Round 3,N,N,N,N,N,N,N,N,00H 01M 20S 11MS
Pelajar152,810001151,GIIS,TuneTalk Challenge,Round 3,N,N,N,N,N,N,N,N,00H 01M 20S 11MS
Pelajar153,810001152,GIIS,TuneTalk Challenge,Round 3,N,N,N,N,N,N,N,N,00H 01M 20S 11MS
Pelajar154,810001153,GIIS,TuneTalk Challenge,Round 3,N,N,N,N,N,N,N,N,00H 01M 20S 11MS
Pelajar155,810001154,GIIS,TuneTalk Challenge,Round 3,N,N,N,N,N,N,N,N,00H 01M 20S 11MS
Pelajar156,810001155,GIIS,TuneTalk Challenge,Round 3,N,N,N,N,N,N,N,N,00H 01M 20S 11MS
Pelajar157,810001156,GIIS,TuneTalk Challenge,Round 3,N,N,N,N,N,N,N,N,00H 01M 20S 11MS
Pelajar158,810001157,GIIS,TuneTalk Challenge,Round 3,N,N,N,N,N,N,N,N,00H 01M 20S 11MS
Pelajar159,810001158,GIIS,TuneTalk Challenge,Round 3,N,N,N,N,N,N,N,N,00H 01M 20S 11MS
Pelajar160,810001159,GIIS,TuneTalk Challenge,Round 3,N,N,N,N,N,N,N,N,00H 01M 20S 11MS
Pelajar161,810001160,GIIS,TuneTalk Challenge,Round 3,N,N,N,N,N,N,N,N,00H 01M 20S 11MS
Pelajar162,810001161,GIIS,TuneTalk Challenge,Round 3,N,N,N,N,N,N,N,N,00H 01M 20S 11MS
Pelajar163,810001162,GIIS,TuneTalk Challenge,Round 3,N,N,N,N,N,N,N,N,00H 01M 20S 11MS
Pelajar164,810001163,GIIS,TuneTalk Challenge,Round 3,N,N,N,N,N,N,N,N,00H 01M 20S 11MS
Pelajar165,810001164,GIIS,TuneTalk Challenge,Round 3,N,N,N,N,N,N,N,N,00H 01M 20S 11MS
Pelajar166,810001165,GIIS,TuneTalk Challenge,Round 3,N,N,N,N,N,N,N,N,00H 01M 20S 11MS
Pelajar167,810001166,GIIS,TuneTalk Challenge,Round 3,N,N,N,N,N,N,N,N,00H 01M 20S 11MS
Pelajar168,810001167,GIIS,TuneTalk Challenge,Round 3,N,N,N,N,N,N,N,N,00H 01M 20S 11MS
Pelajar169,810001168,GIIS,TuneTalk Challenge,Round 3,N,N,N,N,N,N,N,N,00H 01M 20S 11MS
Pelajar170,810001169,GIIS,TuneTalk Challenge,Round 3,N,N,N,N,N,N,N,N,00H 01M 20S 11MS
Pelajar171,810001170,GIIS,TuneTalk Challenge,Round 3,N,N,N,N,N,N,N,N,00H 01M 20S 11MS
Pelajar172,810001171,GIIS,TuneTalk Challenge,Round 3,N,N,N,N,N,N,N,N,00H 01M 20S 11MS
Pelajar173,810001172,GIIS,TuneTalk Challenge,Round 3,N,N,N,N,N,N,N,N,00H 01M 20S 11MS
Pelajar174,810001173,GIIS,TuneTalk Challenge,Round 3,N,N,N,N,N,N,N,N,00H 01M 20S 11MS
Pelajar175,810001174,GIIS,TuneTalk Challenge,Round 3,N,N,N,N,N,N,N,N,00H 01M 20S 11MS
Pelajar176,810001175,GIIS,TuneTalk Challenge,Round 3,N,N,N,N,N,N,N,N,00H 01M 20S 11MS
Pelajar177,810001176,GIIS,TuneTalk Challenge,Round 3,N,N,N,N,N,N,N,N,00H 01M 20S 11MS
Pelajar178,810001177,GIIS,TuneTalk Challenge,Round 3,N,N,N,N,N,N,N,N,00H 01M 20S 11MS
Pelajar179,810001178,GIIS,TuneTalk Challenge,Round 3,N,N,N,N,N,N,N,N,00H 01M 20S 11MS
Pelajar180,810001179,GIIS,TuneTalk Challenge,Round 3,N,N,N,N,N,N,N,N,00H 01M 20S 11MS
Pelajar181,810001180,GIIS,TuneTalk Challenge,Round 3,N,N,N,N,N,N,N,N,00H 01M 20S 11MS
Pelajar182,810001181,GIIS,TuneTalk Challenge,Round 3,N,N,N,N,N,N,N,N,00H 01M 20S 11MS
Pelajar183,810001182,GIIS,TuneTalk Challenge,Round 3,N,N,N,N,N,N,N,N,00H 01M 20S 11MS
Pelajar184,810001183,GIIS,TuneTalk Challenge,Round 3,N,N,N,N,N,N,N,N,00H 01M 20S 11MS
Pelajar185,810001184,GIIS,TuneTalk Challenge,Round 3,N,N,N,N,N,N,N,N,00H 01M 20S 11MS
Pelajar186,810001185,GIIS,TuneTalk Challenge,Round 3,N,N,N,N,N,N,N,N,00H 01M 20S 11MS
Pelajar187,810001186,GIIS,TuneTalk Challenge,Round 3,N,N,N,N,N,N,N,N,00H 01M 20S 11MS
Pelajar188,810001187,GIIS,TuneTalk Challenge,Round 3,N,N,N,N,N,N,N,N,00H 01M 20S 11MS
Pelajar189,810001188,GIIS,TuneTalk Challenge,Round 3,N,N,N,N,N,N,N,N,00H 01M 20S 11MS
Pelajar190,810001189,GIIS,TuneTalk Challenge,Round 3,N,N,N,N,N,N,N,N,00H 01M 20S 11MS
Pelajar191,810001190,GIIS,TuneTalk Challenge,Round 3,N,N,N,N,N,N,N,N,00H 01M 20S 11MS
Pelajar192,810001191,GIIS,TuneTalk Challenge,Round 3,N,N,N,N,N,N,N,N,00H 01M 20S 11MS
Pelajar193,810001192,GIIS,TuneTalk Challenge,Round 3,N,N,N,N,N,N,N,N,00H 01M 20S 11MS
Pelajar194,810001193,GIIS,TuneTalk Challenge,Round 3,N,N,N,N,N,N,N,N,00H 01M 20S 11MS
Pelajar195,810001194,GIIS,TuneTalk Challenge,Round 3,N,N,N,N,N,N,N,N,00H 01M 20S 11MS
Pelajar196,810001195,GIIS,TuneTalk Challenge,Round 3,N,N,N,N,N,N,N,N,00H 01M 20S 11MS
Pelajar197,810001196,GIIS,TuneTalk Challenge,Round 3,N,N,N,N,N,N,N,N,00H 01M 20S 11MS
Pelajar198,810001197,GIIS,TuneTalk Challenge,Round 3,N,N,N,N,N,N,N,N,00H 01M 20S 11MS
Pelajar199,810001198,GIIS,TuneTalk Challenge,Round 3,N,N,N,N,N,N,N,N,00H 01M 20S 11MS
Pelajar200,810001199,GIIS,TuneTalk Challenge,Round 3,N,N,N,N,N,N,N,N,00H 01M 20S 11MS
Pelajar201,810001200,GIIS,TuneTalk Challenge,Round 3,N,N,N,N,N,N,N,N,00H 01M 20S 11MS
Pelajar202,810001201,GIIS,TuneTalk Challenge,Round 3,N,N,N,N,N,N,N,N,00H 01M 20S 11MS
Pelajar203,810001202,GIIS,TuneTalk Challenge,Round 3,N,N,N,N,N,N,N,N,00H 01M 20S 11MS
Pelajar204,810001203,GIIS,TuneTalk Challenge,Round 3,N,N,N,N,N,N,N,N,00H 01M 20S 11MS
Pelajar205,810001204,GIIS,TuneTalk Challenge,Round 3,N,N,N,N,N,N,N,N,00H 01M 20S 11MS
Pelajar206,810001205,GIIS,TuneTalk Challenge,Round 3,N,N,N,N,N,N,N,N,00H 01M 20S 11MS
Pelajar207,810001206,GIIS,TuneTalk Challenge,Round 3,N,N,N,N,N,N,N,N,00H 01M 20S 11MS
Pelajar208,810001207,GIIS,TuneTalk Challenge,Round 3,N,N,N,N,N,N,N,N,00H 01M 20S 11MS
Pelajar209,810001208,GIIS,TuneTalk Challenge,Round 3,N,N,N,N,N,N,N,N,00H 01M 20S 11MS
Pelajar210,810001209,GIIS,TuneTalk Challenge,Round 3,N,N,N,N,N,N,N,N,00H 01M 20S 11MS
Pelajar211,810001210,GIIS,TuneTalk Challenge,Round 3,N,N,N,N,N,N,N,N,00H 01M 20S 11MS
Pelajar212,810001211,GIIS,TuneTalk Challenge,Round 3,N,N,N,N,N,N,N,N,00H 01M 20S 11MS
Pelajar213,810001212,GIIS,TuneTalk Challenge,Round 3,N,N,N,N,N,N,N,N,00H 01M 20S 11MS
Pelajar214,810001213,GIIS,TuneTalk Challenge,Round 3,N,N,N,N,N,N,N,N,00H 01M 20S 11MS
Pelajar215,810001214,GIIS,TuneTalk Challenge,Round 3,N,N,N,N,N,N,N,N,00H 01M 20S 11MS
Pelajar216,810001215,GIIS,TuneTalk Challenge,Round 3,N,N,N,N,N,N,N,N,00H 01M 20S 11MS
Pelajar217,810001216,GIIS,TuneTalk Challenge,Round 3,N,N,N,N,N,N,N,N,00H 01M 20S 11MS
Pelajar218,810001217,GIIS,TuneTalk Challenge,Round 3,N,N,N,N,N,N,N,N,00H 01M 20S 11MS
Pelajar219,810001218,GIIS,TuneTalk Challenge,Round 3,N,N,N,N,N,N,N,N,00H 01M 20S 11MS
Pelajar220,810001219,GIIS,TuneTalk Challenge,Round 3,N,N,N,N,N,N,N,N,00H 01M 20S 11MS
Pelajar221,810001220,GIIS,TuneTalk Challenge,Round 3,N,N,N,N,N,N,N,N,00H 01M 20S 11MS
Pelajar222,810001221,GIIS,TuneTalk Challenge,Round 3,N,N,N,N,N,N,N,N,00H 01M 20S 11MS
Pelajar223,810001222,GIIS,TuneTalk Challenge,Round 3,N,N,N,N,N,N,N,N,00H 01M 20S 11MS
Pelajar224,810001223,GIIS,TuneTalk Challenge,Round 3,N,N,N,N,N,N,N,N,00H 01M 20S 11MS
Pelajar225,810001224,GIIS,TuneTalk Challenge,Round 3,N,N,N,N,N,N,N,N,00H 01M 20S 11MS
Pelajar226,810001225,GIIS,TuneTalk Challenge,Round 3,N,N,N,N,N,N,N,N,00H 01M 20S 11MS
Pelajar227,810001226,GIIS,TuneTalk Challenge,Round 3,N,N,N,N,N,N,N,N,00H 01M 20S 11MS
Pelajar228,810001227,GIIS,TuneTalk Challenge,Round 3,N,N,N,N,N,N,N,N,00H 01M 20S 11MS
Pelajar229,810001228,GIIS,TuneTalk Challenge,Round 3,N,N,N,N,N,N,N,N,00H 01M 20S 11MS
Pelajar230,810001229,GIIS,TuneTalk Challenge,Round 3,N,N,N,N,N,N,N,N,00H 01M 20S 11MS
Pelajar231,810001230,GIIS,TuneTalk Challenge,Round 3,N,N,N,N,N,N,N,N,00H 01M 20S 11MS
Pelajar232,810001231,GIIS,TuneTalk Challenge,Round 3,N,N,N,N,N,N,N,N,00H 01M 20S 11MS
Pelajar233,810001232,GIIS,TuneTalk Challenge,Round 3,N,N,N,N,N,N,N,N,00H 01M 20S 11MS
Pelajar234,810001233,GIIS,TuneTalk Challenge,Round 3,N,N,N,N,N,N,N,N,00H 01M 20S 11MS
Pelajar235,810001234,GIIS,TuneTalk Challenge,Round 3,N,N,N,N,N,N,N,N,00H 01M 20S 11MS
Pelajar236,810001235,GIIS,TuneTalk Challenge,Round 3,N,N,N,N,N,N,N,N,00H 01M 20S 11MS
Pelajar237,810001236,GIIS,TuneTalk Challenge,Round 3,N,N,N,N,N,N,N,N,00H 01M 20S 11MS
Pelajar238,810001237,GIIS,TuneTalk Challenge,Round 3,N,N,N,N,N,N,N,N,00H 01M 20S 11MS
Pelajar239,810001238,GIIS,TuneTalk Challenge,Round 3,N,N,N,N,N,N,N,N,00H 01M 20S 11MS
Pelajar240,810001239,GIIS,TuneTalk Challenge,Round 3,N,N,N,N,N,N,N,N,00H 01M 20S 11MS
Pelajar241,810001240,GIIS,TuneTalk Challenge,Round 3,N,N,N,N,N,N,N,N,00H 01M 20S 11MS
Pelajar242,810001241,GIIS,TuneTalk Challenge,Round 3,N,N,N,N,N,N,N,N,00H 01M 20S 11MS
Pelajar243,810001242,GIIS,TuneTalk Challenge,Round 3,N,N,N,N,N,N,N,N,00H 01M 20S 11MS
Pelajar244,810001243,GIIS,TuneTalk Challenge,Round 3,N,N,N,N,N,N,N,N,00H 01M 20S 11MS
Pelajar245,810001244,GIIS,TuneTalk Challenge,Round 3,N,N,N,N,N,N,N,N,00H 01M 20S 11MS
Pelajar246,810001245,GIIS,TuneTalk Challenge,Round 3,N,N,N,N,N,N,N,N,00H 01M 20S 11MS
Pelajar247,810001246,GIIS,TuneTalk Challenge,Round 3,N,N,N,N,N,N,N,N,00H 01M 20S 11MS
Pelajar248,810001247,GIIS,TuneTalk Challenge,Round 3,N,N,N,N,N,N,N,N,00H 01M 20S 11MS
Pelajar249,810001248,GIIS,TuneTalk Challenge,Round 3,N,N,N,N,N,N,N,N,00H 01M 20S 11MS
Pelajar250,810001249,GIIS,TuneTalk Challenge,Round 3,N,N,N,N,N,N,N,N,00H 01M 20S 11MS
Pelajar251,810001250,GIIS,TuneTalk Challenge,Round 3,N,N,N,N,N,N,N,N,00H 01M 20S 11MS
Pelajar252,810001251,GIIS,TuneTalk Challenge,Round 3,N,N,N,N,N,N,N,N,00H 01M 20S 11MS
Pelajar253,810001252,GIIS,TuneTalk Challenge,Round 3,N,N,N,N,N,N,N,N,00H 01M 20S 11MS
Pelajar254,810001253,GIIS,TuneTalk Challenge,Round 3,N,N,N,N,N,N,N,N,00H 01M 20S 11MS
Pelajar255,810001254,GIIS,TuneTalk Challenge,Round 3,N,N,N,N,N,N,N,N,00H 01M 20S 11MS
Pelajar256,810001255,GIIS,TuneTalk Challenge,Round 3,N,N,N,N,N,N,N,N,00H 01M 20S 11MS
Pelajar257,810001256,GIIS,TuneTalk Challenge,Round 3,N,N,N,N,N,N,N,N,00H 01M 20S 11MS
Pelajar258,810001257,GIIS,TuneTalk Challenge,Round 3,N,N,N,N,N,N,N,N,00H 01M 20S 11MS
Pelajar259,810001258,GIIS,TuneTalk Challenge,Round 3,N,N,N,N,N,N,N,N,00H 01M 20S 11MS
Pelajar260,810001259,GIIS,TuneTalk Challenge,Round 3,N,N,N,N,N,N,N,N,00H 01M 20S 11MS
Pelajar261,810001260,GIIS,TuneTalk Challenge,Round 3,N,N,N,N,N,N,N,N,00H 01M 20S 11MS
Pelajar262,810001261,GIIS,TuneTalk Challenge,Round 3,N,N,N,N,N,N,N,N,00H 01M 20S 11MS
Pelajar263,810001262,GIIS,TuneTalk Challenge,Round 3,N,N,N,N,N,N,N,N,00H 01M 20S 11MS
Pelajar264,810001263,GIIS,TuneTalk Challenge,Round 3,N,N,N,N,N,N,N,N,00H 01M 20S 11MS
Pelajar265,810001264,GIIS,TuneTalk Challenge,Round 3,N,N,N,N,N,N,N,N,00H 01M 20S 11MS
Pelajar266,810001265,GIIS,TuneTalk Challenge,Round 3,N,N,N,N,N,N,N,N,00H 01M 20S 11MS
Pelajar267,810001266,GIIS,TuneTalk Challenge,Round 3,N,N,N,N,N,N,N,N,00H 01M 20S 11MS
Pelajar268,810001267,GIIS,TuneTalk Challenge,Round 3,N,N,N,N,N,N,N,N,00H 01M 20S 11MS
Pelajar269,810001268,GIIS,TuneTalk Challenge,Round 3,N,N,N,N,N,N,N,N,00H 01M 20S 11MS
Pelajar270,810001269,GIIS,TuneTalk Challenge,Round 3,N,N,N,N,N,N,N,N,00H 01M 20S 11MS
Pelajar271,810001270,GIIS,TuneTalk Challenge,Round 3,N,N,N,N,N,N,N,N,00H 01M 20S 11MS
Pelajar272,810001271,GIIS,TuneTalk Challenge,Round 3,N,N,N,N,N,N,N,N,00H 01M 20S 11MS
Pelajar273,810001272,GIIS,TuneTalk Challenge,Round 3,N,N,N,N,N,N,N,N,00H 01M 20S 11MS
Pelajar274,810001273,GIIS,TuneTalk Challenge,Round 3,N,N,N,N,N,N,N,N,00H 01M 20S 11MS
Pelajar275,810001274,GIIS,TuneTalk Challenge,Round 3,N,N,N,N,N,N,N,N,00H 01M 20S 11MS
Pelajar276,810001275,GIIS,TuneTalk Challenge,Round 3,N,N,N,N,N,N,N,N,00H 01M 20S 11MS
Pelajar277,810001276,GIIS,TuneTalk Challenge,Round 3,N,N,N,N,N,N,N,N,00H 01M 20S 11MS
Pelajar278,810001277,GIIS,TuneTalk Challenge,Round 3,N,N,N,N,N,N,N,N,00H 01M 20S 11MS
Pelajar279,810001278,GIIS,TuneTalk Challenge,Round 3,N,N,N,N,N,N,N,N,00H 01M 20S 11MS
Pelajar280,810001279,GIIS,TuneTalk Challenge,Round 3,N,N,N,N,N,N,N,N,00H 01M 20S 11MS
Pelajar281,810001280,GIIS,TuneTalk Challenge,Round 3,N,N,N,N,N,N,N,N,00H 01M 20S 11MS
Pelajar282,810001281,GIIS,TuneTalk Challenge,Round 3,N,N,N,N,N,N,N,N,00H 01M 20S 11MS
Pelajar283,810001282,GIIS,TuneTalk Challenge,Round 3,N,N,N,N,N,N,N,N,00H 01M 20S 11MS
Pelajar284,810001283,GIIS,TuneTalk Challenge,Round 3,N,N,N,N,N,N,N,N,00H 01M 20S 11MS
Pelajar285,810001284,GIIS,TuneTalk Challenge,Round 3,N,N,N,N,N,N,N,N,00H 01M 20S 11MS
Pelajar286,810001285,GIIS,TuneTalk Challenge,Round 3,N,N,N,N,N,N,N,N,00H 01M 20S 11MS
Pelajar287,810001286,GIIS,TuneTalk Challenge,Round 3,N,N,N,N,N,N,N,N,00H 01M 20S 11MS
Pelajar288,810001287,GIIS,TuneTalk Challenge,Round 3,N,N,N,N,N,N,N,N,00H 01M 20S 11MS
Pelajar289,810001288,GIIS,TuneTalk Challenge,Round 3,N,N,N,N,N,N,N,N,00H 01M 20S 11MS
Pelajar290,810001289,GIIS,TuneTalk Challenge,Round 3,N,N,N,N,N,N,N,N,00H 01M 20S 11MS
Pelajar291,810001290,GIIS,TuneTalk Challenge,Round 3,N,N,N,N,N,N,N,N,00H 01M 20S 11MS
Pelajar292,810001291,GIIS,TuneTalk Challenge,Round 3,N,N,N,N,N,N,N,N,00H 01M 20S 11MS
Pelajar293,810001292,GIIS,TuneTalk Challenge,Round 3,N,N,N,N,N,N,N,N,00H 01M 20S 11MS
Pelajar294,810001293,GIIS,TuneTalk Challenge,Round 3,N,N,N,N,N,N,N,N,00H 01M 20S 11MS
Pelajar295,810001294,GIIS,TuneTalk Challenge,Round 3,N,N,N,N,N,N,N,N,00H 01M 20S 11MS
Pelajar296,810001295,GIIS,TuneTalk Challenge,Round 3,N,N,N,N,N,N,N,N,00H 01M 20S 11MS
Pelajar297,810001296,GIIS,TuneTalk Challenge,Round 3,N,N,N,N,N,N,N,N,00H 01M 20S 11MS
Pelajar298,810001297,GIIS,TuneTalk Challenge,Round 3,N,N,N,N,N,N,N,N,00H 01M 20S 11MS
Pelajar299,810001298,GIIS,TuneTalk Challenge,Round 3,N,N,N,N,N,N,N,N,00H 01M 20S 11MS
Pelajar300,810001299,GIIS,TuneTalk Challenge,Round 3,N,N,N,N,N,N,N,N,00H 01M 20S 11MS
Pelajar301,810001300,GIIS,TuneTalk Challenge,Round 3,N,N,N,N,N,N,N,N,00H 01M 20S 11MS
Pelajar302,810001301,GIIS,TuneTalk Challenge,Round 3,N,N,N,N,N,N,N,N,00H 01M 20S 11MS
Pelajar303,810001302,GIIS,TuneTalk Challenge,Round 3,N,N,N,N,N,N,N,N,00H 01M 20S 11MS
Pelajar304,810001303,GIIS,TuneTalk Challenge,Round 3,N,N,N,N,N,N,N,N,00H 01M 20S 11MS
Pelajar305,810001304,GIIS,TuneTalk Challenge,Round 3,N,N,N,N,N,N,N,N,00H 01M 20S 11MS
Pelajar306,810001305,GIIS,TuneTalk Challenge,Round 3,N,N,N,N,N,N,N,N,00H 01M 20S 11MS
Pelajar307,810001306,GIIS,TuneTalk Challenge,Round 3,N,N,N,N,N,N,N,N,00H 01M 20S 11MS
Pelajar308,810001307,GIIS,TuneTalk Challenge,Round 3,N,N,N,N,N,N,N,N,00H 01M 20S 11MS
Pelajar309,810001308,GIIS,TuneTalk Challenge,Round 3,N,N,N,N,N,N,N,N,00H 01M 20S 11MS
Pelajar310,810001309,GIIS,TuneTalk Challenge,Round 3,N,N,N,N,N,N,N,N,00H 01M 20S 11MS
Pelajar311,810001310,GIIS,TuneTalk Challenge,Round 3,N,N,N,N,N,N,N,N,00H 01M 20S 11MS
Pelajar312,810001311,GIIS,TuneTalk Challenge,Round 3,N,N,N,N,N,N,N,N,00H 01M 20S 11MS
Pelajar313,810001312,GIIS,TuneTalk Challenge,Round 3,N,N,N,N,N,N,N,N,00H 01M 20S 11MS
Pelajar314,810001313,GIIS,TuneTalk Challenge,Round 3,N,N,N,N,N,N,N,N,00H 01M 20S 11MS
Pelajar315,810001314,GIIS,TuneTalk Challenge,Round 3,N,N,N,N,N,N,N,N,00H 01M 20S 11MS
Pelajar316,810001315,GIIS,TuneTalk Challenge,Round 3,N,N,N,N,N,N,N,N,00H 01M 20S 11MS
Pelajar317,810001316,GIIS,TuneTalk Challenge,Round 3,N,N,N,N,N,N,N,N,00H 01M 20S 11MS
Pelajar318,810001317,GIIS,TuneTalk Challenge,Round 3,N,N,N,N,N,N,N,N,00H 01M 20S 11MS
Pelajar319,810001318,GIIS,TuneTalk Challenge,Round 3,N,N,N,N,N,N,N,N,00H 01M 20S 11MS
Pelajar320,810001319,GIIS,TuneTalk Challenge,Round 3,N,N,N,N,N,N,N,N,00H 01M 20S 11MS
Pelajar321,810001320,GIIS,TuneTalk Challenge,Round 3,N,N,N,N,N,N,N,N,00H 01M 20S 11MS
Pelajar322,810001321,GIIS,TuneTalk Challenge,Round 3,N,N,N,N,N,N,N,N,00H 01M 20S 11MS
Pelajar323,810001322,GIIS,TuneTalk Challenge,Round 3,N,N,N,N,N,N,N,N,00H 01M 20S 11MS
Pelajar324,810001323,GIIS,TuneTalk Challenge,Round 3,N,N,N,N,N,N,N,N,00H 01M 20S 11MS
Pelajar325,810001324,GIIS,TuneTalk Challenge,Round 3,N,N,N,N,N,N,N,N,00H 01M 20S 11MS
Pelajar326,810001325,GIIS,TuneTalk Challenge,Round 3,N,N,N,N,N,N,N,N,00H 01M 20S 11MS
Pelajar327,810001326,GIIS,TuneTalk Challenge,Round 3,N,N,N,N,N,N,N,N,00H 01M 20S 11MS
Pelajar328,810001327,GIIS,TuneTalk Challenge,Round 3,N,N,N,N,N,N,N,N,00H 01M 20S 11MS
Pelajar329,810001328,GIIS,TuneTalk Challenge,Round 3,N,N,N,N,N,N,N,N,00H 01M 20S 11MS
Pelajar330,810001329,GIIS,TuneTalk Challenge,Round 3,N,N,N,N,N,N,N,N,00H 01M 20S 11MS
Pelajar331,810001330,GIIS,TuneTalk Challenge,Round 3,N,N,N,N,N,N,N,N,00H 01M 20S 11MS
Pelajar332,810001331,GIIS,TuneTalk Challenge,Round 3,N,N,N,N,N,N,N,N,00H 01M 20S 11MS
Pelajar333,810001332,GIIS,TuneTalk Challenge,Round 3,N,N,N,N,N,N,N,N,00H 01M 20S 11MS
Pelajar334,810001333,GIIS,TuneTalk Challenge,Round 3,N,N,N,N,N,N,N,N,00H 01M 20S 11MS
Pelajar335,810001334,GIIS,TuneTalk Challenge,Round 3,N,N,N,N,N,N,N,N,00H 01M 20S 11MS
Pelajar336,810001335,GIIS,TuneTalk Challenge,Round 3,N,N,N,N,N,N,N,N,00H 01M 20S 11MS
Pelajar337,810001336,GIIS,TuneTalk Challenge,Round 3,N,N,N,N,N,N,N,N,00H 01M 20S 11MS
Pelajar338,810001337,GIIS,TuneTalk Challenge,Round 3,N,N,N,N,N,N,N,N,00H 01M 20S 11MS
Pelajar339,810001338,GIIS,TuneTalk Challenge,Round 3,N,N,N,N,N,N,N,N,00H 01M 20S 11MS
Pelajar340,810001339,GIIS,TuneTalk Challenge,Round 3,N,N,N,N,N,N,N,N,00H 01M 20S 11MS
Pelajar341,810001340,GIIS,TuneTalk Challenge,Round 3,N,N,N,N,N,N,N,N,00H 01M 20S 11MS
Pelajar342,810001341,GIIS,TuneTalk Challenge,Round 3,N,N,N,N,N,N,N,N,00H 01M 20S 11MS
Pelajar343,810001342,GIIS,TuneTalk Challenge,Round 3,N,N,N,N,N,N,N,N,00H 01M 20S 11MS
Pelajar344,810001343,GIIS,TuneTalk Challenge,Round 3,N,N,N,N,N,N,N,N,00H 01M 20S 11MS
Pelajar345,810001344,GIIS,TuneTalk Challenge,Round 3,N,N,N,N,N,N,N,N,00H 01M 20S 11MS
Pelajar346,810001345,GIIS,TuneTalk Challenge,Round 3,N,N,N,N,N,N,N,N,00H 01M 20S 11MS
Pelajar347,810001346,GIIS,TuneTalk Challenge,Round 3,N,N,N,N,N,N,N,N,00H 01M 20S 11MS
Pelajar348,810001347,GIIS,TuneTalk Challenge,Round 3,N,N,N,N,N,N,N,N,00H 01M 20S 11MS
Pelajar349,810001348,GIIS,TuneTalk Challenge,Round 3,N,N,N,N,N,N,N,N,00H 01M 20S 11MS
Pelajar350,810001349,GIIS,TuneTalk Challenge,Round 3,N,N,N,N,N,N,N,N,00H 01M 20S 11MS
Pelajar351,810001350,GIIS,TuneTalk Challenge,Round 3,N,N,N,N,N,N,N,N,00H 01M 20S 11MS
Pelajar352,810001351,GIIS,TuneTalk Challenge,Round 3,N,N,N,N,N,N,N,N,00H 01M 20S 11MS
Pelajar353,810001352,GIIS,TuneTalk Challenge,Round 3,N,N,N,N,N,N,N,N,00H 01M 20S 11MS
Pelajar354,810001353,GIIS,TuneTalk Challenge,Round 3,N,N,N,N,N,N,N,N,00H 01M 20S 11MS
Pelajar355,810001354,GIIS,TuneTalk Challenge,Round 3,N,N,N,N,N,N,N,N,00H 01M 20S 11MS
Pelajar356,810001355,GIIS,TuneTalk Challenge,Round 3,N,N,N,N,N,N,N,N,00H 01M 20S 11MS
Pelajar357,810001356,GIIS,TuneTalk Challenge,Round 3,N,N,N,N,N,N,N,N,00H 01M 20S 11MS
Pelajar358,810001357,GIIS,TuneTalk Challenge,Round 3,N,N,N,N,N,N,N,N,00H 01M 20S 11MS
Pelajar359,810001358,GIIS,TuneTalk Challenge,Round 3,N,N,N,N,N,N,N,N,00H 01M 20S 11MS
Pelajar360,810001359,GIIS,TuneTalk Challenge,Round 3,N,N,N,N,N,N,N,N,00H 01M 20S 11MS
Pelajar361,810001360,GIIS,TuneTalk Challenge,Round 3,N,N,N,N,N,N,N,N,00H 01M 20S 11MS
Pelajar362,810001361,GIIS,TuneTalk Challenge,Round 3,N,N,N,N,N,N,N,N,00H 01M 20S 11MS
Pelajar363,810001362,GIIS,TuneTalk Challenge,Round 3,N,N,N,N,N,N,N,N,00H 01M 20S 11MS
Pelajar364,810001363,GIIS,TuneTalk Challenge,Round 3,N,N,N,N,N,N,N,N,00H 01M 20S 11MS
Pelajar365,810001364,GIIS,TuneTalk Challenge,Round 3,N,N,N,N,N,N,N,N,00H 01M 20S 11MS
Pelajar366,810001365,GIIS,TuneTalk Challenge,Round 3,N,N,N,N,N,N,N,N,00H 01M 20S 11MS
Pelajar367,810001366,GIIS,TuneTalk Challenge,Round 3,N,N,N,N,N,N,N,N,00H 01M 20S 11MS
Pelajar368,810001367,GIIS,TuneTalk Challenge,Round 3,N,N,N,N,N,N,N,N,00H 01M 20S 11MS
Pelajar369,810001368,GIIS,TuneTalk Challenge,Round 3,N,N,N,N,N,N,N,N,00H 01M 20S 11MS
Pelajar370,810001369,GIIS,TuneTalk Challenge,Round 3,N,N,N,N,N,N,N,N,00H 01M 20S 11MS
Pelajar371,810001370,GIIS,TuneTalk Challenge,Round 3,N,N,N,N,N,N,N,N,00H 01M 20S 11MS
Pelajar372,810001371,GIIS,TuneTalk Challenge,Round 3,N,N,N,N,N,N,N,N,00H 01M 20S 11MS
Pelajar373,810001372,GIIS,TuneTalk Challenge,Round 3,N,N,N,N,N,N,N,N,00H 01M 20S 11MS
Pelajar374,810001373,GIIS,TuneTalk Challenge,Round 3,N,N,N,N,N,N,N,N,00H 01M 20S 11MS
Pelajar375,810001374,GIIS,TuneTalk Challenge,Round 3,N,N,N,N,N,N,N,N,00H 01M 20S 11MS
Pelajar376,810001375,GIIS,TuneTalk Challenge,Round 3,N,N,N,N,N,N,N,N,00H 01M 20S 11MS
Pelajar377,810001376,GIIS,TuneTalk Challenge,Round 3,N,N,N,N,N,N,N,N,00H 01M 20S 11MS
Pelajar378,810001377,GIIS,TuneTalk Challenge,Round 3,N,N,N,N,N,N,N,N,00H 01M 20S 11MS
Pelajar379,810001378,GIIS,TuneTalk Challenge,Round 3,N,N,N,N,N,N,N,N,00H 01M 20S 11MS
Pelajar380,810001379,GIIS,TuneTalk Challenge,Round 3,N,N,N,N,N,N,N,N,00H 01M 20S 11MS
Pelajar381,810001380,GIIS,TuneTalk Challenge,Round 3,N,N,N,N,N,N,N,N,00H 01M 20S 11MS
Pelajar382,810001381,GIIS,TuneTalk Challenge,Round 3,N,N,N,N,N,N,N,N,00H 01M 20S 11MS
Pelajar383,810001382,GIIS,TuneTalk Challenge,Round 3,N,N,N,N,N,N,N,N,00H 01M 20S 11MS
Pelajar384,810001383,GIIS,TuneTalk Challenge,Round 3,N,N,N,N,N,N,N,N,00H 01M 20S 11MS
Pelajar385,810001384,GIIS,TuneTalk Challenge,Round 3,N,N,N,N,N,N,N,N,00H 01M 20S 11MS
Pelajar386,810001385,GIIS,TuneTalk Challenge,Round 3,N,N,N,N,N,N,N,N,00H 01M 20S 11MS
Pelajar387,810001386,GIIS,TuneTalk Challenge,Round 3,N,N,N,N,N,N,N,N,00H 01M 20S 11MS
Pelajar388,810001387,GIIS,TuneTalk Challenge,Round 3,N,N,N,N,N,N,N,N,00H 01M 20S 11MS
Pelajar389,810001388,GIIS,TuneTalk Challenge,Round 3,N,N,N,N,N,N,N,N,00H 01M 20S 11MS
Pelajar390,810001389,GIIS,TuneTalk Challenge,Round 3,N,N,N,N,N,N,N,N,00H 01M 20S 11MS
Pelajar391,810001390,GIIS,TuneTalk Challenge,Round 3,N,N,N,N,N,N,N,N,00H 01M 20S 11MS
Pelajar392,810001391,GIIS,TuneTalk Challenge,Round 3,N,N,N,N,N,N,N,N,00H 01M 20S 11MS
Pelajar393,810001392,GIIS,TuneTalk Challenge,Round 3,N,N,N,N,N,N,N,N,00H 01M 20S 11MS
Pelajar394,810001393,GIIS,TuneTalk Challenge,Round 3,N,N,N,N,N,N,N,N,00H 01M 20S 11MS
Pelajar395,810001394,GIIS,TuneTalk Challenge,Round 3,N,N,N,N,N,N,N,N,00H 01M 20S 11MS
Pelajar396,810001395,GIIS,TuneTalk Challenge,Round 3,N,N,N,N,N,N,N,N,00H 01M 20S 11MS
Pelajar397,810001396,GIIS,TuneTalk Challenge,Round 3,N,N,N,N,N,N,N,N,00H 01M 20S 11MS
Pelajar398,810001397,GIIS,TuneTalk Challenge,Round 3,N,N,N,N,N,N,N,N,00H 01M 20S 11MS
Pelajar399,810001398,GIIS,TuneTalk Challenge,Round 3,N,N,N,N,N,N,N,N,00H 01M 20S 11MS
Pelajar400,810001399,GIIS,TuneTalk Challenge,Round 3,N,N,N,N,N,N,N,N,00H 01M 20S 11MS
Pelajar401,810001400,GIIS,TuneTalk Challenge,Round 3,N,N,N,N,N,N,N,N,00H 01M 20S 11MS
Pelajar402,810001401,GIIS,TuneTalk Challenge,Round 3,N,N,N,N,N,N,N,N,00H 01M 20S 11MS
Pelajar403,810001402,GIIS,TuneTalk Challenge,Round 3,N,N,N,N,N,N,N,N,00H 01M 20S 11MS
Pelajar404,810001403,GIIS,TuneTalk Challenge,Round 3,N,N,N,N,N,N,N,N,00H 01M 20S 11MS
Pelajar405,810001404,GIIS,TuneTalk Challenge,Round 3,N,N,N,N,N,N,N,N,00H 01M 20S 11MS
Pelajar406,810001405,GIIS,TuneTalk Challenge,Round 3,N,N,N,N,N,N,N,N,00H 01M 20S 11MS
Pelajar407,810001406,GIIS,TuneTalk Challenge,Round 3,N,N,N,N,N,N,N,N,00H 01M 20S 11MS
Pelajar408,810001407,GIIS,TuneTalk Challenge,Round 3,N,N,N,N,N,N,N,N,00H 01M 20S 11MS
Pelajar409,810001408,GIIS,TuneTalk Challenge,Round 3,N,N,N,N,N,N,N,N,00H 01M 20S 11MS
Pelajar410,810001409,GIIS,TuneTalk Challenge,Round 3,N,N,N,N,N,N,N,N,00H 01M 20S 11MS
Pelajar411,810001410,GIIS,TuneTalk Challenge,Round 3,N,N,N,N,N,N,N,N,00H 01M 20S 11MS
Pelajar412,810001411,GIIS,TuneTalk Challenge,Round 3,N,N,N,N,N,N,N,N,00H 01M 20S 11MS
Pelajar413,810001412,GIIS,TuneTalk Challenge,Round 3,N,N,N,N,N,N,N,N,00H 01M 20S 11MS
Pelajar414,810001413,GIIS,TuneTalk Challenge,Round 3,N,N,N,N,N,N,N,N,00H 01M 20S 11MS
Pelajar415,810001414,GIIS,TuneTalk Challenge,Round 3,N,N,N,N,N,N,N,N,00H 01M 20S 11MS
Pelajar416,810001415,GIIS,TuneTalk Challenge,Round 3,N,N,N,N,N,N,N,N,00H 01M 20S 11MS
Pelajar417,810001416,GIIS,TuneTalk Challenge,Round 3,N,N,N,N,N,N,N,N,00H 01M 20S 11MS
Pelajar418,810001417,GIIS,TuneTalk Challenge,Round 3,N,N,N,N,N,N,N,N,00H 01M 20S 11MS
Pelajar419,810001418,GIIS,TuneTalk Challenge,Round 3,N,N,N,N,N,N,N,N,00H 01M 20S 11MS
Pelajar420,810001419,GIIS,TuneTalk Challenge,Round 3,N,N,N,N,N,N,N,N,00H 01M 20S 11MS
Pelajar421,810001420,GIIS,TuneTalk Challenge,Round 3,N,N,N,N,N,N,N,N,00H 01M 20S 11MS
Pelajar422,810001421,GIIS,TuneTalk Challenge,Round 3,N,N,N,N,N,N,N,N,00H 01M 20S 11MS
Pelajar423,810001422,GIIS,TuneTalk Challenge,Round 3,N,N,N,N,N,N,N,N,00H 01M 20S 11MS
Pelajar424,810001423,GIIS,TuneTalk Challenge,Round 3,N,N,N,N,N,N,N,N,00H 01M 20S 11MS
Pelajar425,810001424,GIIS,TuneTalk Challenge,Round 3,N,N,N,N,N,N,N,N,00H 01M 20S 11MS
Pelajar426,810001425,GIIS,TuneTalk Challenge,Round 3,N,N,N,N,N,N,N,N,00H 01M 20S 11MS
Pelajar427,810001426,GIIS,TuneTalk Challenge,Round 3,N,N,N,N,N,N,N,N,00H 01M 20S 11MS
Pelajar428,810001427,GIIS,TuneTalk Challenge,Round 3,N,N,N,N,N,N,N,N,00H 01M 20S 11MS
Pelajar429,810001428,GIIS,TuneTalk Challenge,Round 3,N,N,N,N,N,N,N,N,00H 01M 20S 11MS
Pelajar430,810001429,GIIS,TuneTalk Challenge,Round 3,N,N,N,N,N,N,N,N,00H 01M 20S 11MS
Pelajar431,810001430,GIIS,TuneTalk Challenge,Round 3,N,N,N,N,N,N,N,N,00H 01M 20S 11MS
Pelajar432,810001431,GIIS,TuneTalk Challenge,Round 3,N,N,N,N,N,N,N,N,00H 01M 20S 11MS
Pelajar433,810001432,GIIS,TuneTalk Challenge,Round 3,N,N,N,N,N,N,N,N,00H 01M 20S 11MS
Pelajar434,810001433,GIIS,TuneTalk Challenge,Round 3,N,N,N,N,N,N,N,N,00H 01M 20S 11MS
Pelajar435,810001434,GIIS,TuneTalk Challenge,Round 3,N,N,N,N,N,N,N,N,00H 01M 20S 11MS
Pelajar436,810001435,GIIS,TuneTalk Challenge,Round 3,N,N,N,N,N,N,N,N,00H 01M 20S 11MS
Pelajar437,810001436,GIIS,TuneTalk Challenge,Round 3,N,N,N,N,N,N,N,N,00H 01M 20S 11MS
Pelajar438,810001437,GIIS,TuneTalk Challenge,Round 3,N,N,N,N,N,N,N,N,00H 01M 20S 11MS
Pelajar439,810001438,GIIS,TuneTalk Challenge,Round 3,N,N,N,N,N,N,N,N,00H 01M 20S 11MS
Pelajar440,810001439,GIIS,TuneTalk Challenge,Round 3,N,N,N,N,N,N,N,N,00H 01M 20S 11MS
Pelajar441,810001440,GIIS,TuneTalk Challenge,Round 3,N,N,N,N,N,N,N,N,00H 01M 20S 11MS
Pelajar442,810001441,GIIS,TuneTalk Challenge,Round 3,N,N,N,N,N,N,N,N,00H 01M 20S 11MS
Pelajar443,810001442,GIIS,TuneTalk Challenge,Round 3,N,N,N,N,N,N,N,N,00H 01M 20S 11MS
Pelajar444,810001443,GIIS,TuneTalk Challenge,Round 3,N,N,N,N,N,N,N,N,00H 01M 20S 11MS
Pelajar445,810001444,GIIS,TuneTalk Challenge,Round 3,N,N,N,N,N,N,N,N,00H 01M 20S 11MS
Pelajar446,810001445,GIIS,TuneTalk Challenge,Round 3,N,N,N,N,N,N,N,N,00H 01M 20S 11MS
Pelajar447,810001446,GIIS,TuneTalk Challenge,Round 3,N,N,N,N,N,N,N,N,00H 01M 20S 11MS
Pelajar448,810001447,GIIS,TuneTalk Challenge,Round 3,N,N,N,N,N,N,N,N,00H 01M 20S 11MS
Pelajar449,810001448,GIIS,TuneTalk Challenge,Round 3,N,N,N,N,N,N,N,N,00H 01M 20S 11MS
Pelajar450,810001449,GIIS,TuneTalk Challenge,Round 3,N,N,N,N,N,N,N,N,00H 01M 20S 11MS
Pelajar451,810001450,GIIS,TuneTalk Challenge,Round 3,N,N,N,N,N,N,N,N,00H 01M 20S 11MS
Pelajar452,810001451,GIIS,TuneTalk Challenge,Round 3,N,N,N,N,N,N,N,N,00H 01M 20S 11MS
Pelajar453,810001452,GIIS,TuneTalk Challenge,Round 3,N,N,N,N,N,N,N,N,00H 01M 20S 11MS
Pelajar454,810001453,GIIS,TuneTalk Challenge,Round 3,N,N,N,N,N,N,N,N,00H 01M 20S 11MS
Pelajar455,810001454,GIIS,TuneTalk Challenge,Round 3,N,N,N,N,N,N,N,N,00H 01M 20S 11MS
Pelajar456,810001455,GIIS,TuneTalk Challenge,Round 3,N,N,N,N,N,N,N,N,00H 01M 20S 11MS
Pelajar457,810001456,GIIS,TuneTalk Challenge,Round 3,N,N,N,N,N,N,N,N,00H 01M 20S 11MS
Pelajar458,810001457,GIIS,TuneTalk Challenge,Round 3,N,N,N,N,N,N,N,N,00H 01M 20S 11MS
Pelajar459,810001458,GIIS,TuneTalk Challenge,Round 3,N,N,N,N,N,N,N,N,00H 01M 20S 11MS
Pelajar460,810001459,GIIS,TuneTalk Challenge,Round 3,N,N,N,N,N,N,N,N,00H 01M 20S 11MS
Pelajar461,810001460,GIIS,TuneTalk Challenge,Round 3,N,N,N,N,N,N,N,N,00H 01M 20S 11MS
Pelajar462,810001461,GIIS,TuneTalk Challenge,Round 3,N,N,N,N,N,N,N,N,00H 01M 20S 11MS
Pelajar463,810001462,GIIS,TuneTalk Challenge,Round 3,N,N,N,N,N,N,N,N,00H 01M 20S 11MS
Pelajar464,810001463,GIIS,TuneTalk Challenge,Round 3,N,N,N,N,N,N,N,N,00H 01M 20S 11MS
Pelajar465,810001464,GIIS,TuneTalk Challenge,Round 3,N,N,N,N,N,N,N,N,00H 01M 20S 11MS
Pelajar466,810001465,GIIS,TuneTalk Challenge,Round 3,N,N,N,N,N,N,N,N,00H 01M 20S 11MS
Pelajar467,810001466,GIIS,TuneTalk Challenge,Round 3,N,N,N,N,N,N,N,N,00H 01M 20S 11MS
Pelajar468,810001467,GIIS,TuneTalk Challenge,Round 3,N,N,N,N,N,N,N,N,00H 01M 20S 11MS
Pelajar469,810001468,GIIS,TuneTalk Challenge,Round 3,N,N,N,N,N,N,N,N,00H 01M 20S 11MS
Pelajar470,810001469,GIIS,TuneTalk Challenge,Round 3,N,N,N,N,N,N,N,N,00H 01M 20S 11MS
Pelajar471,810001470,GIIS,TuneTalk Challenge,Round 3,N,N,N,N,N,N,N,N,00H 01M 20S 11MS
Pelajar472,810001471,GIIS,TuneTalk Challenge,Round 3,N,N,N,N,N,N,N,N,00H 01M 20S 11MS
Pelajar473,810001472,GIIS,TuneTalk Challenge,Round 3,N,N,N,N,N,N,N,N,00H 01M 20S 11MS
Pelajar474,810001473,GIIS,TuneTalk Challenge,Round 3,N,N,N,N,N,N,N,N,00H 01M 20S 11MS
Pelajar475,810001474,GIIS,TuneTalk Challenge,Round 3,N,N,N,N,N,N,N,N,00H 01M 20S 11MS
Pelajar476,810001475,GIIS,TuneTalk Challenge,Round 3,N,N,N,N,N,N,N,N,00H 01M 20S 11MS
Pelajar477,810001476,GIIS,TuneTalk Challenge,Round 3,N,N,N,N,N,N,N,N,00H 01M 20S 11MS
Pelajar478,810001477,GIIS,TuneTalk Challenge,Round 3,N,N,N,N,N,N,N,N,00H 01M 20S 11MS
Pelajar479,810001478,GIIS,TuneTalk Challenge,Round 3,N,N,N,N,N,N,N,N,00H 01M 20S 11MS
Pelajar480,810001479,GIIS,TuneTalk Challenge,Round 3,N,N,N,N,N,N,N,N,00H 01M 20S 11MS
Pelajar481,810001480,GIIS,TuneTalk Challenge,Round 3,N,N,N,N,N,N,N,N,00H 01M 20S 11MS
Pelajar482,810001481,GIIS,TuneTalk Challenge,Round 3,N,N,N,N,N,N,N,N,00H 01M 20S 11MS
Pelajar483,810001482,GIIS,TuneTalk Challenge,Round 3,N,N,N,N,N,N,N,N,00H 01M 20S 11MS
Pelajar484,810001483,GIIS,TuneTalk Challenge,Round 3,N,N,N,N,N,N,N,N,00H 01M 20S 11MS
Pelajar485,810001484,GIIS,TuneTalk Challenge,Round 3,N,N,N,N,N,N,N,N,00H 01M 20S 11MS
Pelajar486,810001485,GIIS,TuneTalk Challenge,Round 3,N,N,N,N,N,N,N,N,00H 01M 20S 11MS
Pelajar487,810001486,GIIS,TuneTalk Challenge,Round 3,N,N,N,N,N,N,N,N,00H 01M 20S 11MS
Pelajar488,810001487,GIIS,TuneTalk Challenge,Round 3,N,N,N,N,N,N,N,N,00H 01M 20S 11MS
Pelajar489,810001488,GIIS,TuneTalk Challenge,Round 3,N,N,N,N,N,N,N,N,00H 01M 20S 11MS
Pelajar490,810001489,GIIS,TuneTalk Challenge,Round 3,N,N,N,N,N,N,N,N,00H 01M 20S 11MS
Pelajar491,810001490,GIIS,TuneTalk Challenge,Round 3,N,N,N,N,N,N,N,N,00H 01M 20S 11MS
Pelajar492,810001491,GIIS,TuneTalk Challenge,Round 3,N,N,N,N,N,N,N,N,00H 01M 20S 11MS
Pelajar493,810001492,GIIS,TuneTalk Challenge,Round 3,N,N,N,N,N,N,N,N,00H 01M 20S 11MS
Pelajar494,810001493,GIIS,TuneTalk Challenge,Round 3,N,N,N,N,N,N,N,N,00H 01M 20S 11MS
Pelajar495,810001494,GIIS,TuneTalk Challenge,Round 3,N,N,N,N,N,N,N,N,00H 01M 20S 11MS
Pelajar496,810001495,GIIS,TuneTalk Challenge,Round 3,N,N,N,N,N,N,N,N,00H 01M 20S 11MS
Pelajar497,810001496,GIIS,TuneTalk Challenge,Round 3,N,N,N,N,N,N,N,N,00H 01M 20S 11MS
Pelajar498,810001497,GIIS,TuneTalk Challenge,Round 3,N,N,N,N,N,N,N,N,00H 01M 20S 11MS
Pelajar499,810001498,GIIS,TuneTalk Challenge,Round 3,N,N,N,N,N,N,N,N,00H 01M 20S 11MS
Pelajar500,810001499,GIIS,TuneTalk Challenge,Round 3,N,N,N,N,N,N,N,N,00H 01M 20S 11MS
Pelajar501,810001500,GIIS,TuneTalk Challenge,Round 3,N,N,N,N,N,N,N,N,00H 01M 20S 11MS
Pelajar502,810001501,GIIS,TuneTalk Challenge,Round 3,N,N,N,N,N,N,N,N,00H 01M 20S 11MS
Pelajar503,810001502,GIIS,TuneTalk Challenge,Round 3,N,N,N,N,N,N,N,N,00H 01M 20S 11MS
Pelajar504,810001503,GIIS,TuneTalk Challenge,Round 3,N,N,N,N,N,N,N,N,00H 01M 20S 11MS
Pelajar505,810001504,GIIS,TuneTalk Challenge,Round 3,N,N,N,N,N,N,N,N,00H 01M 20S 11MS
Pelajar506,810001505,GIIS,TuneTalk Challenge,Round 3,N,N,N,N,N,N,N,N,00H 01M 20S 11MS
Pelajar507,810001506,GIIS,TuneTalk Challenge,Round 3,N,N,N,N,N,N,N,N,00H 01M 20S 11MS
Pelajar508,810001507,GIIS,TuneTalk Challenge,Round 3,N,N,N,N,N,N,N,N,00H 01M 20S 11MS
Pelajar509,810001508,GIIS,TuneTalk Challenge,Round 3,N,N,N,N,N,N,N,N,00H 01M 20S 11MS
Pelajar510,810001509,GIIS,TuneTalk Challenge,Round 3,N,N,N,N,N,N,N,N,00H 01M 20S 11MS
Pelajar511,810001510,GIIS,TuneTalk Challenge,Round 3,N,N,N,N,N,N,N,N,00H 01M 20S 11MS
Pelajar512,810001511,GIIS,TuneTalk Challenge,Round 3,N,N,N,N,N,N,N,N,00H 01M 20S 11MS
Pelajar513,810001512,GIIS,TuneTalk Challenge,Round 3,N,N,N,N,N,N,N,N,00H 01M 20S 11MS
Pelajar514,810001513,GIIS,TuneTalk Challenge,Round 3,N,N,N,N,N,N,N,N,00H 01M 20S 11MS
Pelajar515,810001514,GIIS,TuneTalk Challenge,Round 3,N,N,N,N,N,N,N,N,00H 01M 20S 11MS
Pelajar516,810001515,GIIS,TuneTalk Challenge,Round 3,N,N,N,N,N,N,N,N,00H 01M 20S 11MS
Pelajar517,810001516,GIIS,TuneTalk Challenge,Round 3,N,N,N,N,N,N,N,N,00H 01M 20S 11MS
Pelajar518,810001517,GIIS,TuneTalk Challenge,Round 3,N,N,N,N,N,N,N,N,00H 01M 20S 11MS
Pelajar519,810001518,GIIS,TuneTalk Challenge,Round 3,N,N,N,N,N,N,N,N,00H 01M 20S 11MS
Pelajar520,810001519,GIIS,TuneTalk Challenge,Round 3,N,N,N,N,N,N,N,N,00H 01M 20S 11MS
Pelajar521,810001520,GIIS,TuneTalk Challenge,Round 3,N,N,N,N,N,N,N,N,00H 01M 20S 11MS
Pelajar522,810001521,GIIS,TuneTalk Challenge,Round 3,N,N,N,N,N,N,N,N,00H 01M 20S 11MS
Pelajar523,810001522,GIIS,TuneTalk Challenge,Round 3,N,N,N,N,N,N,N,N,00H 01M 20S 11MS
Pelajar524,810001523,GIIS,TuneTalk Challenge,Round 3,N,N,N,N,N,N,N,N,00H 01M 20S 11MS
Pelajar525,810001524,GIIS,TuneTalk Challenge,Round 3,N,N,N,N,N,N,N,N,00H 01M 20S 11MS
Pelajar526,810001525,GIIS,TuneTalk Challenge,Round 3,N,N,N,N,N,N,N,N,00H 01M 20S 11MS
Pelajar527,810001526,GIIS,TuneTalk Challenge,Round 3,N,N,N,N,N,N,N,N,00H 01M 20S 11MS
Pelajar528,810001527,GIIS,TuneTalk Challenge,Round 3,N,N,N,N,N,N,N,N,00H 01M 20S 11MS
Pelajar529,810001528,GIIS,TuneTalk Challenge,Round 3,N,N,N,N,N,N,N,N,00H 01M 20S 11MS
Pelajar530,810001529,GIIS,TuneTalk Challenge,Round 3,N,N,N,N,N,N,N,N,00H 01M 20S 11MS
Pelajar531,810001530,GIIS,TuneTalk Challenge,Round 3,N,N,N,N,N,N,N,N,00H 01M 20S 11MS
Pelajar532,810001531,GIIS,TuneTalk Challenge,Round 3,N,N,N,N,N,N,N,N,00H 01M 20S 11MS
Pelajar533,810001532,GIIS,TuneTalk Challenge,Round 3,N,N,N,N,N,N,N,N,00H 01M 20S 11MS
Pelajar534,810001533,GIIS,TuneTalk Challenge,Round 3,N,N,N,N,N,N,N,N,00H 01M 20S 11MS
Pelajar535,810001534,GIIS,TuneTalk Challenge,Round 3,N,N,N,N,N,N,N,N,00H 01M 20S 11MS
Pelajar536,810001535,GIIS,TuneTalk Challenge,Round 3,N,N,N,N,N,N,N,N,00H 01M 20S 11MS
Pelajar537,810001536,GIIS,TuneTalk Challenge,Round 3,N,N,N,N,N,N,N,N,00H 01M 20S 11MS
Pelajar538,810001537,GIIS,TuneTalk Challenge,Round 3,N,N,N,N,N,N,N,N,00H 01M 20S 11MS
Pelajar539,810001538,GIIS,TuneTalk Challenge,Round 3,N,N,N,N,N,N,N,N,00H 01M 20S 11MS
Pelajar540,810001539,GIIS,TuneTalk Challenge,Round 3,N,N,N,N,N,N,N,N,00H 01M 20S 11MS
Pelajar541,810001540,GIIS,TuneTalk Challenge,Round 3,N,N,N,N,N,N,N,N,00H 01M 20S 11MS
Pelajar542,810001541,GIIS,TuneTalk Challenge,Round 3,N,N,N,N,N,N,N,N,00H 01M 20S 11MS
Pelajar543,810001542,GIIS,TuneTalk Challenge,Round 3,N,N,N,N,N,N,N,N,00H 01M 20S 11MS
Pelajar544,810001543,GIIS,TuneTalk Challenge,Round 3,N,N,N,N,N,N,N,N,00H 01M 20S 11MS
Pelajar545,810001544,GIIS,TuneTalk Challenge,Round 3,N,N,N,N,N,N,N,N,00H 01M 20S 11MS
Pelajar546,810001545,GIIS,TuneTalk Challenge,Round 3,N,N,N,N,N,N,N,N,00H 01M 20S 11MS
Pelajar547,810001546,GIIS,TuneTalk Challenge,Round 3,N,N,N,N,N,N,N,N,00H 01M 20S 11MS
Pelajar548,810001547,GIIS,TuneTalk Challenge,Round 3,N,N,N,N,N,N,N,N,00H 01M 20S 11MS
Pelajar549,810001548,GIIS,TuneTalk Challenge,Round 3,N,N,N,N,N,N,N,N,00H 01M 20S 11MS
Pelajar550,810001549,GIIS,TuneTalk Challenge,Round 3,N,N,N,N,N,N,N,N,00H 01M 20S 11MS
Pelajar551,810001550,GIIS,TuneTalk Challenge,Round 3,N,N,N,N,N,N,N,N,00H 01M 20S 11MS
Pelajar552,810001551,GIIS,TuneTalk Challenge,Round 3,N,N,N,N,N,N,N,N,00H 01M 20S 11MS
Pelajar553,810001552,GIIS,TuneTalk Challenge,Round 3,N,N,N,N,N,N,N,N,00H 01M 20S 11MS
Pelajar554,810001553,GIIS,TuneTalk Challenge,Round 3,N,N,N,N,N,N,N,N,00H 01M 20S 11MS
Pelajar555,810001554,GIIS,TuneTalk Challenge,Round 3,N,N,N,N,N,N,N,N,00H 01M 20S 11MS
Pelajar556,810001555,GIIS,TuneTalk Challenge,Round 3,N,N,N,N,N,N,N,N,00H 01M 20S 11MS
Pelajar557,810001556,GIIS,TuneTalk Challenge,Round 3,N,N,N,N,N,N,N,N,00H 01M 20S 11MS
Pelajar558,810001557,GIIS,TuneTalk Challenge,Round 3,N,N,N,N,N,N,N,N,00H 01M 20S 11MS
Pelajar559,810001558,GIIS,TuneTalk Challenge,Round 3,N,N,N,N,N,N,N,N,00H 01M 20S 11MS
Pelajar560,810001559,GIIS,TuneTalk Challenge,Round 3,N,N,N,N,N,N,N,N,00H 01M 20S 11MS
Pelajar561,810001560,GIIS,TuneTalk Challenge,Round 3,N,N,N,N,N,N,N,N,00H 01M 20S 11MS
Pelajar562,810001561,GIIS,TuneTalk Challenge,Round 3,N,N,N,N,N,N,N,N,00H 01M 20S 11MS
Pelajar563,810001562,GIIS,TuneTalk Challenge,Round 3,N,N,N,N,N,N,N,N,00H 01M 20S 11MS
Pelajar564,810001563,GIIS,TuneTalk Challenge,Round 3,N,N,N,N,N,N,N,N,00H 01M 20S 11MS
Pelajar565,810001564,GIIS,TuneTalk Challenge,Round 3,N,N,N,N,N,N,N,N,00H 01M 20S 11MS
Pelajar566,810001565,GIIS,TuneTalk Challenge,Round 3,N,N,N,N,N,N,N,N,00H 01M 20S 11MS
Pelajar567,810001566,GIIS,TuneTalk Challenge,Round 3,N,N,N,N,N,N,N,N,00H 01M 20S 11MS
Pelajar568,810001567,GIIS,TuneTalk Challenge,Round 3,N,N,N,N,N,N,N,N,00H 01M 20S 11MS
Pelajar569,810001568,GIIS,TuneTalk Challenge,Round 3,N,N,N,N,N,N,N,N,00H 01M 20S 11MS
Pelajar570,810001569,GIIS,TuneTalk Challenge,Round 3,N,N,N,N,N,N,N,N,00H 01M 20S 11MS
Pelajar571,810001570,GIIS,TuneTalk Challenge,Round 3,N,N,N,N,N,N,N,N,00H 01M 20S 11MS
Pelajar572,810001571,GIIS,TuneTalk Challenge,Round 3,N,N,N,N,N,N,N,N,00H 01M 20S 11MS
Pelajar573,810001572,GIIS,TuneTalk Challenge,Round 3,N,N,N,N,N,N,N,N,00H 01M 20S 11MS
Pelajar574,810001573,GIIS,TuneTalk Challenge,Round 3,N,N,N,N,N,N,N,N,00H 01M 20S 11MS
Pelajar575,810001574,GIIS,TuneTalk Challenge,Round 3,N,N,N,N,N,N,N,N,00H 01M 20S 11MS
Pelajar576,810001575,GIIS,TuneTalk Challenge,Round 3,N,N,N,N,N,N,N,N,00H 01M 20S 11MS
Pelajar577,810001576,GIIS,TuneTalk Challenge,Round 3,N,N,N,N,N,N,N,N,00H 01M 20S 11MS
Pelajar578,810001577,GIIS,TuneTalk Challenge,Round 3,N,N,N,N,N,N,N,N,00H 01M 20S 11MS
Pelajar579,810001578,GIIS,TuneTalk Challenge,Round 3,N,N,N,N,N,N,N,N,00H 01M 20S 11MS
Pelajar580,810001579,GIIS,TuneTalk Challenge,Round 3,N,N,N,N,N,N,N,N,00H 01M 20S 11MS
Pelajar581,810001580,GIIS,TuneTalk Challenge,Round 3,N,N,N,N,N,N,N,N,00H 01M 20S 11MS
Pelajar582,810001581,GIIS,TuneTalk Challenge,Round 3,N,N,N,N,N,N,N,N,00H 01M 20S 11MS
Pelajar583,810001582,GIIS,TuneTalk Challenge,Round 3,N,N,N,N,N,N,N,N,00H 01M 20S 11MS
Pelajar584,810001583,GIIS,TuneTalk Challenge,Round 3,N,N,N,N,N,N,N,N,00H 01M 20S 11MS
Pelajar585,810001584,GIIS,TuneTalk Challenge,Round 3,N,N,N,N,N,N,N,N,00H 01M 20S 11MS
Pelajar586,810001585,GIIS,TuneTalk Challenge,Round 3,N,N,N,N,N,N,N,N,00H 01M 20S 11MS
Pelajar587,810001586,GIIS,TuneTalk Challenge,Round 3,N,N,N,N,N,N,N,N,00H 01M 20S 11MS
Pelajar588,810001587,GIIS,TuneTalk Challenge,Round 3,N,N,N,N,N,N,N,N,00H 01M 20S 11MS
Pelajar589,810001588,GIIS,TuneTalk Challenge,Round 3,N,N,N,N,N,N,N,N,00H 01M 20S 11MS
Pelajar590,810001589,GIIS,TuneTalk Challenge,Round 3,N,N,N,N,N,N,N,N,00H 01M 20S 11MS
Pelajar591,810001590,GIIS,TuneTalk Challenge,Round 3,N,N,N,N,N,N,N,N,00H 01M 20S 11MS
Pelajar592,810001591,GIIS,TuneTalk Challenge,Round 3,N,N,N,N,N,N,N,N,00H 01M 20S 11MS
Pelajar593,810001592,GIIS,TuneTalk Challenge,Round 3,N,N,N,N,N,N,N,N,00H 01M 20S 11MS
Pelajar594,810001593,GIIS,TuneTalk Challenge,Round 3,N,N,N,N,N,N,N,N,00H 01M 20S 11MS
Pelajar595,810001594,GIIS,TuneTalk Challenge,Round 3,N,N,N,N,N,N,N,N,00H 01M 20S 11MS
Pelajar596,810001595,GIIS,TuneTalk Challenge,Round 3,N,N,N,N,N,N,N,N,00H 01M 20S 11MS
Pelajar597,810001596,GIIS,TuneTalk Challenge,Round 3,N,N,N,N,N,N,N,N,00H 01M 20S 11MS
Pelajar598,810001597,GIIS,TuneTalk Challenge,Round 3,N,N,N,N,N,N,N,N,00H 01M 20S 11MS
Pelajar599,810001598,GIIS,TuneTalk Challenge,Round 3,N,N,N,N,N,N,N,N,00H 01M 20S 11MS
Pelajar600,810001599,GIIS,TuneTalk Challenge,Round 3,N,N,N,N,N,N,N,N,00H 01M 20S 11MS
Pelajar601,810001600,GIIS,TuneTalk Challenge,Round 3,N,N,N,N,N,N,N,N,00H 01M 20S 11MS
Pelajar602,810001601,GIIS,TuneTalk Challenge,Round 3,N,N,N,N,N,N,N,N,00H 01M 20S 11MS
Pelajar603,810001602,GIIS,TuneTalk Challenge,Round 3,N,N,N,N,N,N,N,N,00H 01M 20S 11MS
Pelajar604,810001603,GIIS,TuneTalk Challenge,Round 3,N,N,N,N,N,N,N,N,00H 01M 20S 11MS
Pelajar605,810001604,GIIS,TuneTalk Challenge,Round 3,N,N,N,N,N,N,N,N,00H 01M 20S 11MS
Pelajar606,810001605,GIIS,TuneTalk Challenge,Round 3,N,N,N,N,N,N,N,N,00H 01M 20S 11MS
Pelajar607,810001606,GIIS,TuneTalk Challenge,Round 3,N,N,N,N,N,N,N,N,00H 01M 20S 11MS
Pelajar608,810001607,GIIS,TuneTalk Challenge,Round 3,N,N,N,N,N,N,N,N,00H 01M 20S 11MS
Pelajar609,810001608,GIIS,TuneTalk Challenge,Round 3,N,N,N,N,N,N,N,N,00H 01M 20S 11MS
Pelajar610,810001609,GIIS,TuneTalk Challenge,Round 3,N,N,N,N,N,N,N,N,00H 01M 20S 11MS
Pelajar611,810001610,GIIS,TuneTalk Challenge,Round 3,N,N,N,N,N,N,N,N,00H 01M 20S 11MS
Pelajar612,810001611,GIIS,TuneTalk Challenge,Round 3,N,N,N,N,N,N,N,N,00H 01M 20S 11MS
Pelajar613,810001612,GIIS,TuneTalk Challenge,Round 3,N,N,N,N,N,N,N,N,00H 01M 20S 11MS
Pelajar614,810001613,GIIS,TuneTalk Challenge,Round 3,N,N,N,N,N,N,N,N,00H 01M 20S 11MS
Pelajar615,810001614,GIIS,TuneTalk Challenge,Round 3,N,N,N,N,N,N,N,N,00H 01M 20S 11MS
Pelajar616,810001615,GIIS,TuneTalk Challenge,Round 3,N,N,N,N,N,N,N,N,00H 01M 20S 11MS
Pelajar617,810001616,GIIS,TuneTalk Challenge,Round 3,N,N,N,N,N,N,N,N,00H 01M 20S 11MS
Pelajar618,810001617,GIIS,TuneTalk Challenge,Round 3,N,N,N,N,N,N,N,N,00H 01M 20S 11MS
Pelajar619,810001618,GIIS,TuneTalk Challenge,Round 3,N,N,N,N,N,N,N,N,00H 01M 20S 11MS
Pelajar620,810001619,GIIS,TuneTalk Challenge,Round 3,N,N,N,N,N,N,N,N,00H 01M 20S 11MS
Pelajar621,810001620,GIIS,TuneTalk Challenge,Round 3,N,N,N,N,N,N,N,N,00H 01M 20S 11MS
Pelajar622,810001621,GIIS,TuneTalk Challenge,Round 3,N,N,N,N,N,N,N,N,00H 01M 20S 11MS
Pelajar623,810001622,GIIS,TuneTalk Challenge,Round 3,N,N,N,N,N,N,N,N,00H 01M 20S 11MS
Pelajar624,810001623,GIIS,TuneTalk Challenge,Round 3,N,N,N,N,N,N,N,N,00H 01M 20S 11MS
Pelajar625,810001624,GIIS,TuneTalk Challenge,Round 3,N,N,N,N,N,N,N,N,00H 01M 20S 11MS
Pelajar626,810001625,GIIS,TuneTalk Challenge,Round 3,N,N,N,N,N,N,N,N,00H 01M 20S 11MS
Pelajar627,810001626,GIIS,TuneTalk Challenge,Round 3,N,N,N,N,N,N,N,N,00H 01M 20S 11MS
Pelajar628,810001627,GIIS,TuneTalk Challenge,Round 3,N,N,N,N,N,N,N,N,00H 01M 20S 11MS
Pelajar629,810001628,GIIS,TuneTalk Challenge,Round 3,N,N,N,N,N,N,N,N,00H 01M 20S 11MS
Pelajar630,810001629,GIIS,TuneTalk Challenge,Round 3,N,N,N,N,N,N,N,N,00H 01M 20S 11MS
Pelajar631,810001630,GIIS,TuneTalk Challenge,Round 3,N,N,N,N,N,N,N,N,00H 01M 20S 11MS
Pelajar632,810001631,GIIS,TuneTalk Challenge,Round 3,N,N,N,N,N,N,N,N,00H 01M 20S 11MS
Pelajar633,810001632,GIIS,TuneTalk Challenge,Round 3,N,N,N,N,N,N,N,N,00H 01M 20S 11MS
Pelajar634,810001633,GIIS,TuneTalk Challenge,Round 3,N,N,N,N,N,N,N,N,00H 01M 20S 11MS
Pelajar635,810001634,GIIS,TuneTalk Challenge,Round 3,N,N,N,N,N,N,N,N,00H 01M 20S 11MS
Pelajar636,810001635,GIIS,TuneTalk Challenge,Round 3,N,N,N,N,N,N,N,N,00H 01M 20S 11MS
Pelajar637,810001636,GIIS,TuneTalk Challenge,Round 3,N,N,N,N,N,N,N,N,00H 01M 20S 11MS
Pelajar638,810001637,GIIS,TuneTalk Challenge,Round 3,N,N,N,N,N,N,N,N,00H 01M 20S 11MS
Pelajar639,810001638,GIIS,TuneTalk Challenge,Round 3,N,N,N,N,N,N,N,N,00H 01M 20S 11MS
Pelajar640,810001639,GIIS,TuneTalk Challenge,Round 3,N,N,N,N,N,N,N,N,00H 01M 20S 11MS
Pelajar641,810001640,GIIS,TuneTalk Challenge,Round 3,N,N,N,N,N,N,N,N,00H 01M 20S 11MS
Pelajar642,810001641,GIIS,TuneTalk Challenge,Round 3,N,N,N,N,N,N,N,N,00H 01M 20S 11MS
Pelajar643,810001642,GIIS,TuneTalk Challenge,Round 3,N,N,N,N,N,N,N,N,00H 01M 20S 11MS
Pelajar644,810001643,GIIS,TuneTalk Challenge,Round 3,N,N,N,N,N,N,N,N,00H 01M 20S 11MS
Pelajar645,810001644,GIIS,TuneTalk Challenge,Round 3,N,N,N,N,N,N,N,N,00H 01M 20S 11MS
Pelajar646,810001645,GIIS,TuneTalk Challenge,Round 3,N,N,N,N,N,N,N,N,00H 01M 20S 11MS
Pelajar647,810001646,GIIS,TuneTalk Challenge,Round 3,N,N,N,N,N,N,N,N,00H 01M 20S 11MS
Pelajar648,810001647,GIIS,TuneTalk Challenge,Round 3,N,N,N,N,N,N,N,N,00H 01M 20S 11MS
Pelajar649,810001648,GIIS,TuneTalk Challenge,Round 3,N,N,N,N,N,N,N,N,00H 01M 20S 11MS
Pelajar650,810001649,GIIS,TuneTalk Challenge,Round 3,N,N,N,N,N,N,N,N,00H 01M 20S 11MS
Pelajar651,810001650,GIIS,TuneTalk Challenge,Round 3,N,N,N,N,N,N,N,N,00H 01M 20S 11MS
Pelajar652,810001651,GIIS,TuneTalk Challenge,Round 3,N,N,N,N,N,N,N,N,00H 01M 20S 11MS
Pelajar653,810001652,GIIS,TuneTalk Challenge,Round 3,N,N,N,N,N,N,N,N,00H 01M 20S 11MS
Pelajar654,810001653,GIIS,TuneTalk Challenge,Round 3,N,N,N,N,N,N,N,N,00H 01M 20S 11MS
Pelajar655,810001654,GIIS,TuneTalk Challenge,Round 3,N,N,N,N,N,N,N,N,00H 01M 20S 11MS
Pelajar656,810001655,GIIS,TuneTalk Challenge,Round 3,N,N,N,N,N,N,N,N,00H 01M 20S 11MS
Pelajar657,810001656,GIIS,TuneTalk Challenge,Round 3,N,N,N,N,N,N,N,N,00H 01M 20S 11MS
Pelajar658,810001657,GIIS,TuneTalk Challenge,Round 3,N,N,N,N,N,N,N,N,00H 01M 20S 11MS
Pelajar659,810001658,GIIS,TuneTalk Challenge,Round 3,N,N,N,N,N,N,N,N,00H 01M 20S 11MS
Pelajar660,810001659,GIIS,TuneTalk Challenge,Round 3,N,N,N,N,N,N,N,N,00H 01M 20S 11MS
Pelajar661,810001660,GIIS,TuneTalk Challenge,Round 3,N,N,N,N,N,N,N,N,00H 01M 20S 11MS
Pelajar662,810001661,GIIS,TuneTalk Challenge,Round 3,N,N,N,N,N,N,N,N,00H 01M 20S 11MS
Pelajar663,810001662,GIIS,TuneTalk Challenge,Round 3,N,N,N,N,N,N,N,N,00H 01M 20S 11MS
Pelajar664,810001663,GIIS,TuneTalk Challenge,Round 3,N,N,N,N,N,N,N,N,00H 01M 20S 11MS
Pelajar665,810001664,GIIS,TuneTalk Challenge,Round 3,N,N,N,N,N,N,N,N,00H 01M 20S 11MS
Pelajar666,810001665,GIIS,TuneTalk Challenge,Round 3,N,N,N,N,N,N,N,N,00H 01M 20S 11MS
Pelajar667,810001666,GIIS,TuneTalk Challenge,Round 3,N,N,N,N,N,N,N,N,00H 01M 20S 11MS
Pelajar668,810001667,GIIS,TuneTalk Challenge,Round 3,N,N,N,N,N,N,N,N,00H 01M 20S 11MS
Pelajar669,810001668,GIIS,TuneTalk Challenge,Round 3,N,N,N,N,N,N,N,N,00H 01M 20S 11MS
Pelajar670,810001669,GIIS,TuneTalk Challenge,Round 3,N,N,N,N,N,N,N,N,00H 01M 20S 11MS
Pelajar671,810001670,GIIS,TuneTalk Challenge,Round 3,N,N,N,N,N,N,N,N,00H 01M 20S 11MS
Pelajar672,810001671,GIIS,TuneTalk Challenge,Round 3,N,N,N,N,N,N,N,N,00H 01M 20S 11MS
Pelajar673,810001672,GIIS,TuneTalk Challenge,Round 3,N,N,N,N,N,N,N,N,00H 01M 20S 11MS
Pelajar674,810001673,GIIS,TuneTalk Challenge,Round 3,N,N,N,N,N,N,N,N,00H 01M 20S 11MS
Pelajar675,810001674,GIIS,TuneTalk Challenge,Round 3,N,N,N,N,N,N,N,N,00H 01M 20S 11MS
Pelajar676,810001675,GIIS,TuneTalk Challenge,Round 3,N,N,N,N,N,N,N,N,00H 01M 20S 11MS
Pelajar677,810001676,GIIS,TuneTalk Challenge,Round 3,N,N,N,N,N,N,N,N,00H 01M 20S 11MS
Pelajar678,810001677,GIIS,TuneTalk Challenge,Round 3,N,N,N,N,N,N,N,N,00H 01M 20S 11MS
Pelajar679,810001678,GIIS,TuneTalk Challenge,Round 3,N,N,N,N,N,N,N,N,00H 01M 20S 11MS
Pelajar680,810001679,GIIS,TuneTalk Challenge,Round 3,N,N,N,N,N,N,N,N,00H 01M 20S 11MS
Pelajar681,810001680,GIIS,TuneTalk Challenge,Round 3,N,N,N,N,N,N,N,N,00H 01M 20S 11MS
Pelajar682,810001681,GIIS,TuneTalk Challenge,Round 3,N,N,N,N,N,N,N,N,00H 01M 20S 11MS
Pelajar683,810001682,GIIS,TuneTalk Challenge,Round 3,N,N,N,N,N,N,N,N,00H 01M 20S 11MS
Pelajar684,810001683,GIIS,TuneTalk Challenge,Round 3,N,N,N,N,N,N,N,N,00H 01M 20S 11MS
Pelajar685,810001684,GIIS,TuneTalk Challenge,Round 3,N,N,N,N,N,N,N,N,00H 01M 20S 11MS
Pelajar686,810001685,GIIS,TuneTalk Challenge,Round 3,N,N,N,N,N,N,N,N,00H 01M 20S 11MS
Pelajar687,810001686,GIIS,TuneTalk Challenge,Round 3,N,N,N,N,N,N,N,N,00H 01M 20S 11MS
Pelajar688,810001687,GIIS,TuneTalk Challenge,Round 3,N,N,N,N,N,N,N,N,00H 01M 20S 11MS
Pelajar689,810001688,GIIS,TuneTalk Challenge,Round 3,N,N,N,N,N,N,N,N,00H 01M 20S 11MS
Pelajar690,810001689,GIIS,TuneTalk Challenge,Round 3,N,N,N,N,N,N,N,N,00H 01M 20S 11MS
Pelajar691,810001690,GIIS,TuneTalk Challenge,Round 3,N,N,N,N,N,N,N,N,00H 01M 20S 11MS
Pelajar692,810001691,GIIS,TuneTalk Challenge,Round 3,N,N,N,N,N,N,N,N,00H 01M 20S 11MS
Pelajar693,810001692,GIIS,TuneTalk Challenge,Round 3,N,N,N,N,N,N,N,N,00H 01M 20S 11MS
Pelajar694,810001693,GIIS,TuneTalk Challenge,Round 3,N,N,N,N,N,N,N,N,00H 01M 20S 11MS
Pelajar695,810001694,GIIS,TuneTalk Challenge,Round 3,N,N,N,N,N,N,N,N,00H 01M 20S 11MS
Pelajar696,810001695,GIIS,TuneTalk Challenge,Round 3,N,N,N,N,N,N,N,N,00H 01M 20S 11MS
Pelajar697,810001696,GIIS,TuneTalk Challenge,Round 3,N,N,N,N,N,N,N,N,00H 01M 20S 11MS
Pelajar698,810001697,GIIS,TuneTalk Challenge,Round 3,N,N,N,N,N,N,N,N,00H 01M 20S 11MS
Pelajar699,810001698,GIIS,TuneTalk Challenge,Round 3,N,N,N,N,N,N,N,N,00H 01M 20S 11MS
Pelajar700,810001699,GIIS,TuneTalk Challenge,Round 3,N,N,N,N,N,N,N,N,00H 01M 20S 11MS
Pelajar701,810001700,GIIS,TuneTalk Challenge,Round 3,N,N,N,N,N,N,N,N,00H 01M 20S 11MS
Pelajar702,810001701,GIIS,TuneTalk Challenge,Round 3,N,N,N,N,N,N,N,N,00H 01M 20S 11MS
Pelajar703,810001702,GIIS,TuneTalk Challenge,Round 3,N,N,N,N,N,N,N,N,00H 01M 20S 11MS
Pelajar704,810001703,GIIS,TuneTalk Challenge,Round 3,N,N,N,N,N,N,N,N,00H 01M 20S 11MS
Pelajar705,810001704,GIIS,TuneTalk Challenge,Round 3,N,N,N,N,N,N,N,N,00H 01M 20S 11MS
Pelajar706,810001705,GIIS,TuneTalk Challenge,Round 3,N,N,N,N,N,N,N,N,00H 01M 20S 11MS
Pelajar707,810001706,GIIS,TuneTalk Challenge,Round 3,N,N,N,N,N,N,N,N,00H 01M 20S 11MS
Pelajar708,810001707,GIIS,TuneTalk Challenge,Round 3,N,N,N,N,N,N,N,N,00H 01M 20S 11MS
Pelajar709,810001708,GIIS,TuneTalk Challenge,Round 3,N,N,N,N,N,N,N,N,00H 01M 20S 11MS
Pelajar710,810001709,GIIS,TuneTalk Challenge,Round 3,N,N,N,N,N,N,N,N,00H 01M 20S 11MS
Pelajar711,810001710,GIIS,TuneTalk Challenge,Round 3,N,N,N,N,N,N,N,N,00H 01M 20S 11MS
Pelajar712,810001711,GIIS,TuneTalk Challenge,Round 3,N,N,N,N,N,N,N,N,00H 01M 20S 11MS
Pelajar713,810001712,GIIS,TuneTalk Challenge,Round 3,N,N,N,N,N,N,N,N,00H 01M 20S 11MS
Pelajar714,810001713,GIIS,TuneTalk Challenge,Round 3,N,N,N,N,N,N,N,N,00H 01M 20S 11MS
Pelajar715,810001714,GIIS,TuneTalk Challenge,Round 3,N,N,N,N,N,N,N,N,00H 01M 20S 11MS
Pelajar716,810001715,GIIS,TuneTalk Challenge,Round 3,N,N,N,N,N,N,N,N,00H 01M 20S 11MS
Pelajar717,810001716,GIIS,TuneTalk Challenge,Round 3,N,N,N,N,N,N,N,N,00H 01M 20S 11MS
Pelajar718,810001717,GIIS,TuneTalk Challenge,Round 3,N,N,N,N,N,N,N,N,00H 01M 20S 11MS
Pelajar719,810001718,GIIS,TuneTalk Challenge,Round 3,N,N,N,N,N,N,N,N,00H 01M 20S 11MS
Pelajar720,810001719,GIIS,TuneTalk Challenge,Round 3,N,N,N,N,N,N,N,N,00H 01M 20S 11MS
Pelajar721,810001720,GIIS,TuneTalk Challenge,Round 3,N,N,N,N,N,N,N,N,00H 01M 20S 11MS
Pelajar722,810001721,GIIS,TuneTalk Challenge,Round 3,N,N,N,N,N,N,N,N,00H 01M 20S 11MS
Pelajar723,810001722,GIIS,TuneTalk Challenge,Round 3,N,N,N,N,N,N,N,N,00H 01M 20S 11MS
Pelajar724,810001723,GIIS,TuneTalk Challenge,Round 3,N,N,N,N,N,N,N,N,00H 01M 20S 11MS
Pelajar725,810001724,GIIS,TuneTalk Challenge,Round 3,N,N,N,N,N,N,N,N,00H 01M 20S 11MS
Pelajar726,810001725,GIIS,TuneTalk Challenge,Round 3,N,N,N,N,N,N,N,N,00H 01M 20S 11MS
Pelajar727,810001726,GIIS,TuneTalk Challenge,Round 3,N,N,N,N,N,N,N,N,00H 01M 20S 11MS
Pelajar728,810001727,GIIS,TuneTalk Challenge,Round 3,N,N,N,N,N,N,N,N,00H 01M 20S 11MS
Pelajar729,810001728,GIIS,TuneTalk Challenge,Round 3,N,N,N,N,N,N,N,N,00H 01M 20S 11MS
Pelajar730,810001729,GIIS,TuneTalk Challenge,Round 3,N,N,N,N,N,N,N,N,00H 01M 20S 11MS
Pelajar731,810001730,GIIS,TuneTalk Challenge,Round 3,N,N,N,N,N,N,N,N,00H 01M 20S 11MS
Pelajar732,810001731,GIIS,TuneTalk Challenge,Round 3,N,N,N,N,N,N,N,N,00H 01M 20S 11MS
Pelajar733,810001732,GIIS,TuneTalk Challenge,Round 3,N,N,N,N,N,N,N,N,00H 01M 20S 11MS
Pelajar734,810001733,GIIS,TuneTalk Challenge,Round 3,N,N,N,N,N,N,N,N,00H 01M 20S 11MS
Pelajar735,810001734,GIIS,TuneTalk Challenge,Round 3,N,N,N,N,N,N,N,N,00H 01M 20S 11MS
Pelajar736,810001735,GIIS,TuneTalk Challenge,Round 3,N,N,N,N,N,N,N,N,00H 01M 20S 11MS
Pelajar737,810001736,GIIS,TuneTalk Challenge,Round 3,N,N,N,N,N,N,N,N,00H 01M 20S 11MS
Pelajar738,810001737,GIIS,TuneTalk Challenge,Round 3,N,N,N,N,N,N,N,N,00H 01M 20S 11MS
Pelajar739,810001738,GIIS,TuneTalk Challenge,Round 3,N,N,N,N,N,N,N,N,00H 01M 20S 11MS
Pelajar740,810001739,GIIS,TuneTalk Challenge,Round 3,N,N,N,N,N,N,N,N,00H 01M 20S 11MS
Pelajar741,810001740,GIIS,TuneTalk Challenge,Round 3,N,N,N,N,N,N,N,N,00H 01M 20S 11MS
Pelajar742,810001741,GIIS,TuneTalk Challenge,Round 3,N,N,N,N,N,N,N,N,00H 01M 20S 11MS
Pelajar743,810001742,GIIS,TuneTalk Challenge,Round 3,N,N,N,N,N,N,N,N,00H 01M 20S 11MS
Pelajar744,810001743,GIIS,TuneTalk Challenge,Round 3,N,N,N,N,N,N,N,N,00H 01M 20S 11MS
Pelajar745,810001744,GIIS,TuneTalk Challenge,Round 3,N,N,N,N,N,N,N,N,00H 01M 20S 11MS
Pelajar746,810001745,GIIS,TuneTalk Challenge,Round 3,N,N,N,N,N,N,N,N,00H 01M 20S 11MS
Pelajar747,810001746,GIIS,TuneTalk Challenge,Round 3,N,N,N,N,N,N,N,N,00H 01M 20S 11MS
Pelajar748,810001747,GIIS,TuneTalk Challenge,Round 3,N,N,N,N,N,N,N,N,00H 01M 20S 11MS
Pelajar749,810001748,GIIS,TuneTalk Challenge,Round 3,N,N,N,N,N,N,N,N,00H 01M 20S 11MS
Pelajar750,810001749,GIIS,TuneTalk Challenge,Round 3,N,N,N,N,N,N,N,N,00H 01M 20S 11MS
Pelajar751,810001750,GIIS,TuneTalk Challenge,Round 3,N,N,N,N,N,N,N,N,00H 01M 20S 11MS
Pelajar752,810001751,GIIS,TuneTalk Challenge,Round 3,N,N,N,N,N,N,N,N,00H 01M 20S 11MS
Pelajar753,810001752,GIIS,TuneTalk Challenge,Round 3,N,N,N,N,N,N,N,N,00H 01M 20S 11MS
Pelajar754,810001753,GIIS,TuneTalk Challenge,Round 3,N,N,N,N,N,N,N,N,00H 01M 20S 11MS
Pelajar755,810001754,GIIS,TuneTalk Challenge,Round 3,N,N,N,N,N,N,N,N,00H 01M 20S 11MS
Pelajar756,810001755,GIIS,TuneTalk Challenge,Round 3,N,N,N,N,N,N,N,N,00H 01M 20S 11MS
Pelajar757,810001756,GIIS,TuneTalk Challenge,Round 3,N,N,N,N,N,N,N,N,00H 00M 00S 00MS
Pelajar758,810001757,GIIS,TuneTalk Challenge,Round 3,N,N,N,N,N,N,N,N,00H 00M 00S 00MS
Pelajar759,810001758,GIIS,TuneTalk Challenge,Round 3,N,N,N,N,N,N,N,N,00H 00M 00S 00MS
Pelajar760,810001759,GIIS,TuneTalk Challenge,Round 3,N,N,N,N,N,N,N,N,00H 00M 00S 00MS
Pelajar761,810001760,GIIS,TuneTalk Challenge,Round 3,N,N,N,N,N,N,N,N,00H 00M 00S 00MS
Pelajar762,810001761,GIIS,TuneTalk Challenge,Round 3,N,N,N,N,N,N,N,N,00H 00M 00S 00MS
Pelajar763,810001762,GIIS,TuneTalk Challenge,Round 3,N,N,N,N,N,N,N,N,00H 00M 00S 00MS
Pelajar764,810001763,GIIS,TuneTalk Challenge,Round 3,N,N,N,N,N,N,N,N,00H 00M 00S 00MS
Pelajar765,810001764,GIIS,TuneTalk Challenge,Round 3,N,N,N,N,N,N,N,N,00H 00M 00S 00MS
Pelajar766,810001765,GIIS,TuneTalk Challenge,Round 3,N,N,N,N,N,N,N,N,00H 00M 00S 00MS
Pelajar767,810001766,GIIS,TuneTalk Challenge,Round 3,N,N,N,N,N,N,N,N,00H 00M 00S 00MS
Pelajar768,810001767,GIIS,TuneTalk Challenge,Round 3,N,N,N,N,N,N,N,N,00H 00M 00S 00MS
Pelajar769,810001768,GIIS,TuneTalk Challenge,Round 3,N,N,N,N,N,N,N,N,00H 00M 00S 00MS
Pelajar770,810001769,GIIS,TuneTalk Challenge,Round 3,N,N,N,N,N,N,N,N,00H 00M 00S 00MS
Pelajar771,810001770,GIIS,TuneTalk Challenge,Round 3,N,N,N,N,N,N,N,N,00H 00M 00S 00MS
Pelajar772,810001771,GIIS,TuneTalk Challenge,Round 3,N,N,N,N,N,N,N,N,00H 00M 00S 00MS
Pelajar773,810001772,GIIS,TuneTalk Challenge,Round 3,N,N,N,N,N,N,N,N,00H 00M 00S 00MS
Pelajar774,810001773,GIIS,TuneTalk Challenge,Round 3,N,N,N,N,N,N,N,N,00H 00M 00S 00MS
Pelajar775,810001774,GIIS,TuneTalk Challenge,Round 3,N,N,N,N,N,N,N,N,00H 00M 00S 00MS
Pelajar776,810001775,GIIS,TuneTalk Challenge,Round 3,N,N,N,N,N,N,N,N,00H 00M 00S 00MS
Pelajar777,810001776,GIIS,TuneTalk Challenge,Round 3,N,N,N,N,N,N,N,N,00H 00M 00S 00MS
Pelajar778,810001777,GIIS,TuneTalk Challenge,Round 3,N,N,N,N,N,N,N,N,00H 00M 00S 00MS
Pelajar779,810001778,GIIS,TuneTalk Challenge,Round 3,N,N,N,N,N,N,N,N,00H 00M 00S 00MS
Pelajar780,810001779,GIIS,TuneTalk Challenge,Round 3,N,N,N,N,N,N,N,N,00H 00M 00S 00MS
Pelajar781,810001780,GIIS,TuneTalk Challenge,Round 3,N,N,N,N,N,N,N,N,00H 00M 00S 00MS
Pelajar782,810001781,GIIS,TuneTalk Challenge,Round 3,N,N,N,N,N,N,N,N,00H 00M 00S 00MS
Pelajar783,810001782,GIIS,TuneTalk Challenge,Round 3,N,N,N,N,N,N,N,N,00H 00M 00S 00MS
Pelajar784,810001783,GIIS,TuneTalk Challenge,Round 3,N,N,N,N,N,N,N,N,00H 00M 00S 00MS
Pelajar785,810001784,GIIS,TuneTalk Challenge,Round 3,N,N,N,N,N,N,N,N,00H 00M 00S 00MS
Pelajar786,810001785,GIIS,TuneTalk Challenge,Round 3,N,N,N,N,N,N,N,N,00H 00M 00S 00MS
Pelajar787,810001786,GIIS,TuneTalk Challenge,Round 3,N,N,N,N,N,N,N,N,00H 00M 00S 00MS
Pelajar788,810001787,GIIS,TuneTalk Challenge,Round 3,N,N,N,N,N,N,N,N,00H 00M 00S 00MS
Pelajar789,810001788,GIIS,TuneTalk Challenge,Round 3,N,N,N,N,N,N,N,N,00H 00M 00S 00MS
Pelajar790,810001789,GIIS,TuneTalk Challenge,Round 3,N,N,N,N,N,N,N,N,00H 00M 00S 00MS
Pelajar791,810001790,GIIS,TuneTalk Challenge,Round 3,N,N,N,N,N,N,N,N,00H 00M 00S 00MS
Pelajar792,810001791,GIIS,TuneTalk Challenge,Round 3,N,N,N,N,N,N,N,N,00H 00M 00S 00MS
Pelajar793,810001792,GIIS,TuneTalk Challenge,Round 3,N,N,N,N,N,N,N,N,00H 00M 00S 00MS
Pelajar794,810001793,GIIS,TuneTalk Challenge,Round 3,N,N,N,N,N,N,N,N,00H 00M 00S 00MS
Pelajar795,810001794,GIIS,TuneTalk Challenge,Round 3,N,N,N,N,N,N,N,N,00H 00M 00S 00MS
Pelajar796,810001795,GIIS,TuneTalk Challenge,Round 3,N,N,N,N,N,N,N,N,00H 00M 00S 00MS
Pelajar797,810001796,GIIS,TuneTalk Challenge,Round 3,N,N,N,N,N,N,N,N,00H 00M 00S 00MS
Pelajar798,810001797,GIIS,TuneTalk Challenge,Round 3,N,N,N,N,N,N,N,N,00H 00M 00S 00MS
Pelajar799,810001798,GIIS,TuneTalk Challenge,Round 3,N,N,N,N,N,N,N,N,00H 00M 00S 00MS
Pelajar800,810001799,GIIS,TuneTalk Challenge,Round 3,N,N,N,N,N,N,N,N,00H 00M 00S 00MS
Pelajar801,810001800,GIIS,TuneTalk Challenge,Round 3,N,N,N,N,N,N,N,N,00H 00M 00S 00MS
Pelajar802,810001801,GIIS,TuneTalk Challenge,Round 3,N,N,N,N,N,N,N,N,00H 00M 00S 00MS
Pelajar803,810001802,GIIS,TuneTalk Challenge,Round 3,N,N,N,N,N,N,N,N,00H 00M 00S 00MS
Pelajar804,810001803,GIIS,TuneTalk Challenge,Round 3,N,N,N,N,N,N,N,N,00H 00M 00S 00MS
Pelajar805,810001804,GIIS,TuneTalk Challenge,Round 3,N,N,N,N,N,N,N,N,00H 00M 00S 00MS
Pelajar806,810001805,GIIS,TuneTalk Challenge,Round 3,N,N,N,N,N,N,N,N,00H 00M 00S 00MS
Pelajar807,810001806,GIIS,TuneTalk Challenge,Round 3,N,N,N,N,N,N,N,N,00H 00M 00S 00MS
Pelajar808,810001807,GIIS,TuneTalk Challenge,Round 3,N,N,N,N,N,N,N,N,00H 00M 00S 00MS
Pelajar809,810001808,GIIS,TuneTalk Challenge,Round 3,N,N,N,N,N,N,N,N,00H 00M 00S 00MS
Pelajar810,810001809,GIIS,TuneTalk Challenge,Round 3,N,N,N,N,N,N,N,N,00H 00M 00S 00MS
Pelajar811,810001810,GIIS,TuneTalk Challenge,Round 3,N,N,N,N,N,N,N,N,00H 00M 00S 00MS
Pelajar812,810001811,GIIS,TuneTalk Challenge,Round 3,N,N,N,N,N,N,N,N,00H 00M 00S 00MS
Pelajar813,810001812,GIIS,TuneTalk Challenge,Round 3,N,N,N,N,N,N,N,N,00H 00M 00S 00MS
Pelajar814,810001813,GIIS,TuneTalk Challenge,Round 3,N,N,N,N,N,N,N,N,00H 00M 00S 00MS
Pelajar815,810001814,GIIS,TuneTalk Challenge,Round 3,N,N,N,N,N,N,N,N,00H 00M 00S 00MS
Pelajar816,810001815,GIIS,TuneTalk Challenge,Round 3,N,N,N,N,N,N,N,N,00H 00M 00S 00MS
Pelajar817,810001816,GIIS,TuneTalk Challenge,Round 3,N,N,N,N,N,N,N,N,00H 00M 00S 00MS
Pelajar818,810001817,GIIS,TuneTalk Challenge,Round 3,N,N,N,N,N,N,N,N,00H 00M 00S 00MS
Pelajar819,810001818,GIIS,TuneTalk Challenge,Round 3,N,N,N,N,N,N,N,N,00H 00M 00S 00MS
Pelajar820,810001819,GIIS,TuneTalk Challenge,Round 3,N,N,N,N,N,N,N,N,00H 00M 00S 00MS
Pelajar821,810001820,GIIS,TuneTalk Challenge,Round 3,N,N,N,N,N,N,N,N,00H 00M 00S 00MS
Pelajar822,810001821,GIIS,TuneTalk Challenge,Round 3,N,N,N,N,N,N,N,N,00H 00M 00S 00MS
Pelajar823,810001822,GIIS,TuneTalk Challenge,Round 3,N,N,N,N,N,N,N,N,00H 00M 00S 00MS
Pelajar824,810001823,GIIS,TuneTalk Challenge,Round 3,N,N,N,N,N,N,N,N,00H 00M 00S 00MS
Pelajar825,810001824,GIIS,TuneTalk Challenge,Round 3,N,N,N,N,N,N,N,N,00H 00M 00S 00MS
Pelajar826,810001825,GIIS,TuneTalk Challenge,Round 3,N,N,N,N,N,N,N,N,00H 00M 00S 00MS
Pelajar827,810001826,GIIS,TuneTalk Challenge,Round 3,N,N,N,N,N,N,N,N,00H 00M 00S 00MS
Pelajar828,810001827,GIIS,TuneTalk Challenge,Round 3,N,N,N,N,N,N,N,N,00H 00M 00S 00MS
Pelajar829,810001828,GIIS,TuneTalk Challenge,Round 3,N,N,N,N,N,N,N,N,00H 00M 00S 00MS
Pelajar830,810001829,GIIS,TuneTalk Challenge,Round 3,N,N,N,N,N,N,N,N,00H 00M 00S 00MS
Pelajar831,810001830,GIIS,TuneTalk Challenge,Round 3,N,N,N,N,N,N,N,N,00H 00M 00S 00MS
Pelajar832,810001831,GIIS,TuneTalk Challenge,Round 3,N,N,N,N,N,N,N,N,00H 00M 00S 00MS
Pelajar833,810001832,GIIS,TuneTalk Challenge,Round 3,N,N,N,N,N,N,N,N,00H 00M 00S 00MS
Pelajar834,810001833,GIIS,TuneTalk Challenge,Round 3,N,N,N,N,N,N,N,N,00H 00M 00S 00MS
Pelajar835,810001834,GIIS,TuneTalk Challenge,Round 3,N,N,N,N,N,N,N,N,00H 00M 00S 00MS
Pelajar836,810001835,GIIS,TuneTalk Challenge,Round 3,N,N,N,N,N,N,N,N,00H 00M 00S 00MS
Pelajar837,810001836,GIIS,TuneTalk Challenge,Round 3,N,N,N,N,N,N,N,N,00H 00M 00S 00MS
Pelajar838,810001837,GIIS,TuneTalk Challenge,Round 3,N,N,N,N,N,N,N,N,00H 00M 00S 00MS
Pelajar839,810001838,GIIS,TuneTalk Challenge,Round 3,N,N,N,N,N,N,N,N,00H 00M 00S 00MS
Pelajar840,810001839,GIIS,TuneTalk Challenge,Round 3,N,N,N,N,N,N,N,N,00H 00M 00S 00MS
Pelajar841,810001840,GIIS,TuneTalk Challenge,Round 3,N,N,N,N,N,N,N,N,00H 00M 00S 00MS
Pelajar842,810001841,GIIS,TuneTalk Challenge,Round 3,N,N,N,N,N,N,N,N,00H 00M 00S 00MS
Pelajar843,810001842,GIIS,TuneTalk Challenge,Round 3,N,N,N,N,N,N,N,N,00H 00M 00S 00MS
Pelajar844,810001843,GIIS,TuneTalk Challenge,Round 3,N,N,N,N,N,N,N,N,00H 00M 00S 00MS
Pelajar845,810001844,GIIS,TuneTalk Challenge,Round 3,N,N,N,N,N,N,N,N,00H 00M 00S 00MS
Pelajar846,810001845,GIIS,TuneTalk Challenge,Round 3,N,N,N,N,N,N,N,N,00H 00M 00S 00MS
Pelajar847,810001846,GIIS,TuneTalk Challenge,Round 3,N,N,N,N,N,N,N,N,00H 00M 00S 00MS
Pelajar848,810001847,GIIS,TuneTalk Challenge,Round 3,N,N,N,N,N,N,N,N,00H 00M 00S 00MS
Pelajar849,810001848,GIIS,TuneTalk Challenge,Round 3,N,N,N,N,N,N,N,N,00H 00M 00S 00MS
Pelajar850,810001849,GIIS,TuneTalk Challenge,Round 3,N,N,N,N,N,N,N,N,00H 00M 00S 00MS
Pelajar851,810001850,GIIS,TuneTalk Challenge,Round 3,N,N,N,N,N,N,N,N,00H 00M 00S 00MS
Pelajar852,810001851,GIIS,TuneTalk Challenge,Round 3,N,N,N,N,N,N,N,N,00H 00M 00S 00MS
Pelajar853,810001852,GIIS,TuneTalk Challenge,Round 3,N,N,N,N,N,N,N,N,00H 00M 00S 00MS
Pelajar854,810001853,GIIS,TuneTalk Challenge,Round 3,N,N,N,N,N,N,N,N,00H 00M 00S 00MS
Pelajar855,810001854,GIIS,TuneTalk Challenge,Round 3,N,N,N,N,N,N,N,N,00H 00M 00S 00MS
Pelajar856,810001855,GIIS,TuneTalk Challenge,Round 3,N,N,N,N,N,N,N,N,00H 00M 00S 00MS
Pelajar857,810001856,GIIS,TuneTalk Challenge,Round 3,N,N,N,N,N,N,N,N,00H 00M 00S 00MS
Pelajar858,810001857,GIIS,TuneTalk Challenge,Round 3,N,N,N,N,N,N,N,N,00H 00M 00S 00MS
Pelajar859,810001858,GIIS,TuneTalk Challenge,Round 3,N,N,N,N,N,N,N,N,00H 00M 00S 00MS
Pelajar860,810001859,GIIS,TuneTalk Challenge,Round 3,N,N,N,N,N,N,N,N,00H 00M 00S 00MS
Pelajar861,810001860,GIIS,TuneTalk Challenge,Round 3,N,N,N,N,N,N,N,N,00H 00M 00S 00MS
Pelajar862,810001861,GIIS,TuneTalk Challenge,Round 3,N,N,N,N,N,N,N,N,00H 00M 00S 00MS
Pelajar863,810001862,GIIS,TuneTalk Challenge,Round 3,N,N,N,N,N,N,N,N,00H 00M 00S 00MS
Pelajar864,810001863,GIIS,TuneTalk Challenge,Round 3,N,N,N,N,N,N,N,N,00H 00M 00S 00MS
Pelajar865,810001864,GIIS,TuneTalk Challenge,Round 3,N,N,N,N,N,N,N,N,00H 00M 00S 00MS
Pelajar866,810001865,GIIS,TuneTalk Challenge,Round 3,N,N,N,N,N,N,N,N,00H 00M 00S 00MS
Pelajar867,810001866,GIIS,TuneTalk Challenge,Round 3,N,N,N,N,N,N,N,N,00H 00M 00S 00MS
Pelajar868,810001867,GIIS,TuneTalk Challenge,Round 3,N,N,N,N,N,N,N,N,00H 00M 00S 00MS
Pelajar869,810001868,GIIS,TuneTalk Challenge,Round 3,N,N,N,N,N,N,N,N,00H 00M 00S 00MS
Pelajar870,810001869,GIIS,TuneTalk Challenge,Round 3,N,N,N,N,N,N,N,N,00H 00M 00S 00MS
Pelajar871,810001870,GIIS,TuneTalk Challenge,Round 3,N,N,N,N,N,N,N,N,00H 00M 00S 00MS
Pelajar872,810001871,GIIS,TuneTalk Challenge,Round 3,N,N,N,N,N,N,N,N,00H 00M 00S 00MS
Pelajar873,810001872,GIIS,TuneTalk Challenge,Round 3,N,N,N,N,N,N,N,N,00H 00M 00S 00MS
Pelajar874,810001873,GIIS,TuneTalk Challenge,Round 3,N,N,N,N,N,N,N,N,00H 00M 00S 00MS
Pelajar875,810001874,GIIS,TuneTalk Challenge,Round 3,N,N,N,N,N,N,N,N,00H 00M 00S 00MS
Pelajar876,810001875,GIIS,TuneTalk Challenge,Round 3,N,N,N,N,N,N,N,N,00H 00M 00S 00MS
Pelajar877,810001876,GIIS,TuneTalk Challenge,Round 3,N,N,N,N,N,N,N,N,00H 00M 00S 00MS
Pelajar878,810001877,GIIS,TuneTalk Challenge,Round 3,N,N,N,N,N,N,N,N,00H 00M 00S 00MS
Pelajar879,810001878,GIIS,TuneTalk Challenge,Round 3,N,N,N,N,N,N,N,N,00H 00M 00S 00MS
Pelajar880,810001879,GIIS,TuneTalk Challenge,Round 3,N,N,N,N,N,N,N,N,00H 00M 00S 00MS
Pelajar881,810001880,GIIS,TuneTalk Challenge,Round 3,N,N,N,N,N,N,N,N,00H 00M 00S 00MS
Pelajar882,810001881,GIIS,TuneTalk Challenge,Round 3,N,N,N,N,N,N,N,N,00H 00M 00S 00MS
Pelajar883,810001882,GIIS,TuneTalk Challenge,Round 3,N,N,N,N,N,N,N,N,00H 00M 00S 00MS
Pelajar884,810001883,GIIS,TuneTalk Challenge,Round 3,N,N,N,N,N,N,N,N,00H 00M 00S 00MS
Pelajar885,810001884,GIIS,TuneTalk Challenge,Round 3,N,N,N,N,N,N,N,N,00H 00M 00S 00MS
Pelajar886,810001885,GIIS,TuneTalk Challenge,Round 3,N,N,N,N,N,N,N,N,00H 00M 00S 00MS
Pelajar887,810001886,GIIS,TuneTalk Challenge,Round 3,N,N,N,N,N,N,N,N,00H 00M 00S 00MS
Pelajar888,810001887,GIIS,TuneTalk Challenge,Round 3,N,N,N,N,N,N,N,N,00H 00M 00S 00MS
Pelajar889,810001888,GIIS,TuneTalk Challenge,Round 3,N,N,N,N,N,N,N,N,00H 00M 00S 00MS
Pelajar890,810001889,GIIS,TuneTalk Challenge,Round 3,N,N,N,N,N,N,N,N,00H 00M 00S 00MS
Pelajar891,810001890,GIIS,TuneTalk Challenge,Round 3,N,N,N,N,N,N,N,N,00H 00M 00S 00MS
Pelajar892,810001891,GIIS,TuneTalk Challenge,Round 3,N,N,N,N,N,N,N,N,00H 00M 00S 00MS
Pelajar893,810001892,GIIS,TuneTalk Challenge,Round 3,N,N,N,N,N,N,N,N,00H 00M 00S 00MS
Pelajar894,810001893,GIIS,TuneTalk Challenge,Round 3,N,N,N,N,N,N,N,N,00H 00M 00S 00MS
Pelajar895,810001894,GIIS,TuneTalk Challenge,Round 3,N,N,N,N,N,N,N,N,00H 00M 00S 00MS
Pelajar896,810001895,GIIS,TuneTalk Challenge,Round 3,N,N,N,N,N,N,N,N,00H 00M 00S 00MS
Pelajar897,810001896,GIIS,TuneTalk Challenge,Round 3,N,N,N,N,N,N,N,N,00H 00M 00S 00MS
Pelajar898,810001897,GIIS,TuneTalk Challenge,Round 3,N,N,N,N,N,N,N,N,00H 00M 00S 00MS
Pelajar899,810001898,GIIS,TuneTalk Challenge,Round 3,N,N,N,N,N,N,N,N,00H 00M 00S 00MS
Pelajar900,810001899,GIIS,TuneTalk Challenge,Round 3,N,N,N,N,N,N,N,N,00H 00M 00S 00MS
Pelajar901,810001900,GIIS,TuneTalk Challenge,Round 3,N,N,N,N,N,N,N,N,00H 00M 00S 00MS
Pelajar902,810001901,GIIS,TuneTalk Challenge,Round 3,N,N,N,N,N,N,N,N,00H 00M 00S 00MS
Pelajar903,810001902,GIIS,TuneTalk Challenge,Round 3,N,N,N,N,N,N,N,N,00H 00M 00S 00MS
Pelajar904,810001903,GIIS,TuneTalk Challenge,Round 3,N,N,N,N,N,N,N,N,00H 00M 00S 00MS
Pelajar905,810001904,GIIS,TuneTalk Challenge,Round 3,N,N,N,N,N,N,N,N,00H 00M 00S 00MS
Pelajar906,810001905,GIIS,TuneTalk Challenge,Round 3,N,N,N,N,N,N,N,N,00H 00M 00S 00MS
Pelajar907,810001906,GIIS,TuneTalk Challenge,Round 3,N,N,N,N,N,N,N,N,00H 00M 00S 00MS
Pelajar908,810001907,GIIS,TuneTalk Challenge,Round 3,N,N,N,N,N,N,N,N,00H 00M 00S 00MS
Pelajar909,810001908,GIIS,TuneTalk Challenge,Round 3,N,N,N,N,N,N,N,N,00H 00M 00S 00MS
Pelajar910,810001909,GIIS,TuneTalk Challenge,Round 3,N,N,N,N,N,N,N,N,00H 00M 00S 00MS
Pelajar911,810001910,GIIS,TuneTalk Challenge,Round 3,N,N,N,N,N,N,N,N,00H 00M 00S 00MS
Pelajar912,810001911,GIIS,TuneTalk Challenge,Round 3,N,N,N,N,N,N,N,N,00H 00M 00S 00MS
Pelajar913,810001912,GIIS,TuneTalk Challenge,Round 3,N,N,N,N,N,N,N,N,00H 00M 00S 00MS
Pelajar914,810001913,GIIS,TuneTalk Challenge,Round 3,N,N,N,N,N,N,N,N,00H 00M 00S 00MS
Pelajar915,810001914,GIIS,TuneTalk Challenge,Round 3,N,N,N,N,N,N,N,N,00H 00M 00S 00MS
Pelajar916,810001915,GIIS,TuneTalk Challenge,Round 3,N,N,N,N,N,N,N,N,00H 00M 00S 00MS
Pelajar917,810001916,GIIS,TuneTalk Challenge,Round 3,N,N,N,N,N,N,N,N,00H 00M 00S 00MS
Pelajar918,810001917,GIIS,TuneTalk Challenge,Round 3,N,N,N,N,N,N,N,N,00H 00M 00S 00MS
Pelajar919,810001918,GIIS,TuneTalk Challenge,Round 3,N,N,N,N,N,N,N,N,00H 00M 00S 00MS
Pelajar920,810001919,GIIS,TuneTalk Challenge,Round 3,N,N,N,N,N,N,N,N,00H 00M 00S 00MS
Pelajar921,810001920,GIIS,TuneTalk Challenge,Round 3,N,N,N,N,N,N,N,N,00H 00M 00S 00MS
Pelajar922,810001921,GIIS,TuneTalk Challenge,Round 3,N,N,N,N,N,N,N,N,00H 00M 00S 00MS
Pelajar923,810001922,GIIS,TuneTalk Challenge,Round 3,N,N,N,N,N,N,N,N,00H 00M 00S 00MS
Pelajar924,810001923,GIIS,TuneTalk Challenge,Round 3,N,N,N,N,N,N,N,N,00H 00M 00S 00MS
Pelajar925,810001924,GIIS,TuneTalk Challenge,Round 3,N,N,N,N,N,N,N,N,00H 00M 00S 00MS
Pelajar926,810001925,GIIS,TuneTalk Challenge,Round 3,N,N,N,N,N,N,N,N,00H 00M 00S 00MS
Pelajar927,810001926,GIIS,TuneTalk Challenge,Round 3,N,N,N,N,N,N,N,N,00H 00M 00S 00MS
Pelajar928,810001927,GIIS,TuneTalk Challenge,Round 3,N,N,N,N,N,N,N,N,00H 00M 00S 00MS
Pelajar929,810001928,GIIS,TuneTalk Challenge,Round 3,N,N,N,N,N,N,N,N,00H 00M 00S 00MS
Pelajar930,810001929,GIIS,TuneTalk Challenge,Round 3,N,N,N,N,N,N,N,N,00H 00M 00S 00MS
Pelajar931,810001930,GIIS,TuneTalk Challenge,Round 3,N,N,N,N,N,N,N,N,00H 00M 00S 00MS
Pelajar932,810001931,GIIS,TuneTalk Challenge,Round 3,N,N,N,N,N,N,N,N,00H 00M 00S 00MS
Pelajar933,810001932,GIIS,TuneTalk Challenge,Round 3,N,N,N,N,N,N,N,N,00H 00M 00S 00MS
Pelajar934,810001933,GIIS,TuneTalk Challenge,Round 3,N,N,N,N,N,N,N,N,00H 00M 00S 00MS
Pelajar935,810001934,GIIS,TuneTalk Challenge,Round 3,N,N,N,N,N,N,N,N,00H 00M 00S 00MS
Pelajar936,810001935,GIIS,TuneTalk Challenge,Round 3,N,N,N,N,N,N,N,N,00H 00M 00S 00MS
Pelajar937,810001936,GIIS,TuneTalk Challenge,Round 3,N,N,N,N,N,N,N,N,00H 00M 00S 00MS
Pelajar938,810001937,GIIS,TuneTalk Challenge,Round 3,N,N,N,N,N,N,N,N,00H 00M 00S 00MS
Pelajar939,810001938,GIIS,TuneTalk Challenge,Round 3,N,N,N,N,N,N,N,N,00H 00M 00S 00MS
Pelajar940,810001939,GIIS,TuneTalk Challenge,Round 3,N,N,N,N,N,N,N,N,00H 00M 00S 00MS
Pelajar941,810001940,GIIS,TuneTalk Challenge,Round 3,N,N,N,N,N,N,N,N,00H 00M 00S 00MS
Pelajar942,810001941,GIIS,TuneTalk Challenge,Round 3,N,N,N,N,N,N,N,N,00H 00M 00S 00MS
Pelajar943,810001942,GIIS,TuneTalk Challenge,Round 3,N,N,N,N,N,N,N,N,00H 00M 00S 00MS
Pelajar944,810001943,GIIS,TuneTalk Challenge,Round 3,N,N,N,N,N,N,N,N,00H 00M 00S 00MS
Pelajar945,810001944,GIIS,TuneTalk Challenge,Round 3,N,N,N,N,N,N,N,N,00H 00M 00S 00MS
Pelajar946,810001945,GIIS,TuneTalk Challenge,Round 3,N,N,N,N,N,N,N,N,00H 00M 00S 00MS
Pelajar947,810001946,GIIS,TuneTalk Challenge,Round 3,N,N,N,N,N,N,N,N,00H 00M 00S 00MS
Pelajar948,810001947,GIIS,TuneTalk Challenge,Round 3,N,N,N,N,N,N,N,N,00H 00M 00S 00MS
Pelajar949,810001948,GIIS,TuneTalk Challenge,Round 3,N,N,N,N,N,N,N,N,00H 00M 00S 00MS
Pelajar950,810001949,GIIS,TuneTalk Challenge,Round 3,N,N,N,N,N,N,N,N,00H 00M 00S 00MS
Pelajar951,810001950,GIIS,TuneTalk Challenge,Round 3,N,N,N,N,N,N,N,N,00H 00M 00S 00MS
Pelajar952,810001951,GIIS,TuneTalk Challenge,Round 3,N,N,N,N,N,N,N,N,00H 00M 00S 00MS
Pelajar953,810001952,GIIS,TuneTalk Challenge,Round 3,N,N,N,N,N,N,N,N,00H 00M 00S 00MS
Pelajar954,810001953,GIIS,TuneTalk Challenge,Round 3,N,N,N,N,N,N,N,N,00H 00M 00S 00MS
Pelajar955,810001954,GIIS,TuneTalk Challenge,Round 3,N,N,N,N,N,N,N,N,00H 00M 00S 00MS
Pelajar956,810001955,GIIS,TuneTalk Challenge,Round 3,N,N,N,N,N,N,N,N,00H 00M 00S 00MS
Pelajar957,810001956,GIIS,TuneTalk Challenge,Round 3,N,N,N,N,N,N,N,N,00H 00M 00S 00MS
Pelajar958,810001957,GIIS,TuneTalk Challenge,Round 3,N,N,N,N,N,N,N,N,00H 00M 00S 00MS
Pelajar959,810001958,GIIS,TuneTalk Challenge,Round 3,N,N,N,N,N,N,N,N,00H 00M 00S 00MS
Pelajar960,810001959,GIIS,TuneTalk Challenge,Round 3,N,N,N,N,N,N,N,N,00H 00M 00S 00MS
Pelajar961,810001960,GIIS,TuneTalk Challenge,Round 3,N,N,N,N,N,N,N,N,00H 00M 00S 00MS
Pelajar962,810001961,GIIS,TuneTalk Challenge,Round 3,N,N,N,N,N,N,N,N,00H 00M 00S 00MS
Pelajar963,810001962,GIIS,TuneTalk Challenge,Round 3,N,N,N,N,N,N,N,N,00H 00M 00S 00MS
Pelajar964,810001963,GIIS,TuneTalk Challenge,Round 3,N,N,N,N,N,N,N,N,00H 00M 00S 00MS
Pelajar965,810001964,GIIS,TuneTalk Challenge,Round 3,N,N,N,N,N,N,N,N,00H 00M 00S 00MS
Pelajar966,810001965,GIIS,TuneTalk Challenge,Round 3,N,N,N,N,N,N,N,N,00H 00M 00S 00MS
Pelajar967,810001966,GIIS,TuneTalk Challenge,Round 3,N,N,N,N,N,N,N,N,00H 00M 00S 00MS
Pelajar968,810001967,GIIS,TuneTalk Challenge,Round 3,N,N,N,N,N,N,N,N,00H 00M 00S 00MS
Pelajar969,810001968,GIIS,TuneTalk Challenge,Round 3,N,N,N,N,N,N,N,N,00H 00M 00S 00MS
Pelajar970,810001969,GIIS,TuneTalk Challenge,Round 3,N,N,N,N,N,N,N,N,00H 00M 00S 00MS
Pelajar971,810001970,GIIS,TuneTalk Challenge,Round 3,N,N,N,N,N,N,N,N,00H 00M 00S 00MS
Pelajar972,810001971,GIIS,TuneTalk Challenge,Round 3,N,N,N,N,N,N,N,N,00H 00M 00S 00MS
Pelajar973,810001972,GIIS,TuneTalk Challenge,Round 3,N,N,N,N,N,N,N,N,00H 00M 00S 00MS
Pelajar974,810001973,GIIS,TuneTalk Challenge,Round 3,N,N,N,N,N,N,N,N,00H 00M 00S 00MS
Pelajar975,810001974,GIIS,TuneTalk Challenge,Round 3,N,N,N,N,N,N,N,N,00H 00M 00S 00MS
Pelajar976,810001975,GIIS,TuneTalk Challenge,Round 3,N,N,N,N,N,N,N,N,00H 00M 00S 00MS
Pelajar977,810001976,GIIS,TuneTalk Challenge,Round 3,N,N,N,N,N,N,N,N,00H 00M 00S 00MS
Pelajar978,810001977,GIIS,TuneTalk Challenge,Round 3,N,N,N,N,N,N,N,N,00H 00M 00S 00MS
Pelajar979,810001978,GIIS,TuneTalk Challenge,Round 3,N,N,N,N,N,N,N,N,00H 00M 00S 00MS
Pelajar980,810001979,GIIS,TuneTalk Challenge,Round 3,N,N,N,N,N,N,N,N,00H 00M 00S 00MS
Pelajar981,810001980,GIIS,TuneTalk Challenge,Round 3,N,N,N,N,N,N,N,N,00H 00M 00S 00MS
Pelajar982,810001981,GIIS,TuneTalk Challenge,Round 3,N,N,N,N,N,N,N,N,00H 00M 00S 00MS
Pelajar983,810001982,GIIS,TuneTalk Challenge,Round 3,N,N,N,N,N,N,N,N,00H 00M 00S 00MS
Pelajar984,810001983,GIIS,TuneTalk Challenge,Round 3,N,N,N,N,N,N,N,N,00H 00M 00S 00MS
Pelajar985,810001984,GIIS,TuneTalk Challenge,Round 3,N,N,N,N,N,N,N,N,00H 00M 00S 00MS
Pelajar986,810001985,GIIS,TuneTalk Challenge,Round 3,N,N,N,N,N,N,N,N,00H 00M 00S 00MS
Pelajar987,810001986,GIIS,TuneTalk Challenge,Round 3,N,N,N,N,N,N,N,N,00H 00M 00S 00MS
Pelajar988,810001987,GIIS,TuneTalk Challenge,Round 3,N,N,N,N,N,N,N,N,00H 00M 00S 00MS
Pelajar989,810001988,GIIS,TuneTalk Challenge,Round 3,N,N,N,N,N,N,N,N,00H 00M 00S 00MS
Pelajar990,810001989,GIIS,TuneTalk Challenge,Round 3,N,N,N,N,N,N,N,N,00H 00M 00S 00MS
Pelajar991,810001990,GIIS,TuneTalk Challenge,Round 3,N,N,N,N,N,N,N,N,00H 00M 00S 00MS
Pelajar992,810001991,GIIS,TuneTalk Challenge,Round 3,N,N,N,N,N,N,N,N,00H 00M 00S 00MS
Pelajar993,810001992,GIIS,TuneTalk Challenge,Round 3,N,N,N,N,N,N,N,N,00H 00M 00S 00MS
Pelajar994,810001993,GIIS,TuneTalk Challenge,Round 3,N,N,N,N,N,N,N,N,00H 00M 00S 00MS
Pelajar995,810001994,GIIS,TuneTalk Challenge,Round 3,N,N,N,N,N,N,N,N,00H 00M 00S 00MS
Pelajar996,810001995,GIIS,TuneTalk Challenge,Round 3,N,N,N,N,N,N,N,N,00H 00M 00S 00MS
