Name,Email,Password,Country Code,Contact,School,,,,,
Pick one of the value for Student School Column: ,Assunta,Idrissi,Brainy Bunch,REAL School,GIIS,Tenby School,Convent,MoneyTree,TuneTalk,Bandar Utama
Pick one of the value for Country Code Column,Malaysia : 60,India : 91,United Kingdom : 44,Singapore : 65,United State : 1,,,,,
JohnDoe,john@gmail.com,johndoe123,91,8989898989,City Montessory School,,,,,
BU 1,,2001,60,5501122001,Bandar Utama,,,,,
BU 2,,2002,60,5501122002,Bandar Utama,,,,,
BU 3,,2003,60,5501122003,Bandar Utama,,,,,
BU 4,,2004,60,5501122004,Bandar Utama,,,,,
BU 5,,2005,60,5501122005,Bandar Utama,,,,,
BU 6,,2006,60,5501122006,Bandar Utama,,,,,
BU 7,,2007,60,5501122007,Bandar Utama,,,,,
BU 8,,2008,60,5501122008,Bandar Utama,,,,,
BU 9,,2009,60,5501122009,Bandar Utama,,,,,
BU 10,,2010,60,5501122010,Bandar Utama,,,,,
BU 11,,2011,60,5501122011,Bandar Utama,,,,,
BU 12,,2012,60,5501122012,Bandar Utama,,,,,
BU 13,,2013,60,5501122013,Bandar Utama,,,,,
BU 14,,2014,60,5501122014,Bandar Utama,,,,,
BU 15,,2015,60,5501122015,Bandar Utama,,,,,
BU 16,,2016,60,5501122016,Bandar Utama,,,,,
BU 17,,2017,60,5501122017,Bandar Utama,,,,,
BU 18,,2018,60,5501122018,Bandar Utama,,,,,
BU 19,,2019,60,5501122019,Bandar Utama,,,,,
BU 20,,2020,60,5501122020,Bandar Utama,,,,,
BU 21,,2021,60,5501122021,Bandar Utama,,,,,
BU 22,,2022,60,5501122022,Bandar Utama,,,,,
BU 23,,2023,60,5501122023,Bandar Utama,,,,,
BU 24,,2024,60,5501122024,Bandar Utama,,,,,
BU 25,,2025,60,5501122025,Bandar Utama,,,,,
BU 26,,2026,60,5501122026,Bandar Utama,,,,,
BU 27,,2027,60,5501122027,Bandar Utama,,,,,
BU 28,,2028,60,5501122028,Bandar Utama,,,,,
BU 29,,2029,60,5501122029,Bandar Utama,,,,,
BU 30,,2030,60,5501122030,Bandar Utama,,,,,
BU 31,,2031,60,5501122031,Bandar Utama,,,,,
BU 32,,2032,60,5501122032,Bandar Utama,,,,,
BU 33,,2033,60,5501122033,Bandar Utama,,,,,
BU 34,,2034,60,5501122034,Bandar Utama,,,,,
BU 35,,2035,60,5501122035,Bandar Utama,,,,,
BU 36,,2036,60,5501122036,Bandar Utama,,,,,
BU 37,,2037,60,5501122037,Bandar Utama,,,,,
BU 38,,2038,60,5501122038,Bandar Utama,,,,,
BU 39,,2039,60,5501122039,Bandar Utama,,,,,
BU 40,,2040,60,5501122040,Bandar Utama,,,,,
BU 41,,2041,60,5501122041,Bandar Utama,,,,,
BU 42,,2042,60,5501122042,Bandar Utama,,,,,
BU 43,,2043,60,5501122043,Bandar Utama,,,,,
BU 44,,2044,60,5501122044,Bandar Utama,,,,,
BU 45,,2045,60,5501122045,Bandar Utama,,,,,
BU 46,,2046,60,5501122046,Bandar Utama,,,,,
BU 47,,2047,60,5501122047,Bandar Utama,,,,,
BU 48,,2048,60,5501122048,Bandar Utama,,,,,
BU 49,,2049,60,5501122049,Bandar Utama,,,,,
BU 50,,2050,60,5501122050,Bandar Utama,,,,,
BU 51,,2051,60,5501122051,Bandar Utama,,,,,
BU 52,,2052,60,5501122052,Bandar Utama,,,,,
BU 53,,2053,60,5501122053,Bandar Utama,,,,,
BU 54,,2054,60,5501122054,Bandar Utama,,,,,
BU 55,,2055,60,5501122055,Bandar Utama,,,,,
BU 56,,2056,60,5501122056,Bandar Utama,,,,,
BU 57,,2057,60,5501122057,Bandar Utama,,,,,
BU 58,,2058,60,5501122058,Bandar Utama,,,,,
BU 59,,2059,60,5501122059,Bandar Utama,,,,,
BU 60,,2060,60,5501122060,Bandar Utama,,,,,
BU 61,,2061,60,5501122061,Bandar Utama,,,,,
BU 62,,2062,60,5501122062,Bandar Utama,,,,,
BU 63,,2063,60,5501122063,Bandar Utama,,,,,
BU 64,,2064,60,5501122064,Bandar Utama,,,,,
BU 65,,2065,60,5501122065,Bandar Utama,,,,,
BU 66,,2066,60,5501122066,Bandar Utama,,,,,
BU 67,,2067,60,5501122067,Bandar Utama,,,,,
BU 68,,2068,60,5501122068,Bandar Utama,,,,,
BU 69,,2069,60,5501122069,Bandar Utama,,,,,
BU 70,,2070,60,5501122070,Bandar Utama,,,,,
BU 71,,2071,60,5501122071,Bandar Utama,,,,,
BU 72,,2072,60,5501122072,Bandar Utama,,,,,
BU 73,,2073,60,5501122073,Bandar Utama,,,,,
BU 74,,2074,60,5501122074,Bandar Utama,,,,,
BU 75,,2075,60,5501122075,Bandar Utama,,,,,
BU 76,,2076,60,5501122076,Bandar Utama,,,,,
BU 77,,2077,60,5501122077,Bandar Utama,,,,,
BU 78,,2078,60,5501122078,Bandar Utama,,,,,
BU 79,,2079,60,5501122079,Bandar Utama,,,,,
BU 80,,2080,60,5501122080,Bandar Utama,,,,,
BU 81,,2081,60,5501122081,Bandar Utama,,,,,
BU 82,,2082,60,5501122082,Bandar Utama,,,,,
BU 83,,2083,60,5501122083,Bandar Utama,,,,,
BU 84,,2084,60,5501122084,Bandar Utama,,,,,
BU 85,,2085,60,5501122085,Bandar Utama,,,,,
BU 86,,2086,60,5501122086,Bandar Utama,,,,,
BU 87,,2087,60,5501122087,Bandar Utama,,,,,
BU 88,,2088,60,5501122088,Bandar Utama,,,,,
BU 89,,2089,60,5501122089,Bandar Utama,,,,,
BU 90,,2090,60,5501122090,Bandar Utama,,,,,
BU 91,,2091,60,5501122091,Bandar Utama,,,,,
BU 92,,2092,60,5501122092,Bandar Utama,,,,,
BU 93,,2093,60,5501122093,Bandar Utama,,,,,
BU 94,,2094,60,5501122094,Bandar Utama,,,,,
BU 95,,2095,60,5501122095,Bandar Utama,,,,,
BU 96,,2096,60,5501122096,Bandar Utama,,,,,
BU 97,,2097,60,5501122097,Bandar Utama,,,,,
BU 98,,2098,60,5501122098,Bandar Utama,,,,,
BU 99,,2099,60,5501122099,Bandar Utama,,,,,
BU 100,,2100,60,5501122100,Bandar Utama,,,,,
BU 101,,2101,60,5501122101,Bandar Utama,,,,,
BU 102,,2102,60,5501122102,Bandar Utama,,,,,
BU 103,,2103,60,5501122103,Bandar Utama,,,,,
BU 104,,2104,60,5501122104,Bandar Utama,,,,,
BU 105,,2105,60,5501122105,Bandar Utama,,,,,
BU 106,,2106,60,5501122106,Bandar Utama,,,,,
BU 107,,2107,60,5501122107,Bandar Utama,,,,,
BU 108,,2108,60,5501122108,Bandar Utama,,,,,
BU 109,,2109,60,5501122109,Bandar Utama,,,,,
BU 110,,2110,60,5501122110,Bandar Utama,,,,,
BU 111,,2111,60,5501122111,Bandar Utama,,,,,
BU 112,,2112,60,5501122112,Bandar Utama,,,,,
BU 113,,2113,60,5501122113,Bandar Utama,,,,,
BU 114,,2114,60,5501122114,Bandar Utama,,,,,
BU 115,,2115,60,5501122115,Bandar Utama,,,,,
BU 116,,2116,60,5501122116,Bandar Utama,,,,,
BU 117,,2117,60,5501122117,Bandar Utama,,,,,
BU 118,,2118,60,5501122118,Bandar Utama,,,,,
BU 119,,2119,60,5501122119,Bandar Utama,,,,,
BU 120,,2120,60,5501122120,Bandar Utama,,,,,
BU 121,,2121,60,5501122121,Bandar Utama,,,,,
BU 122,,2122,60,5501122122,Bandar Utama,,,,,
BU 123,,2123,60,5501122123,Bandar Utama,,,,,
BU 124,,2124,60,5501122124,Bandar Utama,,,,,
BU 125,,2125,60,5501122125,Bandar Utama,,,,,
BU 126,,2126,60,5501122126,Bandar Utama,,,,,
BU 127,,2127,60,5501122127,Bandar Utama,,,,,
BU 128,,2128,60,5501122128,Bandar Utama,,,,,
BU 129,,2129,60,5501122129,Bandar Utama,,,,,
BU 130,,2130,60,5501122130,Bandar Utama,,,,,
BU 131,,2131,60,5501122131,Bandar Utama,,,,,
BU 132,,2132,60,5501122132,Bandar Utama,,,,,
BU 133,,2133,60,5501122133,Bandar Utama,,,,,
BU 134,,2134,60,5501122134,Bandar Utama,,,,,
BU 135,,2135,60,5501122135,Bandar Utama,,,,,
BU 136,,2136,60,5501122136,Bandar Utama,,,,,
BU 137,,2137,60,5501122137,Bandar Utama,,,,,
BU 138,,2138,60,5501122138,Bandar Utama,,,,,
BU 139,,2139,60,5501122139,Bandar Utama,,,,,
BU 140,,2140,60,5501122140,Bandar Utama,,,,,
BU 141,,2141,60,5501122141,Bandar Utama,,,,,
BU 142,,2142,60,5501122142,Bandar Utama,,,,,
BU 143,,2143,60,5501122143,Bandar Utama,,,,,
BU 144,,2144,60,5501122144,Bandar Utama,,,,,
BU 145,,2145,60,5501122145,Bandar Utama,,,,,
BU 146,,2146,60,5501122146,Bandar Utama,,,,,
BU 147,,2147,60,5501122147,Bandar Utama,,,,,
BU 148,,2148,60,5501122148,Bandar Utama,,,,,
BU 149,,2149,60,5501122149,Bandar Utama,,,,,
BU 150,,2150,60,5501122150,Bandar Utama,,,,,
BU 151,,2151,60,5501122151,Bandar Utama,,,,,
BU 152,,2152,60,5501122152,Bandar Utama,,,,,
BU 153,,2153,60,5501122153,Bandar Utama,,,,,
BU 154,,2154,60,5501122154,Bandar Utama,,,,,
BU 155,,2155,60,5501122155,Bandar Utama,,,,,
BU 156,,2156,60,5501122156,Bandar Utama,,,,,
BU 157,,2157,60,5501122157,Bandar Utama,,,,,
BU 158,,2158,60,5501122158,Bandar Utama,,,,,
BU 159,,2159,60,5501122159,Bandar Utama,,,,,
BU 160,,2160,60,5501122160,Bandar Utama,,,,,
BU 161,,2161,60,5501122161,Bandar Utama,,,,,
BU 162,,2162,60,5501122162,Bandar Utama,,,,,
BU 163,,2163,60,5501122163,Bandar Utama,,,,,
BU 164,,2164,60,5501122164,Bandar Utama,,,,,
BU 165,,2165,60,5501122165,Bandar Utama,,,,,
BU 166,,2166,60,5501122166,Bandar Utama,,,,,
BU 167,,2167,60,5501122167,Bandar Utama,,,,,
BU 168,,2168,60,5501122168,Bandar Utama,,,,,
BU 169,,2169,60,5501122169,Bandar Utama,,,,,
BU 170,,2170,60,5501122170,Bandar Utama,,,,,
BU 171,,2171,60,5501122171,Bandar Utama,,,,,
BU 172,,2172,60,5501122172,Bandar Utama,,,,,
BU 173,,2173,60,5501122173,Bandar Utama,,,,,
BU 174,,2174,60,5501122174,Bandar Utama,,,,,
BU 175,,2175,60,5501122175,Bandar Utama,,,,,
BU 176,,2176,60,5501122176,Bandar Utama,,,,,
BU 177,,2177,60,5501122177,Bandar Utama,,,,,
BU 178,,2178,60,5501122178,Bandar Utama,,,,,
BU 179,,2179,60,5501122179,Bandar Utama,,,,,
BU 180,,2180,60,5501122180,Bandar Utama,,,,,
BU 181,,2181,60,5501122181,Bandar Utama,,,,,
BU 182,,2182,60,5501122182,Bandar Utama,,,,,
BU 183,,2183,60,5501122183,Bandar Utama,,,,,
BU 184,,2184,60,5501122184,Bandar Utama,,,,,
BU 185,,2185,60,5501122185,Bandar Utama,,,,,
BU 186,,2186,60,5501122186,Bandar Utama,,,,,
BU 187,,2187,60,5501122187,Bandar Utama,,,,,
BU 188,,2188,60,5501122188,Bandar Utama,,,,,
BU 189,,2189,60,5501122189,Bandar Utama,,,,,
BU 190,,2190,60,5501122190,Bandar Utama,,,,,
BU 191,,2191,60,5501122191,Bandar Utama,,,,,
BU 192,,2192,60,5501122192,Bandar Utama,,,,,
BU 193,,2193,60,5501122193,Bandar Utama,,,,,
BU 194,,2194,60,5501122194,Bandar Utama,,,,,
BU 195,,2195,60,5501122195,Bandar Utama,,,,,
BU 196,,2196,60,5501122196,Bandar Utama,,,,,
BU 197,,2197,60,5501122197,Bandar Utama,,,,,
BU 198,,2198,60,5501122198,Bandar Utama,,,,,
BU 199,,2199,60,5501122199,Bandar Utama,,,,,
BU 200,,2200,60,5501122200,Bandar Utama,,,,,
BU 201,,2201,60,5501122201,Bandar Utama,,,,,
BU 202,,2202,60,5501122202,Bandar Utama,,,,,
BU 203,,2203,60,5501122203,Bandar Utama,,,,,
BU 204,,2204,60,5501122204,Bandar Utama,,,,,
BU 205,,2205,60,5501122205,Bandar Utama,,,,,
BU 206,,2206,60,5501122206,Bandar Utama,,,,,
BU 207,,2207,60,5501122207,Bandar Utama,,,,,
BU 208,,2208,60,5501122208,Bandar Utama,,,,,
BU 209,,2209,60,5501122209,Bandar Utama,,,,,
BU 210,,2210,60,5501122210,Bandar Utama,,,,,
BU 211,,2211,60,5501122211,Bandar Utama,,,,,
BU 212,,2212,60,5501122212,Bandar Utama,,,,,
BU 213,,2213,60,5501122213,Bandar Utama,,,,,
BU 214,,2214,60,5501122214,Bandar Utama,,,,,
BU 215,,2215,60,5501122215,Bandar Utama,,,,,
BU 216,,2216,60,5501122216,Bandar Utama,,,,,
BU 217,,2217,60,5501122217,Bandar Utama,,,,,
BU 218,,2218,60,5501122218,Bandar Utama,,,,,
BU 219,,2219,60,5501122219,Bandar Utama,,,,,
BU 220,,2220,60,5501122220,Bandar Utama,,,,,
BU 221,,2221,60,5501122221,Bandar Utama,,,,,
BU 222,,2222,60,5501122222,Bandar Utama,,,,,
BU 223,,2223,60,5501122223,Bandar Utama,,,,,
BU 224,,2224,60,5501122224,Bandar Utama,,,,,
BU 225,,2225,60,5501122225,Bandar Utama,,,,,
BU 226,,2226,60,5501122226,Bandar Utama,,,,,
BU 227,,2227,60,5501122227,Bandar Utama,,,,,
BU 228,,2228,60,5501122228,Bandar Utama,,,,,
BU 229,,2229,60,5501122229,Bandar Utama,,,,,
BU 230,,2230,60,5501122230,Bandar Utama,,,,,
BU 231,,2231,60,5501122231,Bandar Utama,,,,,
BU 232,,2232,60,5501122232,Bandar Utama,,,,,
BU 233,,2233,60,5501122233,Bandar Utama,,,,,
BU 234,,2234,60,5501122234,Bandar Utama,,,,,
BU 235,,2235,60,5501122235,Bandar Utama,,,,,
BU 236,,2236,60,5501122236,Bandar Utama,,,,,
BU 237,,2237,60,5501122237,Bandar Utama,,,,,
BU 238,,2238,60,5501122238,Bandar Utama,,,,,
BU 239,,2239,60,5501122239,Bandar Utama,,,,,
BU 240,,2240,60,5501122240,Bandar Utama,,,,,
BU 241,,2241,60,5501122241,Bandar Utama,,,,,
BU 242,,2242,60,5501122242,Bandar Utama,,,,,
BU 243,,2243,60,5501122243,Bandar Utama,,,,,
BU 244,,2244,60,5501122244,Bandar Utama,,,,,
BU 245,,2245,60,5501122245,Bandar Utama,,,,,
BU 246,,2246,60,5501122246,Bandar Utama,,,,,
BU 247,,2247,60,5501122247,Bandar Utama,,,,,
BU 248,,2248,60,5501122248,Bandar Utama,,,,,
BU 249,,2249,60,5501122249,Bandar Utama,,,,,
BU 250,,2250,60,5501122250,Bandar Utama,,,,,
BU 251,,2251,60,5501122251,Bandar Utama,,,,,
BU 252,,2252,60,5501122252,Bandar Utama,,,,,
BU 253,,2253,60,5501122253,Bandar Utama,,,,,
BU 254,,2254,60,5501122254,Bandar Utama,,,,,
BU 255,,2255,60,5501122255,Bandar Utama,,,,,
BU 256,,2256,60,5501122256,Bandar Utama,,,,,
BU 257,,2257,60,5501122257,Bandar Utama,,,,,
BU 258,,2258,60,5501122258,Bandar Utama,,,,,
BU 259,,2259,60,5501122259,Bandar Utama,,,,,
BU 260,,2260,60,5501122260,Bandar Utama,,,,,
BU 261,,2261,60,5501122261,Bandar Utama,,,,,
BU 262,,2262,60,5501122262,Bandar Utama,,,,,
BU 263,,2263,60,5501122263,Bandar Utama,,,,,
BU 264,,2264,60,5501122264,Bandar Utama,,,,,
BU 265,,2265,60,5501122265,Bandar Utama,,,,,
BU 266,,2266,60,5501122266,Bandar Utama,,,,,
BU 267,,2267,60,5501122267,Bandar Utama,,,,,
BU 268,,2268,60,5501122268,Bandar Utama,,,,,
BU 269,,2269,60,5501122269,Bandar Utama,,,,,
BU 270,,2270,60,5501122270,Bandar Utama,,,,,
BU 271,,2271,60,5501122271,Bandar Utama,,,,,
BU 272,,2272,60,5501122272,Bandar Utama,,,,,
BU 273,,2273,60,5501122273,Bandar Utama,,,,,
BU 274,,2274,60,5501122274,Bandar Utama,,,,,
BU 275,,2275,60,5501122275,Bandar Utama,,,,,
BU 276,,2276,60,5501122276,Bandar Utama,,,,,
BU 277,,2277,60,5501122277,Bandar Utama,,,,,
BU 278,,2278,60,5501122278,Bandar Utama,,,,,
BU 279,,2279,60,5501122279,Bandar Utama,,,,,
BU 280,,2280,60,5501122280,Bandar Utama,,,,,
BU 281,,2281,60,5501122281,Bandar Utama,,,,,
BU 282,,2282,60,5501122282,Bandar Utama,,,,,
BU 283,,2283,60,5501122283,Bandar Utama,,,,,
BU 284,,2284,60,5501122284,Bandar Utama,,,,,
BU 285,,2285,60,5501122285,Bandar Utama,,,,,
BU 286,,2286,60,5501122286,Bandar Utama,,,,,
BU 287,,2287,60,5501122287,Bandar Utama,,,,,
BU 288,,2288,60,5501122288,Bandar Utama,,,,,
BU 289,,2289,60,5501122289,Bandar Utama,,,,,
BU 290,,2290,60,5501122290,Bandar Utama,,,,,
BU 291,,2291,60,5501122291,Bandar Utama,,,,,
BU 292,,2292,60,5501122292,Bandar Utama,,,,,
BU 293,,2293,60,5501122293,Bandar Utama,,,,,
BU 294,,2294,60,5501122294,Bandar Utama,,,,,
BU 295,,2295,60,5501122295,Bandar Utama,,,,,
BU 296,,2296,60,5501122296,Bandar Utama,,,,,
BU 297,,2297,60,5501122297,Bandar Utama,,,,,
BU 298,,2298,60,5501122298,Bandar Utama,,,,,
BU 299,,2299,60,5501122299,Bandar Utama,,,,,
BU 300,,2300,60,5501122300,Bandar Utama,,,,,
BU 301,,2301,60,5501122301,Bandar Utama,,,,,
BU 302,,2302,60,5501122302,Bandar Utama,,,,,
BU 303,,2303,60,5501122303,Bandar Utama,,,,,
BU 304,,2304,60,5501122304,Bandar Utama,,,,,
BU 305,,2305,60,5501122305,Bandar Utama,,,,,
BU 306,,2306,60,5501122306,Bandar Utama,,,,,
BU 307,,2307,60,5501122307,Bandar Utama,,,,,
BU 308,,2308,60,5501122308,Bandar Utama,,,,,
BU 309,,2309,60,5501122309,Bandar Utama,,,,,
BU 310,,2310,60,5501122310,Bandar Utama,,,,,
BU 311,,2311,60,5501122311,Bandar Utama,,,,,
BU 312,,2312,60,5501122312,Bandar Utama,,,,,
BU 313,,2313,60,5501122313,Bandar Utama,,,,,
BU 314,,2314,60,5501122314,Bandar Utama,,,,,
BU 315,,2315,60,5501122315,Bandar Utama,,,,,
BU 316,,2316,60,5501122316,Bandar Utama,,,,,
BU 317,,2317,60,5501122317,Bandar Utama,,,,,
BU 318,,2318,60,5501122318,Bandar Utama,,,,,
BU 319,,2319,60,5501122319,Bandar Utama,,,,,
BU 320,,2320,60,5501122320,Bandar Utama,,,,,
BU 321,,2321,60,5501122321,Bandar Utama,,,,,
BU 322,,2322,60,5501122322,Bandar Utama,,,,,
BU 323,,2323,60,5501122323,Bandar Utama,,,,,
BU 324,,2324,60,5501122324,Bandar Utama,,,,,
BU 325,,2325,60,5501122325,Bandar Utama,,,,,
BU 326,,2326,60,5501122326,Bandar Utama,,,,,
BU 327,,2327,60,5501122327,Bandar Utama,,,,,
BU 328,,2328,60,5501122328,Bandar Utama,,,,,
BU 329,,2329,60,5501122329,Bandar Utama,,,,,
BU 330,,2330,60,5501122330,Bandar Utama,,,,,
BU 331,,2331,60,5501122331,Bandar Utama,,,,,
BU 332,,2332,60,5501122332,Bandar Utama,,,,,
BU 333,,2333,60,5501122333,Bandar Utama,,,,,
BU 334,,2334,60,5501122334,Bandar Utama,,,,,
BU 335,,2335,60,5501122335,Bandar Utama,,,,,
BU 336,,2336,60,5501122336,Bandar Utama,,,,,
BU 337,,2337,60,5501122337,Bandar Utama,,,,,
BU 338,,2338,60,5501122338,Bandar Utama,,,,,
BU 339,,2339,60,5501122339,Bandar Utama,,,,,
BU 340,,2340,60,5501122340,Bandar Utama,,,,,
BU 341,,2341,60,5501122341,Bandar Utama,,,,,
BU 342,,2342,60,5501122342,Bandar Utama,,,,,
BU 343,,2343,60,5501122343,Bandar Utama,,,,,
BU 344,,2344,60,5501122344,Bandar Utama,,,,,
BU 345,,2345,60,5501122345,Bandar Utama,,,,,
BU 346,,2346,60,5501122346,Bandar Utama,,,,,
BU 347,,2347,60,5501122347,Bandar Utama,,,,,
BU 348,,2348,60,5501122348,Bandar Utama,,,,,
BU 349,,2349,60,5501122349,Bandar Utama,,,,,
BU 350,,2350,60,5501122350,Bandar Utama,,,,,
BU 351,,2351,60,5501122351,Bandar Utama,,,,,
BU 352,,2352,60,5501122352,Bandar Utama,,,,,
BU 353,,2353,60,5501122353,Bandar Utama,,,,,
BU 354,,2354,60,5501122354,Bandar Utama,,,,,
BU 355,,2355,60,5501122355,Bandar Utama,,,,,
BU 356,,2356,60,5501122356,Bandar Utama,,,,,
BU 357,,2357,60,5501122357,Bandar Utama,,,,,
BU 358,,2358,60,5501122358,Bandar Utama,,,,,
BU 359,,2359,60,5501122359,Bandar Utama,,,,,
BU 360,,2360,60,5501122360,Bandar Utama,,,,,
BU 361,,2361,60,5501122361,Bandar Utama,,,,,
BU 362,,2362,60,5501122362,Bandar Utama,,,,,
BU 363,,2363,60,5501122363,Bandar Utama,,,,,
BU 364,,2364,60,5501122364,Bandar Utama,,,,,
BU 365,,2365,60,5501122365,Bandar Utama,,,,,
BU 366,,2366,60,5501122366,Bandar Utama,,,,,
BU 367,,2367,60,5501122367,Bandar Utama,,,,,
BU 368,,2368,60,5501122368,Bandar Utama,,,,,
BU 369,,2369,60,5501122369,Bandar Utama,,,,,
BU 370,,2370,60,5501122370,Bandar Utama,,,,,
BU 371,,2371,60,5501122371,Bandar Utama,,,,,
BU 372,,2372,60,5501122372,Bandar Utama,,,,,
BU 373,,2373,60,5501122373,Bandar Utama,,,,,
BU 374,,2374,60,5501122374,Bandar Utama,,,,,
BU 375,,2375,60,5501122375,Bandar Utama,,,,,
BU 376,,2376,60,5501122376,Bandar Utama,,,,,
BU 377,,2377,60,5501122377,Bandar Utama,,,,,
BU 378,,2378,60,5501122378,Bandar Utama,,,,,
BU 379,,2379,60,5501122379,Bandar Utama,,,,,
BU 380,,2380,60,5501122380,Bandar Utama,,,,,
BU 381,,2381,60,5501122381,Bandar Utama,,,,,
BU 382,,2382,60,5501122382,Bandar Utama,,,,,
BU 383,,2383,60,5501122383,Bandar Utama,,,,,
BU 384,,2384,60,5501122384,Bandar Utama,,,,,
BU 385,,2385,60,5501122385,Bandar Utama,,,,,
BU 386,,2386,60,5501122386,Bandar Utama,,,,,
BU 387,,2387,60,5501122387,Bandar Utama,,,,,
BU 388,,2388,60,5501122388,Bandar Utama,,,,,
BU 389,,2389,60,5501122389,Bandar Utama,,,,,
BU 390,,2390,60,5501122390,Bandar Utama,,,,,
BU 391,,2391,60,5501122391,Bandar Utama,,,,,
BU 392,,2392,60,5501122392,Bandar Utama,,,,,
BU 393,,2393,60,5501122393,Bandar Utama,,,,,
BU 394,,2394,60,5501122394,Bandar Utama,,,,,
BU 395,,2395,60,5501122395,Bandar Utama,,,,,
BU 396,,2396,60,5501122396,Bandar Utama,,,,,
BU 397,,2397,60,5501122397,Bandar Utama,,,,,
BU 398,,2398,60,5501122398,Bandar Utama,,,,,
BU 399,,2399,60,5501122399,Bandar Utama,,,,,
BU 400,,2400,60,5501122400,Bandar Utama,,,,,
BU 401,,2401,60,5501122401,Bandar Utama,,,,,
BU 402,,2402,60,5501122402,Bandar Utama,,,,,
BU 403,,2403,60,5501122403,Bandar Utama,,,,,
BU 404,,2404,60,5501122404,Bandar Utama,,,,,
BU 405,,2405,60,5501122405,Bandar Utama,,,,,
BU 406,,2406,60,5501122406,Bandar Utama,,,,,
BU 407,,2407,60,5501122407,Bandar Utama,,,,,
BU 408,,2408,60,5501122408,Bandar Utama,,,,,
BU 409,,2409,60,5501122409,Bandar Utama,,,,,
BU 410,,2410,60,5501122410,Bandar Utama,,,,,
BU 411,,2411,60,5501122411,Bandar Utama,,,,,
BU 412,,2412,60,5501122412,Bandar Utama,,,,,
BU 413,,2413,60,5501122413,Bandar Utama,,,,,
BU 414,,2414,60,5501122414,Bandar Utama,,,,,
BU 415,,2415,60,5501122415,Bandar Utama,,,,,
BU 416,,2416,60,5501122416,Bandar Utama,,,,,
BU 417,,2417,60,5501122417,Bandar Utama,,,,,
BU 418,,2418,60,5501122418,Bandar Utama,,,,,
BU 419,,2419,60,5501122419,Bandar Utama,,,,,
BU 420,,2420,60,5501122420,Bandar Utama,,,,,
BU 421,,2421,60,5501122421,Bandar Utama,,,,,
BU 422,,2422,60,5501122422,Bandar Utama,,,,,
BU 423,,2423,60,5501122423,Bandar Utama,,,,,
BU 424,,2424,60,5501122424,Bandar Utama,,,,,
BU 425,,2425,60,5501122425,Bandar Utama,,,,,
BU 426,,2426,60,5501122426,Bandar Utama,,,,,
BU 427,,2427,60,5501122427,Bandar Utama,,,,,
BU 428,,2428,60,5501122428,Bandar Utama,,,,,
BU 429,,2429,60,5501122429,Bandar Utama,,,,,
BU 430,,2430,60,5501122430,Bandar Utama,,,,,
BU 431,,2431,60,5501122431,Bandar Utama,,,,,
BU 432,,2432,60,5501122432,Bandar Utama,,,,,
BU 433,,2433,60,5501122433,Bandar Utama,,,,,
BU 434,,2434,60,5501122434,Bandar Utama,,,,,
BU 435,,2435,60,5501122435,Bandar Utama,,,,,
BU 436,,2436,60,5501122436,Bandar Utama,,,,,
BU 437,,2437,60,5501122437,Bandar Utama,,,,,
BU 438,,2438,60,5501122438,Bandar Utama,,,,,
BU 439,,2439,60,5501122439,Bandar Utama,,,,,
BU 440,,2440,60,5501122440,Bandar Utama,,,,,
BU 441,,2441,60,5501122441,Bandar Utama,,,,,
BU 442,,2442,60,5501122442,Bandar Utama,,,,,
BU 443,,2443,60,5501122443,Bandar Utama,,,,,
BU 444,,2444,60,5501122444,Bandar Utama,,,,,
BU 445,,2445,60,5501122445,Bandar Utama,,,,,
BU 446,,2446,60,5501122446,Bandar Utama,,,,,
BU 447,,2447,60,5501122447,Bandar Utama,,,,,
BU 448,,2448,60,5501122448,Bandar Utama,,,,,
BU 449,,2449,60,5501122449,Bandar Utama,,,,,
BU 450,,2450,60,5501122450,Bandar Utama,,,,,
BU 451,,2451,60,5501122451,Bandar Utama,,,,,
BU 452,,2452,60,5501122452,Bandar Utama,,,,,
BU 453,,2453,60,5501122453,Bandar Utama,,,,,
BU 454,,2454,60,5501122454,Bandar Utama,,,,,
BU 455,,2455,60,5501122455,Bandar Utama,,,,,
BU 456,,2456,60,5501122456,Bandar Utama,,,,,
BU 457,,2457,60,5501122457,Bandar Utama,,,,,
BU 458,,2458,60,5501122458,Bandar Utama,,,,,
BU 459,,2459,60,5501122459,Bandar Utama,,,,,
BU 460,,2460,60,5501122460,Bandar Utama,,,,,
BU 461,,2461,60,5501122461,Bandar Utama,,,,,
BU 462,,2462,60,5501122462,Bandar Utama,,,,,
BU 463,,2463,60,5501122463,Bandar Utama,,,,,
BU 464,,2464,60,5501122464,Bandar Utama,,,,,
BU 465,,2465,60,5501122465,Bandar Utama,,,,,
BU 466,,2466,60,5501122466,Bandar Utama,,,,,
BU 467,,2467,60,5501122467,Bandar Utama,,,,,
BU 468,,2468,60,5501122468,Bandar Utama,,,,,
BU 469,,2469,60,5501122469,Bandar Utama,,,,,
BU 470,,2470,60,5501122470,Bandar Utama,,,,,
BU 471,,2471,60,5501122471,Bandar Utama,,,,,
BU 472,,2472,60,5501122472,Bandar Utama,,,,,
BU 473,,2473,60,5501122473,Bandar Utama,,,,,
BU 474,,2474,60,5501122474,Bandar Utama,,,,,
BU 475,,2475,60,5501122475,Bandar Utama,,,,,
BU 476,,2476,60,5501122476,Bandar Utama,,,,,
BU 477,,2477,60,5501122477,Bandar Utama,,,,,
BU 478,,2478,60,5501122478,Bandar Utama,,,,,
BU 479,,2479,60,5501122479,Bandar Utama,,,,,
BU 480,,2480,60,5501122480,Bandar Utama,,,,,
BU 481,,2481,60,5501122481,Bandar Utama,,,,,
BU 482,,2482,60,5501122482,Bandar Utama,,,,,
BU 483,,2483,60,5501122483,Bandar Utama,,,,,
BU 484,,2484,60,5501122484,Bandar Utama,,,,,
BU 485,,2485,60,5501122485,Bandar Utama,,,,,
BU 486,,2486,60,5501122486,Bandar Utama,,,,,
BU 487,,2487,60,5501122487,Bandar Utama,,,,,
BU 488,,2488,60,5501122488,Bandar Utama,,,,,
BU 489,,2489,60,5501122489,Bandar Utama,,,,,
BU 490,,2490,60,5501122490,Bandar Utama,,,,,
BU 491,,2491,60,5501122491,Bandar Utama,,,,,
BU 492,,2492,60,5501122492,Bandar Utama,,,,,
BU 493,,2493,60,5501122493,Bandar Utama,,,,,
BU 494,,2494,60,5501122494,Bandar Utama,,,,,
BU 495,,2495,60,5501122495,Bandar Utama,,,,,
BU 496,,2496,60,5501122496,Bandar Utama,,,,,
BU 497,,2497,60,5501122497,Bandar Utama,,,,,
BU 498,,2498,60,5501122498,Bandar Utama,,,,,
BU 499,,2499,60,5501122499,Bandar Utama,,,,,
BU 500,,2500,60,5501122500,Bandar Utama,,,,,
BU 501,,2501,60,5501122501,Bandar Utama,,,,,
BU 502,,2502,60,5501122502,Bandar Utama,,,,,
BU 503,,2503,60,5501122503,Bandar Utama,,,,,
BU 504,,2504,60,5501122504,Bandar Utama,,,,,
BU 505,,2505,60,5501122505,Bandar Utama,,,,,
BU 506,,2506,60,5501122506,Bandar Utama,,,,,
BU 507,,2507,60,5501122507,Bandar Utama,,,,,
BU 508,,2508,60,5501122508,Bandar Utama,,,,,
BU 509,,2509,60,5501122509,Bandar Utama,,,,,
BU 510,,2510,60,5501122510,Bandar Utama,,,,,
BU 511,,2511,60,5501122511,Bandar Utama,,,,,
BU 512,,2512,60,5501122512,Bandar Utama,,,,,
BU 513,,2513,60,5501122513,Bandar Utama,,,,,
BU 514,,2514,60,5501122514,Bandar Utama,,,,,
BU 515,,2515,60,5501122515,Bandar Utama,,,,,
BU 516,,2516,60,5501122516,Bandar Utama,,,,,
BU 517,,2517,60,5501122517,Bandar Utama,,,,,
BU 518,,2518,60,5501122518,Bandar Utama,,,,,
BU 519,,2519,60,5501122519,Bandar Utama,,,,,
BU 520,,2520,60,5501122520,Bandar Utama,,,,,
BU 521,,2521,60,5501122521,Bandar Utama,,,,,
BU 522,,2522,60,5501122522,Bandar Utama,,,,,
BU 523,,2523,60,5501122523,Bandar Utama,,,,,
BU 524,,2524,60,5501122524,Bandar Utama,,,,,
BU 525,,2525,60,5501122525,Bandar Utama,,,,,
BU 526,,2526,60,5501122526,Bandar Utama,,,,,
BU 527,,2527,60,5501122527,Bandar Utama,,,,,
BU 528,,2528,60,5501122528,Bandar Utama,,,,,
BU 529,,2529,60,5501122529,Bandar Utama,,,,,
BU 530,,2530,60,5501122530,Bandar Utama,,,,,
BU 531,,2531,60,5501122531,Bandar Utama,,,,,
BU 532,,2532,60,5501122532,Bandar Utama,,,,,
BU 533,,2533,60,5501122533,Bandar Utama,,,,,
BU 534,,2534,60,5501122534,Bandar Utama,,,,,
BU 535,,2535,60,5501122535,Bandar Utama,,,,,
BU 536,,2536,60,5501122536,Bandar Utama,,,,,
BU 537,,2537,60,5501122537,Bandar Utama,,,,,
BU 538,,2538,60,5501122538,Bandar Utama,,,,,
BU 539,,2539,60,5501122539,Bandar Utama,,,,,
BU 540,,2540,60,5501122540,Bandar Utama,,,,,
BU 541,,2541,60,5501122541,Bandar Utama,,,,,
BU 542,,2542,60,5501122542,Bandar Utama,,,,,
BU 543,,2543,60,5501122543,Bandar Utama,,,,,
BU 544,,2544,60,5501122544,Bandar Utama,,,,,
BU 545,,2545,60,5501122545,Bandar Utama,,,,,
BU 546,,2546,60,5501122546,Bandar Utama,,,,,
BU 547,,2547,60,5501122547,Bandar Utama,,,,,
BU 548,,2548,60,5501122548,Bandar Utama,,,,,
BU 549,,2549,60,5501122549,Bandar Utama,,,,,
BU 550,,2550,60,5501122550,Bandar Utama,,,,,
BU 551,,2551,60,5501122551,Bandar Utama,,,,,
BU 552,,2552,60,5501122552,Bandar Utama,,,,,
BU 553,,2553,60,5501122553,Bandar Utama,,,,,
BU 554,,2554,60,5501122554,Bandar Utama,,,,,
BU 555,,2555,60,5501122555,Bandar Utama,,,,,
BU 556,,2556,60,5501122556,Bandar Utama,,,,,
BU 557,,2557,60,5501122557,Bandar Utama,,,,,
BU 558,,2558,60,5501122558,Bandar Utama,,,,,
BU 559,,2559,60,5501122559,Bandar Utama,,,,,
BU 560,,2560,60,5501122560,Bandar Utama,,,,,
BU 561,,2561,60,5501122561,Bandar Utama,,,,,
BU 562,,2562,60,5501122562,Bandar Utama,,,,,
BU 563,,2563,60,5501122563,Bandar Utama,,,,,
BU 564,,2564,60,5501122564,Bandar Utama,,,,,
BU 565,,2565,60,5501122565,Bandar Utama,,,,,
BU 566,,2566,60,5501122566,Bandar Utama,,,,,
BU 567,,2567,60,5501122567,Bandar Utama,,,,,
BU 568,,2568,60,5501122568,Bandar Utama,,,,,
BU 569,,2569,60,5501122569,Bandar Utama,,,,,
BU 570,,2570,60,5501122570,Bandar Utama,,,,,
BU 571,,2571,60,5501122571,Bandar Utama,,,,,
BU 572,,2572,60,5501122572,Bandar Utama,,,,,
BU 573,,2573,60,5501122573,Bandar Utama,,,,,
BU 574,,2574,60,5501122574,Bandar Utama,,,,,
BU 575,,2575,60,5501122575,Bandar Utama,,,,,
BU 576,,2576,60,5501122576,Bandar Utama,,,,,
BU 577,,2577,60,5501122577,Bandar Utama,,,,,
BU 578,,2578,60,5501122578,Bandar Utama,,,,,
BU 579,,2579,60,5501122579,Bandar Utama,,,,,
BU 580,,2580,60,5501122580,Bandar Utama,,,,,
BU 581,,2581,60,5501122581,Bandar Utama,,,,,
BU 582,,2582,60,5501122582,Bandar Utama,,,,,
BU 583,,2583,60,5501122583,Bandar Utama,,,,,
BU 584,,2584,60,5501122584,Bandar Utama,,,,,
BU 585,,2585,60,5501122585,Bandar Utama,,,,,
BU 586,,2586,60,5501122586,Bandar Utama,,,,,
BU 587,,2587,60,5501122587,Bandar Utama,,,,,
BU 588,,2588,60,5501122588,Bandar Utama,,,,,
BU 589,,2589,60,5501122589,Bandar Utama,,,,,
BU 590,,2590,60,5501122590,Bandar Utama,,,,,
BU 591,,2591,60,5501122591,Bandar Utama,,,,,
BU 592,,2592,60,5501122592,Bandar Utama,,,,,
BU 593,,2593,60,5501122593,Bandar Utama,,,,,
BU 594,,2594,60,5501122594,Bandar Utama,,,,,
BU 595,,2595,60,5501122595,Bandar Utama,,,,,
BU 596,,2596,60,5501122596,Bandar Utama,,,,,
BU 597,,2597,60,5501122597,Bandar Utama,,,,,
BU 598,,2598,60,5501122598,Bandar Utama,,,,,
BU 599,,2599,60,5501122599,Bandar Utama,,,,,
BU 600,,2600,60,5501122600,Bandar Utama,,,,,
BU 601,,2601,60,5501122601,Bandar Utama,,,,,
BU 602,,2602,60,5501122602,Bandar Utama,,,,,
BU 603,,2603,60,5501122603,Bandar Utama,,,,,
BU 604,,2604,60,5501122604,Bandar Utama,,,,,
BU 605,,2605,60,5501122605,Bandar Utama,,,,,
BU 606,,2606,60,5501122606,Bandar Utama,,,,,
BU 607,,2607,60,5501122607,Bandar Utama,,,,,
BU 608,,2608,60,5501122608,Bandar Utama,,,,,
BU 609,,2609,60,5501122609,Bandar Utama,,,,,
BU 610,,2610,60,5501122610,Bandar Utama,,,,,
BU 611,,2611,60,5501122611,Bandar Utama,,,,,
BU 612,,2612,60,5501122612,Bandar Utama,,,,,
BU 613,,2613,60,5501122613,Bandar Utama,,,,,
BU 614,,2614,60,5501122614,Bandar Utama,,,,,
BU 615,,2615,60,5501122615,Bandar Utama,,,,,
BU 616,,2616,60,5501122616,Bandar Utama,,,,,
BU 617,,2617,60,5501122617,Bandar Utama,,,,,
BU 618,,2618,60,5501122618,Bandar Utama,,,,,
BU 619,,2619,60,5501122619,Bandar Utama,,,,,
BU 620,,2620,60,5501122620,Bandar Utama,,,,,
BU 621,,2621,60,5501122621,Bandar Utama,,,,,
BU 622,,2622,60,5501122622,Bandar Utama,,,,,
BU 623,,2623,60,5501122623,Bandar Utama,,,,,
BU 624,,2624,60,5501122624,Bandar Utama,,,,,
BU 625,,2625,60,5501122625,Bandar Utama,,,,,
BU 626,,2626,60,5501122626,Bandar Utama,,,,,
BU 627,,2627,60,5501122627,Bandar Utama,,,,,
BU 628,,2628,60,5501122628,Bandar Utama,,,,,
BU 629,,2629,60,5501122629,Bandar Utama,,,,,
BU 630,,2630,60,5501122630,Bandar Utama,,,,,
BU 631,,2631,60,5501122631,Bandar Utama,,,,,
BU 632,,2632,60,5501122632,Bandar Utama,,,,,
BU 633,,2633,60,5501122633,Bandar Utama,,,,,
BU 634,,2634,60,5501122634,Bandar Utama,,,,,
BU 635,,2635,60,5501122635,Bandar Utama,,,,,
BU 636,,2636,60,5501122636,Bandar Utama,,,,,
BU 637,,2637,60,5501122637,Bandar Utama,,,,,
BU 638,,2638,60,5501122638,Bandar Utama,,,,,
BU 639,,2639,60,5501122639,Bandar Utama,,,,,
BU 640,,2640,60,5501122640,Bandar Utama,,,,,
BU 641,,2641,60,5501122641,Bandar Utama,,,,,
BU 642,,2642,60,5501122642,Bandar Utama,,,,,
BU 643,,2643,60,5501122643,Bandar Utama,,,,,
BU 644,,2644,60,5501122644,Bandar Utama,,,,,
BU 645,,2645,60,5501122645,Bandar Utama,,,,,
BU 646,,2646,60,5501122646,Bandar Utama,,,,,
BU 647,,2647,60,5501122647,Bandar Utama,,,,,
BU 648,,2648,60,5501122648,Bandar Utama,,,,,
BU 649,,2649,60,5501122649,Bandar Utama,,,,,
BU 650,,2650,60,5501122650,Bandar Utama,,,,,
BU 651,,2651,60,5501122651,Bandar Utama,,,,,
BU 652,,2652,60,5501122652,Bandar Utama,,,,,
BU 653,,2653,60,5501122653,Bandar Utama,,,,,
BU 654,,2654,60,5501122654,Bandar Utama,,,,,
BU 655,,2655,60,5501122655,Bandar Utama,,,,,
BU 656,,2656,60,5501122656,Bandar Utama,,,,,
BU 657,,2657,60,5501122657,Bandar Utama,,,,,
BU 658,,2658,60,5501122658,Bandar Utama,,,,,
BU 659,,2659,60,5501122659,Bandar Utama,,,,,
BU 660,,2660,60,5501122660,Bandar Utama,,,,,
BU 661,,2661,60,5501122661,Bandar Utama,,,,,
BU 662,,2662,60,5501122662,Bandar Utama,,,,,
BU 663,,2663,60,5501122663,Bandar Utama,,,,,
BU 664,,2664,60,5501122664,Bandar Utama,,,,,
BU 665,,2665,60,5501122665,Bandar Utama,,,,,
BU 666,,2666,60,5501122666,Bandar Utama,,,,,
BU 667,,2667,60,5501122667,Bandar Utama,,,,,
BU 668,,2668,60,5501122668,Bandar Utama,,,,,
BU 669,,2669,60,5501122669,Bandar Utama,,,,,
BU 670,,2670,60,5501122670,Bandar Utama,,,,,
BU 671,,2671,60,5501122671,Bandar Utama,,,,,
BU 672,,2672,60,5501122672,Bandar Utama,,,,,
BU 673,,2673,60,5501122673,Bandar Utama,,,,,
BU 674,,2674,60,5501122674,Bandar Utama,,,,,
BU 675,,2675,60,5501122675,Bandar Utama,,,,,
BU 676,,2676,60,5501122676,Bandar Utama,,,,,
BU 677,,2677,60,5501122677,Bandar Utama,,,,,
BU 678,,2678,60,5501122678,Bandar Utama,,,,,
BU 679,,2679,60,5501122679,Bandar Utama,,,,,
BU 680,,2680,60,5501122680,Bandar Utama,,,,,
BU 681,,2681,60,5501122681,Bandar Utama,,,,,
BU 682,,2682,60,5501122682,Bandar Utama,,,,,
BU 683,,2683,60,5501122683,Bandar Utama,,,,,
BU 684,,2684,60,5501122684,Bandar Utama,,,,,
BU 685,,2685,60,5501122685,Bandar Utama,,,,,
BU 686,,2686,60,5501122686,Bandar Utama,,,,,
BU 687,,2687,60,5501122687,Bandar Utama,,,,,
BU 688,,2688,60,5501122688,Bandar Utama,,,,,
BU 689,,2689,60,5501122689,Bandar Utama,,,,,
BU 690,,2690,60,5501122690,Bandar Utama,,,,,
BU 691,,2691,60,5501122691,Bandar Utama,,,,,
BU 692,,2692,60,5501122692,Bandar Utama,,,,,
BU 693,,2693,60,5501122693,Bandar Utama,,,,,
BU 694,,2694,60,5501122694,Bandar Utama,,,,,
BU 695,,2695,60,5501122695,Bandar Utama,,,,,
BU 696,,2696,60,5501122696,Bandar Utama,,,,,
BU 697,,2697,60,5501122697,Bandar Utama,,,,,
BU 698,,2698,60,5501122698,Bandar Utama,,,,,
BU 699,,2699,60,5501122699,Bandar Utama,,,,,
BU 700,,2700,60,5501122700,Bandar Utama,,,,,
BU 701,,2701,60,5501122701,Bandar Utama,,,,,
BU 702,,2702,60,5501122702,Bandar Utama,,,,,
BU 703,,2703,60,5501122703,Bandar Utama,,,,,
BU 704,,2704,60,5501122704,Bandar Utama,,,,,
BU 705,,2705,60,5501122705,Bandar Utama,,,,,
BU 706,,2706,60,5501122706,Bandar Utama,,,,,
BU 707,,2707,60,5501122707,Bandar Utama,,,,,
BU 708,,2708,60,5501122708,Bandar Utama,,,,,
BU 709,,2709,60,5501122709,Bandar Utama,,,,,
BU 710,,2710,60,5501122710,Bandar Utama,,,,,
BU 711,,2711,60,5501122711,Bandar Utama,,,,,
BU 712,,2712,60,5501122712,Bandar Utama,,,,,
BU 713,,2713,60,5501122713,Bandar Utama,,,,,
BU 714,,2714,60,5501122714,Bandar Utama,,,,,
BU 715,,2715,60,5501122715,Bandar Utama,,,,,
BU 716,,2716,60,5501122716,Bandar Utama,,,,,
BU 717,,2717,60,5501122717,Bandar Utama,,,,,
BU 718,,2718,60,5501122718,Bandar Utama,,,,,
BU 719,,2719,60,5501122719,Bandar Utama,,,,,
BU 720,,2720,60,5501122720,Bandar Utama,,,,,
BU 721,,2721,60,5501122721,Bandar Utama,,,,,
BU 722,,2722,60,5501122722,Bandar Utama,,,,,
BU 723,,2723,60,5501122723,Bandar Utama,,,,,
BU 724,,2724,60,5501122724,Bandar Utama,,,,,
BU 725,,2725,60,5501122725,Bandar Utama,,,,,
BU 726,,2726,60,5501122726,Bandar Utama,,,,,
BU 727,,2727,60,5501122727,Bandar Utama,,,,,
BU 728,,2728,60,5501122728,Bandar Utama,,,,,
BU 729,,2729,60,5501122729,Bandar Utama,,,,,
BU 730,,2730,60,5501122730,Bandar Utama,,,,,
BU 731,,2731,60,5501122731,Bandar Utama,,,,,
BU 732,,2732,60,5501122732,Bandar Utama,,,,,
BU 733,,2733,60,5501122733,Bandar Utama,,,,,
BU 734,,2734,60,5501122734,Bandar Utama,,,,,
BU 735,,2735,60,5501122735,Bandar Utama,,,,,
BU 736,,2736,60,5501122736,Bandar Utama,,,,,
BU 737,,2737,60,5501122737,Bandar Utama,,,,,
BU 738,,2738,60,5501122738,Bandar Utama,,,,,
BU 739,,2739,60,5501122739,Bandar Utama,,,,,
BU 740,,2740,60,5501122740,Bandar Utama,,,,,
BU 741,,2741,60,5501122741,Bandar Utama,,,,,
BU 742,,2742,60,5501122742,Bandar Utama,,,,,
BU 743,,2743,60,5501122743,Bandar Utama,,,,,
BU 744,,2744,60,5501122744,Bandar Utama,,,,,
BU 745,,2745,60,5501122745,Bandar Utama,,,,,
BU 746,,2746,60,5501122746,Bandar Utama,,,,,
BU 747,,2747,60,5501122747,Bandar Utama,,,,,
BU 748,,2748,60,5501122748,Bandar Utama,,,,,
BU 749,,2749,60,5501122749,Bandar Utama,,,,,
BU 750,,2750,60,5501122750,Bandar Utama,,,,,
BU 751,,2751,60,5501122751,Bandar Utama,,,,,
BU 752,,2752,60,5501122752,Bandar Utama,,,,,
BU 753,,2753,60,5501122753,Bandar Utama,,,,,
BU 754,,2754,60,5501122754,Bandar Utama,,,,,
BU 755,,2755,60,5501122755,Bandar Utama,,,,,
BU 756,,2756,60,5501122756,Bandar Utama,,,,,
BU 757,,2757,60,5501122757,Bandar Utama,,,,,
BU 758,,2758,60,5501122758,Bandar Utama,,,,,
BU 759,,2759,60,5501122759,Bandar Utama,,,,,
BU 760,,2760,60,5501122760,Bandar Utama,,,,,
BU 761,,2761,60,5501122761,Bandar Utama,,,,,
BU 762,,2762,60,5501122762,Bandar Utama,,,,,
BU 763,,2763,60,5501122763,Bandar Utama,,,,,
BU 764,,2764,60,5501122764,Bandar Utama,,,,,
BU 765,,2765,60,5501122765,Bandar Utama,,,,,
BU 766,,2766,60,5501122766,Bandar Utama,,,,,
BU 767,,2767,60,5501122767,Bandar Utama,,,,,
BU 768,,2768,60,5501122768,Bandar Utama,,,,,
BU 769,,2769,60,5501122769,Bandar Utama,,,,,
BU 770,,2770,60,5501122770,Bandar Utama,,,,,
BU 771,,2771,60,5501122771,Bandar Utama,,,,,
BU 772,,2772,60,5501122772,Bandar Utama,,,,,
BU 773,,2773,60,5501122773,Bandar Utama,,,,,
BU 774,,2774,60,5501122774,Bandar Utama,,,,,
BU 775,,2775,60,5501122775,Bandar Utama,,,,,
BU 776,,2776,60,5501122776,Bandar Utama,,,,,
BU 777,,2777,60,5501122777,Bandar Utama,,,,,
BU 778,,2778,60,5501122778,Bandar Utama,,,,,
BU 779,,2779,60,5501122779,Bandar Utama,,,,,
BU 780,,2780,60,5501122780,Bandar Utama,,,,,
BU 781,,2781,60,5501122781,Bandar Utama,,,,,
BU 782,,2782,60,5501122782,Bandar Utama,,,,,
BU 783,,2783,60,5501122783,Bandar Utama,,,,,
BU 784,,2784,60,5501122784,Bandar Utama,,,,,
BU 785,,2785,60,5501122785,Bandar Utama,,,,,
BU 786,,2786,60,5501122786,Bandar Utama,,,,,
BU 787,,2787,60,5501122787,Bandar Utama,,,,,
BU 788,,2788,60,5501122788,Bandar Utama,,,,,
BU 789,,2789,60,5501122789,Bandar Utama,,,,,
BU 790,,2790,60,5501122790,Bandar Utama,,,,,
BU 791,,2791,60,5501122791,Bandar Utama,,,,,
BU 792,,2792,60,5501122792,Bandar Utama,,,,,
BU 793,,2793,60,5501122793,Bandar Utama,,,,,
BU 794,,2794,60,5501122794,Bandar Utama,,,,,
BU 795,,2795,60,5501122795,Bandar Utama,,,,,
BU 796,,2796,60,5501122796,Bandar Utama,,,,,
BU 797,,2797,60,5501122797,Bandar Utama,,,,,
BU 798,,2798,60,5501122798,Bandar Utama,,,,,
BU 799,,2799,60,5501122799,Bandar Utama,,,,,
BU 800,,2800,60,5501122800,Bandar Utama,,,,,
BU 801,,2801,60,5501122801,Bandar Utama,,,,,
BU 802,,2802,60,5501122802,Bandar Utama,,,,,
BU 803,,2803,60,5501122803,Bandar Utama,,,,,
BU 804,,2804,60,5501122804,Bandar Utama,,,,,
BU 805,,2805,60,5501122805,Bandar Utama,,,,,
BU 806,,2806,60,5501122806,Bandar Utama,,,,,
BU 807,,2807,60,5501122807,Bandar Utama,,,,,
BU 808,,2808,60,5501122808,Bandar Utama,,,,,
BU 809,,2809,60,5501122809,Bandar Utama,,,,,
BU 810,,2810,60,5501122810,Bandar Utama,,,,,
BU 811,,2811,60,5501122811,Bandar Utama,,,,,
BU 812,,2812,60,5501122812,Bandar Utama,,,,,
BU 813,,2813,60,5501122813,Bandar Utama,,,,,
BU 814,,2814,60,5501122814,Bandar Utama,,,,,
BU 815,,2815,60,5501122815,Bandar Utama,,,,,
BU 816,,2816,60,5501122816,Bandar Utama,,,,,
BU 817,,2817,60,5501122817,Bandar Utama,,,,,
BU 818,,2818,60,5501122818,Bandar Utama,,,,,
BU 819,,2819,60,5501122819,Bandar Utama,,,,,
BU 820,,2820,60,5501122820,Bandar Utama,,,,,
BU 821,,2821,60,5501122821,Bandar Utama,,,,,
BU 822,,2822,60,5501122822,Bandar Utama,,,,,
BU 823,,2823,60,5501122823,Bandar Utama,,,,,
BU 824,,2824,60,5501122824,Bandar Utama,,,,,
BU 825,,2825,60,5501122825,Bandar Utama,,,,,
BU 826,,2826,60,5501122826,Bandar Utama,,,,,
BU 827,,2827,60,5501122827,Bandar Utama,,,,,
BU 828,,2828,60,5501122828,Bandar Utama,,,,,
BU 829,,2829,60,5501122829,Bandar Utama,,,,,
BU 830,,2830,60,5501122830,Bandar Utama,,,,,
BU 831,,2831,60,5501122831,Bandar Utama,,,,,
BU 832,,2832,60,5501122832,Bandar Utama,,,,,
BU 833,,2833,60,5501122833,Bandar Utama,,,,,
BU 834,,2834,60,5501122834,Bandar Utama,,,,,
BU 835,,2835,60,5501122835,Bandar Utama,,,,,
BU 836,,2836,60,5501122836,Bandar Utama,,,,,
BU 837,,2837,60,5501122837,Bandar Utama,,,,,
BU 838,,2838,60,5501122838,Bandar Utama,,,,,
BU 839,,2839,60,5501122839,Bandar Utama,,,,,
BU 840,,2840,60,5501122840,Bandar Utama,,,,,
BU 841,,2841,60,5501122841,Bandar Utama,,,,,
BU 842,,2842,60,5501122842,Bandar Utama,,,,,
BU 843,,2843,60,5501122843,Bandar Utama,,,,,
BU 844,,2844,60,5501122844,Bandar Utama,,,,,
BU 845,,2845,60,5501122845,Bandar Utama,,,,,
BU 846,,2846,60,5501122846,Bandar Utama,,,,,
BU 847,,2847,60,5501122847,Bandar Utama,,,,,
BU 848,,2848,60,5501122848,Bandar Utama,,,,,
BU 849,,2849,60,5501122849,Bandar Utama,,,,,
BU 850,,2850,60,5501122850,Bandar Utama,,,,,
BU 851,,2851,60,5501122851,Bandar Utama,,,,,
BU 852,,2852,60,5501122852,Bandar Utama,,,,,
BU 853,,2853,60,5501122853,Bandar Utama,,,,,
BU 854,,2854,60,5501122854,Bandar Utama,,,,,
BU 855,,2855,60,5501122855,Bandar Utama,,,,,
BU 856,,2856,60,5501122856,Bandar Utama,,,,,
BU 857,,2857,60,5501122857,Bandar Utama,,,,,
BU 858,,2858,60,5501122858,Bandar Utama,,,,,
BU 859,,2859,60,5501122859,Bandar Utama,,,,,
BU 860,,2860,60,5501122860,Bandar Utama,,,,,
BU 861,,2861,60,5501122861,Bandar Utama,,,,,
BU 862,,2862,60,5501122862,Bandar Utama,,,,,
BU 863,,2863,60,5501122863,Bandar Utama,,,,,
BU 864,,2864,60,5501122864,Bandar Utama,,,,,
BU 865,,2865,60,5501122865,Bandar Utama,,,,,
BU 866,,2866,60,5501122866,Bandar Utama,,,,,
BU 867,,2867,60,5501122867,Bandar Utama,,,,,
BU 868,,2868,60,5501122868,Bandar Utama,,,,,
BU 869,,2869,60,5501122869,Bandar Utama,,,,,
BU 870,,2870,60,5501122870,Bandar Utama,,,,,
BU 871,,2871,60,5501122871,Bandar Utama,,,,,
BU 872,,2872,60,5501122872,Bandar Utama,,,,,
BU 873,,2873,60,5501122873,Bandar Utama,,,,,
BU 874,,2874,60,5501122874,Bandar Utama,,,,,
BU 875,,2875,60,5501122875,Bandar Utama,,,,,
BU 876,,2876,60,5501122876,Bandar Utama,,,,,
BU 877,,2877,60,5501122877,Bandar Utama,,,,,
BU 878,,2878,60,5501122878,Bandar Utama,,,,,
BU 879,,2879,60,5501122879,Bandar Utama,,,,,
BU 880,,2880,60,5501122880,Bandar Utama,,,,,
BU 881,,2881,60,5501122881,Bandar Utama,,,,,
BU 882,,2882,60,5501122882,Bandar Utama,,,,,
BU 883,,2883,60,5501122883,Bandar Utama,,,,,
BU 884,,2884,60,5501122884,Bandar Utama,,,,,
BU 885,,2885,60,5501122885,Bandar Utama,,,,,
BU 886,,2886,60,5501122886,Bandar Utama,,,,,
BU 887,,2887,60,5501122887,Bandar Utama,,,,,
BU 888,,2888,60,5501122888,Bandar Utama,,,,,
BU 889,,2889,60,5501122889,Bandar Utama,,,,,
BU 890,,2890,60,5501122890,Bandar Utama,,,,,
BU 891,,2891,60,5501122891,Bandar Utama,,,,,
BU 892,,2892,60,5501122892,Bandar Utama,,,,,
BU 893,,2893,60,5501122893,Bandar Utama,,,,,
BU 894,,2894,60,5501122894,Bandar Utama,,,,,
BU 895,,2895,60,5501122895,Bandar Utama,,,,,
BU 896,,2896,60,5501122896,Bandar Utama,,,,,
BU 897,,2897,60,5501122897,Bandar Utama,,,,,
BU 898,,2898,60,5501122898,Bandar Utama,,,,,
BU 899,,2899,60,5501122899,Bandar Utama,,,,,
BU 900,,2900,60,5501122900,Bandar Utama,,,,,
BU 901,,2901,60,5501122901,Bandar Utama,,,,,
BU 902,,2902,60,5501122902,Bandar Utama,,,,,
BU 903,,2903,60,5501122903,Bandar Utama,,,,,
BU 904,,2904,60,5501122904,Bandar Utama,,,,,
BU 905,,2905,60,5501122905,Bandar Utama,,,,,
BU 906,,2906,60,5501122906,Bandar Utama,,,,,
BU 907,,2907,60,5501122907,Bandar Utama,,,,,
BU 908,,2908,60,5501122908,Bandar Utama,,,,,
BU 909,,2909,60,5501122909,Bandar Utama,,,,,
BU 910,,2910,60,5501122910,Bandar Utama,,,,,
BU 911,,2911,60,5501122911,Bandar Utama,,,,,
BU 912,,2912,60,5501122912,Bandar Utama,,,,,
BU 913,,2913,60,5501122913,Bandar Utama,,,,,
BU 914,,2914,60,5501122914,Bandar Utama,,,,,
BU 915,,2915,60,5501122915,Bandar Utama,,,,,
BU 916,,2916,60,5501122916,Bandar Utama,,,,,
BU 917,,2917,60,5501122917,Bandar Utama,,,,,
BU 918,,2918,60,5501122918,Bandar Utama,,,,,
BU 919,,2919,60,5501122919,Bandar Utama,,,,,
BU 920,,2920,60,5501122920,Bandar Utama,,,,,
BU 921,,2921,60,5501122921,Bandar Utama,,,,,
BU 922,,2922,60,5501122922,Bandar Utama,,,,,
BU 923,,2923,60,5501122923,Bandar Utama,,,,,
BU 924,,2924,60,5501122924,Bandar Utama,,,,,
BU 925,,2925,60,5501122925,Bandar Utama,,,,,
BU 926,,2926,60,5501122926,Bandar Utama,,,,,
BU 927,,2927,60,5501122927,Bandar Utama,,,,,
BU 928,,2928,60,5501122928,Bandar Utama,,,,,
BU 929,,2929,60,5501122929,Bandar Utama,,,,,
BU 930,,2930,60,5501122930,Bandar Utama,,,,,
BU 931,,2931,60,5501122931,Bandar Utama,,,,,
BU 932,,2932,60,5501122932,Bandar Utama,,,,,
BU 933,,2933,60,5501122933,Bandar Utama,,,,,
BU 934,,2934,60,5501122934,Bandar Utama,,,,,
BU 935,,2935,60,5501122935,Bandar Utama,,,,,
BU 936,,2936,60,5501122936,Bandar Utama,,,,,
BU 937,,2937,60,5501122937,Bandar Utama,,,,,
BU 938,,2938,60,5501122938,Bandar Utama,,,,,
BU 939,,2939,60,5501122939,Bandar Utama,,,,,
BU 940,,2940,60,5501122940,Bandar Utama,,,,,
BU 941,,2941,60,5501122941,Bandar Utama,,,,,
BU 942,,2942,60,5501122942,Bandar Utama,,,,,
BU 943,,2943,60,5501122943,Bandar Utama,,,,,
BU 944,,2944,60,5501122944,Bandar Utama,,,,,
BU 945,,2945,60,5501122945,Bandar Utama,,,,,
BU 946,,2946,60,5501122946,Bandar Utama,,,,,
BU 947,,2947,60,5501122947,Bandar Utama,,,,,
BU 948,,2948,60,5501122948,Bandar Utama,,,,,
BU 949,,2949,60,5501122949,Bandar Utama,,,,,
BU 950,,2950,60,5501122950,Bandar Utama,,,,,
BU 951,,2951,60,5501122951,Bandar Utama,,,,,
BU 952,,2952,60,5501122952,Bandar Utama,,,,,
BU 953,,2953,60,5501122953,Bandar Utama,,,,,
BU 954,,2954,60,5501122954,Bandar Utama,,,,,
BU 955,,2955,60,5501122955,Bandar Utama,,,,,
BU 956,,2956,60,5501122956,Bandar Utama,,,,,
BU 957,,2957,60,5501122957,Bandar Utama,,,,,
BU 958,,2958,60,5501122958,Bandar Utama,,,,,
BU 959,,2959,60,5501122959,Bandar Utama,,,,,
BU 960,,2960,60,5501122960,Bandar Utama,,,,,
BU 961,,2961,60,5501122961,Bandar Utama,,,,,
BU 962,,2962,60,5501122962,Bandar Utama,,,,,
BU 963,,2963,60,5501122963,Bandar Utama,,,,,
BU 964,,2964,60,5501122964,Bandar Utama,,,,,
BU 965,,2965,60,5501122965,Bandar Utama,,,,,
BU 966,,2966,60,5501122966,Bandar Utama,,,,,
BU 967,,2967,60,5501122967,Bandar Utama,,,,,
BU 968,,2968,60,5501122968,Bandar Utama,,,,,
BU 969,,2969,60,5501122969,Bandar Utama,,,,,
BU 970,,2970,60,5501122970,Bandar Utama,,,,,
BU 971,,2971,60,5501122971,Bandar Utama,,,,,
BU 972,,2972,60,5501122972,Bandar Utama,,,,,
BU 973,,2973,60,5501122973,Bandar Utama,,,,,
BU 974,,2974,60,5501122974,Bandar Utama,,,,,
BU 975,,2975,60,5501122975,Bandar Utama,,,,,
BU 976,,2976,60,5501122976,Bandar Utama,,,,,
BU 977,,2977,60,5501122977,Bandar Utama,,,,,
BU 978,,2978,60,5501122978,Bandar Utama,,,,,
BU 979,,2979,60,5501122979,Bandar Utama,,,,,
BU 980,,2980,60,5501122980,Bandar Utama,,,,,
BU 981,,2981,60,5501122981,Bandar Utama,,,,,
BU 982,,2982,60,5501122982,Bandar Utama,,,,,
BU 983,,2983,60,5501122983,Bandar Utama,,,,,
BU 984,,2984,60,5501122984,Bandar Utama,,,,,
BU 985,,2985,60,5501122985,Bandar Utama,,,,,
BU 986,,2986,60,5501122986,Bandar Utama,,,,,
BU 987,,2987,60,5501122987,Bandar Utama,,,,,
BU 988,,2988,60,5501122988,Bandar Utama,,,,,
BU 989,,2989,60,5501122989,Bandar Utama,,,,,
BU 990,,2990,60,5501122990,Bandar Utama,,,,,
BU 991,,2991,60,5501122991,Bandar Utama,,,,,
BU 992,,2992,60,5501122992,Bandar Utama,,,,,
BU 993,,2993,60,5501122993,Bandar Utama,,,,,
BU 994,,2994,60,5501122994,Bandar Utama,,,,,
BU 995,,2995,60,5501122995,Bandar Utama,,,,,
BU 996,,2996,60,5501122996,Bandar Utama,,,,,
BU 997,,2997,60,5501122997,Bandar Utama,,,,,
BU 998,,2998,60,5501122998,Bandar Utama,,,,,
BU 999,,2999,60,5501122999,Bandar Utama,,,,,
BU 1000,,3000,60,5501123000,Bandar Utama,,,,,
BU 1001,,3001,60,5501123001,Bandar Utama,,,,,
BU 1002,,3002,60,5501123002,Bandar Utama,,,,,
BU 1003,,3003,60,5501123003,Bandar Utama,,,,,
BU 1004,,3004,60,5501123004,Bandar Utama,,,,,
BU 1005,,3005,60,5501123005,Bandar Utama,,,,,
BU 1006,,3006,60,5501123006,Bandar Utama,,,,,
BU 1007,,3007,60,5501123007,Bandar Utama,,,,,
BU 1008,,3008,60,5501123008,Bandar Utama,,,,,
BU 1009,,3009,60,5501123009,Bandar Utama,,,,,
BU 1010,,3010,60,5501123010,Bandar Utama,,,,,
BU 1011,,3011,60,5501123011,Bandar Utama,,,,,
BU 1012,,3012,60,5501123012,Bandar Utama,,,,,
BU 1013,,3013,60,5501123013,Bandar Utama,,,,,
BU 1014,,3014,60,5501123014,Bandar Utama,,,,,
BU 1015,,3015,60,5501123015,Bandar Utama,,,,,
BU 1016,,3016,60,5501123016,Bandar Utama,,,,,
BU 1017,,3017,60,5501123017,Bandar Utama,,,,,
BU 1018,,3018,60,5501123018,Bandar Utama,,,,,
BU 1019,,3019,60,5501123019,Bandar Utama,,,,,
BU 1020,,3020,60,5501123020,Bandar Utama,,,,,
BU 1021,,3021,60,5501123021,Bandar Utama,,,,,
BU 1022,,3022,60,5501123022,Bandar Utama,,,,,
BU 1023,,3023,60,5501123023,Bandar Utama,,,,,
BU 1024,,3024,60,5501123024,Bandar Utama,,,,,
BU 1025,,3025,60,5501123025,Bandar Utama,,,,,
BU 1026,,3026,60,5501123026,Bandar Utama,,,,,
BU 1027,,3027,60,5501123027,Bandar Utama,,,,,
BU 1028,,3028,60,5501123028,Bandar Utama,,,,,
BU 1029,,3029,60,5501123029,Bandar Utama,,,,,
BU 1030,,3030,60,5501123030,Bandar Utama,,,,,
BU 1031,,3031,60,5501123031,Bandar Utama,,,,,
BU 1032,,3032,60,5501123032,Bandar Utama,,,,,
BU 1033,,3033,60,5501123033,Bandar Utama,,,,,
BU 1034,,3034,60,5501123034,Bandar Utama,,,,,
BU 1035,,3035,60,5501123035,Bandar Utama,,,,,
BU 1036,,3036,60,5501123036,Bandar Utama,,,,,
BU 1037,,3037,60,5501123037,Bandar Utama,,,,,
BU 1038,,3038,60,5501123038,Bandar Utama,,,,,
BU 1039,,3039,60,5501123039,Bandar Utama,,,,,
BU 1040,,3040,60,5501123040,Bandar Utama,,,,,
BU 1041,,3041,60,5501123041,Bandar Utama,,,,,
BU 1042,,3042,60,5501123042,Bandar Utama,,,,,
BU 1043,,3043,60,5501123043,Bandar Utama,,,,,
BU 1044,,3044,60,5501123044,Bandar Utama,,,,,
BU 1045,,3045,60,5501123045,Bandar Utama,,,,,
BU 1046,,3046,60,5501123046,Bandar Utama,,,,,
BU 1047,,3047,60,5501123047,Bandar Utama,,,,,
BU 1048,,3048,60,5501123048,Bandar Utama,,,,,
BU 1049,,3049,60,5501123049,Bandar Utama,,,,,
BU 1050,,3050,60,5501123050,Bandar Utama,,,,,
BU 1051,,3051,60,5501123051,Bandar Utama,,,,,
BU 1052,,3052,60,5501123052,Bandar Utama,,,,,
BU 1053,,3053,60,5501123053,Bandar Utama,,,,,
BU 1054,,3054,60,5501123054,Bandar Utama,,,,,
BU 1055,,3055,60,5501123055,Bandar Utama,,,,,
BU 1056,,3056,60,5501123056,Bandar Utama,,,,,
BU 1057,,3057,60,5501123057,Bandar Utama,,,,,
BU 1058,,3058,60,5501123058,Bandar Utama,,,,,
BU 1059,,3059,60,5501123059,Bandar Utama,,,,,
BU 1060,,3060,60,5501123060,Bandar Utama,,,,,
BU 1061,,3061,60,5501123061,Bandar Utama,,,,,
BU 1062,,3062,60,5501123062,Bandar Utama,,,,,
BU 1063,,3063,60,5501123063,Bandar Utama,,,,,
BU 1064,,3064,60,5501123064,Bandar Utama,,,,,
BU 1065,,3065,60,5501123065,Bandar Utama,,,,,
BU 1066,,3066,60,5501123066,Bandar Utama,,,,,
BU 1067,,3067,60,5501123067,Bandar Utama,,,,,
BU 1068,,3068,60,5501123068,Bandar Utama,,,,,
BU 1069,,3069,60,5501123069,Bandar Utama,,,,,
BU 1070,,3070,60,5501123070,Bandar Utama,,,,,
BU 1071,,3071,60,5501123071,Bandar Utama,,,,,
BU 1072,,3072,60,5501123072,Bandar Utama,,,,,
BU 1073,,3073,60,5501123073,Bandar Utama,,,,,
BU 1074,,3074,60,5501123074,Bandar Utama,,,,,
BU 1075,,3075,60,5501123075,Bandar Utama,,,,,
BU 1076,,3076,60,5501123076,Bandar Utama,,,,,
BU 1077,,3077,60,5501123077,Bandar Utama,,,,,
BU 1078,,3078,60,5501123078,Bandar Utama,,,,,
BU 1079,,3079,60,5501123079,Bandar Utama,,,,,
BU 1080,,3080,60,5501123080,Bandar Utama,,,,,
BU 1081,,3081,60,5501123081,Bandar Utama,,,,,
BU 1082,,3082,60,5501123082,Bandar Utama,,,,,
BU 1083,,3083,60,5501123083,Bandar Utama,,,,,
BU 1084,,3084,60,5501123084,Bandar Utama,,,,,
BU 1085,,3085,60,5501123085,Bandar Utama,,,,,
BU 1086,,3086,60,5501123086,Bandar Utama,,,,,
BU 1087,,3087,60,5501123087,Bandar Utama,,,,,
BU 1088,,3088,60,5501123088,Bandar Utama,,,,,
BU 1089,,3089,60,5501123089,Bandar Utama,,,,,
BU 1090,,3090,60,5501123090,Bandar Utama,,,,,
BU 1091,,3091,60,5501123091,Bandar Utama,,,,,
BU 1092,,3092,60,5501123092,Bandar Utama,,,,,
BU 1093,,3093,60,5501123093,Bandar Utama,,,,,
BU 1094,,3094,60,5501123094,Bandar Utama,,,,,
BU 1095,,3095,60,5501123095,Bandar Utama,,,,,
BU 1096,,3096,60,5501123096,Bandar Utama,,,,,
BU 1097,,3097,60,5501123097,Bandar Utama,,,,,
BU 1098,,3098,60,5501123098,Bandar Utama,,,,,
BU 1099,,3099,60,5501123099,Bandar Utama,,,,,
BU 1100,,3100,60,5501123100,Bandar Utama,,,,,
BU 1101,,3101,60,5501123101,Bandar Utama,,,,,
BU 1102,,3102,60,5501123102,Bandar Utama,,,,,
BU 1103,,3103,60,5501123103,Bandar Utama,,,,,
BU 1104,,3104,60,5501123104,Bandar Utama,,,,,
BU 1105,,3105,60,5501123105,Bandar Utama,,,,,
BU 1106,,3106,60,5501123106,Bandar Utama,,,,,
BU 1107,,3107,60,5501123107,Bandar Utama,,,,,
BU 1108,,3108,60,5501123108,Bandar Utama,,,,,
BU 1109,,3109,60,5501123109,Bandar Utama,,,,,
BU 1110,,3110,60,5501123110,Bandar Utama,,,,,
BU 1111,,3111,60,5501123111,Bandar Utama,,,,,
BU 1112,,3112,60,5501123112,Bandar Utama,,,,,
BU 1113,,3113,60,5501123113,Bandar Utama,,,,,
BU 1114,,3114,60,5501123114,Bandar Utama,,,,,
BU 1115,,3115,60,5501123115,Bandar Utama,,,,,
BU 1116,,3116,60,5501123116,Bandar Utama,,,,,
BU 1117,,3117,60,5501123117,Bandar Utama,,,,,
BU 1118,,3118,60,5501123118,Bandar Utama,,,,,
BU 1119,,3119,60,5501123119,Bandar Utama,,,,,
BU 1120,,3120,60,5501123120,Bandar Utama,,,,,
BU 1121,,3121,60,5501123121,Bandar Utama,,,,,
BU 1122,,3122,60,5501123122,Bandar Utama,,,,,
BU 1123,,3123,60,5501123123,Bandar Utama,,,,,
BU 1124,,3124,60,5501123124,Bandar Utama,,,,,
BU 1125,,3125,60,5501123125,Bandar Utama,,,,,
BU 1126,,3126,60,5501123126,Bandar Utama,,,,,
BU 1127,,3127,60,5501123127,Bandar Utama,,,,,
BU 1128,,3128,60,5501123128,Bandar Utama,,,,,
BU 1129,,3129,60,5501123129,Bandar Utama,,,,,
BU 1130,,3130,60,5501123130,Bandar Utama,,,,,
BU 1131,,3131,60,5501123131,Bandar Utama,,,,,
BU 1132,,3132,60,5501123132,Bandar Utama,,,,,
BU 1133,,3133,60,5501123133,Bandar Utama,,,,,
BU 1134,,3134,60,5501123134,Bandar Utama,,,,,
BU 1135,,3135,60,5501123135,Bandar Utama,,,,,
BU 1136,,3136,60,5501123136,Bandar Utama,,,,,
BU 1137,,3137,60,5501123137,Bandar Utama,,,,,
BU 1138,,3138,60,5501123138,Bandar Utama,,,,,
BU 1139,,3139,60,5501123139,Bandar Utama,,,,,
BU 1140,,3140,60,5501123140,Bandar Utama,,,,,
BU 1141,,3141,60,5501123141,Bandar Utama,,,,,
BU 1142,,3142,60,5501123142,Bandar Utama,,,,,
BU 1143,,3143,60,5501123143,Bandar Utama,,,,,
BU 1144,,3144,60,5501123144,Bandar Utama,,,,,
BU 1145,,3145,60,5501123145,Bandar Utama,,,,,
BU 1146,,3146,60,5501123146,Bandar Utama,,,,,
BU 1147,,3147,60,5501123147,Bandar Utama,,,,,
BU 1148,,3148,60,5501123148,Bandar Utama,,,,,
BU 1149,,3149,60,5501123149,Bandar Utama,,,,,
BU 1150,,3150,60,5501123150,Bandar Utama,,,,,
BU 1151,,3151,60,5501123151,Bandar Utama,,,,,
BU 1152,,3152,60,5501123152,Bandar Utama,,,,,
BU 1153,,3153,60,5501123153,Bandar Utama,,,,,
BU 1154,,3154,60,5501123154,Bandar Utama,,,,,
BU 1155,,3155,60,5501123155,Bandar Utama,,,,,
BU 1156,,3156,60,5501123156,Bandar Utama,,,,,
